<?xml version="1.0" encoding="UTF-8" standalone="no"?>
<svg
   xmlns:osb="http://www.openswatchbook.org/uri/2009/osb"
   xmlns:dc="http://purl.org/dc/elements/1.1/"
   xmlns:cc="http://creativecommons.org/ns#"
   xmlns:rdf="http://www.w3.org/1999/02/22-rdf-syntax-ns#"
   xmlns:svg="http://www.w3.org/2000/svg"
   xmlns="http://www.w3.org/2000/svg"
   xmlns:xlink="http://www.w3.org/1999/xlink"
   xmlns:sodipodi="http://sodipodi.sourceforge.net/DTD/sodipodi-0.dtd"
   xmlns:inkscape="http://www.inkscape.org/namespaces/inkscape"
   width="64"
   viewBox="0 0 64 64"
   height="64"
   id="svg2"
   version="1.1"
   inkscape:version="0.48.5 r10040"
   sodipodi:docname="application-x-bin.svg"
   inkscape:export-filename="E:\Usuarios\David\Desktop\android.png"
   inkscape:export-xdpi="90"
   inkscape:export-ydpi="90">
  <metadata
     id="metadata14">
    <rdf:RDF>
      <cc:Work
         rdf:about="">
        <dc:format>image/svg+xml</dc:format>
        <dc:type
           rdf:resource="http://purl.org/dc/dcmitype/StillImage" />
        <dc:title />
      </cc:Work>
    </rdf:RDF>
  </metadata>
  <defs
     id="defs12">
    <linearGradient
       osb:paint="gradient"
       id="linearGradient4207">
      <stop
         id="stop3371"
         offset="0"
         style="stop-color:#3498db;stop-opacity:1;" />
      <stop
         id="stop3373"
         offset="1"
         style="stop-color:#3498db;stop-opacity:0;" />
    </linearGradient>
    <linearGradient
       inkscape:collect="always"
       xlink:href="#linearGradient4422-6"
       id="linearGradient4182"
       x1="-74.929466"
       y1="52.199436"
       x2="-75.259552"
       y2="2.3564887"
       gradientUnits="userSpaceOnUse"
       gradientTransform="matrix(1.0749904,0,0,1.0292896,56.688954,-0.01528455)" />
    <linearGradient
       id="linearGradient4422-6">
      <stop
         id="stop4424-8"
         offset="0"
         style="stop-color:#4d5052;stop-opacity:1" />
      <stop
         id="stop4426-2"
         offset="1"
         style="stop-color:#6f7376;stop-opacity:1" />
    </linearGradient>
    <linearGradient
       inkscape:collect="always"
       xlink:href="#linearGradient4202"
       id="linearGradient4208"
       x1="15.37001"
       y1="29.237474"
       x2="14.990056"
       y2="0.73601341"
       gradientUnits="userSpaceOnUse" />
    <linearGradient
       inkscape:collect="always"
       id="linearGradient4202">
      <stop
         style="stop-color:#e6c02a;stop-opacity:1"
         offset="0"
         id="stop4204" />
      <stop
         style="stop-color:#000000;stop-opacity:0;"
         offset="1"
         id="stop4206" />
    </linearGradient>
    <linearGradient
       inkscape:collect="always"
       xlink:href="#linearGradient4202"
       id="linearGradient4297"
       gradientUnits="userSpaceOnUse"
       x1="15.37001"
       y1="29.237474"
       x2="14.990056"
       y2="0.73601341" />
    <linearGradient
       inkscape:collect="always"
       xlink:href="#linearGradient4202"
       id="linearGradient3055"
       gradientUnits="userSpaceOnUse"
       x1="15.37001"
       y1="29.237474"
       x2="14.990056"
       y2="0.73601341" />
    <linearGradient
       inkscape:collect="always"
       xlink:href="#linearGradient4202"
       id="linearGradient3057"
       gradientUnits="userSpaceOnUse"
       x1="15.37001"
       y1="29.237474"
       x2="14.990056"
       y2="0.73601341" />
    <linearGradient
       inkscape:collect="always"
       xlink:href="#linearGradient4202"
       id="linearGradient3077"
       gradientUnits="userSpaceOnUse"
       x1="15.37001"
       y1="29.237474"
       x2="14.990056"
       y2="0.73601341" />
    <linearGradient
       inkscape:collect="always"
       xlink:href="#linearGradient4202"
       id="linearGradient3079"
       gradientUnits="userSpaceOnUse"
       x1="15.37001"
       y1="29.237474"
       x2="14.990056"
       y2="0.73601341" />
    <linearGradient
       inkscape:collect="always"
       xlink:href="#linearGradient4202"
       id="linearGradient3098"
       gradientUnits="userSpaceOnUse"
       x1="15.37001"
       y1="29.237474"
       x2="14.990056"
       y2="0.73601341" />
    <linearGradient
       inkscape:collect="always"
       xlink:href="#linearGradient4202"
       id="linearGradient3100"
       gradientUnits="userSpaceOnUse"
       x1="15.37001"
       y1="29.237474"
       x2="14.990056"
       y2="0.73601341" />
    <linearGradient
       inkscape:collect="always"
       xlink:href="#linearGradient4202"
       id="linearGradient3118"
       gradientUnits="userSpaceOnUse"
       x1="15.37001"
       y1="29.237474"
       x2="14.990056"
       y2="0.73601341" />
    <linearGradient
       inkscape:collect="always"
       xlink:href="#linearGradient4202"
       id="linearGradient3120"
       gradientUnits="userSpaceOnUse"
       x1="15.37001"
       y1="29.237474"
       x2="14.990056"
       y2="0.73601341" />
    <linearGradient
       inkscape:collect="always"
       xlink:href="#linearGradient4202"
       id="linearGradient3137"
       gradientUnits="userSpaceOnUse"
       x1="15.37001"
       y1="29.237474"
       x2="14.990056"
       y2="0.73601341" />
    <linearGradient
       inkscape:collect="always"
       xlink:href="#linearGradient4202"
       id="linearGradient3139"
       gradientUnits="userSpaceOnUse"
       x1="15.37001"
       y1="29.237474"
       x2="14.990056"
       y2="0.73601341" />
    <linearGradient
       inkscape:collect="always"
       xlink:href="#linearGradient4202"
       id="linearGradient3155"
       gradientUnits="userSpaceOnUse"
       x1="15.37001"
       y1="29.237474"
       x2="14.990056"
       y2="0.73601341" />
    <linearGradient
       inkscape:collect="always"
       xlink:href="#linearGradient4202"
       id="linearGradient3157"
       gradientUnits="userSpaceOnUse"
       x1="15.37001"
       y1="29.237474"
       x2="14.990056"
       y2="0.73601341" />
    <linearGradient
       inkscape:collect="always"
       xlink:href="#linearGradient4202"
       id="linearGradient3172"
       gradientUnits="userSpaceOnUse"
       x1="15.37001"
       y1="29.237474"
       x2="14.990056"
       y2="0.73601341" />
    <linearGradient
       inkscape:collect="always"
       xlink:href="#linearGradient4202"
       id="linearGradient3174"
       gradientUnits="userSpaceOnUse"
       x1="15.37001"
       y1="29.237474"
       x2="14.990056"
       y2="0.73601341" />
    <linearGradient
       inkscape:collect="always"
       xlink:href="#linearGradient4202"
       id="linearGradient3188"
       gradientUnits="userSpaceOnUse"
       x1="15.37001"
       y1="29.237474"
       x2="14.990056"
       y2="0.73601341" />
    <linearGradient
       inkscape:collect="always"
       xlink:href="#linearGradient4202"
       id="linearGradient3190"
       gradientUnits="userSpaceOnUse"
       x1="15.37001"
       y1="29.237474"
       x2="14.990056"
       y2="0.73601341" />
    <linearGradient
       inkscape:collect="always"
       xlink:href="#linearGradient4202"
       id="linearGradient3203"
       gradientUnits="userSpaceOnUse"
       x1="15.37001"
       y1="29.237474"
       x2="14.990056"
       y2="0.73601341" />
    <linearGradient
       inkscape:collect="always"
       xlink:href="#linearGradient4202"
       id="linearGradient3205"
       gradientUnits="userSpaceOnUse"
       x1="15.37001"
       y1="29.237474"
       x2="14.990056"
       y2="0.73601341" />
    <linearGradient
       inkscape:collect="always"
       xlink:href="#linearGradient4202"
       id="linearGradient3217"
       gradientUnits="userSpaceOnUse"
       x1="15.37001"
       y1="29.237474"
       x2="14.990056"
       y2="0.73601341" />
    <linearGradient
       inkscape:collect="always"
       xlink:href="#linearGradient4202"
       id="linearGradient3219"
       gradientUnits="userSpaceOnUse"
       x1="15.37001"
       y1="29.237474"
       x2="14.990056"
       y2="0.73601341" />
    <linearGradient
       inkscape:collect="always"
       xlink:href="#linearGradient4202"
       id="linearGradient3229"
       gradientUnits="userSpaceOnUse"
       x1="15.37001"
       y1="29.237474"
       x2="14.990056"
       y2="0.73601341" />
    <linearGradient
       inkscape:collect="always"
       xlink:href="#linearGradient4202"
       id="linearGradient3231"
       gradientUnits="userSpaceOnUse"
       x1="15.37001"
       y1="29.237474"
       x2="14.990056"
       y2="0.73601341" />
    <linearGradient
       inkscape:collect="always"
       xlink:href="#linearGradient4202"
       id="linearGradient3240"
       gradientUnits="userSpaceOnUse"
       x1="15.37001"
       y1="29.237474"
       x2="14.990056"
       y2="0.73601341" />
    <linearGradient
       inkscape:collect="always"
       xlink:href="#linearGradient4202"
       id="linearGradient3242"
       gradientUnits="userSpaceOnUse"
       x1="15.37001"
       y1="29.237474"
       x2="14.990056"
       y2="0.73601341" />
    <linearGradient
       inkscape:collect="always"
       xlink:href="#linearGradient4202"
       id="linearGradient3250"
       gradientUnits="userSpaceOnUse"
       x1="15.37001"
       y1="29.237474"
       x2="14.990056"
       y2="0.73601341" />
    <linearGradient
       inkscape:collect="always"
       xlink:href="#linearGradient4202"
       id="linearGradient3252"
       gradientUnits="userSpaceOnUse"
       x1="15.37001"
       y1="29.237474"
       x2="14.990056"
       y2="0.73601341" />
    <linearGradient
       inkscape:collect="always"
       xlink:href="#linearGradient4202"
       id="linearGradient3258"
       gradientUnits="userSpaceOnUse"
       x1="15.37001"
       y1="29.237474"
       x2="14.990056"
       y2="0.73601341" />
    <linearGradient
       inkscape:collect="always"
       xlink:href="#linearGradient4202"
       id="linearGradient3260"
       gradientUnits="userSpaceOnUse"
       x1="15.37001"
       y1="29.237474"
       x2="14.990056"
       y2="0.73601341" />
    <radialGradient
       r="125.20509"
       id="radialGradient1930"
       fy="543.58929"
       fx="-287.61899"
       cy="598.36652"
       cx="-289.0914"
       gradientUnits="userSpaceOnUse">
      <stop
         id="stop3089"
         stop-opacity=".37241"
         offset="0" />
      <stop
         id="stop3091"
         stop-opacity=".11034"
         offset=".5" />
      <stop
         id="stop3093"
         stop-opacity="0"
         stop-color="#adadad"
         offset="1" />
    </radialGradient>
    <linearGradient
       y2="620.60645"
       y1="355.21704"
       x2="-33.544373"
       x1="-125.32077"
       id="linearGradient1616"
       gradientUnits="userSpaceOnUse">
      <stop
         id="stop3069"
         stop-color="#868686"
         offset="0" />
      <stop
         id="stop3071"
         stop-color="#f3f3f3"
         offset=".3935" />
      <stop
         id="stop3073"
         stop-color="#949494"
         offset=".4794" />
      <stop
         id="stop3075"
         stop-color="#d3d3d3"
         offset="1" />
    </linearGradient>
    <linearGradient
       y2="321.57651"
       y1="531.33655"
       x2="-86.53653"
       x1="-34.929626"
       id="linearGradient1848"
       gradientUnits="userSpaceOnUse">
      <stop
         id="stop3062"
         stop-opacity=".58621"
         offset="0" />
      <stop
         id="stop3064"
         stop-opacity=".31034"
         offset=".73635" />
      <stop
         id="stop3066"
         stop-opacity="0"
         stop-color="#5f5f5f"
         offset="1" />
    </linearGradient>
    <linearGradient
       y2="373.73932"
       y1="703.86316"
       xlink:href="#linearGradient1601"
       x2="339.08844"
       x1="268.70331"
       id="linearGradient1757"
       gradientTransform="scale(1.0187221,0.98162194)"
       gradientUnits="userSpaceOnUse" />
    <linearGradient
       id="linearGradient1601">
      <stop
         id="stop3057"
         stop-color="#fff"
         offset="0" />
      <stop
         id="stop3059"
         stop-opacity="0"
         stop-color="#fff"
         offset="1" />
    </linearGradient>
    <linearGradient
       y2="417.20343"
       y1="603.6568"
       xlink:href="#linearGradient1608"
       x2="-139.84282"
       x1="18.752768"
       id="linearGradient1855"
       gradientUnits="userSpaceOnUse" />
    <linearGradient
       id="linearGradient1608">
      <stop
         id="stop3052"
         stop-opacity=".45517"
         offset="0" />
      <stop
         id="stop3054"
         stop-opacity=".46207"
         stop-color="#fff"
         offset="1" />
    </linearGradient>
    <linearGradient
       y2="507.47122"
       y1="414.25131"
       xlink:href="#linearGradient1608"
       x2="-167.46582"
       id="linearGradient1604"
       x1="-167.46582"
       gradientUnits="userSpaceOnUse" />
    <linearGradient
       id="linearGradient3353">
      <stop
         id="stop3355"
         stop-opacity=".45517"
         offset="0" />
      <stop
         id="stop3357"
         stop-opacity=".46207"
         stop-color="#fff"
         offset="1" />
    </linearGradient>
    <linearGradient
       inkscape:collect="always"
       xlink:href="#linearGradient1601"
       id="linearGradient3197"
       x1="-118.47698"
       y1="566.04242"
       x2="-32.234211"
       y2="396.0394"
       gradientTransform="scale(0.98733404,1.0128284)"
       gradientUnits="userSpaceOnUse" />
    <linearGradient
       id="linearGradient3360">
      <stop
         id="stop3362"
         stop-color="#fff"
         offset="0" />
      <stop
         id="stop3364"
         stop-opacity="0"
         stop-color="#fff"
         offset="1" />
    </linearGradient>
    <linearGradient
       y2="398.14285"
       y1="254.8587"
       xlink:href="#linearGradient1601"
       x2="-87.624969"
       x1="-1.71802"
       id="linearGradient1607"
       gradientTransform="scale(0.90500847,1.104962)"
       gradientUnits="userSpaceOnUse" />
    <linearGradient
       id="linearGradient3367">
      <stop
         id="stop3369"
         stop-color="#fff"
         offset="0" />
      <stop
         id="stop3371-3"
         stop-opacity="0"
         stop-color="#fff"
         offset="1" />
    </linearGradient>
    <linearGradient
       y2="401.12167"
       y1="669.91565"
       xlink:href="#linearGradient1601"
       x2="-142.87115"
       x1="-345.6315"
       id="linearGradient1752"
       gradientTransform="scale(0.98733404,1.0128284)"
       gradientUnits="userSpaceOnUse" />
    <linearGradient
       id="linearGradient3374">
      <stop
         id="stop3376"
         stop-color="#fff"
         offset="0" />
      <stop
         id="stop3378"
         stop-opacity="0"
         stop-color="#fff"
         offset="1" />
    </linearGradient>
    <linearGradient
       y2="384.01334"
       y1="95.409111"
       xlink:href="#linearGradient1753"
       x2="-203.65021"
       x1="9.3146324"
       id="linearGradient1751"
       gradientTransform="scale(0.89419427,1.1183252)"
       gradientUnits="userSpaceOnUse" />
    <linearGradient
       id="linearGradient1753">
      <stop
         id="stop3047"
         stop-opacity=".4549"
         offset="0" />
      <stop
         id="stop3049"
         stop-opacity="0"
         offset="1" />
    </linearGradient>
    <linearGradient
       y2="396.0394"
       y1="566.04242"
       xlink:href="#linearGradient1601"
       x2="-32.234211"
       x1="-118.47698"
       id="linearGradient1738"
       gradientTransform="scale(0.98733404,1.0128284)"
       gradientUnits="userSpaceOnUse" />
    <linearGradient
       id="linearGradient3385">
      <stop
         id="stop3387"
         stop-color="#fff"
         offset="0" />
      <stop
         id="stop3389"
         stop-opacity="0"
         stop-color="#fff"
         offset="1" />
    </linearGradient>
    <linearGradient
       y2="396.49057"
       y1="220.76723"
       xlink:href="#linearGradient1753"
       x2="-83.902939"
       x1="52.677803"
       id="linearGradient1761"
       gradientTransform="scale(0.89419427,1.1183252)"
       gradientUnits="userSpaceOnUse" />
    <linearGradient
       id="linearGradient3392">
      <stop
         id="stop3394"
         stop-opacity=".4549"
         offset="0" />
      <stop
         id="stop3396"
         stop-opacity="0"
         offset="1" />
    </linearGradient>
    <linearGradient
       y2="397.45834"
       y1="572.91949"
       xlink:href="#linearGradient1601"
       x2="-156.8936"
       x1="-219.18004"
       id="linearGradient1731"
       gradientTransform="scale(0.98733404,1.0128284)"
       gradientUnits="userSpaceOnUse" />
    <linearGradient
       id="linearGradient3399">
      <stop
         id="stop3401"
         stop-color="#fff"
         offset="0" />
      <stop
         id="stop3403"
         stop-opacity="0"
         stop-color="#fff"
         offset="1" />
    </linearGradient>
    <linearGradient
       y2="436.55933"
       y1="380.68161"
       x2="-236.11104"
       x1="-197.63126"
       id="linearGradient848"
       gradientTransform="scale(0.89419427,1.1183252)"
       gradientUnits="userSpaceOnUse">
      <stop
         id="stop3042"
         stop-opacity="0"
         stop-color="#fff"
         offset="0" />
      <stop
         id="stop3044"
         stop-color="#fff"
         offset="1" />
    </linearGradient>
    <linearGradient
       y2="372.88214"
       y1="178.04964"
       xlink:href="#linearGradient1601"
       x2="-119.61207"
       x1="58.722961"
       id="linearGradient1863"
       gradientTransform="scale(0.89419427,1.1183252)"
       gradientUnits="userSpaceOnUse" />
    <linearGradient
       id="linearGradient3409">
      <stop
         id="stop3411"
         stop-color="#fff"
         offset="0" />
      <stop
         id="stop3413"
         stop-opacity="0"
         stop-color="#fff"
         offset="1" />
    </linearGradient>
    <linearGradient
       y2="383.42755"
       y1="238.45062"
       xlink:href="#linearGradient1601"
       x2="-212.71046"
       x1="-65.023155"
       id="linearGradient1865"
       gradientTransform="scale(0.89790212,1.1137071)"
       gradientUnits="userSpaceOnUse" />
    <linearGradient
       id="linearGradient3416">
      <stop
         id="stop3418"
         stop-color="#fff"
         offset="0" />
      <stop
         id="stop3420"
         stop-opacity="0"
         stop-color="#fff"
         offset="1" />
    </linearGradient>
  </defs>
  <sodipodi:namedview
     pagecolor="#747474"
     bordercolor="#666666"
     borderopacity="1"
     objecttolerance="10"
     gridtolerance="10"
     guidetolerance="10"
     inkscape:pageopacity="1"
     inkscape:pageshadow="2"
     inkscape:window-width="1366"
     inkscape:window-height="701"
     id="namedview10"
     showgrid="false"
     inkscape:zoom="21.086546"
     inkscape:cx="30.903822"
     inkscape:cy="43.187421"
     inkscape:window-x="0"
     inkscape:window-y="0"
     inkscape:window-maximized="1"
     inkscape:current-layer="g4186"
     inkscape:snap-bbox="true"
     inkscape:bbox-nodes="true"
     inkscape:object-nodes="true"
     borderlayer="false"
     showguides="true"
     inkscape:snap-nodes="true"
     inkscape:object-paths="false"
     inkscape:showpageshadow="false"
     showborder="true">
    <inkscape:grid
       type="xygrid"
       id="grid4160"
       visible="true" />
    <sodipodi:guide
       position="28.888657,63.404975"
       orientation="0,35.2"
       id="guide6108" />
    <sodipodi:guide
       position="54,55.679691"
       orientation="51.200004,0"
       id="guide6112" />
    <sodipodi:guide
       position="58.527669,62"
       orientation="0,1"
       id="guide6114"
       inkscape:label=""
       inkscape:color="rgb(0,0,255)" />
    <sodipodi:guide
       position="10,4"
       orientation="-56,0"
       id="guide6116" />
    <sodipodi:guide
       position="11,4"
       orientation="-2.8421709e-014,0"
       id="guide6118" />
    <sodipodi:guide
       position="12,62"
       orientation="0,35.2"
       id="guide6120" />
    <sodipodi:guide
       position="52,2"
       orientation="0,-40"
       id="guide6126" />
    <sodipodi:guide
       position="12,62"
       orientation="0,35.2"
       id="guide6138" />
    <sodipodi:guide
       position="55,3"
       orientation="0,-40"
       id="guide6156" />
    <sodipodi:guide
       position="53,4.3973202"
       orientation="-56,0"
       id="guide6158" />
    <sodipodi:guide
       position="61.031065,52.044073"
       orientation="0,22"
       id="guide4238" />
    <sodipodi:guide
       position="43,48"
       orientation="22,0"
       id="guide4240" />
    <sodipodi:guide
       position="54,27.631647"
       orientation="0,-22"
       id="guide4242" />
    <sodipodi:guide
       position="21,26"
       orientation="-22,0"
       id="guide4244" />
  </sodipodi:namedview>
  <g
     id="g4186"
     transform="translate(56.391766,-0.17677665)">
    <rect
       ry="2.5"
       y="1.6457753"
       x="-46.391766"
       height="52.831711"
       width="44"
       id="rect4174"
       style="opacity:1;fill:url(#linearGradient4182);fill-opacity:1.0;stroke:none;stroke-width:0.30000001;stroke-linecap:round;stroke-linejoin:round;stroke-miterlimit:4;stroke-dasharray:none;stroke-dashoffset:0;stroke-opacity:1" />
    <g
       id="g4203">
      <rect
         style="opacity:1;fill:#222425;fill-opacity:1;stroke:none;stroke-width:0.185;stroke-linecap:round;stroke-linejoin:round;stroke-miterlimit:4;stroke-dasharray:none;stroke-dashoffset:0;stroke-opacity:1"
         id="rect4162"
         width="44"
         height="7.6992903"
         x="-46.391766"
         y="54.477486"
         ry="2.5" />
      <rect
         style="fill:#222425;fill-opacity:1;stroke:none"
         id="rect4184"
         width="44"
         height="15"
         x="-46.391766"
         y="44.176304"
         ry="0" />
    </g>
    <text
       xml:space="preserve"
       style="font-style:normal;font-weight:normal;font-size:15px;line-height:125%;font-family:Sans;letter-spacing:0px;word-spacing:0px;fill:#ffffff;fill-opacity:1;stroke:none;stroke-width:1px;stroke-linecap:butt;stroke-linejoin:miter;stroke-opacity:1"
       x="-33.016033"
       y="58.768581"
       id="text4207"
       sodipodi:linespacing="125%"><tspan
         sodipodi:role="line"
         id="tspan4209"
         x="-33.016033"
         y="58.768581">cd</tspan></text>
    <g
       id="g3175"
       transform="matrix(0.08755811,0,0,0.08356895,-38.589601,10.788699)">
      <path
         id="path3095"
         transform="matrix(1.07099,0,0,0.1027,468.45989,239.45901)"
         d="m -163.88631,598.36652 a 125.20509,125.20509 0 1 0 -250.41018,0 125.20509,125.20509 0 1 0 250.41018,0 z"
         inkscape:connector-curvature="0"
         style="fill:url(#radialGradient1930);fill-rule:evenodd" />
      <path
         id="path3097"
         transform="matrix(1.09255,0,0,1.09255,296.51081,-371.32656)"
         d="m -122.3125,353.84375 c -71.78138,0 -130.0625,58.24988 -130.0625,130.03125 0,71.78137 58.28112,130.06252 130.0625,130.0625 71.78138,-2e-5 130.03125,-58.28111 130.03125,-130.0625 0,-71.78139 -58.24987,-130.03125 -130.03125,-130.03125 z m 0,89.3125 c 22.47584,10e-6 40.71875,18.24291 40.71875,40.71875 0,22.47584 -18.24291,40.71875 -40.71875,40.71875 -22.47584,0 -40.71875,-18.24291 -40.71875,-40.71875 0,-22.47584 18.24291,-40.71875 40.71875,-40.71875 z"
         inkscape:connector-curvature="0"
         style="fill:url(#linearGradient1616);fill-rule:evenodd;stroke:url(#linearGradient1848);stroke-width:1.27321994;stroke-opacity:0.58490996" />
      <path
         id="path3099"
         transform="matrix(0.78272,0,0,0.78272,-54.63372,-114.25708)"
         d="m 276.45327,182.08033 c -98.18285,0 -176.46043,66.71831 -176.46043,164.90115 0,98.18284 79.71715,177.90004 177.9,177.90001 98.18285,-3e-5 177.85726,-79.71714 177.85726,-177.90001 0,-98.18287 -81.11397,-164.90115 -179.29683,-164.90115 z m 1.43957,109.20588 c 30.74253,2e-5 55.69527,24.95274 55.69527,55.69527 0,30.74253 -24.95274,55.69527 -55.69527,55.69527 -30.74253,0 -55.69527,-24.95271 -55.69527,-55.69527 0,-30.74256 24.95272,-55.69527 55.69527,-55.69527 z"
         inkscape:connector-curvature="0"
         style="fill:url(#linearGradient1757);fill-rule:evenodd" />
      <path
         id="path3101"
         transform="matrix(1.09255,0,0,1.09255,296.51081,-371.32656)"
         d="m -122.3125,439.14609 c -24.68936,0 -44.72891,20.03956 -44.72891,44.72891 0,24.68935 20.03955,44.72889 44.72891,44.72891 24.68936,2e-5 44.72891,-20.03954 44.72891,-44.72891 0,-24.68937 -20.03955,-44.7289 -44.72891,-44.72891 z m -0.48059,23.4801 c 11.72744,-1e-5 21.24881,9.52137 21.24881,21.24881 0,11.72744 -9.52137,21.24881 -21.24881,21.24881 -11.72744,0 -21.2488,-9.52137 -21.2488,-21.24881 0,-11.72744 9.52136,-21.24881 21.2488,-21.24881 z"
         inkscape:connector-curvature="0"
         style="fill:url(#linearGradient1855);fill-rule:evenodd;stroke:url(#linearGradient1604);stroke-width:0.84881002" />
      <g
         id="g3103"
         transform="matrix(-1.08989,0.07617,-0.07617,-1.08989,65.06517,693.18369)">
        <path
           id="path3105"
           d="m -113.82264,438.8756 17.00021,-82.77583 c 23.46839,4.96614 69.00816,31.22144 81.55352,53.44119 l -71.03577,47.65734 c -0.4034,-4.09479 -18.43078,-17.15819 -27.51795,-18.3227 z"
           inkscape:connector-curvature="0"
           style="fill:url(#linearGradient3197);fill-rule:evenodd" />
        <path
           id="path3107"
           d="m -102.62544,442.43835 31.76016,-78.19516 c 13.79808,8.01992 29.78989,16.2109 41.03893,28.80805 l -59.53211,60.07535 c -2.94822,-3.07686 -8.25151,-7.74236 -13.26697,-10.68824 z"
           inkscape:connector-curvature="0"
           style="fill:url(#linearGradient1607);fill-rule:evenodd" />
        <g
           id="g3109"
           transform="matrix(-1,0,0,-1,-346.8483,969.1681)">
          <path
             id="path3111"
             d="m -214.82706,441.10234 17.00021,-82.77583 c 23.46839,4.96614 69.00816,31.22144 81.55352,53.44119 l -71.03577,47.65734 c -0.4034,-4.09479 -18.43079,-17.15819 -27.51796,-18.3227 z"
             inkscape:connector-curvature="0"
             style="fill:url(#linearGradient1752);fill-rule:evenodd" />
          <path
             id="path3113"
             d="m -203.62986,444.66509 31.76016,-78.19516 c 13.79808,8.01992 28.29106,17.47942 39.30953,30.53782 l -57.80271,58.34558 c -2.94822,-3.07686 -8.25151,-7.74236 -13.26698,-10.68824 z"
             inkscape:connector-curvature="0"
             style="fill:url(#linearGradient1751);fill-rule:evenodd" />
        </g>
      </g>
      <g
         id="g3115"
         transform="matrix(0.65062,0.87771,-0.87771,0.65062,666.53156,-49.77483)">
        <path
           id="path3117"
           d="m -113.82264,438.8756 17.00021,-82.77583 c 23.46839,4.96614 69.00816,31.22144 81.55352,53.44119 l -71.03577,47.65734 c -0.4034,-4.09479 -18.43078,-17.15819 -27.51795,-18.3227 z"
           inkscape:connector-curvature="0"
           style="fill:url(#linearGradient1738);fill-rule:evenodd" />
        <path
           id="path3119"
           d="m -102.62544,442.43835 31.76016,-78.19516 c 13.79808,8.01992 28.29106,16.02091 39.30953,29.07931 l -57.80271,59.80409 c -2.94822,-3.07686 -8.25151,-7.74236 -13.26697,-10.68824 z"
           inkscape:connector-curvature="0"
           style="fill:url(#linearGradient1761);fill-rule:evenodd" />
        <g
           id="g3121"
           transform="matrix(-1,0,0,-1,-346.8483,969.1681)">
          <path
             id="path3123"
             d="m -214.82706,441.10234 17.00021,-82.77583 c 23.46839,4.96614 69.00816,31.22144 81.55352,53.44119 l -71.03577,47.65734 c -0.4034,-4.09479 -18.43079,-17.15819 -27.51796,-18.3227 z"
             inkscape:connector-curvature="0"
             style="fill:url(#linearGradient1731);fill-rule:evenodd" />
          <path
             id="path3125"
             d="m -203.62986,444.66509 31.76016,-78.19516 c 13.79808,8.01992 28.29106,17.47942 39.30953,30.53782 l -57.80271,58.34558 c -2.94822,-3.07686 -8.25151,-7.74236 -13.26698,-10.68824 z"
             inkscape:connector-curvature="0"
             style="fill:url(#linearGradient848);fill-rule:evenodd" />
        </g>
      </g>
      <g
         id="g3127"
         transform="matrix(0.00506,1.09254,-1.09254,0.00506,691.04459,288.73961)">
        <path
           id="path3129"
           d="m -102.62544,442.43835 31.76016,-78.19516 c 13.79808,8.01992 28.29106,17.47942 39.30953,30.53782 l -57.80271,58.34558 c -2.94822,-3.07686 -8.25151,-7.74236 -13.26697,-10.68824 z"
           inkscape:connector-curvature="0"
           style="fill:url(#linearGradient1863);fill-rule:evenodd" />
        <g
           id="g3131"
           transform="matrix(-1,0,0,-1,-346.8483,969.1681)">
          <path
             id="path3133"
             d="m -203.62986,444.66509 30.66291,-77.47098 c 13.79808,8.01992 29.39507,15.29674 40.41354,28.35514 l -57.80947,59.80408 c -2.94822,-3.07686 -8.25151,-7.74236 -13.26698,-10.68824 z"
             inkscape:connector-curvature="0"
             style="fill:url(#linearGradient1865);fill-rule:evenodd" />
        </g>
      </g>
    </g>
  </g>
</svg>
