<?xml version="1.0" encoding="UTF-8" standalone="no"?>
<svg
   xmlns:osb="http://www.openswatchbook.org/uri/2009/osb"
   xmlns:dc="http://purl.org/dc/elements/1.1/"
   xmlns:cc="http://creativecommons.org/ns#"
   xmlns:rdf="http://www.w3.org/1999/02/22-rdf-syntax-ns#"
   xmlns:svg="http://www.w3.org/2000/svg"
   xmlns="http://www.w3.org/2000/svg"
   xmlns:xlink="http://www.w3.org/1999/xlink"
   xmlns:sodipodi="http://sodipodi.sourceforge.net/DTD/sodipodi-0.dtd"
   xmlns:inkscape="http://www.inkscape.org/namespaces/inkscape"
   width="64"
   viewBox="0 0 64 64"
   height="64"
   id="svg2"
   version="1.1"
   inkscape:version="0.91 r13725"
   sodipodi:docname="application-apk.svg"
   inkscape:export-filename="E:\Usuarios\David\Desktop\android.png"
   inkscape:export-xdpi="90"
   inkscape:export-ydpi="90">
  <metadata
     id="metadata14">
    <rdf:RDF>
      <cc:Work
         rdf:about="">
        <dc:format>image/svg+xml</dc:format>
        <dc:type
           rdf:resource="http://purl.org/dc/dcmitype/StillImage" />
        <dc:title />
      </cc:Work>
    </rdf:RDF>
  </metadata>
  <defs
     id="defs12">
    <linearGradient
       osb:paint="gradient"
       id="linearGradient4207">
      <stop
         id="stop3371"
         offset="0"
         style="stop-color:#3498db;stop-opacity:1;" />
      <stop
         id="stop3373"
         offset="1"
         style="stop-color:#3498db;stop-opacity:0;" />
    </linearGradient>
    <linearGradient
       inkscape:collect="always"
       xlink:href="#linearGradient6789"
       id="linearGradient4182"
       x1="-74.929466"
       y1="52.199436"
       x2="-75.259552"
       y2="2.3564887"
       gradientUnits="userSpaceOnUse"
       gradientTransform="matrix(1.0749904,0,0,1.0292896,56.688954,-0.01528455)" />
    <linearGradient
       id="linearGradient6789"
       inkscape:collect="always">
      <stop
         id="stop6791"
         offset="0"
         style="stop-color:#4dbf03;stop-opacity:1" />
      <stop
         id="stop6793"
         offset="1"
         style="stop-color:#8cff58;stop-opacity:1" />
    </linearGradient>
  </defs>
  <sodipodi:namedview
     pagecolor="#747474"
     bordercolor="#666666"
     borderopacity="1"
     objecttolerance="10"
     gridtolerance="10"
     guidetolerance="10"
     inkscape:pageopacity="1"
     inkscape:pageshadow="2"
     inkscape:window-width="1366"
     inkscape:window-height="712"
     id="namedview10"
     showgrid="false"
     inkscape:zoom="7.4552197"
     inkscape:cx="43.762022"
     inkscape:cy="28.707785"
     inkscape:window-x="0"
     inkscape:window-y="0"
     inkscape:window-maximized="1"
     inkscape:current-layer="g4186"
     inkscape:snap-bbox="true"
     inkscape:bbox-nodes="true"
     inkscape:object-nodes="true"
     borderlayer="false"
     showguides="true"
     inkscape:snap-nodes="true"
     inkscape:object-paths="false"
     inkscape:showpageshadow="false"
     showborder="true">
    <inkscape:grid
       type="xygrid"
       id="grid4160"
       visible="true" />
    <sodipodi:guide
       position="28.888657,63.404975"
       orientation="0,35.2"
       id="guide6108" />
    <sodipodi:guide
       position="54,55.679691"
       orientation="51.200004,0"
       id="guide6112" />
    <sodipodi:guide
       position="58.527669,62"
       orientation="0,1"
       id="guide6114"
       inkscape:label=""
       inkscape:color="rgb(0,0,255)" />
    <sodipodi:guide
       position="10,4"
       orientation="-56,0"
       id="guide6116" />
    <sodipodi:guide
       position="11,4"
       orientation="-2.8421709e-014,0"
       id="guide6118" />
    <sodipodi:guide
       position="12,62"
       orientation="0,35.2"
       id="guide6120" />
    <sodipodi:guide
       position="52,2"
       orientation="0,-40"
       id="guide6126" />
    <sodipodi:guide
       position="12,62"
       orientation="0,35.2"
       id="guide6138" />
    <sodipodi:guide
       position="55,3"
       orientation="0,-40"
       id="guide6156" />
    <sodipodi:guide
       position="53,4.3973202"
       orientation="-56,0"
       id="guide6158" />
    <sodipodi:guide
       position="56.604636,47.081107"
       orientation="0,22"
       id="guide4238" />
    <sodipodi:guide
       position="43,48"
       orientation="22,0"
       id="guide4240" />
    <sodipodi:guide
       position="54,32.594613"
       orientation="0,-22"
       id="guide4242" />
    <sodipodi:guide
       position="21,26"
       orientation="-22,0"
       id="guide4244" />
  </sodipodi:namedview>
  <g
     id="g4186"
     transform="translate(56.391766,-0.17677665)">
    <rect
       ry="2.5"
       y="1.6457753"
       x="-46.391766"
       height="52.831711"
       width="44"
       id="rect4174"
       style="opacity:1;fill:url(#linearGradient4182);fill-opacity:1.0;stroke:none;stroke-width:0.30000001;stroke-linecap:round;stroke-linejoin:round;stroke-miterlimit:4;stroke-dasharray:none;stroke-dashoffset:0;stroke-opacity:1" />
    <g
       id="g4181">
      <rect
         style="opacity:1;fill:#245705;fill-opacity:1;stroke:none;stroke-width:0.185;stroke-linecap:round;stroke-linejoin:round;stroke-miterlimit:4;stroke-dasharray:none;stroke-dashoffset:0;stroke-opacity:1"
         id="rect4162"
         width="44"
         height="7.6992903"
         x="-46.391766"
         y="54.477486"
         ry="2.5" />
      <rect
         style="fill:#255706;fill-opacity:1;stroke:none"
         id="rect4184"
         width="44"
         height="15"
         x="-46.391766"
         y="44.176304"
         ry="0" />
    </g>
    <g
       inkscape:transform-center-y="-9.4924686"
       inkscape:transform-center-x="5.4653607"
       inkscape:label="Capa 1"
       id="layer1"
       transform="translate(-403.59798,-515.16163)"
       style="fill:#ffffff">
      <g
         id="layer1-3"
         inkscape:label="Capa 1"
         transform="translate(0.41988239,0.03484499)"
         style="fill:#ffffff">
        <g
           transform="matrix(0.07283084,0,0,0.07283084,318.77304,536.27833)"
           id="g3"
           style="fill:#ffffff">
          <g
             id="g5"
             style="fill:#ffffff">
            <g
               style="opacity:1;fill:#ffffff;fill-opacity:1"
               transform="matrix(1.2711068,0,0,1.2711068,502.95006,-55.689282)"
               id="g7">
              <path
                 inkscape:connector-curvature="0"
                 id="path13"
                 d="m 322.041,43.983 23.491,-36.26 c 1.51,-2.287 0.841,-5.414 -1.467,-6.903 -2.286,-1.51 -5.414,-0.884 -6.903,1.467 l -24.353,37.512 c -18.27,-7.485 -38.676,-11.691 -60.226,-11.691 -21.571,0 -41.934,4.206 -60.247,11.691 L 168.026,2.287 c -1.488,-2.351 -4.638,-2.977 -6.946,-1.467 -2.308,1.488 -2.977,4.616 -1.467,6.903 l 23.512,36.26 c -42.387,20.773 -70.968,59.924 -70.968,104.834 0,2.761 0.173,5.479 0.41,8.175 l 280.053,0 c 0.237,-2.696 0.388,-5.414 0.388,-8.175 0.001,-44.91 -28.602,-84.061 -70.967,-104.834 z m -134.386,64.928 c -7.442,0 -13.482,-5.997 -13.482,-13.46 0,-7.463 6.04,-13.439 13.482,-13.439 7.485,0 13.482,5.975 13.482,13.439 0,7.464 -6.04,13.46 -13.482,13.46 z m 129.835,0 c -7.442,0 -13.482,-5.997 -13.482,-13.46 0,-7.463 6.04,-13.439 13.482,-13.439 7.463,0 13.46,5.975 13.46,13.439 0,7.463 -5.997,13.46 -13.46,13.46 z"
                 style="fill:#ffffff;fill-opacity:1" />
            </g>
          </g>
          <g
             id="g17"
             style="fill:#ffffff" />
          <g
             id="g19"
             style="fill:#ffffff" />
          <g
             id="g21"
             style="fill:#ffffff" />
          <g
             id="g23"
             style="fill:#ffffff" />
          <g
             id="g25"
             style="fill:#ffffff" />
          <g
             id="g27"
             style="fill:#ffffff" />
          <g
             id="g29"
             style="fill:#ffffff" />
          <g
             id="g31"
             style="fill:#ffffff" />
          <g
             id="g33"
             style="fill:#ffffff" />
          <g
             id="g35"
             style="fill:#ffffff" />
          <g
             id="g37"
             style="fill:#ffffff" />
          <g
             id="g39"
             style="fill:#ffffff" />
          <g
             id="g41"
             style="fill:#ffffff" />
          <g
             id="g43"
             style="fill:#ffffff" />
          <g
             id="g45"
             style="fill:#ffffff" />
        </g>
      </g>
    </g>
    <text
       xml:space="preserve"
       style="font-style:normal;font-weight:normal;font-size:13px;line-height:125%;font-family:Sans;letter-spacing:0px;word-spacing:0px;fill:#000000;fill-opacity:1;stroke:none"
       x="-36.639568"
       y="56.762966"
       id="text3033"
       sodipodi:linespacing="125%"><tspan
         sodipodi:role="line"
         id="tspan3035"
         x="-36.639568"
         y="56.762966"
         style="fill:#ffffff">apk</tspan></text>
  </g>
</svg>
