<?xml version="1.0" encoding="UTF-8" standalone="no"?>
<svg
   xmlns:osb="http://www.openswatchbook.org/uri/2009/osb"
   xmlns:dc="http://purl.org/dc/elements/1.1/"
   xmlns:cc="http://creativecommons.org/ns#"
   xmlns:rdf="http://www.w3.org/1999/02/22-rdf-syntax-ns#"
   xmlns:svg="http://www.w3.org/2000/svg"
   xmlns="http://www.w3.org/2000/svg"
   xmlns:xlink="http://www.w3.org/1999/xlink"
   xmlns:sodipodi="http://sodipodi.sourceforge.net/DTD/sodipodi-0.dtd"
   xmlns:inkscape="http://www.inkscape.org/namespaces/inkscape"
   width="64"
   viewBox="0 0 64 64"
   height="64"
   id="svg2"
   version="1.1"
   inkscape:version="0.48.5 r10040"
   sodipodi:docname="application-vnd.ms-excel.template.macroenabled.12.svg"
   inkscape:export-filename="E:\Usuarios\David\Desktop\android.png"
   inkscape:export-xdpi="90"
   inkscape:export-ydpi="90">
  <metadata
     id="metadata14">
    <rdf:RDF>
      <cc:Work
         rdf:about="">
        <dc:format>image/svg+xml</dc:format>
        <dc:type
           rdf:resource="http://purl.org/dc/dcmitype/StillImage" />
        <dc:title />
      </cc:Work>
    </rdf:RDF>
  </metadata>
  <defs
     id="defs12">
    <linearGradient
       osb:paint="gradient"
       id="linearGradient4207">
      <stop
         id="stop3371"
         offset="0"
         style="stop-color:#3498db;stop-opacity:1;" />
      <stop
         id="stop3373"
         offset="1"
         style="stop-color:#3498db;stop-opacity:0;" />
    </linearGradient>
    <linearGradient
       inkscape:collect="always"
       xlink:href="#linearGradient4531"
       id="linearGradient4182"
       x1="-74.929466"
       y1="52.199436"
       x2="-75.259552"
       y2="2.3564887"
       gradientUnits="userSpaceOnUse"
       gradientTransform="matrix(1.0749904,0,0,1.0292896,56.688954,-0.01528455)" />
    <linearGradient
       id="linearGradient4422-1">
      <stop
         id="stop4424-78"
         offset="0"
         style="stop-color:#8798a9;stop-opacity:1" />
      <stop
         id="stop4426-8"
         offset="1"
         style="stop-color:#aeb6be;stop-opacity:1" />
    </linearGradient>
    <linearGradient
       inkscape:collect="always"
       id="linearGradient4531">
      <stop
         style="stop-color:#32d746;stop-opacity:1"
         offset="0"
         id="stop4533" />
      <stop
         style="stop-color:#4ee27d;stop-opacity:1"
         offset="1"
         id="stop4535" />
    </linearGradient>
  </defs>
  <sodipodi:namedview
     pagecolor="#747474"
     bordercolor="#666666"
     borderopacity="1"
     objecttolerance="10"
     gridtolerance="10"
     guidetolerance="10"
     inkscape:pageopacity="1"
     inkscape:pageshadow="2"
     inkscape:window-width="1366"
     inkscape:window-height="701"
     id="namedview10"
     showgrid="false"
     inkscape:zoom="7.4552197"
     inkscape:cx="-15.517684"
     inkscape:cy="28.657108"
     inkscape:window-x="0"
     inkscape:window-y="0"
     inkscape:window-maximized="1"
     inkscape:current-layer="g4186"
     inkscape:snap-bbox="true"
     inkscape:bbox-nodes="true"
     inkscape:object-nodes="true"
     borderlayer="false"
     showguides="true"
     inkscape:snap-nodes="true"
     inkscape:object-paths="false"
     inkscape:showpageshadow="false"
     showborder="true">
    <inkscape:grid
       type="xygrid"
       id="grid4160"
       visible="true" />
    <sodipodi:guide
       position="28.888657,63.404975"
       orientation="0,35.2"
       id="guide6108" />
    <sodipodi:guide
       position="54,55.679691"
       orientation="51.200004,0"
       id="guide6112" />
    <sodipodi:guide
       position="58.527669,62"
       orientation="0,1"
       id="guide6114"
       inkscape:label=""
       inkscape:color="rgb(0,0,255)" />
    <sodipodi:guide
       position="10,4"
       orientation="-56,0"
       id="guide6116" />
    <sodipodi:guide
       position="11,4"
       orientation="-2.8421709e-014,0"
       id="guide6118" />
    <sodipodi:guide
       position="12,62"
       orientation="0,35.2"
       id="guide6120" />
    <sodipodi:guide
       position="52,2"
       orientation="0,-40"
       id="guide6126" />
    <sodipodi:guide
       position="12,62"
       orientation="0,35.2"
       id="guide6138" />
    <sodipodi:guide
       position="55,3"
       orientation="0,-40"
       id="guide6156" />
    <sodipodi:guide
       position="53,4.3973202"
       orientation="-56,0"
       id="guide6158" />
    <sodipodi:guide
       position="21,48"
       orientation="0,22"
       id="guide4238" />
    <sodipodi:guide
       position="43,48"
       orientation="22,0"
       id="guide4240" />
    <sodipodi:guide
       position="43,26"
       orientation="0,-22"
       id="guide4242" />
    <sodipodi:guide
       position="21,26"
       orientation="-22,0"
       id="guide4244" />
  </sodipodi:namedview>
  <g
     id="g4186"
     transform="translate(56.391766,-0.17677665)">
    <rect
       ry="2.5"
       y="54.477486"
       x="-46.391766"
       height="7.6992903"
       width="44"
       id="rect4162"
       style="opacity:1;fill:#175e22;fill-opacity:1;stroke:none;stroke-width:0.185;stroke-linecap:round;stroke-linejoin:round;stroke-miterlimit:4;stroke-dasharray:none;stroke-dashoffset:0;stroke-opacity:1" />
    <rect
       ry="2.5"
       y="1.6457753"
       x="-46.391766"
       height="52.831711"
       width="44"
       id="rect4174"
       style="opacity:1;fill:url(#linearGradient4182);fill-opacity:1.0;stroke:none;stroke-width:0.30000001;stroke-linecap:round;stroke-linejoin:round;stroke-miterlimit:4;stroke-dasharray:none;stroke-dashoffset:0;stroke-opacity:1" />
    <rect
       ry="0"
       y="44.176304"
       x="-46.391766"
       height="15"
       width="44"
       id="rect4184"
       style="fill:#175e21;fill-opacity:1;stroke:none" />
    <g
       inkscape:transform-center-y="-9.4924686"
       inkscape:transform-center-x="5.4653607"
       inkscape:label="Capa 1"
       id="layer1"
       transform="translate(-500.85463,-512.77299)"
       style="fill:#40dc61;fill-opacity:1">
      <g
         id="layer1-3"
         inkscape:label="Capa 1"
         transform="translate(0.41988239,0.03484499)"
         style="fill:#40dc61;fill-opacity:1">
        <g
           inkscape:label="Capa 1"
           id="layer1-7"
           transform="translate(-37.074403,0.97032551)"
           style="fill:#40dc61;fill-opacity:1">
          <g
             id="g4231-5"
             transform="matrix(1.5263052,0,0,1.5263052,376.31698,-1040.1258)"
             style="fill:#40dc61;fill-opacity:1" />
        </g>
        <g
           style="fill:#40dc61;fill-opacity:1"
           transform="matrix(-7.3528065e-4,-0.8933959,1.2269177,-5.3540491e-4,-783.91318,538.6311)"
           id="g4400-5">
          <rect
             style="opacity:1;fill:#40dc61;fill-opacity:1;stroke:none;stroke-width:1.02600002;stroke-linecap:round;stroke-linejoin:round;stroke-miterlimit:4;stroke-dasharray:none;stroke-opacity:1"
             id="rect4315-4-5"
             width="5.2121005"
             height="2.2304919"
             x="-7.6616564"
             y="1021.9603"
             rx="0"
             ry="0.31199998"
             transform="matrix(0.9999997,-7.6878319e-4,-3.3676924e-4,0.99999994,0,0)" />
          <rect
             style="opacity:1;fill:#40dc61;fill-opacity:1;stroke:none;stroke-width:1.02600002;stroke-linecap:round;stroke-linejoin:round;stroke-miterlimit:4;stroke-dasharray:none;stroke-opacity:1"
             id="rect4315-4-4-2-3"
             width="8.0264168"
             height="2.2304919"
             x="-7.7880254"
             y="1025.1064"
             rx="0"
             ry="0.31199998"
             transform="matrix(0.99999996,-2.8909269e-4,-1.9501793e-4,0.99999998,0,0)" />
          <rect
             style="opacity:1;fill:#40dc61;fill-opacity:1;stroke:none;stroke-width:1.02600002;stroke-linecap:round;stroke-linejoin:round;stroke-miterlimit:4;stroke-dasharray:none;stroke-opacity:1"
             id="rect4315-4-4-1-5"
             width="10.840734"
             height="2.2304921"
             x="-7.9572124"
             y="1028.3694"
             rx="0"
             ry="0.31200001"
             transform="matrix(1,-5.8462971e-5,-5.3266634e-5,1,0,0)" />
        </g>
      </g>
    </g>
    <g
       id="g3023">
      <path
         sodipodi:nodetypes="ccccccc"
         inkscape:connector-curvature="0"
         id="path4248"
         d="m -33.93127,37.873303 10.072458,0 -2.78e-4,-21.205167 -9.982945,2.6e-4 c -1.097776,-0.08137 -1.542948,0.01991 -1.542948,1.014542 l 0,19.121983 c -0.06895,1.091493 0.386228,1.068382 1.453713,1.068382 z"
         style="fill:#ffffff;fill-opacity:1;fill-rule:evenodd;stroke:none" />
      <path
         sodipodi:nodetypes="ccccccccc"
         inkscape:connector-curvature="0"
         id="path4248-6"
         d="m -14.54528,37.866811 -4.572319,0 -2.344347,-1.968062 0,-17.268783 1.606334,-1.968062 5.310332,0 c 0.734326,-0.08136 0.793415,0.01991 0.793415,1.014543 l 0,19.121982 c 0.04612,1.091493 -0.07936,1.068382 -0.793415,1.068382 z"
         style="fill:none;stroke:#ffffff;stroke-width:0.70259541;stroke-linecap:butt;stroke-linejoin:miter;stroke-miterlimit:4;stroke-opacity:1;stroke-dasharray:none" />
      <path
         sodipodi:nodetypes="ccccccc"
         inkscape:connector-curvature="0"
         id="path4248-6-0"
         d="m -16.278446,38.876767 -8.68138,-1.014024 -1.7e-5,-21.194607 8.608965,-0.807064 c 1.064789,-0.08136 1.122214,0.21172 1.122214,1.206355 l -0.07243,20.227498 c 0.06687,1.091492 0.05805,1.581842 -0.97735,1.581842 z"
         style="fill:#ffffff;fill-opacity:1;fill-rule:evenodd;stroke:none" />
      <g
         style="fill:#40dc61;fill-opacity:1"
         transform="translate(-500.85463,-512.77299)"
         id="layer1-36"
         inkscape:label="Capa 1"
         inkscape:transform-center-x="5.4653607"
         inkscape:transform-center-y="-9.4924686">
        <g
           style="fill:#40dc61;fill-opacity:1"
           transform="translate(0.41988239,0.03484499)"
           inkscape:label="Capa 1"
           id="layer1-3-7">
          <g
             style="fill:#40dc61;fill-opacity:1"
             transform="translate(-37.074403,0.97032551)"
             id="layer1-7-5"
             inkscape:label="Capa 1">
            <g
               style="fill:#40dc61;fill-opacity:1"
               transform="matrix(1.5263052,0,0,1.5263052,376.31698,-1040.1258)"
               id="g4231-5-3" />
          </g>
          <g
             id="g4400-5-5"
             transform="matrix(-7.3528065e-4,-0.8933959,1.2269177,-5.3540491e-4,-783.91318,538.6311)"
             style="fill:#40dc61;fill-opacity:1">
            <rect
               transform="matrix(0.9999997,-7.6878319e-4,-3.3676924e-4,0.99999994,0,0)"
               ry="0.31199998"
               rx="0"
               y="1021.9603"
               x="-7.6616564"
               height="2.2304919"
               width="5.2121005"
               id="rect4315-4-5-6"
               style="fill:#40dc61;fill-opacity:1;stroke:none" />
            <rect
               transform="matrix(0.99999996,-2.8909269e-4,-1.9501793e-4,0.99999998,0,0)"
               ry="0.31199998"
               rx="0"
               y="1025.1064"
               x="-7.7880254"
               height="2.2304919"
               width="8.0264168"
               id="rect4315-4-4-2-3-2"
               style="fill:#40dc61;fill-opacity:1;stroke:none" />
            <rect
               transform="matrix(1,-5.8462971e-5,-5.3266634e-5,1,0,0)"
               ry="0.31200001"
               rx="0"
               y="1028.3694"
               x="-7.9572124"
               height="2.2304921"
               width="10.840734"
               id="rect4315-4-4-1-5-9"
               style="fill:#40dc61;fill-opacity:1;stroke:none" />
          </g>
        </g>
      </g>
      <text
         sodipodi:linespacing="125%"
         id="text3850"
         y="56.933529"
         x="-33.454815"
         style="font-size:13px;font-style:normal;font-weight:normal;line-height:125%;letter-spacing:0px;word-spacing:0px;fill:#000000;fill-opacity:1;stroke:none;font-family:Sans"
         xml:space="preserve"><tspan
           style="font-size:13px;fill:#ffffff"
           y="56.933529"
           x="-33.454815"
           id="tspan3852"
           sodipodi:role="line">xls</tspan></text>
    </g>
  </g>
</svg>
