<?xml version="1.0" encoding="UTF-8" standalone="no"?>
<svg
   xmlns:osb="http://www.openswatchbook.org/uri/2009/osb"
   xmlns:dc="http://purl.org/dc/elements/1.1/"
   xmlns:cc="http://creativecommons.org/ns#"
   xmlns:rdf="http://www.w3.org/1999/02/22-rdf-syntax-ns#"
   xmlns:svg="http://www.w3.org/2000/svg"
   xmlns="http://www.w3.org/2000/svg"
   xmlns:xlink="http://www.w3.org/1999/xlink"
   xmlns:sodipodi="http://sodipodi.sourceforge.net/DTD/sodipodi-0.dtd"
   xmlns:inkscape="http://www.inkscape.org/namespaces/inkscape"
   width="64"
   viewBox="0 0 64 64"
   height="64"
   id="svg2"
   version="1.1"
   inkscape:version="0.91 r13725"
   sodipodi:docname="application-xml.svg"
   inkscape:export-filename="E:\Usuarios\David\Desktop\android.png"
   inkscape:export-xdpi="90"
   inkscape:export-ydpi="90">
  <metadata
     id="metadata14">
    <rdf:RDF>
      <cc:Work
         rdf:about="">
        <dc:format>image/svg+xml</dc:format>
        <dc:type
           rdf:resource="http://purl.org/dc/dcmitype/StillImage" />
        <dc:title />
      </cc:Work>
    </rdf:RDF>
  </metadata>
  <defs
     id="defs12">
    <linearGradient
       osb:paint="gradient"
       id="linearGradient4207">
      <stop
         id="stop3371"
         offset="0"
         style="stop-color:#3498db;stop-opacity:1;" />
      <stop
         id="stop3373"
         offset="1"
         style="stop-color:#3498db;stop-opacity:0;" />
    </linearGradient>
    <linearGradient
       inkscape:collect="always"
       xlink:href="#linearGradient4531-8"
       id="linearGradient4182"
       x1="-74.929466"
       y1="52.199436"
       x2="-75.259552"
       y2="2.3564887"
       gradientUnits="userSpaceOnUse"
       gradientTransform="matrix(1.0749904,0,0,1.0292896,56.688954,-0.01528455)" />
    <linearGradient
       id="linearGradient4422-1">
      <stop
         id="stop4424-78"
         offset="0"
         style="stop-color:#8798a9;stop-opacity:1" />
      <stop
         id="stop4426-8"
         offset="1"
         style="stop-color:#aeb6be;stop-opacity:1" />
    </linearGradient>
    <linearGradient
       id="linearGradient4351">
      <stop
         style="stop-color:#ffd6af;stop-opacity:1"
         offset="0"
         id="stop4353" />
      <stop
         style="stop-color:#fffcf9;stop-opacity:1"
         offset="1"
         id="stop4355" />
    </linearGradient>
    <linearGradient
       id="linearGradient4300">
      <stop
         style="stop-color:#f62459;stop-opacity:1"
         offset="0"
         id="stop4302" />
      <stop
         style="stop-color:#f73768;stop-opacity:1"
         offset="1"
         id="stop4304" />
    </linearGradient>
    <linearGradient
       id="linearGradient4422">
      <stop
         id="stop4424"
         offset="0"
         style="stop-color:#1a85f2;stop-opacity:1" />
      <stop
         id="stop4426"
         offset="1"
         style="stop-color:#1fb0f9;stop-opacity:1" />
    </linearGradient>
    <linearGradient
       id="linearGradient4256">
      <stop
         style="stop-color:#8cbdf8;stop-opacity:1;"
         offset="0"
         id="stop4258" />
      <stop
         style="stop-color:#d5e8ff;stop-opacity:1;"
         offset="1"
         id="stop4260" />
    </linearGradient>
    <linearGradient
       id="linearGradient4300-2">
      <stop
         style="stop-color:#3a539b;stop-opacity:1"
         offset="0"
         id="stop4302-4" />
      <stop
         style="stop-color:#3f5aa9;stop-opacity:1"
         offset="1"
         id="stop4304-1" />
    </linearGradient>
    <linearGradient
       id="linearGradient4422-4">
      <stop
         style="stop-color:#d1d7df;stop-opacity:1"
         offset="0"
         id="stop4424-3" />
      <stop
         style="stop-color:#e0e5e7;stop-opacity:1"
         offset="1"
         id="stop4426-4" />
    </linearGradient>
    <linearGradient
       id="linearGradient4422-41">
      <stop
         id="stop4424-2"
         offset="0"
         style="stop-color:#13b89f;stop-opacity:1" />
      <stop
         id="stop4426-43"
         offset="1"
         style="stop-color:#3aedca;stop-opacity:1" />
    </linearGradient>
    <linearGradient
       id="linearGradient4351-9">
      <stop
         style="stop-color:#fddda3;stop-opacity:1"
         offset="0"
         id="stop4353-1" />
      <stop
         style="stop-color:#fde3a7;stop-opacity:1"
         offset="1"
         id="stop4355-7" />
    </linearGradient>
    <linearGradient
       id="linearGradient4300-0">
      <stop
         style="stop-color:#f39c12;stop-opacity:1;"
         offset="0"
         id="stop4302-9" />
      <stop
         style="stop-color:#f89406;stop-opacity:1"
         offset="1"
         id="stop4304-7" />
    </linearGradient>
    <clipPath
       clipPathUnits="userSpaceOnUse"
       id="clipPath4157">
      <path
         d="m 27.642964,3.2951379 13.085584,13.0855841 -11.072418,0 c -0.977824,0 -2.013166,-1.035372 -2.013166,-2.013167 l 0,-11.0724171 z"
         id="path4159"
         inkscape:connector-curvature="0"
         style="fill:#f9f8f2;fill-opacity:1;stroke-width:1.00658333" />
    </clipPath>
    <linearGradient
       id="linearGradient4422-3">
      <stop
         style="stop-color:#ff721a;stop-opacity:1"
         offset="0"
         id="stop4424-7" />
      <stop
         style="stop-color:#fbb521;stop-opacity:1"
         offset="1"
         id="stop4426-91" />
    </linearGradient>
    <linearGradient
       id="linearGradient8467">
      <stop
         id="stop8469"
         style="stop-color:#d3d3d3;stop-opacity:1"
         offset="0" />
      <stop
         id="stop8471"
         style="stop-color:#fcf9f9;stop-opacity:1"
         offset="1" />
    </linearGradient>
    <linearGradient
       id="linearGradient4300-3">
      <stop
         style="stop-color:#f39c12;stop-opacity:1;"
         offset="0"
         id="stop4302-0" />
      <stop
         style="stop-color:#f9a11f;stop-opacity:1"
         offset="1"
         id="stop4304-0" />
    </linearGradient>
    <linearGradient
       id="linearGradient4422-0">
      <stop
         style="stop-color:#ffa400;stop-opacity:1"
         offset="0"
         id="stop4424-8" />
      <stop
         style="stop-color:#ffdd00;stop-opacity:1"
         offset="1"
         id="stop4426-6" />
    </linearGradient>
    <linearGradient
       id="linearGradient4422-04">
      <stop
         style="stop-color:#db733d;stop-opacity:1"
         offset="0"
         id="stop4424-0" />
      <stop
         style="stop-color:#ff8f65;stop-opacity:1"
         offset="1"
         id="stop4426-9" />
    </linearGradient>
    <linearGradient
       id="linearGradient4422-4-7">
      <stop
         style="stop-color:#14b59e;stop-opacity:1"
         offset="0"
         id="stop4424-5" />
      <stop
         style="stop-color:#33d6b6;stop-opacity:1"
         offset="1"
         id="stop4426-7" />
    </linearGradient>
    <linearGradient
       id="linearGradient4351-3">
      <stop
         style="stop-color:#c8e3fe;stop-opacity:1"
         offset="0"
         id="stop4353-5" />
      <stop
         style="stop-color:#ffffff;stop-opacity:1"
         offset="1"
         id="stop4355-4" />
    </linearGradient>
    <linearGradient
       id="linearGradient4300-2-8">
      <stop
         id="stop4302-4-2"
         offset="0"
         style="stop-color:#7fcc74;stop-opacity:1" />
      <stop
         id="stop4304-1-2"
         offset="1"
         style="stop-color:#87d37c;stop-opacity:1" />
    </linearGradient>
    <linearGradient
       id="linearGradient4351-2">
      <stop
         style="stop-color:#036b53;stop-opacity:1"
         offset="0"
         id="stop4353-0" />
      <stop
         style="stop-color:#036b53;stop-opacity:1"
         offset="1"
         id="stop4355-48" />
    </linearGradient>
    <clipPath
       clipPathUnits="userSpaceOnUse"
       id="clipPath4157-0">
      <path
         d="m 27.642964,3.2951379 13.085584,13.0855841 -11.072418,0 c -0.977824,0 -2.013166,-1.035372 -2.013166,-2.013167 l 0,-11.0724171 z"
         id="path4159-9"
         inkscape:connector-curvature="0"
         style="fill:#f9f8f2;fill-opacity:1;stroke-width:1.00658333" />
    </clipPath>
    <linearGradient
       id="linearGradient4531-8"
       inkscape:collect="always">
      <stop
         id="stop4533-5"
         offset="0"
         style="stop-color:#1b92f4;stop-opacity:1" />
      <stop
         id="stop4535-9"
         offset="1"
         style="stop-color:#20b9fa;stop-opacity:1" />
    </linearGradient>
  </defs>
  <sodipodi:namedview
     pagecolor="#747474"
     bordercolor="#666666"
     borderopacity="1"
     objecttolerance="10"
     gridtolerance="10"
     guidetolerance="10"
     inkscape:pageopacity="1"
     inkscape:pageshadow="2"
     inkscape:window-width="1366"
     inkscape:window-height="712"
     id="namedview10"
     showgrid="false"
     inkscape:zoom="7.2347717"
     inkscape:cx="59.060423"
     inkscape:cy="30.440948"
     inkscape:window-x="0"
     inkscape:window-y="0"
     inkscape:window-maximized="1"
     inkscape:current-layer="g4186"
     inkscape:snap-bbox="true"
     inkscape:bbox-nodes="true"
     inkscape:object-nodes="true"
     borderlayer="false"
     showguides="true"
     inkscape:snap-nodes="true"
     inkscape:object-paths="false"
     inkscape:showpageshadow="false"
     showborder="true">
    <inkscape:grid
       type="xygrid"
       id="grid4160"
       visible="true" />
    <sodipodi:guide
       position="28.888657,63.404975"
       orientation="0,35.2"
       id="guide6108" />
    <sodipodi:guide
       position="54,55.679691"
       orientation="51.200004,0"
       id="guide6112" />
    <sodipodi:guide
       position="58.527669,62"
       orientation="0,1"
       id="guide6114"
       inkscape:label=""
       inkscape:color="rgb(0,0,255)" />
    <sodipodi:guide
       position="10,4"
       orientation="-56,0"
       id="guide6116" />
    <sodipodi:guide
       position="11,4"
       orientation="-2.8421709e-014,0"
       id="guide6118" />
    <sodipodi:guide
       position="12,62"
       orientation="0,35.2"
       id="guide6120" />
    <sodipodi:guide
       position="52,2"
       orientation="0,-40"
       id="guide6126" />
    <sodipodi:guide
       position="12,62"
       orientation="0,35.2"
       id="guide6138" />
    <sodipodi:guide
       position="55,3"
       orientation="0,-40"
       id="guide6156" />
    <sodipodi:guide
       position="53,4.3973202"
       orientation="-56,0"
       id="guide6158" />
    <sodipodi:guide
       position="61.646728,50.312576"
       orientation="0,22"
       id="guide4238" />
    <sodipodi:guide
       position="43,48"
       orientation="22,0"
       id="guide4240" />
    <sodipodi:guide
       position="61.923171,29.717593"
       orientation="0,-22"
       id="guide4242" />
    <sodipodi:guide
       position="21,26"
       orientation="-22,0"
       id="guide4244" />
  </sodipodi:namedview>
  <g
     id="g4186"
     transform="translate(56.391766,-0.17677665)">
    <rect
       ry="2.5"
       y="1.6457753"
       x="-46.391766"
       height="52.831711"
       width="44"
       id="rect4174"
       style="opacity:1;fill:url(#linearGradient4182);fill-opacity:1.0;stroke:none;stroke-width:0.30000001;stroke-linecap:round;stroke-linejoin:round;stroke-miterlimit:4;stroke-dasharray:none;stroke-dashoffset:0;stroke-opacity:1" />
    <g
       id="g4249">
      <rect
         style="opacity:1;fill:#0c426b;fill-opacity:1;stroke:none;stroke-width:0.185;stroke-linecap:round;stroke-linejoin:round;stroke-miterlimit:4;stroke-dasharray:none;stroke-dashoffset:0;stroke-opacity:1"
         id="rect4162"
         width="44"
         height="7.6992903"
         x="-46.391766"
         y="54.477486"
         ry="2.5" />
      <rect
         style="fill:#0c426b;fill-opacity:1;stroke:none"
         id="rect4184"
         width="44"
         height="15"
         x="-46.391766"
         y="44.176304"
         ry="0" />
    </g>
    <g
       transform="matrix(2.1557765,0,0,2.1557765,-41.960366,-2227.5111)"
       id="layer1-01"
       inkscape:label="Capa 1"
       style="fill:#ffffff;fill-opacity:1;stroke:#ffffff;stroke-width:0.27832198;stroke-miterlimit:4;stroke-dasharray:none;stroke-opacity:1">
      <g
         style="fill:#ffffff;fill-opacity:1;stroke:#ffffff;stroke-width:0.30741054;stroke-miterlimit:4;stroke-dasharray:none;stroke-opacity:1"
         inkscape:label="Capa 1"
         id="layer1-0-3"
         transform="matrix(0.90537551,0,0,0.90537551,-365.91682,562.06022)" />
      <g
         inkscape:label="Capa 1"
         id="layer1-00-2"
         transform="translate(-401.01229,510.63371)"
         style="fill:#ffffff;fill-opacity:1;stroke:#ffffff;stroke-width:0.27832198;stroke-miterlimit:4;stroke-dasharray:none;stroke-opacity:1">
        <g
           inkscape:label="Capa 1"
           id="layer1-4-7"
           transform="translate(5.05585,-5.251147)"
           style="fill:#ffffff;fill-opacity:1;stroke:#ffffff;stroke-width:0.27832198;stroke-miterlimit:4;stroke-dasharray:none;stroke-opacity:1">
          <g
             style="fill:#ffffff;fill-opacity:1;stroke:#ffffff;stroke-width:0.27832198;stroke-miterlimit:4;stroke-dasharray:none;stroke-opacity:1"
             inkscape:label="Capa 1"
             id="layer1-9-7"
             transform="translate(-11.317,5.8824915)">
            <g
               inkscape:label="Capa 1"
               id="layer1-79-5"
               transform="translate(1.8733025,-0.28410538)"
               style="fill:#ffffff;fill-opacity:1;stroke:#ffffff;stroke-width:0.27832198;stroke-miterlimit:4;stroke-dasharray:none;stroke-opacity:1">
              <g
                 inkscape:label="Capa 1"
                 id="layer1-2"
                 transform="translate(-2.0518724,-0.97858527)"
                 style="fill:#ffffff;fill-opacity:1;stroke:#ffffff;stroke-width:0.27832198;stroke-miterlimit:4;stroke-dasharray:none;stroke-opacity:1">
                <g
                   inkscape:label="Capa 1"
                   id="layer1-26"
                   transform="translate(0.22097092,0.44194173)"
                   style="fill:#ffffff;fill-opacity:1;stroke:#ffffff;stroke-width:0.27832198;stroke-miterlimit:4;stroke-dasharray:none;stroke-opacity:1">
                  <g
                     inkscape:label="Capa 1"
                     id="layer1-46"
                     transform="translate(1.3573925,-1.2626907)"
                     style="fill:#ffffff;fill-opacity:1;stroke:#ffffff;stroke-width:0.27832198;stroke-miterlimit:4;stroke-dasharray:none;stroke-opacity:1">
                    <g
                       inkscape:label="Capa 1"
                       id="layer1-21"
                       transform="translate(-0.41037448,-0.59977801)"
                       style="fill:#ffffff;fill-opacity:1;stroke:#ffffff;stroke-width:0.27832198;stroke-miterlimit:4;stroke-dasharray:none;stroke-opacity:1">
                      <g
                         id="g4187"
                         transform="matrix(0.7863692,0,0,0.78394543,92.594038,111.881)"
                         style="fill:#ffffff;fill-opacity:1;stroke:#ffffff;stroke-width:0.3544797;stroke-miterlimit:4;stroke-dasharray:none;stroke-opacity:1">
                        <g
                           inkscape:label="Capa 1"
                           id="layer1-3-9"
                           transform="matrix(1.2716673,0,0,1.275599,-114.25636,-140.42007)"
                           style="fill:#ffffff;fill-opacity:1;stroke:#ffffff;stroke-width:0.27832198;stroke-miterlimit:4;stroke-dasharray:none;stroke-opacity:1">
                          <g
                             transform="translate(-4.4509871,-1.8309048)"
                             id="layer1-73"
                             inkscape:label="Capa 1"
                             style="fill:#ffffff;fill-opacity:1;stroke:#ffffff;stroke-width:0.27832198;stroke-miterlimit:4;stroke-dasharray:none;stroke-opacity:1">
                            <g
                               transform="translate(2.9673242,4.7350927)"
                               id="layer1-8"
                               inkscape:label="Capa 1"
                               style="fill:#ffffff;fill-opacity:1;stroke:#ffffff;stroke-width:0.27832198;stroke-miterlimit:4;stroke-dasharray:none;stroke-opacity:1">
                              <g
                                 transform="translate(0.03156729,-1.894036)"
                                 id="layer1-25"
                                 inkscape:label="Capa 1"
                                 style="fill:#ffffff;fill-opacity:1;stroke:#ffffff;stroke-width:0.27832198;stroke-miterlimit:4;stroke-dasharray:none;stroke-opacity:1">
                                <g
                                   transform="matrix(0.65680573,0,0,0.6547813,150.0924,180.8595)"
                                   id="g4187-7"
                                   style="fill:#ffffff;fill-opacity:1;stroke:#ffffff;stroke-width:0.4244054;stroke-miterlimit:4;stroke-dasharray:none;stroke-opacity:1">
                                <g
                                   style="fill:#ffffff;fill-opacity:1;stroke:#ffffff;stroke-width:32.67615509;stroke-miterlimit:4;stroke-dasharray:none;stroke-opacity:1"
                                   transform="matrix(-0.0129682,0,0,0.01300829,459.28984,566.82853)"
                                   id="g10822-9-7-5">
                                <g
                                   style="fill:#ffffff;fill-opacity:1;stroke:#ffffff;stroke-width:4.64318943;stroke-miterlimit:4;stroke-dasharray:none;stroke-opacity:1"
                                   id="g5043-4"
                                   transform="matrix(-7.0732846,0,0,7.0017718,2712.2317,-7878.2911)">
                                <g
                                   style="fill:#ffffff;fill-opacity:1;stroke:#ffffff;stroke-width:33.13401413;stroke-miterlimit:4;stroke-dasharray:none;stroke-opacity:1"
                                   transform="matrix(-0.13942342,0,0,0.14084746,219.16983,1092.6814)"
                                   id="g10822-9-7-1">
                                <g
                                   style="fill:#ffffff;fill-opacity:1;stroke:#ffffff;stroke-width:4.70825005;stroke-miterlimit:4;stroke-dasharray:none;stroke-opacity:1"
                                   id="g5043-0"
                                   transform="matrix(-7.0732846,0,0,7.0017718,2712.2317,-7878.2911)">
                                <g
                                   transform="matrix(0.11770342,0,0,0.11770342,-131.56937,724.00624)"
                                   id="g6727-9"
                                   style="fill:#ffffff;fill-opacity:1;stroke:#ffffff;stroke-width:40.0009613;stroke-miterlimit:4;stroke-dasharray:none;stroke-opacity:1">
                                <g
                                   transform="matrix(10.351014,0,0,10.456734,-1416.3336,-1118.9606)"
                                   style="fill:#ffffff;fill-opacity:1;stroke:#ffffff;stroke-width:3.84486365;stroke-miterlimit:4;stroke-dasharray:none;stroke-opacity:1"
                                   id="g11424">
                                <path
                                   style="fill:#ffffff;fill-opacity:1;stroke:#ffffff;stroke-width:3.84486365;stroke-miterlimit:4;stroke-dasharray:none;stroke-opacity:1"
                                   inkscape:connector-curvature="0"
                                   d="m 129.532,225.558 c -0.133,-0.919 -0.625,-1.747 -1.368,-2.303 l -37.7,-28.193 37.7,-28.193 c 0.743,-0.556 1.235,-1.384 1.368,-2.303 0.132,-0.919 -0.105,-1.852 -0.662,-2.597 l -5.989,-8.008 c -1.159,-1.548 -3.351,-1.865 -4.899,-0.706 l -52.157,39.004 c -0.883,0.66 -1.404,1.699 -1.404,2.803 0,1.104 0.521,2.143 1.404,2.803 l 52.157,39.004 c 0.628,0.471 1.364,0.697 2.093,0.697 1.066,0 2.119,-0.484 2.806,-1.403 l 5.989,-8.008 c 0.556,-0.745 0.794,-1.678 0.662,-2.597 z"
                                   id="path11426" />
                                <path
                                   style="fill:#ffffff;fill-opacity:1;stroke:#ffffff;stroke-width:3.84486365;stroke-miterlimit:4;stroke-dasharray:none;stroke-opacity:1"
                                   inkscape:connector-curvature="0"
                                   d="m 259.766,192.259 -52.155,-39.004 c -1.548,-1.158 -3.74,-0.841 -4.898,0.706 l -5.989,8.008 c -0.556,0.744 -0.794,1.678 -0.662,2.597 0.133,0.918 0.624,1.747 1.368,2.303 l 37.699,28.193 -37.699,28.193 c -0.744,0.556 -1.235,1.385 -1.368,2.303 -0.132,0.919 0.105,1.853 0.662,2.597 l 5.989,8.008 c 0.688,0.919 1.74,1.403 2.806,1.403 0.729,0 1.464,-0.227 2.093,-0.697 l 52.155,-39.004 c 0.883,-0.66 1.404,-1.699 1.404,-2.803 0,-1.104 -0.522,-2.143 -1.405,-2.803 z"
                                   id="path11428" />
                                <path
                                   style="fill:#ffffff;fill-opacity:1;stroke:#ffffff;stroke-width:3.84486365;stroke-miterlimit:4;stroke-dasharray:none;stroke-opacity:1"
                                   inkscape:connector-curvature="0"
                                   d="m 196.264,132.436 -9.211,-3.895 c -0.854,-0.362 -1.818,-0.368 -2.679,-0.02 -0.86,0.349 -1.547,1.025 -1.908,1.88 l -55,130.084 c -0.753,1.78 0.08,3.834 1.861,4.587 l 9.211,3.895 c 0.435,0.185 0.899,0.276 1.363,0.276 0.447,0 0.894,-0.086 1.316,-0.257 0.86,-0.349 1.546,-1.025 1.908,-1.88 l 55,-130.084 c 0.752,-1.78 -0.081,-3.833 -1.861,-4.586 z"
                                   id="path11430" />
                                </g>
                                </g>
                                </g>
                                </g>
                                </g>
                                </g>
                                </g>
                              </g>
                            </g>
                          </g>
                        </g>
                      </g>
                    </g>
                  </g>
                </g>
              </g>
            </g>
          </g>
        </g>
      </g>
    </g>
    <text
       xml:space="preserve"
       style="font-style:normal;font-weight:normal;font-size:16.25px;line-height:125%;font-family:Sans;letter-spacing:0px;word-spacing:0px;fill:#ffffff;fill-opacity:1;stroke:none;stroke-width:1px;stroke-linecap:butt;stroke-linejoin:miter;stroke-opacity:1"
       x="-38.848553"
       y="59.349636"
       id="text4253"
       sodipodi:linespacing="125%"><tspan
         sodipodi:role="line"
         id="tspan4255"
         x="-38.848553"
         y="59.349636">xml</tspan></text>
  </g>
</svg>
