<?xml version="1.0" encoding="UTF-8" standalone="no"?>
<svg
   xmlns:osb="http://www.openswatchbook.org/uri/2009/osb"
   xmlns:dc="http://purl.org/dc/elements/1.1/"
   xmlns:cc="http://creativecommons.org/ns#"
   xmlns:rdf="http://www.w3.org/1999/02/22-rdf-syntax-ns#"
   xmlns:svg="http://www.w3.org/2000/svg"
   xmlns="http://www.w3.org/2000/svg"
   xmlns:xlink="http://www.w3.org/1999/xlink"
   xmlns:sodipodi="http://sodipodi.sourceforge.net/DTD/sodipodi-0.dtd"
   xmlns:inkscape="http://www.inkscape.org/namespaces/inkscape"
   width="64"
   viewBox="0 0 64 64"
   height="64"
   id="svg2"
   version="1.1"
   inkscape:version="0.48.5 r10040"
   sodipodi:docname="application-x-compress-tar.svg"
   inkscape:export-filename="E:\Usuarios\David\Desktop\android.png"
   inkscape:export-xdpi="90"
   inkscape:export-ydpi="90">
  <metadata
     id="metadata14">
    <rdf:RDF>
      <cc:Work
         rdf:about="">
        <dc:format>image/svg+xml</dc:format>
        <dc:type
           rdf:resource="http://purl.org/dc/dcmitype/StillImage" />
        <dc:title />
      </cc:Work>
    </rdf:RDF>
  </metadata>
  <defs
     id="defs12">
    <linearGradient
       osb:paint="gradient"
       id="linearGradient4207">
      <stop
         id="stop3371"
         offset="0"
         style="stop-color:#3498db;stop-opacity:1;" />
      <stop
         id="stop3373"
         offset="1"
         style="stop-color:#3498db;stop-opacity:0;" />
    </linearGradient>
    <linearGradient
       inkscape:collect="always"
       xlink:href="#linearGradient4422-8"
       id="linearGradient4182"
       x1="-74.929466"
       y1="52.199436"
       x2="-75.259552"
       y2="2.3564887"
       gradientUnits="userSpaceOnUse"
       gradientTransform="matrix(1.0749904,0,0,1.0292896,56.688954,-0.01528455)" />
    <linearGradient
       id="linearGradient4422-6">
      <stop
         id="stop4424-383"
         offset="0"
         style="stop-color:#fa883c;stop-opacity:1" />
      <stop
         id="stop4426-9"
         offset="1"
         style="stop-color:#ff923c;stop-opacity:1" />
    </linearGradient>
    <linearGradient
       id="linearGradient4422">
      <stop
         style="stop-color:#9f9ac1;stop-opacity:1"
         offset="0"
         id="stop4424" />
      <stop
         style="stop-color:#b8b2dc;stop-opacity:1"
         offset="1"
         id="stop4426" />
    </linearGradient>
    <linearGradient
       id="linearGradient4351">
      <stop
         style="stop-color:#ffd6af;stop-opacity:1"
         offset="0"
         id="stop4353" />
      <stop
         style="stop-color:#fffcf9;stop-opacity:1"
         offset="1"
         id="stop4355" />
    </linearGradient>
    <linearGradient
       id="linearGradient4300">
      <stop
         style="stop-color:#f62459;stop-opacity:1"
         offset="0"
         id="stop4302" />
      <stop
         style="stop-color:#f73768;stop-opacity:1"
         offset="1"
         id="stop4304" />
    </linearGradient>
    <linearGradient
       id="linearGradient4422-67">
      <stop
         id="stop4424-5"
         offset="0"
         style="stop-color:#1a85f2;stop-opacity:1" />
      <stop
         id="stop4426-44"
         offset="1"
         style="stop-color:#1fb0f9;stop-opacity:1" />
    </linearGradient>
    <linearGradient
       id="linearGradient4256">
      <stop
         style="stop-color:#8cbdf8;stop-opacity:1;"
         offset="0"
         id="stop4258" />
      <stop
         style="stop-color:#d5e8ff;stop-opacity:1;"
         offset="1"
         id="stop4260" />
    </linearGradient>
    <linearGradient
       id="linearGradient4300-2">
      <stop
         style="stop-color:#3a539b;stop-opacity:1"
         offset="0"
         id="stop4302-4" />
      <stop
         style="stop-color:#3f5aa9;stop-opacity:1"
         offset="1"
         id="stop4304-1" />
    </linearGradient>
    <linearGradient
       id="linearGradient4422-4">
      <stop
         style="stop-color:#d1d7df;stop-opacity:1"
         offset="0"
         id="stop4424-3" />
      <stop
         style="stop-color:#e0e5e7;stop-opacity:1"
         offset="1"
         id="stop4426-4" />
    </linearGradient>
    <linearGradient
       id="linearGradient4422-7">
      <stop
         id="stop4424-38"
         offset="0"
         style="stop-color:#e0494c;stop-opacity:1" />
      <stop
         id="stop4426-6"
         offset="1"
         style="stop-color:#ff705c;stop-opacity:1" />
    </linearGradient>
    <linearGradient
       id="linearGradient4422-3">
      <stop
         id="stop4424-4"
         offset="0"
         style="stop-color:#dc2b5b;stop-opacity:1" />
      <stop
         id="stop4426-0"
         offset="1"
         style="stop-color:#ff506a;stop-opacity:1" />
    </linearGradient>
    <linearGradient
       id="linearGradient4422-9">
      <stop
         id="stop4424-8"
         offset="0"
         style="stop-color:#f9b527;stop-opacity:1" />
      <stop
         id="stop4426-69"
         offset="1"
         style="stop-color:#ffd93b;stop-opacity:1" />
    </linearGradient>
    <linearGradient
       id="linearGradient4422-70">
      <stop
         id="stop4424-0"
         offset="0"
         style="stop-color:#e1651b;stop-opacity:1" />
      <stop
         id="stop4426-41"
         offset="1"
         style="stop-color:#ff8c27;stop-opacity:1" />
    </linearGradient>
    <linearGradient
       id="linearGradient4422-5">
      <stop
         id="stop4424-6"
         offset="0"
         style="stop-color:#f07c55;stop-opacity:1" />
      <stop
         id="stop4426-5"
         offset="1"
         style="stop-color:#ff8257;stop-opacity:1" />
    </linearGradient>
    <linearGradient
       id="linearGradient4422-8">
      <stop
         id="stop4424-04"
         offset="0"
         style="stop-color:#ecc952;stop-opacity:1" />
      <stop
         id="stop4426-65"
         offset="1"
         style="stop-color:#f5d66d;stop-opacity:1" />
    </linearGradient>
    <linearGradient
       id="linearGradient4422-0">
      <stop
         id="stop4424-1"
         offset="0"
         style="stop-color:#a04c9b;stop-opacity:1" />
      <stop
         id="stop4426-2"
         offset="1"
         style="stop-color:#d663cc;stop-opacity:1" />
    </linearGradient>
    <linearGradient
       id="linearGradient4422-6-2">
      <stop
         id="stop4424-8-7"
         offset="0"
         style="stop-color:#4d5052;stop-opacity:1" />
      <stop
         id="stop4426-2-0"
         offset="1"
         style="stop-color:#6f7376;stop-opacity:1" />
    </linearGradient>
    <linearGradient
       id="linearGradient4422-2">
      <stop
         id="stop4424-9"
         offset="0"
         style="stop-color:#f15f19;stop-opacity:1" />
      <stop
         id="stop4426-1"
         offset="1"
         style="stop-color:#fbb521;stop-opacity:1" />
    </linearGradient>
    <linearGradient
       gradientTransform="matrix(1.0749904,0,0,1.0292896,56.688954,-0.01528455)"
       gradientUnits="userSpaceOnUse"
       y2="2.3564887"
       x2="-75.259552"
       y1="52.199436"
       x1="-74.929466"
       id="linearGradient4182-6"
       xlink:href="#linearGradient4422-2"
       inkscape:collect="always" />
    <linearGradient
       id="linearGradient4207-5"
       osb:paint="gradient">
      <stop
         style="stop-color:#3498db;stop-opacity:1;"
         offset="0"
         id="stop3371-3" />
      <stop
         style="stop-color:#3498db;stop-opacity:0;"
         offset="1"
         id="stop3373-5" />
    </linearGradient>
    <linearGradient
       inkscape:collect="always"
       xlink:href="#linearGradient4422-2"
       id="linearGradient3163"
       gradientUnits="userSpaceOnUse"
       gradientTransform="matrix(1.0749904,0,0,1.0292896,113.08072,-0.1920612)"
       x1="-74.929466"
       y1="52.199436"
       x2="-75.259552"
       y2="2.3564887" />
  </defs>
  <sodipodi:namedview
     pagecolor="#747474"
     bordercolor="#666666"
     borderopacity="1"
     objecttolerance="10"
     gridtolerance="10"
     guidetolerance="10"
     inkscape:pageopacity="1"
     inkscape:pageshadow="2"
     inkscape:window-width="1366"
     inkscape:window-height="701"
     id="namedview10"
     showgrid="false"
     inkscape:zoom="8.0293422"
     inkscape:cx="29.045673"
     inkscape:cy="20.93272"
     inkscape:window-x="0"
     inkscape:window-y="0"
     inkscape:window-maximized="1"
     inkscape:current-layer="svg2"
     inkscape:snap-bbox="true"
     inkscape:bbox-nodes="true"
     inkscape:object-nodes="true"
     borderlayer="false"
     showguides="true"
     inkscape:snap-nodes="true"
     inkscape:object-paths="false"
     inkscape:showpageshadow="false"
     showborder="true"
     inkscape:guide-bbox="true">
    <inkscape:grid
       type="xygrid"
       id="grid4160"
       visible="true" />
    <sodipodi:guide
       position="28.888657,63.404975"
       orientation="0,35.2"
       id="guide6108" />
    <sodipodi:guide
       position="54,55.679691"
       orientation="51.200004,0"
       id="guide6112" />
    <sodipodi:guide
       position="58.527669,62"
       orientation="0,1"
       id="guide6114"
       inkscape:label=""
       inkscape:color="rgb(0,0,255)" />
    <sodipodi:guide
       position="10,4"
       orientation="-56,0"
       id="guide6116" />
    <sodipodi:guide
       position="11,4"
       orientation="-2.8421709e-014,0"
       id="guide6118" />
    <sodipodi:guide
       position="12,62"
       orientation="0,35.2"
       id="guide6120" />
    <sodipodi:guide
       position="52,2"
       orientation="0,-40"
       id="guide6126" />
    <sodipodi:guide
       position="12,62"
       orientation="0,35.2"
       id="guide6138" />
    <sodipodi:guide
       position="55,3"
       orientation="0,-40"
       id="guide6156" />
    <sodipodi:guide
       position="53,4.3973202"
       orientation="-56,0"
       id="guide6158" />
    <sodipodi:guide
       position="43,48"
       orientation="22,0"
       id="guide4240" />
    <sodipodi:guide
       position="61.773429,28.022221"
       orientation="0,-22"
       id="guide4242" />
    <sodipodi:guide
       position="21,26"
       orientation="-22,0"
       id="guide4244" />
    <sodipodi:guide
       position="47.450961,51.3118"
       orientation="0,1"
       id="guide4228" />
  </sodipodi:namedview>
  <rect
     style="fill:url(#linearGradient3163);fill-opacity:1;stroke:none"
     id="rect4174-9"
     width="44"
     height="52.831711"
     x="10"
     y="1.4689987"
     ry="2.5" />
  <g
     id="g4251">
    <rect
       ry="2.5"
       y="54.300709"
       x="10"
       height="7.6992903"
       width="44"
       id="rect4162-5"
       style="fill:#222425;fill-opacity:1;stroke:none" />
    <rect
       ry="0"
       y="43.999527"
       x="10"
       height="15"
       width="44"
       id="rect4184-2"
       style="fill:#222425;fill-opacity:1;stroke:none" />
  </g>
  <g
     transform="translate(-453.31571,-515.82352)"
     id="layer1-4-2"
     inkscape:label="Capa 1"
     inkscape:transform-center-x="5.4653607"
     inkscape:transform-center-y="-9.4924686">
    <g
       transform="translate(0.41988239,0.03484499)"
       inkscape:label="Capa 1"
       id="layer1-3-65-8" />
  </g>
  <g
     transform="translate(-453.31571,-515.82352)"
     id="layer1-4"
     inkscape:label="Capa 1"
     inkscape:transform-center-x="5.4653607"
     inkscape:transform-center-y="-9.4924686">
    <g
       transform="translate(0.41988239,0.03484499)"
       inkscape:label="Capa 1"
       id="layer1-3-65" />
  </g>
  <g
     transform="matrix(0.84688321,0,0,0.84688321,-360.45802,-422.20231)"
     id="layer1-5"
     inkscape:label="Capa 1"
     style="stroke:none">
    <g
       id="g4414"
       transform="matrix(1.5263052,0,0,1.5263052,376.49864,-1040.1735)"
       style="stroke:none">
      <g
         transform="matrix(0.42549858,0,0,0.42549858,-116.82388,804.06163)"
         id="layer1-0"
         inkscape:label="Capa 1"
         style="stroke:none">
        <rect
           ry="1.9999958"
           y="503.798"
           x="390.57144"
           height="39.999969"
           width="36"
           id="rect4319"
           style="opacity:1;fill:#ffffff;fill-opacity:1;stroke:none;stroke-width:2.27272557999999991;stroke-miterlimit:4;stroke-dasharray:none;stroke-opacity:1" />
        <g
           transform="translate(-0.71741557,0.01714041)"
           inkscape:label="Capa 1"
           id="layer1-7"
           style="fill:#ffffff;fill-opacity:1;stroke:none">
          <rect
             ry="0.88864768"
             y="504.89221"
             x="407.3606"
             height="2"
             width="4"
             id="rect4199"
             style="opacity:0.92900002000000004;fill:#222425;fill-opacity:1;stroke:none;stroke-width:1.02600001999999990;stroke-linecap:round;stroke-linejoin:round;stroke-miterlimit:4;stroke-dasharray:none;stroke-opacity:1" />
          <rect
             ry="0.88864768"
             y="507.78485"
             x="407.35223"
             height="2"
             width="4"
             id="rect4199-5"
             style="opacity:0.92900002000000004;fill:#222425;fill-opacity:1;stroke:none;stroke-width:1.02600001999999990;stroke-linecap:round;stroke-linejoin:round;stroke-miterlimit:4;stroke-dasharray:none;stroke-opacity:1" />
          <rect
             ry="0.88864768"
             y="510.64264"
             x="407.32715"
             height="2"
             width="4"
             id="rect4199-5-3"
             style="opacity:0.92900002000000004;fill:#222425;fill-opacity:1;stroke:none;stroke-width:1.02600001999999990;stroke-linecap:round;stroke-linejoin:round;stroke-miterlimit:4;stroke-dasharray:none;stroke-opacity:1" />
          <rect
             ry="0.88864768"
             y="513.61755"
             x="407.37097"
             height="2"
             width="4"
             id="rect4199-5-3-9"
             style="opacity:0.92900002000000004;fill:#222425;fill-opacity:1;stroke:none;stroke-width:1.02600001999999990;stroke-linecap:round;stroke-linejoin:round;stroke-miterlimit:4;stroke-dasharray:none;stroke-opacity:1" />
          <rect
             ry="0.88864768"
             y="516.54028"
             x="407.37097"
             height="2"
             width="4"
             id="rect4199-5-3-9-2"
             style="opacity:0.92900002000000004;fill:#222425;fill-opacity:1;stroke:none;stroke-width:1.02600001999999990;stroke-linecap:round;stroke-linejoin:round;stroke-miterlimit:4;stroke-dasharray:none;stroke-opacity:1" />
        </g>
        <rect
           ry="0.88864768"
           y="519.54907"
           x="406.6535"
           height="2"
           width="4"
           id="rect4199-5-3-9-8"
           style="opacity:0.92900002000000004;fill:#222425;fill-opacity:1;stroke:none;stroke-width:1.02600001999999990;stroke-linecap:round;stroke-linejoin:round;stroke-miterlimit:4;stroke-dasharray:none;stroke-opacity:1" />
        <path
           sodipodi:nodetypes="csssscccscccccccccc"
           style="opacity:1;fill:#222425;fill-opacity:1;stroke:none"
           id="path7"
           d="m 410.11783,524.47214 0,-1.26212 c 0,-0.35164 -0.28416,-0.63683 -0.63453,-0.63683 l -1.76295,0 c -0.35037,0 -0.6346,0.28526 -0.6346,0.63683 l 0,1.2615 -0.98056,2.89118 c -0.27435,0.80579 -0.14271,1.70105 0.35164,2.39489 0.49436,0.69257 1.29597,1.10622 2.14496,1.10622 0.84916,0 1.65084,-0.41365 2.14519,-1.10622 0.49435,-0.69384 0.62583,-1.5891 0.35156,-2.39426 z m -0.40955,4.53977 c -0.50867,0.71448 -1.70431,0.71448 -2.21306,0 -0.25497,-0.35792 -0.32285,-0.8196 -0.18195,-1.23564 l 0.32909,-0.96974 1.91878,0 0.32918,0.97037 c 0.14096,0.41541 0.0729,0.87709 -0.18204,1.23501 z"
           inkscape:connector-curvature="0" />
      </g>
    </g>
  </g>
  <text
     xml:space="preserve"
     style="font-style:normal;font-weight:normal;font-size:15px;line-height:125%;font-family:Sans;letter-spacing:0px;word-spacing:0px;fill:#ffffff;fill-opacity:1;stroke:none;stroke-width:1px;stroke-linecap:butt;stroke-linejoin:miter;stroke-opacity:1"
     x="21.171143"
     y="58.159676"
     id="text4255"
     sodipodi:linespacing="125%"><tspan
       sodipodi:role="line"
       id="tspan4257"
       x="21.171143"
       y="58.159676">tar</tspan></text>
</svg>
