<?xml version="1.0" encoding="UTF-8" standalone="no"?>
<svg
   xmlns:sketch="http://www.bohemiancoding.com/sketch/ns"
   xmlns:osb="http://www.openswatchbook.org/uri/2009/osb"
   xmlns:dc="http://purl.org/dc/elements/1.1/"
   xmlns:cc="http://creativecommons.org/ns#"
   xmlns:rdf="http://www.w3.org/1999/02/22-rdf-syntax-ns#"
   xmlns:svg="http://www.w3.org/2000/svg"
   xmlns="http://www.w3.org/2000/svg"
   xmlns:xlink="http://www.w3.org/1999/xlink"
   xmlns:sodipodi="http://sodipodi.sourceforge.net/DTD/sodipodi-0.dtd"
   xmlns:inkscape="http://www.inkscape.org/namespaces/inkscape"
   width="64"
   viewBox="0 0 64 64"
   height="64"
   id="svg2"
   version="1.1"
   inkscape:version="0.48.5 r10040"
   sodipodi:docname="application-x-ole-storage.svg"
   inkscape:export-filename="E:\Usuarios\David\Desktop\android.png"
   inkscape:export-xdpi="90"
   inkscape:export-ydpi="90">
  <metadata
     id="metadata14">
    <rdf:RDF>
      <cc:Work
         rdf:about="">
        <dc:format>image/svg+xml</dc:format>
        <dc:type
           rdf:resource="http://purl.org/dc/dcmitype/StillImage" />
        <dc:title />
      </cc:Work>
    </rdf:RDF>
  </metadata>
  <defs
     id="defs12">
    <linearGradient
       osb:paint="gradient"
       id="linearGradient4207">
      <stop
         id="stop3371"
         offset="0"
         style="stop-color:#3498db;stop-opacity:1;" />
      <stop
         id="stop3373"
         offset="1"
         style="stop-color:#3498db;stop-opacity:0;" />
    </linearGradient>
    <linearGradient
       inkscape:collect="always"
       xlink:href="#linearGradient4422-1"
       id="linearGradient4182"
       x1="-74.929466"
       y1="52.199436"
       x2="-75.259552"
       y2="2.3564887"
       gradientUnits="userSpaceOnUse"
       gradientTransform="matrix(1.0749904,0,0,1.0292896,56.688954,-0.01528455)" />
    <linearGradient
       id="linearGradient4422-1">
      <stop
         id="stop4424-78"
         offset="0"
         style="stop-color:#8798a9;stop-opacity:1" />
      <stop
         id="stop4426-8"
         offset="1"
         style="stop-color:#aeb6be;stop-opacity:1" />
    </linearGradient>
    <linearGradient
       inkscape:collect="always"
       xlink:href="#linearGradient4422-0"
       id="linearGradient4182-3"
       x1="-74.929466"
       y1="52.199436"
       x2="-75.259552"
       y2="2.3564887"
       gradientUnits="userSpaceOnUse"
       gradientTransform="matrix(1.0749904,0,0,1.0292896,56.688954,-0.01528455)" />
    <linearGradient
       id="linearGradient4422-0">
      <stop
         style="stop-color:#25292d;stop-opacity:1"
         offset="0"
         id="stop4424-4" />
      <stop
         style="stop-color:#525962;stop-opacity:1"
         offset="1"
         id="stop4426-0" />
    </linearGradient>
    <linearGradient
       y2="2.3564887"
       x2="-75.259552"
       y1="52.199436"
       x1="-74.929466"
       gradientTransform="matrix(1.0749904,0,0,1.0292896,56.631187,-0.20173344)"
       gradientUnits="userSpaceOnUse"
       id="linearGradient3058"
       xlink:href="#linearGradient4422-0"
       inkscape:collect="always" />
  </defs>
  <sodipodi:namedview
     pagecolor="#747474"
     bordercolor="#666666"
     borderopacity="1"
     objecttolerance="10"
     gridtolerance="10"
     guidetolerance="10"
     inkscape:pageopacity="1"
     inkscape:pageshadow="2"
     inkscape:window-width="1366"
     inkscape:window-height="701"
     id="namedview10"
     showgrid="false"
     inkscape:zoom="12.616526"
     inkscape:cx="33.639927"
     inkscape:cy="50.174391"
     inkscape:window-x="0"
     inkscape:window-y="0"
     inkscape:window-maximized="1"
     inkscape:current-layer="g4186"
     inkscape:snap-bbox="true"
     inkscape:bbox-nodes="true"
     inkscape:object-nodes="true"
     borderlayer="false"
     showguides="true"
     inkscape:snap-nodes="true"
     inkscape:object-paths="false"
     inkscape:showpageshadow="false"
     showborder="true"
     inkscape:snap-global="false">
    <inkscape:grid
       type="xygrid"
       id="grid4160"
       visible="true" />
    <sodipodi:guide
       position="28.888657,63.404975"
       orientation="0,35.2"
       id="guide6108" />
    <sodipodi:guide
       position="54,55.679691"
       orientation="51.200004,0"
       id="guide6112" />
    <sodipodi:guide
       position="58.527669,62"
       orientation="0,1"
       id="guide6114"
       inkscape:label=""
       inkscape:color="rgb(0,0,255)" />
    <sodipodi:guide
       position="10,4"
       orientation="-56,0"
       id="guide6116" />
    <sodipodi:guide
       position="11,4"
       orientation="-2.8421709e-014,0"
       id="guide6118" />
    <sodipodi:guide
       position="12,62"
       orientation="0,35.2"
       id="guide6120" />
    <sodipodi:guide
       position="52,2"
       orientation="0,-40"
       id="guide6126" />
    <sodipodi:guide
       position="12,62"
       orientation="0,35.2"
       id="guide6138" />
    <sodipodi:guide
       position="55,3"
       orientation="0,-40"
       id="guide6156" />
    <sodipodi:guide
       position="53,4.3973202"
       orientation="-56,0"
       id="guide6158" />
    <sodipodi:guide
       position="21,48"
       orientation="0,22"
       id="guide4238" />
    <sodipodi:guide
       position="43,48"
       orientation="22,0"
       id="guide4240" />
    <sodipodi:guide
       position="61.433468,30.314331"
       orientation="0,-22"
       id="guide4242" />
    <sodipodi:guide
       position="21,26"
       orientation="-22,0"
       id="guide4244" />
  </sodipodi:namedview>
  <g
     id="g4186"
     transform="translate(56.391766,-0.17677665)">
    <rect
       ry="2.5"
       y="1.4593264"
       x="-46.449535"
       height="52.831711"
       width="44"
       id="rect4174-6"
       style="fill:url(#linearGradient3058);fill-opacity:1;stroke:none" />
    <g
       id="g4165">
      <rect
         style="opacity:1;fill:#3d434a;fill-opacity:1;stroke:none;stroke-width:0.185;stroke-linecap:round;stroke-linejoin:round;stroke-miterlimit:4;stroke-dasharray:none;stroke-dashoffset:0;stroke-opacity:1"
         id="rect4162"
         width="44"
         height="7.6992903"
         x="-46.391766"
         y="54.477486"
         ry="2.5" />
      <rect
         style="fill:#3d434a;fill-opacity:1;stroke:none"
         id="rect4184"
         width="44"
         height="15"
         x="-46.391766"
         y="44.176304"
         ry="0" />
    </g>
    <g
       transform="matrix(0.4751349,0,0,0.4751349,-242.80552,-219.51225)"
       inkscape:label="Capa 1"
       id="layer1-4">
      <g
         id="layer1-3-8"
         inkscape:label="Capa 1"
         transform="translate(-34.965532,2.4832225)" />
    </g>
    <g
       id="g4173"
       transform="translate(0,-2.1323174)"
       style="stroke:none">
      <g
         style="fill:#ffffff;stroke:none;stroke-width:2.63083172000000021;stroke-miterlimit:4;stroke-dasharray:none;stroke-opacity:1"
         id="g4403"
         transform="matrix(0.4751349,0,0,0.4751349,-194.19803,-224.67091)">
        <rect
           style="fill:#ffffff;fill-opacity:1;stroke:none;stroke-width:2.63083172000000021;stroke-miterlimit:4;stroke-dasharray:none;stroke-opacity:1"
           id="rect4195"
           width="46.302639"
           height="34.938858"
           x="334.23404"
           y="512.70703"
           ry="1.6441816" />
      </g>
      <path
         style="fill:#3d434a;fill-opacity:1;stroke:none"
         inkscape:connector-curvature="0"
         sketch:type="MSShapeGroup"
         id="path1551"
         d="m -21.694246,26.803979 -3.549311,-3.543965 c -0.130696,-0.137913 -0.293933,-0.206869 -0.489977,-0.206869 -0.196044,0 -0.359281,0.06902 -0.489977,0.206869 l -0.413738,0.408325 c -0.134304,0.134305 -0.201456,0.297541 -0.201456,0.489911 0,0.188694 0.06715,0.353868 0.201456,0.495389 l 2.64573,2.640317 -2.645797,2.64573 c -0.134304,0.134304 -0.201456,0.297608 -0.201456,0.489977 0,0.188694 0.06715,0.353869 0.201456,0.495389 l 0.413738,0.408259 c 0.134305,0.134304 0.297675,0.201456 0.489977,0.201456 0.19237,0 0.35574,-0.06715 0.489977,-0.201456 l 3.549378,-3.543965 c 0.134304,-0.141521 0.201523,-0.306695 0.201523,-0.49539 0,-0.192369 -0.06722,-0.355672 -0.201523,-0.489977 l 0,0 z" />
    </g>
    <text
       xml:space="preserve"
       style="font-style:normal;font-weight:normal;font-size:16.25px;line-height:125%;font-family:Sans;letter-spacing:0px;word-spacing:0px;fill:#ffffff;fill-opacity:1;stroke:none;stroke-width:1px;stroke-linecap:butt;stroke-linejoin:miter;stroke-opacity:1"
       x="-37.817356"
       y="57.611965"
       id="text4169"
       sodipodi:linespacing="125%"><tspan
         sodipodi:role="line"
         id="tspan4171"
         x="-37.817356"
         y="57.611965">run</tspan></text>
  </g>
</svg>
