<?xml version="1.0" encoding="UTF-8" standalone="no"?>
<svg
   xmlns:sketch="http://www.bohemiancoding.com/sketch/ns"
   xmlns:osb="http://www.openswatchbook.org/uri/2009/osb"
   xmlns:dc="http://purl.org/dc/elements/1.1/"
   xmlns:cc="http://creativecommons.org/ns#"
   xmlns:rdf="http://www.w3.org/1999/02/22-rdf-syntax-ns#"
   xmlns:svg="http://www.w3.org/2000/svg"
   xmlns="http://www.w3.org/2000/svg"
   xmlns:xlink="http://www.w3.org/1999/xlink"
   xmlns:sodipodi="http://sodipodi.sourceforge.net/DTD/sodipodi-0.dtd"
   xmlns:inkscape="http://www.inkscape.org/namespaces/inkscape"
   width="64"
   viewBox="0 0 64 64"
   height="64"
   id="svg2"
   version="1.1"
   inkscape:version="0.91 r13725"
   sodipodi:docname="application-template-blank.svg"
   inkscape:export-filename="E:\Usuarios\David\Desktop\android.png"
   inkscape:export-xdpi="90"
   inkscape:export-ydpi="90">
  <metadata
     id="metadata14">
    <rdf:RDF>
      <cc:Work
         rdf:about="">
        <dc:format>image/svg+xml</dc:format>
        <dc:type
           rdf:resource="http://purl.org/dc/dcmitype/StillImage" />
        <dc:title />
      </cc:Work>
    </rdf:RDF>
  </metadata>
  <defs
     id="defs12">
    <linearGradient
       osb:paint="gradient"
       id="linearGradient4207">
      <stop
         id="stop3371"
         offset="0"
         style="stop-color:#3498db;stop-opacity:1;" />
      <stop
         id="stop3373"
         offset="1"
         style="stop-color:#3498db;stop-opacity:0;" />
    </linearGradient>
    <linearGradient
       inkscape:collect="always"
       xlink:href="#linearGradient4422-1"
       id="linearGradient4182"
       x1="-74.929466"
       y1="52.199436"
       x2="-75.259552"
       y2="2.3564887"
       gradientUnits="userSpaceOnUse"
       gradientTransform="matrix(1.0749904,0,0,1.0292896,56.688954,-0.01528455)" />
    <linearGradient
       id="linearGradient4422-1">
      <stop
         id="stop4424-78"
         offset="0"
         style="stop-color:#8798a9;stop-opacity:1" />
      <stop
         id="stop4426-8"
         offset="1"
         style="stop-color:#aeb6be;stop-opacity:1" />
    </linearGradient>
  </defs>
  <sodipodi:namedview
     pagecolor="#747474"
     bordercolor="#666666"
     borderopacity="1"
     objecttolerance="10"
     gridtolerance="10"
     guidetolerance="10"
     inkscape:pageopacity="1"
     inkscape:pageshadow="2"
     inkscape:window-width="1366"
     inkscape:window-height="712"
     id="namedview10"
     showgrid="false"
     inkscape:zoom="6.4197725"
     inkscape:cx="45.681952"
     inkscape:cy="36.553624"
     inkscape:window-x="0"
     inkscape:window-y="0"
     inkscape:window-maximized="1"
     inkscape:current-layer="g4186"
     inkscape:snap-bbox="true"
     inkscape:bbox-nodes="true"
     inkscape:object-nodes="true"
     borderlayer="false"
     showguides="true"
     inkscape:snap-nodes="true"
     inkscape:object-paths="false"
     inkscape:showpageshadow="false"
     showborder="true"
     inkscape:snap-global="false">
    <inkscape:grid
       type="xygrid"
       id="grid4160"
       visible="true" />
    <sodipodi:guide
       position="28.888657,63.404975"
       orientation="0,35.2"
       id="guide6108" />
    <sodipodi:guide
       position="54,55.679691"
       orientation="51.200004,0"
       id="guide6112" />
    <sodipodi:guide
       position="58.527669,62"
       orientation="0,1"
       id="guide6114"
       inkscape:label=""
       inkscape:color="rgb(0,0,255)" />
    <sodipodi:guide
       position="10,4"
       orientation="-56,0"
       id="guide6116" />
    <sodipodi:guide
       position="11,4"
       orientation="-2.8421709e-014,0"
       id="guide6118" />
    <sodipodi:guide
       position="12,62"
       orientation="0,35.2"
       id="guide6120" />
    <sodipodi:guide
       position="52,2"
       orientation="0,-40"
       id="guide6126" />
    <sodipodi:guide
       position="12,62"
       orientation="0,35.2"
       id="guide6138" />
    <sodipodi:guide
       position="55,3"
       orientation="0,-40"
       id="guide6156" />
    <sodipodi:guide
       position="53,4.3973202"
       orientation="-56,0"
       id="guide6158" />
    <sodipodi:guide
       position="57.945979,50.780616"
       orientation="0,22"
       id="guide4238" />
    <sodipodi:guide
       position="43,48"
       orientation="22,0"
       id="guide4240" />
    <sodipodi:guide
       position="58.880591,27.882608"
       orientation="0,-22"
       id="guide4242" />
    <sodipodi:guide
       position="21,26"
       orientation="-22,0"
       id="guide4244" />
  </sodipodi:namedview>
  <g
     id="g4186"
     transform="translate(56.391766,-0.17677665)">
    <rect
       ry="2.5"
       y="1.6457753"
       x="-46.391766"
       height="52.831711"
       width="44"
       id="rect4174"
       style="opacity:1;fill:url(#linearGradient4182);fill-opacity:1.0;stroke:none;stroke-width:0.30000001;stroke-linecap:round;stroke-linejoin:round;stroke-miterlimit:4;stroke-dasharray:none;stroke-dashoffset:0;stroke-opacity:1" />
    <g
       id="g4158">
      <rect
         style="opacity:1;fill:#3d434a;fill-opacity:1;stroke:none;stroke-width:0.185;stroke-linecap:round;stroke-linejoin:round;stroke-miterlimit:4;stroke-dasharray:none;stroke-dashoffset:0;stroke-opacity:1"
         id="rect4162"
         width="44"
         height="7.6992903"
         x="-46.391766"
         y="54.477486"
         ry="2.5" />
      <rect
         style="fill:#3d434a;fill-opacity:1;stroke:none"
         id="rect4184"
         width="44"
         height="15"
         x="-46.391766"
         y="44.176304"
         ry="0" />
    </g>
    <text
       xml:space="preserve"
       style="font-style:normal;font-weight:normal;font-size:15px;line-height:125%;font-family:Sans;letter-spacing:0px;word-spacing:0px;fill:#ffffff;fill-opacity:1;stroke:none;stroke-width:1px;stroke-linecap:butt;stroke-linejoin:miter;stroke-opacity:1"
       x="-43.088509"
       y="58.302578"
       id="text4162"
       sodipodi:linespacing="125%"><tspan
         sodipodi:role="line"
         id="tspan4164"
         x="-43.088509"
         y="58.302578"
         style="font-size:13.75px;fill:#ffffff">blank</tspan></text>
    <g
       id="g4186-35"
       transform="translate(-47.670243,-2.554011)"
       style="stroke:#ffffff;stroke-width:0.60000002;stroke-miterlimit:4;stroke-dasharray:none">
      <g
         transform="translate(-509.70748,-515.64674)"
         id="layer1-4-0"
         inkscape:label="Capa 1"
         inkscape:transform-center-x="5.4653607"
         inkscape:transform-center-y="-9.4924686"
         style="stroke:#ffffff;stroke-width:0.60000002;stroke-miterlimit:4;stroke-dasharray:none">
        <g
           transform="translate(0.41988239,0.03484499)"
           inkscape:label="Capa 1"
           id="layer1-3-65"
           style="stroke:#ffffff;stroke-width:0.60000002;stroke-miterlimit:4;stroke-dasharray:none" />
      </g>
      <g
         transform="translate(-10.730736,-0.86564845)"
         id="g4186-1"
         style="fill:#ffffff;stroke:#ffffff;stroke-width:0.60000002;stroke-miterlimit:4;stroke-dasharray:none">
        <g
           transform="translate(-46.754763,0.40346316)"
           id="g4186-3-2"
           style="fill:#ffffff;stroke:#ffffff;stroke-width:0.60000002;stroke-miterlimit:4;stroke-dasharray:none">
          <g
             inkscape:transform-center-y="-9.4924686"
             inkscape:transform-center-x="5.4653607"
             inkscape:label="Capa 1"
             id="layer1-38-6"
             transform="translate(-400.92463,-509.18113)"
             style="fill:#ffffff;stroke:#ffffff;stroke-width:0.60000002;stroke-miterlimit:4;stroke-dasharray:none">
            <g
               transform="translate(-47.017055,-3.1738266)"
               id="layer1-8"
               inkscape:label="Capa 1"
               inkscape:transform-center-x="5.4653607"
               inkscape:transform-center-y="-9.4924686"
               style="fill:#ffffff;stroke:#ffffff;stroke-width:0.60000002;stroke-miterlimit:4;stroke-dasharray:none">
              <g
                 transform="translate(0.41988239,0.03484499)"
                 inkscape:label="Capa 1"
                 id="layer1-3-3"
                 style="fill:#ffffff;stroke:#ffffff;stroke-width:0.60000002;stroke-miterlimit:4;stroke-dasharray:none">
                <g
                   transform="translate(-37.074403,0.97032551)"
                   id="layer1-7-5"
                   inkscape:label="Capa 1"
                   style="fill:#ffffff;stroke:#ffffff;stroke-width:0.60000002;stroke-miterlimit:4;stroke-dasharray:none">
                  <g
                     transform="matrix(1.5263052,0,0,1.5263052,376.31698,-1040.1258)"
                     id="g4231-5-8"
                     style="fill:#ffffff;stroke:#ffffff;stroke-width:0.39310619;stroke-miterlimit:4;stroke-dasharray:none" />
                </g>
              </g>
            </g>
          </g>
        </g>
        <g
           style="fill:#ffffff;fill-opacity:1;stroke:#ffffff;stroke-width:0.30018404;stroke-miterlimit:4;stroke-dasharray:none"
           inkscape:label="Capa 1"
           id="layer1-2"
           transform="matrix(1.9987739,0,0,1.9987739,18.096691,-2059.514)">
          <g
             transform="matrix(0.90537551,0,0,0.90537551,-365.91682,562.06022)"
             id="layer1-0"
             inkscape:label="Capa 1"
             style="fill:#ffffff;fill-opacity:1;stroke:#ffffff;stroke-width:0.33155748;stroke-miterlimit:4;stroke-dasharray:none;stroke-opacity:1" />
          <g
             style="fill:#ffffff;fill-opacity:1;stroke:#ffffff;stroke-width:0.30018404;stroke-miterlimit:4;stroke-dasharray:none"
             transform="translate(-401.01229,510.63371)"
             id="layer1-00"
             inkscape:label="Capa 1">
            <g
               style="fill:#ffffff;fill-opacity:1;stroke:#ffffff;stroke-width:0.30018404;stroke-miterlimit:4;stroke-dasharray:none"
               transform="translate(5.05585,-5.251147)"
               id="layer1-4"
               inkscape:label="Capa 1">
              <g
                 transform="translate(-11.317,5.8824915)"
                 id="layer1-9"
                 inkscape:label="Capa 1"
                 style="fill:#ffffff;fill-opacity:1;stroke:#ffffff;stroke-width:0.30018404;stroke-miterlimit:4;stroke-dasharray:none;stroke-opacity:0.8">
                <g
                   transform="matrix(0.7863692,0,0,0.78394543,93.325829,112.35451)"
                   id="g4187"
                   style="fill:#ffffff;fill-opacity:1;stroke:#ffffff;stroke-width:0.38232386;stroke-miterlimit:4;stroke-dasharray:none;stroke-opacity:1">
                  <path
                     style="fill:#ffffff;fill-opacity:1;stroke:#ffffff;stroke-width:0.38232386;stroke-miterlimit:4;stroke-dasharray:none;stroke-opacity:1"
                     sketch:type="MSShapeGroup"
                     id="Documents"
                     d="m 408.99594,530.99649 -5.24403,6.7328 c -0.98326,1.2624 -0.708,3.5111 0.5505,4.4974 1.25852,0.98629 3.50028,0.71019 4.48354,-0.55221 l 5.24403,-6.73281 0.65549,-0.8416 c 0.65551,-0.8416 0.47201,-2.34073 -0.36699,-2.99826 -0.83901,-0.65753 -2.33352,-0.47347 -2.98902,0.36814 l -0.65551,0.8416 -3.93302,5.0496 -0.6555,0.8416 c -0.32776,0.4208 -0.236,1.17037 0.1835,1.49914 0.4195,0.32875 1.16676,0.23673 1.49451,-0.18407 l 4.58852,-5.89121 0.83901,0.65753 -4.58852,5.8912 c -0.65551,0.84161 -2.15002,1.02568 -2.98902,0.36814 -0.83901,-0.65753 -1.02252,-2.15666 -0.36702,-2.99826 l 0.65551,-0.8416 4.58853,-5.8912 c 0.98325,-1.26241 3.22501,-1.5385 4.48353,-0.55221 1.25851,0.98629 1.53377,3.23499 0.55051,4.49739 l -0.6555,0.84161 -5.24403,6.73279 c -1.31102,1.68321 -4.30004,2.05135 -5.97805,0.73629 -1.67801,-1.31507 -2.04502,-4.31332 -0.73401,-5.99653 l 5.24403,-6.7328 0.83901,0.65753 0,0 z"
                     inkscape:connector-curvature="0" />
                </g>
              </g>
            </g>
          </g>
        </g>
      </g>
    </g>
  </g>
</svg>
