<?xml version="1.0" encoding="UTF-8" standalone="no"?>
<svg
   xmlns:osb="http://www.openswatchbook.org/uri/2009/osb"
   xmlns:dc="http://purl.org/dc/elements/1.1/"
   xmlns:cc="http://creativecommons.org/ns#"
   xmlns:rdf="http://www.w3.org/1999/02/22-rdf-syntax-ns#"
   xmlns:svg="http://www.w3.org/2000/svg"
   xmlns="http://www.w3.org/2000/svg"
   xmlns:xlink="http://www.w3.org/1999/xlink"
   xmlns:sodipodi="http://sodipodi.sourceforge.net/DTD/sodipodi-0.dtd"
   xmlns:inkscape="http://www.inkscape.org/namespaces/inkscape"
   width="64"
   viewBox="0 0 64 64"
   height="64"
   id="svg2"
   version="1.1"
   inkscape:version="0.48.5 r10040"
   sodipodi:docname="application-rdf+xml.svg"
   inkscape:export-filename="E:\Usuarios\David\Desktop\android.png"
   inkscape:export-xdpi="90"
   inkscape:export-ydpi="90">
  <metadata
     id="metadata14">
    <rdf:RDF>
      <cc:Work
         rdf:about="">
        <dc:format>image/svg+xml</dc:format>
        <dc:type
           rdf:resource="http://purl.org/dc/dcmitype/StillImage" />
        <dc:title />
      </cc:Work>
    </rdf:RDF>
  </metadata>
  <defs
     id="defs12">
    <linearGradient
       osb:paint="gradient"
       id="linearGradient4207">
      <stop
         id="stop3371"
         offset="0"
         style="stop-color:#3498db;stop-opacity:1;" />
      <stop
         id="stop3373"
         offset="1"
         style="stop-color:#3498db;stop-opacity:0;" />
    </linearGradient>
    <linearGradient
       inkscape:collect="always"
       xlink:href="#linearGradient4531-1"
       id="linearGradient4182"
       x1="-74.929466"
       y1="52.199436"
       x2="-75.259552"
       y2="2.3564887"
       gradientUnits="userSpaceOnUse"
       gradientTransform="matrix(1.0749904,0,0,1.0292896,56.688954,-0.01528455)" />
    <linearGradient
       inkscape:collect="always"
       id="linearGradient4531-1">
      <stop
         style="stop-color:#ff4a61;stop-opacity:1"
         offset="0"
         id="stop4533-3" />
      <stop
         style="stop-color:#ff6b91;stop-opacity:1"
         offset="1"
         id="stop4535-7" />
    </linearGradient>
  </defs>
  <sodipodi:namedview
     pagecolor="#747474"
     bordercolor="#666666"
     borderopacity="1"
     objecttolerance="10"
     gridtolerance="10"
     guidetolerance="10"
     inkscape:pageopacity="1"
     inkscape:pageshadow="2"
     inkscape:window-width="1440"
     inkscape:window-height="833"
     id="namedview10"
     showgrid="false"
     inkscape:zoom="7.4552197"
     inkscape:cx="14.350695"
     inkscape:cy="28.590041"
     inkscape:window-x="0"
     inkscape:window-y="0"
     inkscape:window-maximized="1"
     inkscape:current-layer="g4186"
     inkscape:snap-bbox="true"
     inkscape:bbox-nodes="true"
     inkscape:object-nodes="true"
     borderlayer="false"
     showguides="true"
     inkscape:snap-nodes="true"
     inkscape:object-paths="false"
     inkscape:showpageshadow="false"
     showborder="true">
    <inkscape:grid
       type="xygrid"
       id="grid4160"
       visible="true" />
    <sodipodi:guide
       position="28.888657,63.404975"
       orientation="0,35.2"
       id="guide6108" />
    <sodipodi:guide
       position="54,55.679691"
       orientation="51.200004,0"
       id="guide6112" />
    <sodipodi:guide
       position="58.527669,62"
       orientation="0,1"
       id="guide6114"
       inkscape:label=""
       inkscape:color="rgb(0,0,255)" />
    <sodipodi:guide
       position="10,4"
       orientation="-56,0"
       id="guide6116" />
    <sodipodi:guide
       position="11,4"
       orientation="-2.8421709e-014,0"
       id="guide6118" />
    <sodipodi:guide
       position="12,62"
       orientation="0,35.2"
       id="guide6120" />
    <sodipodi:guide
       position="49.093121,3"
       orientation="0,-40"
       id="guide6126" />
    <sodipodi:guide
       position="12,62"
       orientation="0,35.2"
       id="guide6138" />
    <sodipodi:guide
       position="55,3"
       orientation="0,-40"
       id="guide6156" />
    <sodipodi:guide
       position="53,4.3973202"
       orientation="-56,0"
       id="guide6158" />
    <sodipodi:guide
       position="21,48"
       orientation="0,22"
       id="guide4238" />
    <sodipodi:guide
       position="43,48"
       orientation="22,0"
       id="guide4240" />
    <sodipodi:guide
       position="43,26"
       orientation="0,-22"
       id="guide4242" />
    <sodipodi:guide
       position="21,26"
       orientation="-22,0"
       id="guide4244" />
  </sodipodi:namedview>
  <g
     id="g4186"
     transform="translate(56.391766,-0.17677665)">
    <rect
       ry="2.5"
       y="54.477486"
       x="-46.391766"
       height="7.6992903"
       width="44"
       id="rect4162"
       style="opacity:1;fill:#6f222c;fill-opacity:1;stroke:none;stroke-width:0.185;stroke-linecap:round;stroke-linejoin:round;stroke-miterlimit:4;stroke-dasharray:none;stroke-dashoffset:0;stroke-opacity:1" />
    <rect
       ry="2.5"
       y="1.6457753"
       x="-46.391766"
       height="52.831711"
       width="44"
       id="rect4174"
       style="opacity:1;fill:url(#linearGradient4182);fill-opacity:1.0;stroke:none;stroke-width:0.30000001;stroke-linecap:round;stroke-linejoin:round;stroke-miterlimit:4;stroke-dasharray:none;stroke-dashoffset:0;stroke-opacity:1" />
    <rect
       ry="0"
       y="44.176304"
       x="-46.391766"
       height="15"
       width="44"
       id="rect4184"
       style="fill:#6f222d;fill-opacity:1;stroke:none" />
    <g
       inkscape:transform-center-y="-9.4924686"
       inkscape:transform-center-x="5.4653607"
       inkscape:label="Capa 1"
       id="layer1-5"
       transform="translate(-498.4402,-513.46273)">
      <g
         id="layer1-3-9"
         inkscape:label="Capa 1"
         transform="translate(0.41988239,0.03484499)" />
    </g>
    <g
       inkscape:transform-center-y="-9.4924686"
       inkscape:transform-center-x="5.4653607"
       inkscape:label="Capa 1"
       id="layer1"
       transform="translate(-499.78154,-511.193)">
      <g
         id="layer1-3"
         inkscape:label="Capa 1"
         transform="translate(0.41988239,0.03484499)" />
    </g>
    <g
       style="fill:#6b162c;fill-opacity:1"
       inkscape:label="Capa 1"
       id="layer1-41"
       transform="matrix(1.456572,0,0,1.456572,-600.24957,-691.07714)">
      <g
         transform="translate(391.86698,-549.29542)"
         id="layer1-06"
         inkscape:label="Capa 1"
         style="fill:#ffffff;fill-opacity:1">
        <g
           style="fill:#ffffff;fill-opacity:1;stroke:#4f96d1;stroke-opacity:1"
           inkscape:label="Capa 1"
           id="layer1-0"
           transform="matrix(0.90537551,0,0,0.90537551,-365.91682,562.06022)" />
        <g
           inkscape:label="Capa 1"
           id="layer1-00"
           transform="translate(-401.01229,510.63371)"
           style="fill:#ffffff;fill-opacity:1">
          <g
             inkscape:label="Capa 1"
             id="layer1-4"
             transform="translate(5.05585,-5.251147)"
             style="fill:#ffffff;fill-opacity:1">
            <g
               style="fill:#ffffff;fill-opacity:1;stroke:#000000;stroke-opacity:0.80000000000000004"
               inkscape:label="Capa 1"
               id="layer1-9"
               transform="translate(-11.317,5.8824915)">
              <g
                 inkscape:label="Capa 1"
                 id="layer1-79"
                 transform="matrix(1.338559,0,0,1.338559,-142.64928,-182.70145)"
                 style="fill:#ffffff;fill-opacity:1">
                <g
                   inkscape:label="Capa 1"
                   id="layer1-2"
                   transform="translate(-2.0518724,-0.97858527)"
                   style="fill:#ffffff;fill-opacity:1">
                  <g
                     inkscape:label="Capa 1"
                     id="layer1-26"
                     transform="translate(0.22097092,0.44194173)"
                     style="fill:#ffffff;fill-opacity:1">
                    <g
                       inkscape:label="Capa 1"
                       id="layer1-46"
                       transform="translate(1.3573925,-1.2626907)"
                       style="fill:#ffffff;fill-opacity:1">
                      <g
                         inkscape:label="Capa 1"
                         id="layer1-21"
                         transform="translate(-0.41037448,-0.59977801)"
                         style="fill:#ffffff;fill-opacity:1">
                        <g
                           id="g4187"
                           transform="matrix(0.7863692,0,0,0.78394543,92.594038,111.881)"
                           style="fill:#ffffff;fill-opacity:1">
                          <g
                             inkscape:label="Capa 1"
                             id="layer1-3-1"
                             transform="matrix(1.2716673,0,0,1.275599,-114.25636,-140.42007)"
                             style="fill:#ffffff;fill-opacity:1">
                            <g
                               id="g4187-5"
                               transform="matrix(0.7863692,0,0,0.78394543,93.325829,112.35451)"
                               style="fill:#ffffff;fill-opacity:1">
                              <g
                                 style="fill:#ffffff;fill-opacity:1"
                                 transform="matrix(0.91314361,0,0,0.91314362,29.438747,44.019704)"
                                 id="g4187-8">
                                <g
                                   style="fill:#ffffff;fill-opacity:1;stroke:none"
                                   transform="matrix(0.07547167,0,0,0.07570501,371.47994,519.52377)"
                                   id="g4223">
                                <g
                                   style="fill:#ffffff;fill-opacity:1;stroke:none"
                                   transform="matrix(0.42911434,0,0,0.42911434,419.00057,175.00057)"
                                   id="g4173">
                                <g
                                   style="fill:#ffffff;fill-opacity:1;stroke:none"
                                   id="g4175">
                                <path
                                   style="fill:#ffffff;fill-opacity:1;stroke:none"
                                   inkscape:connector-curvature="0"
                                   d="m 121.305,30.327 242.604,0 0,60.651 30.327,0 0,-60.651 C 394.236,13.595 380.674,0 363.909,0 L 121.305,0 C 104.574,0 90.978,13.595 90.978,30.327 l 0,60.651 30.327,0 0,-60.651 z"
                                   id="path4177" />
                                <path
                                   style="fill:#ffffff;fill-opacity:1;stroke:none"
                                   inkscape:connector-curvature="0"
                                   d="m 454.89,121.304 -424.562,0 c -16.731,0 -30.327,13.591 -30.327,30.324 l 0,151.629 c 0,16.764 13.595,30.327 30.327,30.327 l 60.651,0 0,121.302 c 0,16.764 13.595,30.326 30.327,30.326 l 242.604,0 c 16.765,0 30.327,-13.562 30.327,-30.326 l 0,-121.302 60.653,0 c 16.759,0 30.322,-13.563 30.322,-30.327 l 0,-151.629 c 0,-16.733 -13.564,-30.324 -30.322,-30.324 z m -90.981,333.582 -242.604,0 0,-212.28 242.604,0 0,212.28 z m 60.653,-242.604 c -16.764,0 -30.326,-13.564 -30.326,-30.327 0,-16.731 13.562,-30.327 30.326,-30.327 16.765,0 30.327,13.595 30.327,30.327 10e-4,16.762 -13.562,30.327 -30.327,30.327 z"
                                   id="path4179" />
                                <rect
                                   style="fill:#ffffff;fill-opacity:1;stroke:none"
                                   x="151.629"
                                   y="272.92999"
                                   width="121.304"
                                   height="30.327"
                                   id="rect4181" />
                                <rect
                                   style="fill:#ffffff;fill-opacity:1;stroke:none"
                                   x="151.629"
                                   y="333.58401"
                                   width="181.95799"
                                   height="30.320999"
                                   id="rect4183" />
                                <rect
                                   style="fill:#ffffff;fill-opacity:1;stroke:none"
                                   x="151.629"
                                   y="394.237"
                                   width="181.95799"
                                   height="30.322001"
                                   id="rect4185" />
                                </g>
                                </g>
                                <g
                                   style="fill:#ffffff;fill-opacity:1;stroke:none"
                                   id="g4187-2" />
                                <g
                                   style="fill:#ffffff;fill-opacity:1;stroke:none"
                                   id="g4189" />
                                <g
                                   style="fill:#ffffff;fill-opacity:1;stroke:none"
                                   id="g4191" />
                                <g
                                   style="fill:#ffffff;fill-opacity:1;stroke:none"
                                   id="g4193" />
                                <g
                                   style="fill:#ffffff;fill-opacity:1;stroke:none"
                                   id="g4195" />
                                <g
                                   style="fill:#ffffff;fill-opacity:1;stroke:none"
                                   id="g4197" />
                                <g
                                   style="fill:#ffffff;fill-opacity:1;stroke:none"
                                   id="g4199" />
                                <g
                                   style="fill:#ffffff;fill-opacity:1;stroke:none"
                                   id="g4201" />
                                <g
                                   style="fill:#ffffff;fill-opacity:1;stroke:none"
                                   id="g4203" />
                                <g
                                   style="fill:#ffffff;fill-opacity:1;stroke:none"
                                   id="g4205" />
                                <g
                                   style="fill:#ffffff;fill-opacity:1;stroke:none"
                                   id="g4207" />
                                <g
                                   style="fill:#ffffff;fill-opacity:1;stroke:none"
                                   id="g4209" />
                                <g
                                   style="fill:#ffffff;fill-opacity:1;stroke:none"
                                   id="g4211" />
                                <g
                                   style="fill:#ffffff;fill-opacity:1;stroke:none"
                                   id="g4213" />
                                <g
                                   style="fill:#ffffff;fill-opacity:1;stroke:none"
                                   id="g4215" />
                                </g>
                              </g>
                            </g>
                          </g>
                        </g>
                      </g>
                    </g>
                  </g>
                </g>
              </g>
            </g>
          </g>
        </g>
      </g>
    </g>
  </g>
</svg>
