<?xml version="1.0" encoding="UTF-8" standalone="no"?>
<svg
   xmlns:osb="http://www.openswatchbook.org/uri/2009/osb"
   xmlns:dc="http://purl.org/dc/elements/1.1/"
   xmlns:cc="http://creativecommons.org/ns#"
   xmlns:rdf="http://www.w3.org/1999/02/22-rdf-syntax-ns#"
   xmlns:svg="http://www.w3.org/2000/svg"
   xmlns="http://www.w3.org/2000/svg"
   xmlns:xlink="http://www.w3.org/1999/xlink"
   xmlns:sodipodi="http://sodipodi.sourceforge.net/DTD/sodipodi-0.dtd"
   xmlns:inkscape="http://www.inkscape.org/namespaces/inkscape"
   width="64"
   viewBox="0 0 64 64"
   height="64"
   id="svg2"
   version="1.1"
   inkscape:version="0.48.5 r10040"
   sodipodi:docname="application-vnd.stardivision.draw.svg"
   inkscape:export-filename="E:\Usuarios\David\Desktop\android.png"
   inkscape:export-xdpi="90"
   inkscape:export-ydpi="90">
  <metadata
     id="metadata14">
    <rdf:RDF>
      <cc:Work
         rdf:about="">
        <dc:format>image/svg+xml</dc:format>
        <dc:type
           rdf:resource="http://purl.org/dc/dcmitype/StillImage" />
        <dc:title />
      </cc:Work>
    </rdf:RDF>
  </metadata>
  <defs
     id="defs12">
    <linearGradient
       id="linearGradient4373"
       inkscape:collect="always">
      <stop
         id="stop4375"
         offset="0"
         style="stop-color:#2aaa76;stop-opacity:1" />
      <stop
         id="stop4377"
         offset="1"
         style="stop-color:#3ec380;stop-opacity:1" />
    </linearGradient>
    <linearGradient
       osb:paint="gradient"
       id="linearGradient4207">
      <stop
         id="stop3371"
         offset="0"
         style="stop-color:#3498db;stop-opacity:1;" />
      <stop
         id="stop3373"
         offset="1"
         style="stop-color:#3498db;stop-opacity:0;" />
    </linearGradient>
    <linearGradient
       inkscape:collect="always"
       xlink:href="#linearGradient4373"
       id="linearGradient4182"
       x1="-74.929466"
       y1="52.199436"
       x2="-75.259552"
       y2="2.3564887"
       gradientUnits="userSpaceOnUse"
       gradientTransform="matrix(1.0749904,0,0,1.0292896,56.688954,-0.01528455)" />
    <linearGradient
       id="linearGradient4422-9">
      <stop
         style="stop-color:#ffa400;stop-opacity:1"
         offset="0"
         id="stop4424-7" />
      <stop
         style="stop-color:#ffdd00;stop-opacity:1"
         offset="1"
         id="stop4426-7" />
    </linearGradient>
    <linearGradient
       id="linearGradient4422-1">
      <stop
         style="stop-color:#8798a9;stop-opacity:1"
         offset="0"
         id="stop4424-78" />
      <stop
         style="stop-color:#aeb6be;stop-opacity:1"
         offset="1"
         id="stop4426-8" />
    </linearGradient>
  </defs>
  <sodipodi:namedview
     pagecolor="#747474"
     bordercolor="#666666"
     borderopacity="1"
     objecttolerance="10"
     gridtolerance="10"
     guidetolerance="10"
     inkscape:pageopacity="1"
     inkscape:pageshadow="2"
     inkscape:window-width="1366"
     inkscape:window-height="701"
     id="namedview10"
     showgrid="false"
     inkscape:zoom="7.4552197"
     inkscape:cx="10.699634"
     inkscape:cy="28.84192"
     inkscape:window-x="0"
     inkscape:window-y="0"
     inkscape:window-maximized="1"
     inkscape:current-layer="g4186"
     inkscape:snap-bbox="true"
     inkscape:bbox-nodes="true"
     inkscape:object-nodes="true"
     borderlayer="false"
     showguides="true"
     inkscape:snap-nodes="true"
     inkscape:object-paths="false"
     inkscape:showpageshadow="false"
     showborder="true">
    <inkscape:grid
       type="xygrid"
       id="grid4160"
       visible="true" />
    <sodipodi:guide
       position="28.888657,63.404975"
       orientation="0,35.2"
       id="guide6108" />
    <sodipodi:guide
       position="54,55.679691"
       orientation="51.200004,0"
       id="guide6112" />
    <sodipodi:guide
       position="58.527669,62"
       orientation="0,1"
       id="guide6114"
       inkscape:label=""
       inkscape:color="rgb(0,0,255)" />
    <sodipodi:guide
       position="10,4"
       orientation="-56,0"
       id="guide6116" />
    <sodipodi:guide
       position="11,4"
       orientation="-2.8421709e-014,0"
       id="guide6118" />
    <sodipodi:guide
       position="12,62"
       orientation="0,35.2"
       id="guide6120" />
    <sodipodi:guide
       position="52,2"
       orientation="0,-40"
       id="guide6126" />
    <sodipodi:guide
       position="12,62"
       orientation="0,35.2"
       id="guide6138" />
    <sodipodi:guide
       position="55,3"
       orientation="0,-40"
       id="guide6156" />
    <sodipodi:guide
       position="53,4.3973202"
       orientation="-56,0"
       id="guide6158" />
    <sodipodi:guide
       position="21,48"
       orientation="0,22"
       id="guide4238" />
    <sodipodi:guide
       position="43,48"
       orientation="22,0"
       id="guide4240" />
    <sodipodi:guide
       position="43,26"
       orientation="0,-22"
       id="guide4242" />
    <sodipodi:guide
       position="21,26"
       orientation="-22,0"
       id="guide4244" />
  </sodipodi:namedview>
  <g
     id="g4186"
     transform="translate(56.391766,-0.17677665)">
    <rect
       ry="2.5"
       y="54.477486"
       x="-46.391766"
       height="7.6992903"
       width="44"
       id="rect4162"
       style="opacity:1;fill:#144e36;fill-opacity:1;stroke:none;stroke-width:0.185;stroke-linecap:round;stroke-linejoin:round;stroke-miterlimit:4;stroke-dasharray:none;stroke-dashoffset:0;stroke-opacity:1" />
    <rect
       ry="2.5"
       y="1.6457753"
       x="-46.391766"
       height="52.831711"
       width="44"
       id="rect4174"
       style="opacity:1;fill:url(#linearGradient4182);fill-opacity:1.0;stroke:none;stroke-width:0.30000001;stroke-linecap:round;stroke-linejoin:round;stroke-miterlimit:4;stroke-dasharray:none;stroke-dashoffset:0;stroke-opacity:1" />
    <rect
       ry="0"
       y="44.176304"
       x="-46.391766"
       height="15"
       width="44"
       id="rect4184"
       style="fill:#144e36;fill-opacity:1;stroke:none" />
    <g
       id="g3070"
       transform="translate(-0.170377,-2.54855)">
      <path
         inkscape:connector-curvature="0"
         id="path4173"
         style="font-size:10px;font-style:normal;font-variant:normal;font-weight:normal;font-stretch:normal;line-height:125%;letter-spacing:0px;word-spacing:0px;fill:#ffffff;fill-opacity:1;stroke:none;font-family:Product Sans;-inkscape-font-specification:Product Sans"
         d="m -33.736161,59.052655 -1.772606,-5.97561 0.895256,0 1.289167,4.634147 0.01791,0 1.307073,-4.634147 0.87735,0 -1.790511,5.97561 -0.823634,0 z" />
      <path
         inkscape:connector-curvature="0"
         id="path4175"
         style="font-size:10px;font-style:normal;font-variant:normal;font-weight:normal;font-stretch:normal;line-height:125%;letter-spacing:0px;word-spacing:0px;fill:#ffffff;fill-opacity:1;stroke:none;font-family:Product Sans;-inkscape-font-specification:Product Sans"
         d="m -28.73686,59.247777 q -0.993734,0 -1.620412,-0.902439 -0.617726,-0.902439 -0.617726,-2.280488 0,-1.304878 0.599821,-2.243902 0.608773,-0.939025 1.548791,-0.939025 0.975828,0 1.557744,0.865854 0.590868,0.865854 0.590868,2.317073 l -0.009,0.207317 -3.464638,0 q 0.03581,0.902439 0.438675,1.42683 0.411818,0.52439 0.957923,0.52439 0.886303,0 1.199642,-1.02439 l 0.73411,0.414634 q -0.214862,0.695122 -0.707252,1.170731 -0.49239,0.463415 -1.208594,0.463415 z m 1.181736,-3.902439 q -0.02686,-0.512195 -0.349149,-0.97561 -0.313339,-0.463414 -0.940018,-0.463414 -0.45658,0 -0.796777,0.390244 -0.331245,0.390243 -0.45658,1.04878 l 2.542524,0 z" />
      <path
         inkscape:connector-curvature="0"
         id="path4177"
         style="font-size:10px;font-style:normal;font-variant:normal;font-weight:normal;font-stretch:normal;line-height:125%;letter-spacing:0px;word-spacing:0px;fill:#ffffff;fill-opacity:1;stroke:none;font-family:Product Sans;-inkscape-font-specification:Product Sans"
         d="m -23.875485,59.247777 q -0.984781,0 -1.620412,-0.902439 -0.635631,-0.914634 -0.635631,-2.280488 0,-1.365853 0.635631,-2.268292 0.635631,-0.914635 1.620412,-0.914635 0.734109,0 1.217547,0.487805 0.483438,0.487805 0.707251,1.231708 l -0.752014,0.426829 q -0.340197,-1.121951 -1.2265,-1.121951 -0.546105,0 -0.966875,0.609756 -0.411818,0.609756 -0.411818,1.54878 0,0.939025 0.411818,1.548781 0.42077,0.609756 0.966875,0.609756 0.922113,0 1.271263,-1.121951 l 0.734109,0.426829 q -0.223814,0.731707 -0.725157,1.231707 -0.49239,0.487805 -1.226499,0.487805 z" />
      <path
         inkscape:connector-curvature="0"
         id="path4179"
         style="font-size:10px;font-style:normal;font-variant:normal;font-weight:normal;font-stretch:normal;line-height:125%;letter-spacing:0px;word-spacing:0px;fill:#ffffff;fill-opacity:1;stroke:none;font-family:Product Sans;-inkscape-font-specification:Product Sans"
         d="m -19.366756,59.150216 q -0.689347,0 -1.056402,-0.5 -0.358102,-0.5 -0.358102,-1.414634 l 0,-3.134146 -0.769919,0 0,-1.024391 0.769919,0 0,-1.829268 0.823635,0 0,1.829268 1.074306,0 0,1.024391 -1.074306,0 0,3.04878 q 0,0.97561 0.590869,0.97561 0.223813,0 0.376007,-0.09756 l 0.286481,0.963414 q -0.268576,0.158537 -0.662488,0.158537 z" />
      <path
         inkscape:connector-curvature="0"
         id="path4181"
         style="font-size:10px;font-style:normal;font-variant:normal;font-weight:normal;font-stretch:normal;line-height:125%;letter-spacing:0px;word-spacing:0px;fill:#ffffff;fill-opacity:1;stroke:none;font-family:Product Sans;-inkscape-font-specification:Product Sans"
         d="m -17.767328,53.796558 q 0.635632,-0.914635 1.620412,-0.914635 0.984781,0 1.620412,0.914635 0.635631,0.902439 0.635631,2.268292 0,1.365854 -0.635631,2.280488 -0.635631,0.902439 -1.620412,0.902439 -0.98478,0 -1.620412,-0.902439 -0.635631,-0.914634 -0.635631,-2.280488 0,-1.365853 0.635631,-2.268292 z m 0.608774,3.841463 q 0.429722,0.585366 1.011638,0.585366 0.581916,0 1.002686,-0.585366 0.429722,-0.597561 0.429722,-1.573171 0,-0.97561 -0.429722,-1.560975 -0.42077,-0.597561 -1.002686,-0.597561 -0.581916,0 -1.011638,0.597561 -0.42077,0.585365 -0.42077,1.560975 0,0.97561 0.42077,1.573171 z" />
      <path
         inkscape:connector-curvature="0"
         id="path4183"
         style="font-size:10px;font-style:normal;font-variant:normal;font-weight:normal;font-stretch:normal;line-height:125%;letter-spacing:0px;word-spacing:0px;fill:#ffffff;fill-opacity:1;stroke:none;font-family:Product Sans;-inkscape-font-specification:Product Sans"
         d="m -12.397755,59.052655 -0.823634,0 0,-5.97561 0.787824,0 0,0.97561 0.03581,0 q 0.125336,-0.487805 0.510296,-0.804878 0.393912,-0.317073 0.760967,-0.317073 0.367054,0 0.617726,0.146341 l -0.31334,1.048781 q -0.161145,-0.08537 -0.438675,-0.08537 -0.447627,0 -0.796777,0.487805 -0.340197,0.47561 -0.340197,1.256097 l 0,3.268293 z" />
    </g>
    <g
       id="layer1-3"
       inkscape:label="Capa 1"
       transform="translate(-514.88445,-511.10032)"
       style="font-size:9.36996746px;font-style:normal;font-weight:normal;line-height:125%;letter-spacing:0px;word-spacing:0px;fill:#ffffff;fill-opacity:1;stroke:none;font-family:sans-serif">
      <g
         id="g3"
         transform="matrix(0.05921667,0,0,0.05921667,479.34779,527.27709)"
         style="fill:#ffffff;fill-opacity:1">
        <g
           id="g5"
           style="fill:#ffffff;fill-opacity:1">
          <path
             d="m 44.405,355.411 120.029,0 0,15.589 43.647,0 0,-15.589 120.547,0 0,17.622 43.646,0 0,-43.646 -16.104,0 0,-122.064 15.588,0 0,-43.647 -15.588,0 0,-113.319 16.105,0 0,-43.647 -43.646,0 0,8.878 -120.547,0 0,-15.588 -43.647,0 0,15.588 -120.03,0 0,-10.912 -43.647,0 0,43.647 15.588,0 0,115.353 -15.588,0 0,43.647 15.588,0 0,120.029 -15.588,0 0,43.648 43.647,0 0,-15.589 z m -12.47,0 0,3.118 -18.706,0 0,-18.706 3.118,0 12.471,0 3.118,0 0,3.118 0,12.47 z m 144.97,-339.823 0,-3.118 18.706,0 0,3.118 0,6.521 0,5.949 0,3.117 -18.706,0 0,-3.117 0,-5.949 0,-6.521 z m 18.706,339.823 0,3.118 -18.706,0 0,-3.118 0,-6.521 0,-5.948 0,-3.118 18.706,0 0,3.118 0,5.948 0,6.521 z m 2.077,-162.896 c 1.212,1.218 1.212,3.19 0,4.408 -0.615,0.608 -1.406,0.913 -2.21,0.913 -0.792,0 -1.593,-0.305 -2.205,-0.913 l -7.014,-7.015 -7.015,7.015 c -0.612,0.608 -1.409,0.913 -2.207,0.913 -0.798,0 -1.595,-0.305 -2.208,-0.913 -1.214,-1.218 -1.214,-3.19 0,-4.408 l 7.015,-7.015 -7.015,-7.015 c -1.214,-1.214 -1.214,-3.194 0,-4.409 1.215,-1.215 3.194,-1.215 4.409,0 l 7.021,7.015 7.014,-7.015 c 1.218,-1.215 3.191,-1.215 4.409,0 1.218,1.215 1.218,3.194 0,4.409 l -7.015,7.015 7.021,7.015 z m 162.117,168.047 -18.705,0 0,-5.151 0,-12.47 0,-1.084 2.6,0 12.471,0 3.635,0 0,18.705 z m -31.176,-31.175 0,13.555 -97.652,0 C 285.402,327.511 328.27,284.644 343.7,230.213 l 0,99.174 -15.071,0 z m 30.658,-134.534 -3.117,0 -6.521,0 -5.949,0 -3.117,0 0,-18.706 3.117,0 5.949,0 6.521,0 3.117,0 0,18.706 z M 341.1,19.181 l 15.07,0 3.635,0 0,18.706 -3.635,0 -12.471,0 -2.6,0 0,-9.828 0,-8.878 z m -12.471,8.878 0,22.298 15.07,0 0,90.43 C 328.269,86.353 285.401,43.491 230.976,28.058 l 97.653,0 z m -315.4,-10.913 3.118,0 15.588,0 0,10.912 0,7.794 -3.118,0 -12.471,0 -3.118,0 0,-18.706 z m 31.176,31.177 0,-20.264 97.134,0 C 87.111,43.491 44.25,86.353 28.817,140.781 l 0,-92.458 15.588,0 z m -31.176,127.823 3.118,0 6.521,0 5.949,0 3.118,0 0,18.706 -3.118,0 -5.949,0 -6.521,0 -3.118,0 0,-18.706 z m 15.588,54.067 c 15.433,54.431 58.294,97.298 112.723,112.729 l -97.135,0 0,-15.589 -15.588,0 0,-97.14 z"
             id="path7"
             inkscape:connector-curvature="0"
             style="fill:#ffffff;fill-opacity:1" />
        </g>
      </g>
    </g>
  </g>
</svg>
