<?xml version="1.0" encoding="UTF-8" standalone="no"?>
<svg
   xmlns:osb="http://www.openswatchbook.org/uri/2009/osb"
   xmlns:dc="http://purl.org/dc/elements/1.1/"
   xmlns:cc="http://creativecommons.org/ns#"
   xmlns:rdf="http://www.w3.org/1999/02/22-rdf-syntax-ns#"
   xmlns:svg="http://www.w3.org/2000/svg"
   xmlns="http://www.w3.org/2000/svg"
   xmlns:xlink="http://www.w3.org/1999/xlink"
   xmlns:sodipodi="http://sodipodi.sourceforge.net/DTD/sodipodi-0.dtd"
   xmlns:inkscape="http://www.inkscape.org/namespaces/inkscape"
   width="64"
   viewBox="0 0 64 64"
   height="64"
   id="svg2"
   version="1.1"
   inkscape:version="0.91 r13725"
   sodipodi:docname="application-vnd.oasis.opendocument.image.svg"
   inkscape:export-filename="E:\Usuarios\David\Desktop\android.png"
   inkscape:export-xdpi="90"
   inkscape:export-ydpi="90">
  <metadata
     id="metadata14">
    <rdf:RDF>
      <cc:Work
         rdf:about="">
        <dc:format>image/svg+xml</dc:format>
        <dc:type
           rdf:resource="http://purl.org/dc/dcmitype/StillImage" />
        <dc:title />
      </cc:Work>
    </rdf:RDF>
  </metadata>
  <defs
     id="defs12">
    <linearGradient
       osb:paint="gradient"
       id="linearGradient4207">
      <stop
         id="stop3371"
         offset="0"
         style="stop-color:#3498db;stop-opacity:1;" />
      <stop
         id="stop3373"
         offset="1"
         style="stop-color:#3498db;stop-opacity:0;" />
    </linearGradient>
    <linearGradient
       inkscape:collect="always"
       xlink:href="#linearGradient4143"
       id="linearGradient4182"
       x1="-74.929466"
       y1="52.199436"
       x2="-75.259552"
       y2="2.3564887"
       gradientUnits="userSpaceOnUse"
       gradientTransform="matrix(1.0749904,0,0,1.0292896,56.688954,-0.01528455)" />
    <linearGradient
       id="linearGradient4143"
       inkscape:collect="always">
      <stop
         id="stop4145"
         offset="0"
         style="stop-color:#197cf1;stop-opacity:1" />
      <stop
         id="stop4147"
         offset="1"
         style="stop-color:#20bcfa;stop-opacity:1" />
    </linearGradient>
    <linearGradient
       id="linearGradient4422-1">
      <stop
         id="stop4424-78"
         offset="0"
         style="stop-color:#8798a9;stop-opacity:1" />
      <stop
         id="stop4426-8"
         offset="1"
         style="stop-color:#aeb6be;stop-opacity:1" />
    </linearGradient>
    <linearGradient
       inkscape:collect="always"
       id="linearGradient5002">
      <stop
         style="stop-color:#2e5d89;stop-opacity:1"
         offset="0"
         id="stop5004" />
      <stop
         style="stop-color:#1b92f4;stop-opacity:1"
         offset="1"
         id="stop5006" />
    </linearGradient>
    <linearGradient
       gradientTransform="matrix(1.1818182,0,0,1.1818182,-74.285714,-95.732083)"
       inkscape:collect="always"
       xlink:href="#linearGradient5002"
       id="linearGradient4525"
       gradientUnits="userSpaceOnUse"
       x1="400.57144"
       y1="512.79797"
       x2="415.57144"
       y2="527.79797" />
    <linearGradient
       gradientTransform="translate(78.999997,3.6562389)"
       inkscape:collect="always"
       xlink:href="#linearGradient5002"
       id="linearGradient4527"
       gradientUnits="userSpaceOnUse"
       x1="400.57144"
       y1="512.79797"
       x2="415.57144"
       y2="527.79797" />
    <linearGradient
       y2="527.79797"
       x2="415.57144"
       y1="512.79797"
       x1="400.57144"
       gradientUnits="userSpaceOnUse"
       id="linearGradient4529"
       xlink:href="#linearGradient5002"
       inkscape:collect="always"
       gradientTransform="matrix(1.1818182,0,0,1.1818182,6.714285,-89.23598)" />
    <linearGradient
       y2="527.79797"
       x2="415.57144"
       y1="512.79797"
       x1="400.57144"
       gradientUnits="userSpaceOnUse"
       id="linearGradient4531"
       xlink:href="#linearGradient5002"
       inkscape:collect="always"
       gradientTransform="matrix(1.1818182,0,0,1.1818182,3.714275,-96.23596)" />
    <linearGradient
       gradientTransform="matrix(1.1818182,0,0,1.1818182,-74.285714,-95.732083)"
       inkscape:collect="always"
       xlink:href="#linearGradient5002"
       id="linearGradient4720"
       gradientUnits="userSpaceOnUse"
       x1="400.57144"
       y1="512.79797"
       x2="415.57144"
       y2="527.79797" />
    <linearGradient
       gradientTransform="translate(78.999997,3.6562389)"
       inkscape:collect="always"
       xlink:href="#linearGradient5002"
       id="linearGradient4722"
       gradientUnits="userSpaceOnUse"
       x1="400.57144"
       y1="512.79797"
       x2="415.57144"
       y2="527.79797" />
    <linearGradient
       y2="527.79797"
       x2="415.57144"
       y1="512.79797"
       x1="400.57144"
       gradientUnits="userSpaceOnUse"
       id="linearGradient4724"
       xlink:href="#linearGradient5002"
       inkscape:collect="always"
       gradientTransform="matrix(1.1818182,0,0,1.1818182,6.714285,-89.23598)" />
    <linearGradient
       y2="527.79797"
       x2="415.57144"
       y1="512.79797"
       x1="400.57144"
       gradientUnits="userSpaceOnUse"
       id="linearGradient4726"
       xlink:href="#linearGradient5002"
       inkscape:collect="always"
       gradientTransform="matrix(1.1818182,0,0,1.1818182,3.714275,-96.23596)" />
    <linearGradient
       inkscape:collect="always"
       xlink:href="#linearGradient5002"
       id="linearGradient3580"
       gradientUnits="userSpaceOnUse"
       gradientTransform="matrix(0.54591234,-0.00107475,0.00107475,0.54591234,-283.2761,-262.62923)"
       x1="400.57144"
       y1="512.79797"
       x2="415.57144"
       y2="527.79797" />
    <linearGradient
       inkscape:collect="always"
       xlink:href="#linearGradient5002"
       id="linearGradient3583"
       gradientUnits="userSpaceOnUse"
       gradientTransform="matrix(0.54591234,-0.00107475,0.00107475,0.54591234,-281.88395,-259.39849)"
       x1="400.57144"
       y1="512.79797"
       x2="415.57144"
       y2="527.79797" />
    <linearGradient
       inkscape:collect="always"
       xlink:href="#linearGradient5002"
       id="linearGradient3586"
       gradientUnits="userSpaceOnUse"
       gradientTransform="matrix(0.46192582,-9.0940363e-4,9.0940363e-4,0.46192582,-248.40884,-216.55491)"
       x1="400.57144"
       y1="512.79797"
       x2="415.57144"
       y2="527.79797" />
    <linearGradient
       inkscape:collect="always"
       xlink:href="#linearGradient5002"
       id="linearGradient3589"
       gradientUnits="userSpaceOnUse"
       gradientTransform="matrix(0.54591234,-0.00107475,0.00107475,0.54591234,-319.30585,-262.32555)"
       x1="400.57144"
       y1="512.79797"
       x2="415.57144"
       y2="527.79797" />
    <linearGradient
       inkscape:collect="always"
       xlink:href="#linearGradient5002"
       id="linearGradient3634"
       gradientUnits="userSpaceOnUse"
       gradientTransform="matrix(1.1818182,0,0,1.1818182,-74.285714,-95.732083)"
       x1="400.57144"
       y1="512.79797"
       x2="415.57144"
       y2="527.79797" />
    <linearGradient
       inkscape:collect="always"
       xlink:href="#linearGradient5002"
       id="linearGradient3636"
       gradientUnits="userSpaceOnUse"
       gradientTransform="translate(78.999997,3.6562389)"
       x1="400.57144"
       y1="512.79797"
       x2="415.57144"
       y2="527.79797" />
    <linearGradient
       inkscape:collect="always"
       xlink:href="#linearGradient5002"
       id="linearGradient3638"
       gradientUnits="userSpaceOnUse"
       gradientTransform="matrix(1.1818182,0,0,1.1818182,6.714285,-89.23598)"
       x1="400.57144"
       y1="512.79797"
       x2="415.57144"
       y2="527.79797" />
    <linearGradient
       inkscape:collect="always"
       xlink:href="#linearGradient5002"
       id="linearGradient3640"
       gradientUnits="userSpaceOnUse"
       gradientTransform="matrix(1.1818182,0,0,1.1818182,3.714275,-96.23596)"
       x1="400.57144"
       y1="512.79797"
       x2="415.57144"
       y2="527.79797" />
  </defs>
  <sodipodi:namedview
     pagecolor="#747474"
     bordercolor="#666666"
     borderopacity="1"
     objecttolerance="10"
     gridtolerance="10"
     guidetolerance="10"
     inkscape:pageopacity="1"
     inkscape:pageshadow="2"
     inkscape:window-width="1366"
     inkscape:window-height="712"
     id="namedview10"
     showgrid="false"
     inkscape:zoom="7.4552197"
     inkscape:cx="26.063701"
     inkscape:cy="28.374845"
     inkscape:window-x="0"
     inkscape:window-y="0"
     inkscape:window-maximized="1"
     inkscape:current-layer="g4186"
     inkscape:snap-bbox="true"
     inkscape:bbox-nodes="true"
     inkscape:object-nodes="true"
     borderlayer="false"
     showguides="true"
     inkscape:snap-nodes="true"
     inkscape:object-paths="false"
     inkscape:showpageshadow="false"
     showborder="true">
    <inkscape:grid
       type="xygrid"
       id="grid4160"
       visible="true" />
    <sodipodi:guide
       position="28.888657,63.404975"
       orientation="0,35.2"
       id="guide6108" />
    <sodipodi:guide
       position="54,55.679691"
       orientation="51.200004,0"
       id="guide6112" />
    <sodipodi:guide
       position="58.527669,62"
       orientation="0,1"
       id="guide6114"
       inkscape:label=""
       inkscape:color="rgb(0,0,255)" />
    <sodipodi:guide
       position="10,4"
       orientation="-56,0"
       id="guide6116" />
    <sodipodi:guide
       position="11,4"
       orientation="-2.8421709e-014,0"
       id="guide6118" />
    <sodipodi:guide
       position="12,62"
       orientation="0,35.2"
       id="guide6120" />
    <sodipodi:guide
       position="52,2"
       orientation="0,-40"
       id="guide6126" />
    <sodipodi:guide
       position="12,62"
       orientation="0,35.2"
       id="guide6138" />
    <sodipodi:guide
       position="55,3"
       orientation="0,-40"
       id="guide6156" />
    <sodipodi:guide
       position="53,4.3973202"
       orientation="-56,0"
       id="guide6158" />
    <sodipodi:guide
       position="61.567602,50.568597"
       orientation="0,22"
       id="guide4238" />
    <sodipodi:guide
       position="43,48"
       orientation="22,0"
       id="guide4240" />
    <sodipodi:guide
       position="57.543576,27.09511"
       orientation="0,-22"
       id="guide4242" />
    <sodipodi:guide
       position="21,26"
       orientation="-22,0"
       id="guide4244" />
  </sodipodi:namedview>
  <g
     id="g4186"
     transform="translate(56.391766,-0.17677665)">
    <rect
       ry="2.5"
       y="1.6457753"
       x="-46.391766"
       height="52.831711"
       width="44"
       id="rect4174"
       style="opacity:1;fill:url(#linearGradient4182);fill-opacity:1.0;stroke:none;stroke-width:0.30000001;stroke-linecap:round;stroke-linejoin:round;stroke-miterlimit:4;stroke-dasharray:none;stroke-dashoffset:0;stroke-opacity:1" />
    <g
       id="g4234">
      <rect
         style="opacity:1;fill:#0b3969;fill-opacity:1;stroke:none;stroke-width:0.185;stroke-linecap:round;stroke-linejoin:round;stroke-miterlimit:4;stroke-dasharray:none;stroke-dashoffset:0;stroke-opacity:1"
         id="rect4162"
         width="44"
         height="7.6992903"
         x="-46.391766"
         y="54.477486"
         ry="2.5" />
      <rect
         style="fill:#0b3969;fill-opacity:1;stroke:none"
         id="rect4184"
         width="44"
         height="15"
         x="-46.391766"
         y="44.176304"
         ry="0" />
    </g>
    <g
       style="font-style:normal;font-weight:normal;font-size:9.36996746px;line-height:125%;font-family:sans-serif;letter-spacing:0px;word-spacing:0px;fill:#ffffff;fill-opacity:1;stroke:none"
       id="text4161"
       transform="matrix(1.1335063,0,0,1.2357487,2.6629566,-17.056665)">
      <g
         style="font-style:normal;font-weight:normal;font-size:13.75px;line-height:125%;font-family:sans-serif;letter-spacing:0px;word-spacing:0px;fill:#ffffff;fill-opacity:1;stroke:none"
         id="text4269">
        <path
           d="m -35.786062,53.164537 q -0.19,0.19 -0.46,0.19 -0.27,0 -0.46,-0.19 -0.19,-0.19 -0.19,-0.46 0,-0.27 0.19,-0.46 0.19,-0.19 0.46,-0.19 0.27,0 0.46,0.19 0.19,0.19 0.19,0.46 0,0.27 -0.19,0.46 z m 0,6.13 -0.92,0 0,-4.9 0.92,0 0,4.9 z"
           style="font-style:normal;font-variant:normal;font-weight:normal;font-stretch:normal;font-size:10px;font-family:'Product Sans';-inkscape-font-specification:'Product Sans';fill:#ffffff;fill-opacity:1"
           id="path4236"
           inkscape:connector-curvature="0" />
        <path
           d="m -34.57903,59.294537 0,-4.9 0.88,0 0,0.68 0.04,0 q 0.21,-0.35 0.64,-0.59 0.44,-0.25 0.87,-0.25 1.14,0 1.55,0.94 0.6,-0.94 1.71,-0.94 0.87,0 1.31,0.56 0.44,0.55 0.44,1.5 l 0,3 -0.92,0 0,-2.86 q 0,-0.74 -0.27,-1.05 -0.27,-0.31 -0.82,-0.31 -0.54,0 -0.9,0.46 -0.35,0.46 -0.35,1.05 l 0,2.71 -0.92,0 0,-2.86 q 0,-0.74 -0.27,-1.05 -0.27,-0.31 -0.82,-0.31 -0.54,0 -0.9,0.46 -0.35,0.46 -0.35,1.05 l 0,2.71 -0.92,0 z"
           style="font-style:normal;font-variant:normal;font-weight:normal;font-stretch:normal;font-size:10px;font-family:'Product Sans';-inkscape-font-specification:'Product Sans';fill:#ffffff;fill-opacity:1"
           id="path4238"
           inkscape:connector-curvature="0" />
        <path
           d="m -24.571999,59.454537 q -0.78,0 -1.31,-0.45 -0.52,-0.45 -0.52,-1.19 0,-0.8 0.62,-1.25 0.62,-0.46 1.53,-0.46 0.81,0 1.33,0.3 l 0,-0.14 q 0,-0.54 -0.37,-0.86 -0.37,-0.33 -0.91,-0.33 -0.4,0 -0.73,0.19 -0.32,0.19 -0.44,0.52 l -0.84,-0.36 q 0.17,-0.44 0.67,-0.81 0.5,-0.38 1.32,-0.38 0.94,0 1.56,0.55 0.62,0.55 0.62,1.55 l 0,2.96 -0.88,0 0,-0.68 -0.04,0 q -0.55,0.84 -1.61,0.84 z m 0.15,-0.84 q 0.57,0 1.03,-0.42 0.47,-0.43 0.47,-1.01 -0.39,-0.32 -1.17,-0.32 -0.67,0 -1.01,0.29 -0.34,0.29 -0.34,0.68 0,0.36 0.31,0.57 0.31,0.21 0.71,0.21 z"
           style="font-style:normal;font-variant:normal;font-weight:normal;font-stretch:normal;font-size:10px;font-family:'Product Sans';-inkscape-font-specification:'Product Sans';fill:#ffffff;fill-opacity:1"
           id="path4240"
           inkscape:connector-curvature="0" />
        <path
           d="m -18.933405,61.614537 q -0.87,0 -1.42,-0.44 -0.55,-0.43 -0.79,-0.99 l 0.84,-0.35 q 0.14,0.4 0.51,0.67 0.38,0.27 0.86,0.27 0.76,0 1.19,-0.46 0.44,-0.45 0.44,-1.23 l 0,-0.47 -0.04,0 q -0.24,0.36 -0.68,0.6 -0.44,0.24 -0.99,0.24 -0.95,0 -1.64,-0.75 -0.69,-0.75 -0.69,-1.86 0,-1.11 0.69,-1.86 0.69,-0.75 1.64,-0.75 0.55,0 0.99,0.24 0.44,0.24 0.68,0.6 l 0.04,0 0,-0.68 0.88,0 0,4.65 q 0,1.26 -0.73,1.91 -0.73,0.66 -1.78,0.66 z m 0.07,-3 q 0.65,0 1.1,-0.48 0.46,-0.48 0.46,-1.29 0,-0.81 -0.46,-1.29 -0.45,-0.48 -1.1,-0.48 -0.64,0 -1.1,0.49 -0.46,0.48 -0.46,1.28 0,0.8 0.46,1.29 0.46,0.48 1.1,0.48 z"
           style="font-style:normal;font-variant:normal;font-weight:normal;font-stretch:normal;font-size:10px;font-family:'Product Sans';-inkscape-font-specification:'Product Sans';fill:#ffffff;fill-opacity:1"
           id="path4242"
           inkscape:connector-curvature="0" />
        <path
           d="m -13.14028,59.454537 q -1.11,0 -1.81,-0.74 -0.69,-0.74 -0.69,-1.87 0,-1.07 0.67,-1.84 0.68,-0.77 1.73,-0.77 1.09,0 1.74,0.71 0.66,0.71 0.66,1.9 l -0.01,0.17 -3.87,0 q 0.04,0.74 0.49,1.17 0.46,0.43 1.07,0.43 0.99,0 1.34,-0.84 l 0.82,0.34 q -0.24,0.57 -0.79,0.96 -0.55,0.38 -1.35,0.38 z m 1.32,-3.2 q -0.03,-0.42 -0.39,-0.8 -0.35,-0.38 -1.05,-0.38 -0.51,0 -0.89,0.32 -0.37,0.32 -0.51,0.86 l 2.84,0 z"
           style="font-style:normal;font-variant:normal;font-weight:normal;font-stretch:normal;font-size:10px;font-family:'Product Sans';-inkscape-font-specification:'Product Sans';fill:#ffffff;fill-opacity:1"
           id="path4244"
           inkscape:connector-curvature="0" />
      </g>
    </g>
    <g
       style="stroke:none"
       inkscape:label="Capa 1"
       id="layer1-8-9"
       transform="matrix(0.47344028,-9.3207561e-4,9.3207561e-4,0.47344028,-291.89445,-223.4343)">
      <path
         id="circle4309-6-02"
         style="fill:url(#linearGradient3634);fill-opacity:1;stroke:none"
         r="9.9999886"
         cy="519.79797"
         cx="408.57144"
         d=""
         inkscape:connector-curvature="0" />
      <path
         id="circle4309-6-0-7"
         style="fill:url(#linearGradient3636);fill-opacity:1;stroke:none"
         r="9.9999886"
         cy="519.79797"
         cx="408.57144"
         d=""
         inkscape:connector-curvature="0" />
      <path
         id="circle4309-6-7-2"
         style="fill:url(#linearGradient3638);fill-opacity:1;stroke:none"
         r="9.9999886"
         cy="519.79797"
         cx="408.57144"
         d=""
         inkscape:connector-curvature="0" />
      <path
         id="circle4309-6-4-9"
         style="fill:url(#linearGradient3640);fill-opacity:1;stroke:none"
         r="9.9999886"
         cy="519.79797"
         cx="408.57144"
         d=""
         inkscape:connector-curvature="0" />
      <g
         transform="matrix(0.87053099,0,0,0.87053099,103.47199,117.2361)"
         id="g4823-6">
        <g
           id="g4528-6"
           transform="matrix(0.58271538,-0.10323419,0.10323419,0.58271538,163.82668,269.75821)" />
      </g>
    </g>
    <g
       id="g4215"
       transform="translate(0,-2.5648601)">
      <g
         style="fill:#ffffff"
         transform="matrix(0.4966193,0.08476916,-0.08476916,0.4966193,-308.41099,-261.58458)"
         id="g4727-1">
        <g
           style="fill:#ffffff"
           id="layer1-7-9"
           inkscape:label="Capa 1"
           transform="translate(202.30596,-70.898882)">
          <g
             style="fill:#ffffff;stroke:none"
             inkscape:label="Capa 1"
             id="layer1-8-0"
             transform="translate(-112.5209,-0.17284439)">
            <path
               id="circle4309-6-1"
               style="fill:#ffffff;fill-opacity:1;stroke:none"
               r="9.9999886"
               cy="519.79797"
               cx="408.57144"
               d=""
               inkscape:connector-curvature="0" />
            <path
               id="circle4309-6-0-2"
               style="fill:#ffffff;fill-opacity:1;stroke:none"
               r="9.9999886"
               cy="519.79797"
               cx="408.57144"
               d=""
               inkscape:connector-curvature="0" />
            <path
               id="circle4309-6-7-8"
               style="fill:#ffffff;fill-opacity:1;stroke:none"
               r="9.9999886"
               cy="519.79797"
               cx="408.57144"
               d=""
               inkscape:connector-curvature="0" />
            <path
               id="circle4309-6-4-3"
               style="fill:#ffffff;fill-opacity:1;stroke:none"
               r="9.9999886"
               cy="519.79797"
               cx="408.57144"
               d=""
               inkscape:connector-curvature="0" />
            <g
               style="fill:#ffffff"
               transform="matrix(0.87053099,0,0,0.87053099,103.47199,117.2361)"
               id="g4823-9">
              <g
                 style="fill:#ffffff"
                 id="g4528-2"
                 transform="matrix(0.58271538,-0.10323419,0.10323419,0.58271538,163.82668,269.75821)">
                <rect
                   ry="2.3"
                   y="426.46411"
                   x="504.25668"
                   height="58.986568"
                   width="76.809471"
                   id="rect4473-3"
                   style="fill:#ffffff;fill-opacity:1;stroke:none" />
              </g>
            </g>
          </g>
        </g>
      </g>
      <rect
         transform="matrix(0.98432173,-0.17638235,0.17638235,0.98432173,0,0)"
         style="fill:#ffffff;fill-opacity:1;stroke:#0b3969;stroke-width:0.49395168;stroke-linecap:round;stroke-linejoin:round;stroke-miterlimit:4;stroke-dasharray:none;stroke-opacity:1"
         id="rect4473-6"
         width="19.93545"
         height="15.30962"
         x="-40.047531"
         y="16.299055"
         ry="0.59695154" />
      <path
         style="fill:#0b3969;fill-opacity:1;fill-rule:evenodd;stroke:none"
         d="m -34.127609,36.635214 3.504334,-1.855981 1.31534,0.58037 2.560907,-1.436784 2.846855,0.411641 2.010456,0.06478 1.396845,-0.783729 1.751022,-0.794066 3.155182,0.585153 0.250006,1.461555 -17.707919,3.323017 c 0,0 -0.767067,0.289966 -0.88319,-0.388445 z"
         id="path4486-0"
         inkscape:connector-curvature="0"
         sodipodi:nodetypes="ccccccccccccc" />
      <circle
         transform="matrix(0.25547496,-0.04577901,0.04577901,0.25547496,-184.89285,-62.759338)"
         style="fill:#0b3969;fill-opacity:1;stroke:none"
         id="path4488-2"
         cx="521.2431"
         cy="443.27579"
         r="7.5944858" />
      <circle
         transform="matrix(0.28177327,-0.04866765,0.04866765,0.28177327,-214.25058,-71.478955)"
         style="fill:#ffffff;fill-opacity:1;stroke:#0b3969;stroke-width:2;stroke-linecap:round;stroke-linejoin:round;stroke-miterlimit:4;stroke-dasharray:none;stroke-opacity:1"
         id="path4740-3"
         cx="610.99548"
         cy="479.66388"
         r="19.134081" />
      <path
         style="fill:#0b3969;fill-opacity:1;fill-rule:evenodd;stroke:none"
         d="m -21.533632,38.483849 2.096646,-7.090976 c 1.864919,1.384587 5.865373,2.065303 5.865373,2.065303 l 0.502006,0.561371 c -1.099716,5.917463 -4.627611,5.750136 -8.464025,4.464302 z"
         id="path4756-4"
         inkscape:connector-curvature="0"
         sodipodi:nodetypes="ccccc" />
      <path
         style="fill:#ffffff;fill-opacity:1;fill-rule:evenodd;stroke:none"
         d="m -20.884071,38.941566 0.825443,-1.468172 1.146944,0.320886 0.687806,-1.525864 3.785081,0.728706 c -0.90988,2.200677 -2.903618,3.106156 -6.445274,1.944444 z"
         id="path4793-2"
         inkscape:connector-curvature="0"
         sodipodi:nodetypes="cccccc" />
      <circle
         transform="matrix(0.28177327,-0.04866765,0.04866765,0.28177327,-214.25058,-71.478955)"
         style="fill:none;stroke:#0b3969;stroke-width:2;stroke-linecap:round;stroke-linejoin:round;stroke-miterlimit:4;stroke-dasharray:none;stroke-opacity:1"
         id="path4740-5-4"
         cx="610.91852"
         cy="479.44278"
         r="19.134081" />
    </g>
    <path
       inkscape:connector-curvature="0"
       d=""
       cx="408.57144"
       cy="519.79797"
       r="9.9999886"
       style="fill:url(#linearGradient3589);fill-opacity:1;stroke:none"
       id="circle4309-6" />
    <path
       inkscape:connector-curvature="0"
       d=""
       cx="408.57144"
       cy="519.79797"
       r="9.9999886"
       style="fill:url(#linearGradient3586);fill-opacity:1;stroke:none"
       id="circle4309-6-0" />
    <path
       inkscape:connector-curvature="0"
       d=""
       cx="408.57144"
       cy="519.79797"
       r="9.9999886"
       style="fill:url(#linearGradient3583);fill-opacity:1;stroke:none"
       id="circle4309-6-7" />
    <path
       inkscape:connector-curvature="0"
       d=""
       cx="408.57144"
       cy="519.79797"
       r="9.9999886"
       style="fill:url(#linearGradient3580);fill-opacity:1;stroke:none"
       id="circle4309-6-4" />
  </g>
</svg>
