<?xml version="1.0" encoding="UTF-8" standalone="no"?>
<svg
   xmlns:osb="http://www.openswatchbook.org/uri/2009/osb"
   xmlns:dc="http://purl.org/dc/elements/1.1/"
   xmlns:cc="http://creativecommons.org/ns#"
   xmlns:rdf="http://www.w3.org/1999/02/22-rdf-syntax-ns#"
   xmlns:svg="http://www.w3.org/2000/svg"
   xmlns="http://www.w3.org/2000/svg"
   xmlns:sodipodi="http://sodipodi.sourceforge.net/DTD/sodipodi-0.dtd"
   xmlns:inkscape="http://www.inkscape.org/namespaces/inkscape"
   width="64"
   viewBox="0 0 64 64"
   height="64"
   id="svg2"
   version="1.1"
   inkscape:version="0.48.5 r10040"
   sodipodi:docname="gnome-mime-application-x-zoo.svg"
   inkscape:export-filename="E:\Usuarios\David\Desktop\android.png"
   inkscape:export-xdpi="90"
   inkscape:export-ydpi="90">
  <metadata
     id="metadata14">
    <rdf:RDF>
      <cc:Work
         rdf:about="">
        <dc:format>image/svg+xml</dc:format>
        <dc:type
           rdf:resource="http://purl.org/dc/dcmitype/StillImage" />
        <dc:title />
      </cc:Work>
    </rdf:RDF>
  </metadata>
  <defs
     id="defs12">
    <linearGradient
       osb:paint="gradient"
       id="linearGradient4207">
      <stop
         id="stop3371"
         offset="0"
         style="stop-color:#3498db;stop-opacity:1;" />
      <stop
         id="stop3373"
         offset="1"
         style="stop-color:#3498db;stop-opacity:0;" />
    </linearGradient>
    <linearGradient
       id="linearGradient4422-4">
      <stop
         style="stop-color:#d1d7df;stop-opacity:1"
         offset="0"
         id="stop4424-3" />
      <stop
         style="stop-color:#e0e5e7;stop-opacity:1"
         offset="1"
         id="stop4426-4" />
    </linearGradient>
    <linearGradient
       id="linearGradient4422-1">
      <stop
         id="stop4424-78"
         offset="0"
         style="stop-color:#8798a9;stop-opacity:1" />
      <stop
         id="stop4426-8"
         offset="1"
         style="stop-color:#aeb6be;stop-opacity:1" />
    </linearGradient>
    <linearGradient
       id="linearGradient4351">
      <stop
         id="stop4353"
         offset="0"
         style="stop-color:#ffd6af;stop-opacity:1" />
      <stop
         id="stop4355"
         offset="1"
         style="stop-color:#fffcf9;stop-opacity:1" />
    </linearGradient>
    <linearGradient
       id="linearGradient4300">
      <stop
         id="stop4302"
         offset="0"
         style="stop-color:#f62459;stop-opacity:1" />
      <stop
         id="stop4304"
         offset="1"
         style="stop-color:#f73768;stop-opacity:1" />
    </linearGradient>
    <linearGradient
       id="linearGradient4422">
      <stop
         style="stop-color:#1a85f2;stop-opacity:1"
         offset="0"
         id="stop4424" />
      <stop
         style="stop-color:#1fb0f9;stop-opacity:1"
         offset="1"
         id="stop4426" />
    </linearGradient>
    <linearGradient
       id="linearGradient4256">
      <stop
         id="stop4258"
         offset="0"
         style="stop-color:#8cbdf8;stop-opacity:1;" />
      <stop
         id="stop4260"
         offset="1"
         style="stop-color:#d5e8ff;stop-opacity:1;" />
    </linearGradient>
    <clipPath
       id="clipPath4157"
       clipPathUnits="userSpaceOnUse">
      <path
         style="fill:#f9f8f2;fill-opacity:1;stroke-width:1.00658333"
         inkscape:connector-curvature="0"
         id="path4159"
         d="m 27.642964,3.2951379 13.085584,13.0855841 -11.072418,0 c -0.977824,0 -2.013166,-1.035372 -2.013166,-2.013167 l 0,-11.0724171 z" />
    </clipPath>
    <linearGradient
       id="linearGradient4422-8">
      <stop
         id="stop4424-2"
         offset="0"
         style="stop-color:#ff721a;stop-opacity:1" />
      <stop
         id="stop4426-0"
         offset="1"
         style="stop-color:#fbb521;stop-opacity:1" />
    </linearGradient>
    <linearGradient
       id="linearGradient8467">
      <stop
         offset="0"
         style="stop-color:#d3d3d3;stop-opacity:1"
         id="stop8469" />
      <stop
         offset="1"
         style="stop-color:#fcf9f9;stop-opacity:1"
         id="stop8471" />
    </linearGradient>
    <linearGradient
       id="linearGradient4351-5">
      <stop
         id="stop4353-1"
         offset="0"
         style="stop-color:#fddda3;stop-opacity:1" />
      <stop
         id="stop4355-8"
         offset="1"
         style="stop-color:#fde3a7;stop-opacity:1" />
    </linearGradient>
    <linearGradient
       id="linearGradient4300-3">
      <stop
         id="stop4302-0"
         offset="0"
         style="stop-color:#f39c12;stop-opacity:1;" />
      <stop
         id="stop4304-0"
         offset="1"
         style="stop-color:#f9a11f;stop-opacity:1" />
    </linearGradient>
    <linearGradient
       id="linearGradient4422-0">
      <stop
         id="stop4424-8"
         offset="0"
         style="stop-color:#ffa400;stop-opacity:1" />
      <stop
         id="stop4426-6"
         offset="1"
         style="stop-color:#ffdd00;stop-opacity:1" />
    </linearGradient>
    <linearGradient
       id="linearGradient4422-04">
      <stop
         id="stop4424-0"
         offset="0"
         style="stop-color:#db733d;stop-opacity:1" />
      <stop
         id="stop4426-9"
         offset="1"
         style="stop-color:#ff8f65;stop-opacity:1" />
    </linearGradient>
    <linearGradient
       id="linearGradient4422-4-1">
      <stop
         id="stop4424-5"
         offset="0"
         style="stop-color:#14b59e;stop-opacity:1" />
      <stop
         id="stop4426-7"
         offset="1"
         style="stop-color:#33d6b6;stop-opacity:1" />
    </linearGradient>
    <linearGradient
       id="linearGradient4300-2">
      <stop
         style="stop-color:#3a539b;stop-opacity:1"
         offset="0"
         id="stop4302-4" />
      <stop
         style="stop-color:#3f5aa9;stop-opacity:1"
         offset="1"
         id="stop4304-1" />
    </linearGradient>
    <linearGradient
       id="linearGradient4422-41">
      <stop
         id="stop4424-2-3"
         offset="0"
         style="stop-color:#13b89f;stop-opacity:1" />
      <stop
         id="stop4426-43"
         offset="1"
         style="stop-color:#3aedca;stop-opacity:1" />
    </linearGradient>
    <linearGradient
       id="linearGradient4351-7">
      <stop
         id="stop4353-2"
         offset="0"
         style="stop-color:#c8e3fe;stop-opacity:1" />
      <stop
         id="stop4355-0"
         offset="1"
         style="stop-color:#ffffff;stop-opacity:1" />
    </linearGradient>
    <linearGradient
       id="linearGradient4422-2">
      <stop
         style="stop-color:#a455c7;stop-opacity:1"
         offset="0"
         id="stop4424-1" />
      <stop
         style="stop-color:#bc6add;stop-opacity:1"
         offset="1"
         id="stop4426-2" />
    </linearGradient>
    <linearGradient
       id="linearGradient4073">
      <stop
         style="stop-color:#fcf4f9;stop-opacity:1;"
         offset="0"
         id="stop4075" />
      <stop
         style="stop-color:#fdebff;stop-opacity:1;"
         offset="1"
         id="stop4077" />
    </linearGradient>
    <linearGradient
       id="linearGradient4422-85">
      <stop
         style="stop-color:#df743b;stop-opacity:1"
         offset="0"
         id="stop4424-7" />
      <stop
         style="stop-color:#ff7e4d;stop-opacity:1"
         offset="1"
         id="stop4426-5" />
    </linearGradient>
    <linearGradient
       id="linearGradient4422-3">
      <stop
         style="stop-color:#25292d;stop-opacity:1"
         offset="0"
         id="stop4424-72" />
      <stop
         style="stop-color:#525962;stop-opacity:1"
         offset="1"
         id="stop4426-3" />
    </linearGradient>
    <linearGradient
       id="linearGradient4351-4">
      <stop
         style="stop-color:#036b53;stop-opacity:1"
         offset="0"
         id="stop4353-6" />
      <stop
         style="stop-color:#036b53;stop-opacity:1"
         offset="1"
         id="stop4355-5" />
    </linearGradient>
    <linearGradient
       id="linearGradient4422-9">
      <stop
         style="stop-color:#2db07b;stop-opacity:1"
         offset="0"
         id="stop4424-70" />
      <stop
         style="stop-color:#3ec380;stop-opacity:1"
         offset="1"
         id="stop4426-75" />
    </linearGradient>
    <linearGradient
       id="linearGradient4422-5">
      <stop
         style="stop-color:#e67943;stop-opacity:1"
         offset="0"
         id="stop4424-01" />
      <stop
         style="stop-color:#ff934e;stop-opacity:1"
         offset="1"
         id="stop4426-8-3" />
    </linearGradient>
    <linearGradient
       id="linearGradient4422-93">
      <stop
         style="stop-color:#7c8c9e;stop-opacity:1"
         offset="0"
         id="stop4424-74" />
      <stop
         style="stop-color:#8898a8;stop-opacity:1"
         offset="1"
         id="stop4426-53" />
    </linearGradient>
    <linearGradient
       id="linearGradient4422-22">
      <stop
         style="stop-color:#864ca3;stop-opacity:1"
         offset="0"
         id="stop4424-84" />
      <stop
         style="stop-color:#ad63cb;stop-opacity:1"
         offset="1"
         id="stop4426-90" />
    </linearGradient>
    <linearGradient
       id="linearGradient4422-07">
      <stop
         style="stop-color:#269de0;stop-opacity:1"
         offset="0"
         id="stop4424-83" />
      <stop
         style="stop-color:#1ab4fd;stop-opacity:1"
         offset="1"
         id="stop4426-35" />
    </linearGradient>
    <linearGradient
       id="linearGradient4422-6">
      <stop
         style="stop-color:#4d5052;stop-opacity:1"
         offset="0"
         id="stop4424-8-2" />
      <stop
         style="stop-color:#6f7376;stop-opacity:1"
         offset="1"
         id="stop4426-2-8" />
    </linearGradient>
  </defs>
  <sodipodi:namedview
     pagecolor="#747474"
     bordercolor="#666666"
     borderopacity="1"
     objecttolerance="10"
     gridtolerance="10"
     guidetolerance="10"
     inkscape:pageopacity="1"
     inkscape:pageshadow="2"
     inkscape:window-width="1366"
     inkscape:window-height="701"
     id="namedview10"
     showgrid="false"
     inkscape:zoom="7.4552197"
     inkscape:cx="56.104064"
     inkscape:cy="34.089543"
     inkscape:window-x="0"
     inkscape:window-y="0"
     inkscape:window-maximized="1"
     inkscape:current-layer="g4186"
     inkscape:snap-bbox="true"
     inkscape:bbox-nodes="true"
     inkscape:object-nodes="true"
     borderlayer="false"
     showguides="true"
     inkscape:snap-nodes="true"
     inkscape:object-paths="false"
     inkscape:showpageshadow="false"
     showborder="true"
     inkscape:guide-bbox="true">
    <inkscape:grid
       type="xygrid"
       id="grid4160"
       visible="true" />
    <sodipodi:guide
       position="28.888657,63.404975"
       orientation="0,35.2"
       id="guide6108" />
    <sodipodi:guide
       position="54,55.679691"
       orientation="51.200004,0"
       id="guide6112" />
    <sodipodi:guide
       position="58.527669,62"
       orientation="0,1"
       id="guide6114"
       inkscape:label=""
       inkscape:color="rgb(0,0,255)" />
    <sodipodi:guide
       position="10,4"
       orientation="-56,0"
       id="guide6116" />
    <sodipodi:guide
       position="11,4"
       orientation="-2.8421709e-014,0"
       id="guide6118" />
    <sodipodi:guide
       position="12,62"
       orientation="0,35.2"
       id="guide6120" />
    <sodipodi:guide
       position="52,2"
       orientation="0,-40"
       id="guide6126" />
    <sodipodi:guide
       position="12,62"
       orientation="0,35.2"
       id="guide6138" />
    <sodipodi:guide
       position="55,3"
       orientation="0,-40"
       id="guide6156" />
    <sodipodi:guide
       position="53,4.3973202"
       orientation="-56,0"
       id="guide6158" />
    <sodipodi:guide
       position="43,48"
       orientation="22,0"
       id="guide4240" />
    <sodipodi:guide
       position="54,28.704721"
       orientation="0,-22"
       id="guide4242" />
    <sodipodi:guide
       position="21,26"
       orientation="-22,0"
       id="guide4244" />
    <sodipodi:guide
       orientation="0,1"
       position="50.434463,52.044073"
       id="guide3884" />
  </sodipodi:namedview>
  <g
     id="g4186"
     transform="translate(56.391766,-0.17677665)">
    <rect
       ry="2.5"
       y="1.6457753"
       x="-46.391766"
       height="52.831711"
       width="44"
       id="rect4174"
       style="opacity:1;fill:#009100;fill-opacity:1;stroke:none;stroke-width:0.30000000999999998;stroke-linecap:round;stroke-linejoin:round;stroke-miterlimit:4;stroke-dasharray:none;stroke-dashoffset:0;stroke-opacity:1" />
    <g
       id="g3899"
       transform="matrix(1,0,0,1.6495126,0,-40.384599)">
      <rect
         style="fill:#3d434a;fill-opacity:1;stroke:none"
         id="rect4162"
         width="44"
         height="7.6992903"
         x="-46.391766"
         y="54.477486"
         ry="2.5" />
      <rect
         style="fill:#3d434a;fill-opacity:1;stroke:none"
         id="rect4184"
         width="44"
         height="7.9118414"
         x="-46.391766"
         y="51.264462"
         ry="0" />
    </g>
    <g
       inkscape:transform-center-y="-9.4924686"
       inkscape:transform-center-x="5.4653607"
       inkscape:label="Capa 1"
       id="layer1-4"
       transform="translate(-509.70748,-515.64674)">
      <g
         id="layer1-3-65"
         inkscape:label="Capa 1"
         transform="translate(0.41988239,0.03484499)" />
    </g>
    <g
       id="g3886"
       transform="translate(0,-3.4190323)"
       style="stroke:none">
      <g
         transform="matrix(1.2926022,0,0,1.2926022,-97.999413,-1300.2442)"
         id="g4414"
         style="stroke:none">
        <g
           inkscape:label="Capa 1"
           id="layer1-0"
           transform="matrix(0.42549858,0,0,0.42549858,-116.82388,804.06163)"
           style="stroke:none">
          <rect
             style="fill:#ffffff;fill-opacity:1;stroke:none;stroke-width:2.27272557999999991;stroke-miterlimit:4;stroke-opacity:1;stroke-dasharray:none"
             id="rect4319"
             width="36"
             height="39.999969"
             x="390.57144"
             y="503.798"
             ry="1.9999958" />
          <g
             style="fill:#ffffff;fill-opacity:1;stroke:none"
             id="layer1-7"
             inkscape:label="Capa 1"
             transform="translate(-0.71741557,0.01714041)">
            <rect
               style="opacity:0.92900002000000004;fill:#3d434a;fill-opacity:1;stroke:none"
               id="rect4199"
               width="4"
               height="2"
               x="407.3606"
               y="504.89221"
               ry="0.88864768" />
            <rect
               style="opacity:0.92900002000000004;fill:#3d434a;fill-opacity:1;stroke:none"
               id="rect4199-5"
               width="4"
               height="2"
               x="407.35223"
               y="507.78485"
               ry="0.88864768" />
            <rect
               style="opacity:0.92900002000000004;fill:#3d434a;fill-opacity:1;stroke:none"
               id="rect4199-5-3"
               width="4"
               height="2"
               x="407.32715"
               y="510.64264"
               ry="0.88864768" />
            <rect
               style="opacity:0.92900002000000004;fill:#3d434a;fill-opacity:1;stroke:none"
               id="rect4199-5-3-9"
               width="4"
               height="2"
               x="407.37097"
               y="513.61755"
               ry="0.88864768" />
            <rect
               style="opacity:0.92900002000000004;fill:#3d434a;fill-opacity:1;stroke:none"
               id="rect4199-5-3-9-2"
               width="4"
               height="2"
               x="407.37097"
               y="516.54028"
               ry="0.88864768" />
          </g>
          <rect
             style="opacity:0.92900002000000004;fill:#3d434a;fill-opacity:1;stroke:none"
             id="rect4199-5-3-9-8"
             width="4"
             height="2"
             x="406.6535"
             y="519.54907"
             ry="0.88864768" />
          <path
             inkscape:connector-curvature="0"
             d="m 410.11783,524.47214 0,-1.26212 c 0,-0.35164 -0.28416,-0.63683 -0.63453,-0.63683 l -1.76295,0 c -0.35037,0 -0.6346,0.28526 -0.6346,0.63683 l 0,1.2615 -0.98056,2.89118 c -0.27435,0.80579 -0.14271,1.70105 0.35164,2.39489 0.49436,0.69257 1.29597,1.10622 2.14496,1.10622 0.84916,0 1.65084,-0.41365 2.14519,-1.10622 0.49435,-0.69384 0.62583,-1.5891 0.35156,-2.39426 z m -0.40955,4.53977 c -0.50867,0.71448 -1.70431,0.71448 -2.21306,0 -0.25497,-0.35792 -0.32285,-0.8196 -0.18195,-1.23564 l 0.32909,-0.96974 1.91878,0 0.32918,0.97037 c 0.14096,0.41541 0.0729,0.87709 -0.18204,1.23501 z"
             id="path7"
             style="fill:#3d434a;fill-opacity:1;stroke:none"
             sodipodi:nodetypes="csssscccscccccccccc" />
        </g>
      </g>
    </g>
    <text
       xml:space="preserve"
       style="font-size:13px;font-style:normal;font-weight:normal;line-height:125%;letter-spacing:0px;word-spacing:0px;fill:#ffffff;fill-opacity:1;stroke:none;font-family:Sans"
       x="-35.681072"
       y="56.725117"
       id="text3903"
       sodipodi:linespacing="125%"><tspan
         sodipodi:role="line"
         id="tspan3905"
         x="-35.681072"
         y="56.725117">zoo</tspan></text>
  </g>
</svg>
