<?xml version="1.0" encoding="UTF-8" standalone="no"?>
<svg
   xmlns:osb="http://www.openswatchbook.org/uri/2009/osb"
   xmlns:dc="http://purl.org/dc/elements/1.1/"
   xmlns:cc="http://creativecommons.org/ns#"
   xmlns:rdf="http://www.w3.org/1999/02/22-rdf-syntax-ns#"
   xmlns:svg="http://www.w3.org/2000/svg"
   xmlns="http://www.w3.org/2000/svg"
   xmlns:xlink="http://www.w3.org/1999/xlink"
   xmlns:sodipodi="http://sodipodi.sourceforge.net/DTD/sodipodi-0.dtd"
   xmlns:inkscape="http://www.inkscape.org/namespaces/inkscape"
   width="64"
   viewBox="0 0 64 64"
   height="64"
   id="svg2"
   version="1.1"
   inkscape:version="0.48.5 r10040"
   sodipodi:docname="gnome-mime-imagebmp.svg"
   inkscape:export-filename="E:\Usuarios\David\Desktop\android.png"
   inkscape:export-xdpi="90"
   inkscape:export-ydpi="90">
  <metadata
     id="metadata14">
    <rdf:RDF>
      <cc:Work
         rdf:about="">
        <dc:format>image/svg+xml</dc:format>
        <dc:type
           rdf:resource="http://purl.org/dc/dcmitype/StillImage" />
        <dc:title />
      </cc:Work>
    </rdf:RDF>
  </metadata>
  <defs
     id="defs12">
    <linearGradient
       osb:paint="gradient"
       id="linearGradient4207">
      <stop
         id="stop3371"
         offset="0"
         style="stop-color:#3498db;stop-opacity:1;" />
      <stop
         id="stop3373"
         offset="1"
         style="stop-color:#3498db;stop-opacity:0;" />
    </linearGradient>
    <linearGradient
       inkscape:collect="always"
       xlink:href="#linearGradient4531"
       id="linearGradient4182"
       x1="-74.929466"
       y1="52.199436"
       x2="-75.259552"
       y2="2.3564887"
       gradientUnits="userSpaceOnUse"
       gradientTransform="matrix(1.0749904,0,0,1.0292896,56.688954,-0.01528455)" />
    <linearGradient
       inkscape:collect="always"
       id="linearGradient5002">
      <stop
         style="stop-color:#2e5d89;stop-opacity:1"
         offset="0"
         id="stop5004" />
      <stop
         style="stop-color:#1b92f4;stop-opacity:1"
         offset="1"
         id="stop5006" />
    </linearGradient>
    <linearGradient
       y2="527.79797"
       x2="415.57144"
       y1="512.79797"
       x1="400.57144"
       gradientUnits="userSpaceOnUse"
       id="linearGradient4352"
       xlink:href="#linearGradient5002"
       inkscape:collect="always"
       gradientTransform="matrix(1.1818182,0,0,1.1818182,-74.285714,-95.732083)" />
    <linearGradient
       y2="527.79797"
       x2="415.57144"
       y1="512.79797"
       x1="400.57144"
       gradientUnits="userSpaceOnUse"
       id="linearGradient4352-6"
       xlink:href="#linearGradient5002"
       inkscape:collect="always"
       gradientTransform="translate(78.999997,3.6562389)" />
    <linearGradient
       gradientTransform="matrix(1.1818182,0,0,1.1818182,6.714285,-89.23598)"
       inkscape:collect="always"
       xlink:href="#linearGradient5002"
       id="linearGradient4352-5"
       gradientUnits="userSpaceOnUse"
       x1="400.57144"
       y1="512.79797"
       x2="415.57144"
       y2="527.79797" />
    <linearGradient
       gradientTransform="matrix(1.1818182,0,0,1.1818182,3.714275,-96.23596)"
       inkscape:collect="always"
       xlink:href="#linearGradient5002"
       id="linearGradient4352-9"
       gradientUnits="userSpaceOnUse"
       x1="400.57144"
       y1="512.79797"
       x2="415.57144"
       y2="527.79797" />
    <linearGradient
       gradientTransform="matrix(1.1818182,0,0,1.1818182,-74.285714,-95.732083)"
       inkscape:collect="always"
       xlink:href="#linearGradient5002"
       id="linearGradient4352-68-2"
       gradientUnits="userSpaceOnUse"
       x1="400.57144"
       y1="512.79797"
       x2="415.57144"
       y2="527.79797" />
    <linearGradient
       gradientTransform="translate(78.999997,3.6562389)"
       inkscape:collect="always"
       xlink:href="#linearGradient5002"
       id="linearGradient4352-6-8-3"
       gradientUnits="userSpaceOnUse"
       x1="400.57144"
       y1="512.79797"
       x2="415.57144"
       y2="527.79797" />
    <linearGradient
       y2="527.79797"
       x2="415.57144"
       y1="512.79797"
       x1="400.57144"
       gradientUnits="userSpaceOnUse"
       id="linearGradient4352-5-5-2"
       xlink:href="#linearGradient5002"
       inkscape:collect="always"
       gradientTransform="matrix(1.1818182,0,0,1.1818182,6.714285,-89.23598)" />
    <linearGradient
       y2="527.79797"
       x2="415.57144"
       y1="512.79797"
       x1="400.57144"
       gradientUnits="userSpaceOnUse"
       id="linearGradient4352-9-4-5"
       xlink:href="#linearGradient5002"
       inkscape:collect="always"
       gradientTransform="matrix(1.1818182,0,0,1.1818182,3.714275,-96.23596)" />
    <linearGradient
       inkscape:collect="always"
       xlink:href="#linearGradient5002"
       id="linearGradient4773"
       gradientUnits="userSpaceOnUse"
       gradientTransform="matrix(1.1818182,0,0,1.1818182,-74.285714,-95.732083)"
       x1="400.57144"
       y1="512.79797"
       x2="415.57144"
       y2="527.79797" />
    <linearGradient
       inkscape:collect="always"
       xlink:href="#linearGradient5002"
       id="linearGradient4775"
       gradientUnits="userSpaceOnUse"
       gradientTransform="translate(78.999997,3.6562389)"
       x1="400.57144"
       y1="512.79797"
       x2="415.57144"
       y2="527.79797" />
    <linearGradient
       inkscape:collect="always"
       xlink:href="#linearGradient5002"
       id="linearGradient4777"
       gradientUnits="userSpaceOnUse"
       gradientTransform="matrix(1.1818182,0,0,1.1818182,6.714285,-89.23598)"
       x1="400.57144"
       y1="512.79797"
       x2="415.57144"
       y2="527.79797" />
    <linearGradient
       inkscape:collect="always"
       xlink:href="#linearGradient5002"
       id="linearGradient4779"
       gradientUnits="userSpaceOnUse"
       gradientTransform="matrix(1.1818182,0,0,1.1818182,3.714275,-96.23596)"
       x1="400.57144"
       y1="512.79797"
       x2="415.57144"
       y2="527.79797" />
    <linearGradient
       id="linearGradient4422-9">
      <stop
         id="stop4424-7"
         offset="0"
         style="stop-color:#ffa400;stop-opacity:1" />
      <stop
         id="stop4426-7"
         offset="1"
         style="stop-color:#ffdd00;stop-opacity:1" />
    </linearGradient>
    <linearGradient
       id="linearGradient4422-1">
      <stop
         id="stop4424-78"
         offset="0"
         style="stop-color:#8798a9;stop-opacity:1" />
      <stop
         id="stop4426-8"
         offset="1"
         style="stop-color:#aeb6be;stop-opacity:1" />
    </linearGradient>
    <linearGradient
       id="linearGradient4531"
       inkscape:collect="always">
      <stop
         id="stop4533"
         offset="0"
         style="stop-color:#924db1;stop-opacity:1" />
      <stop
         id="stop4535"
         offset="1"
         style="stop-color:#be6ce0;stop-opacity:1" />
    </linearGradient>
  </defs>
  <sodipodi:namedview
     pagecolor="#747474"
     bordercolor="#666666"
     borderopacity="1"
     objecttolerance="10"
     gridtolerance="10"
     guidetolerance="10"
     inkscape:pageopacity="1"
     inkscape:pageshadow="2"
     inkscape:window-width="1366"
     inkscape:window-height="712"
     id="namedview10"
     showgrid="false"
     inkscape:zoom="7.4552197"
     inkscape:cx="38.465415"
     inkscape:cy="30.113896"
     inkscape:window-x="0"
     inkscape:window-y="0"
     inkscape:window-maximized="1"
     inkscape:current-layer="g4186"
     inkscape:snap-bbox="true"
     inkscape:bbox-nodes="true"
     inkscape:object-nodes="true"
     borderlayer="false"
     showguides="true"
     inkscape:snap-nodes="true"
     inkscape:object-paths="false"
     inkscape:showpageshadow="false"
     showborder="true"
     inkscape:snap-global="false">
    <inkscape:grid
       type="xygrid"
       id="grid4160"
       visible="true" />
    <sodipodi:guide
       position="28.888657,63.404975"
       orientation="0,35.2"
       id="guide6108" />
    <sodipodi:guide
       position="54,55.679691"
       orientation="51.200004,0"
       id="guide6112" />
    <sodipodi:guide
       position="58.527669,62"
       orientation="0,1"
       id="guide6114"
       inkscape:label=""
       inkscape:color="rgb(0,0,255)" />
    <sodipodi:guide
       position="10,4"
       orientation="-56,0"
       id="guide6116" />
    <sodipodi:guide
       position="11,4"
       orientation="-2.8421709e-014,0"
       id="guide6118" />
    <sodipodi:guide
       position="12,62"
       orientation="0,35.2"
       id="guide6120" />
    <sodipodi:guide
       position="52,2"
       orientation="0,-40"
       id="guide6126" />
    <sodipodi:guide
       position="12,62"
       orientation="0,35.2"
       id="guide6138" />
    <sodipodi:guide
       position="55,3"
       orientation="0,-40"
       id="guide6156" />
    <sodipodi:guide
       position="53,4.3973202"
       orientation="-56,0"
       id="guide6158" />
    <sodipodi:guide
       position="60.22626,51.507536"
       orientation="0,22"
       id="guide4238" />
    <sodipodi:guide
       position="43,48"
       orientation="22,0"
       id="guide4240" />
    <sodipodi:guide
       position="60.628663,27.765781"
       orientation="0,-22"
       id="guide4242" />
    <sodipodi:guide
       position="21,26"
       orientation="-22,0"
       id="guide4244" />
  </sodipodi:namedview>
  <g
     id="g4186"
     transform="translate(56.391766,-0.17677665)">
    <rect
       ry="2.5"
       y="1.6457753"
       x="-46.391766"
       height="52.831711"
       width="44"
       id="rect4174"
       style="opacity:1;fill:url(#linearGradient4182);fill-opacity:1.0;stroke:none;stroke-width:0.30000001;stroke-linecap:round;stroke-linejoin:round;stroke-miterlimit:4;stroke-dasharray:none;stroke-dashoffset:0;stroke-opacity:1" />
    <g
       id="g3081"
       transform="matrix(1,0,0,1.6495126,0,-40.384599)">
      <rect
         style="fill:#3f224b;fill-opacity:1;stroke:none"
         id="rect4162"
         width="44"
         height="7.6992903"
         x="-46.391766"
         y="54.477486"
         ry="2.5" />
      <rect
         style="fill:#3f224b;fill-opacity:1;stroke:none"
         id="rect4184"
         width="44"
         height="7.9118414"
         x="-46.391766"
         y="51.264462"
         ry="0" />
    </g>
    <g
       inkscape:transform-center-y="-9.4924686"
       inkscape:transform-center-x="5.4653607"
       inkscape:label="Capa 1"
       id="layer1"
       transform="translate(-456.5109,-514.34025)">
      <g
         id="layer1-3"
         inkscape:label="Capa 1"
         transform="translate(0.41988239,0.03484499)">
        <g
           inkscape:label="Capa 1"
           id="layer1-7"
           transform="translate(-37.074403,0.97032551)">
          <g
             id="g4231-5"
             transform="matrix(1.5263052,0,0,1.5263052,376.31698,-1040.1258)" />
        </g>
        <g
           inkscape:label="Capa 1"
           id="layer1-06"
           transform="matrix(0.58919846,0,0,0.58919846,193.62233,226.83599)">
          <g
             id="g5030"
             transform="matrix(0.44497383,0,0,0.44497383,112.4612,315.12554)">
            <g
               transform="matrix(0.72106786,0,0,0.72106786,211.7146,141.11806)"
               id="g5015">
              <g
                 transform="matrix(2.6128365,0,0,2.6128365,-453.91971,-896.41721)"
                 id="layer1-1"
                 inkscape:label="Capa 1">
                <g
                   transform="matrix(0.54400712,0,0,0.54400712,51.678277,263.57595)"
                   id="g5030-9">
                  <g
                     id="g4955-9"
                     transform="matrix(0.98540968,-0.17019916,0.17019916,0.98540968,-6.1807956,131.71689)">
                    <g
                       transform="matrix(1.7367633,0.29645235,-0.29645235,1.7367633,-404.04903,-540.07287)"
                       id="g4727-2">
                      <g
                         id="layer1-7-7"
                         inkscape:label="Capa 1"
                         transform="translate(202.30596,-70.898882)">
                        <g
                           style="stroke:none"
                           inkscape:label="Capa 1"
                           id="layer1-8-9"
                           transform="translate(-112.5209,-0.17284439)">
                          <path
                             id="circle4309-6-02"
                             style="fill:url(#linearGradient4773);fill-opacity:1;stroke:none"
                             r="9.9999886"
                             cy="519.79797"
                             cx="408.57144"
                             d=""
                             inkscape:connector-curvature="0" />
                          <path
                             id="circle4309-6-0-7"
                             style="fill:url(#linearGradient4775);fill-opacity:1;stroke:none"
                             r="9.9999886"
                             cy="519.79797"
                             cx="408.57144"
                             d=""
                             inkscape:connector-curvature="0" />
                          <path
                             id="circle4309-6-7-2"
                             style="fill:url(#linearGradient4777);fill-opacity:1;stroke:none"
                             r="9.9999886"
                             cy="519.79797"
                             cx="408.57144"
                             d=""
                             inkscape:connector-curvature="0" />
                          <path
                             id="circle4309-6-4-9"
                             style="fill:url(#linearGradient4779);fill-opacity:1;stroke:none"
                             r="9.9999886"
                             cy="519.79797"
                             cx="408.57144"
                             d=""
                             inkscape:connector-curvature="0" />
                          <g
                             transform="matrix(0.87053099,0,0,0.87053099,103.47199,117.2361)"
                             id="g4823-6">
                            <g
                               id="g4528-6"
                               transform="matrix(0.58271538,-0.10323419,0.10323419,0.58271538,163.82668,269.75821)" />
                          </g>
                        </g>
                      </g>
                    </g>
                    <g
                       transform="matrix(1.0641281,0,0,1.0641281,-38.559495,-30.470205)"
                       id="g4248-6">
                      <g
                         transform="matrix(0.98540969,0.17019916,-0.17019916,0.98540969,-46.791443,-145.67525)"
                         id="g5015-3">
                        <g
                           id="g4727-1"
                           transform="matrix(1.7367633,0.29645235,-0.29645235,1.7367633,-258.39264,-529.24618)">
                          <g
                             transform="translate(202.30596,-70.898882)"
                             inkscape:label="Capa 1"
                             id="layer1-7-9">
                            <g
                               transform="translate(-112.5209,-0.17284439)"
                               id="layer1-8-0"
                               inkscape:label="Capa 1"
                               style="stroke:none">
                              <path
                                 inkscape:connector-curvature="0"
                                 d=""
                                 cx="408.57144"
                                 cy="519.79797"
                                 r="9.9999886"
                                 style="fill:url(#linearGradient4352-68-2);fill-opacity:1;stroke:none"
                                 id="circle4309-6-1" />
                              <path
                                 inkscape:connector-curvature="0"
                                 d=""
                                 cx="408.57144"
                                 cy="519.79797"
                                 r="9.9999886"
                                 style="fill:url(#linearGradient4352-6-8-3);fill-opacity:1;stroke:none"
                                 id="circle4309-6-0-2" />
                              <path
                                 inkscape:connector-curvature="0"
                                 d=""
                                 cx="408.57144"
                                 cy="519.79797"
                                 r="9.9999886"
                                 style="fill:url(#linearGradient4352-5-5-2);fill-opacity:1;stroke:none"
                                 id="circle4309-6-7-8" />
                              <path
                                 inkscape:connector-curvature="0"
                                 d=""
                                 cx="408.57144"
                                 cy="519.79797"
                                 r="9.9999886"
                                 style="fill:url(#linearGradient4352-9-4-5);fill-opacity:1;stroke:none"
                                 id="circle4309-6-4-3" />
                              <g
                                 id="g4823-9"
                                 transform="matrix(0.87053099,0,0,0.87053099,103.47199,117.2361)">
                                <g
                                   transform="matrix(0.58271538,-0.10323419,0.10323419,0.58271538,163.82668,269.75821)"
                                   id="g4528-2">
                                <rect
                                   style="fill:#ffffff;fill-opacity:1;stroke:none"
                                   id="rect4473-3"
                                   width="76.809471"
                                   height="58.986568"
                                   x="504.25668"
                                   y="426.46411"
                                   ry="2.3" />
                                </g>
                              </g>
                            </g>
                          </g>
                        </g>
                      </g>
                      <rect
                         transform="matrix(0.90765278,-0.0056985,0.0056985,0.90765278,95.981015,47.52327)"
                         style="fill:#ffffff;fill-opacity:1;stroke:#3f224b;stroke-width:1.9031508;stroke-linecap:round;stroke-linejoin:round;stroke-miterlimit:4;stroke-opacity:1;stroke-dasharray:none"
                         id="rect4473-6"
                         width="76.809471"
                         height="58.986568"
                         x="504.25668"
                         y="426.46411"
                         ry="2.3" />
                      <path
                         transform="matrix(0.90765278,-0.0056985,0.0056985,0.90765278,95.981015,47.52327)"
                         style="fill:#3f224b;fill-opacity:1;fill-rule:evenodd;stroke:none"
                         d="m 504.2304,479.41184 14.55149,-4.65732 4.59402,3.09494 10.68866,-3.70865 10.51696,3.49583 7.58063,1.61197 5.83015,-2.02302 7.18039,-1.82153 11.56837,4.36341 -0.0451,5.71285 -69.41559,0.56851 c 0,0 -3.10616,0.57841 -3.08552,-2.07338 z"
                         id="path4486-0"
                         inkscape:connector-curvature="0"
                         sodipodi:nodetypes="ccccccccccccc" />
                      <circle
                         transform="matrix(0.90765278,-0.0056985,0.0056985,0.90765278,95.981015,47.52327)"
                         style="fill:#3f224b;fill-opacity:1;stroke:none"
                         id="path4488-2"
                         cx="521.2431"
                         cy="443.27579"
                         r="7.5944858"
                         d="m 528.83759,443.27579 c 0,4.19432 -3.40017,7.59448 -7.59449,7.59448 -4.19432,0 -7.59448,-3.40016 -7.59448,-7.59448 0,-4.19432 3.40016,-7.59449 7.59448,-7.59449 4.19432,0 7.59449,3.40017 7.59449,7.59449 z"
                         sodipodi:cx="521.2431"
                         sodipodi:cy="443.27579"
                         sodipodi:rx="7.5944858"
                         sodipodi:ry="7.5944858" />
                      <circle
                         style="fill:#ffffff;fill-opacity:1;stroke:#0b3969;stroke-width:2;stroke-linecap:round;stroke-linejoin:round;stroke-miterlimit:4;stroke-opacity:1;stroke-dasharray:none"
                         id="path4740-3"
                         cx="610.99548"
                         cy="479.66388"
                         r="19.134081"
                         d="m 630.12956,479.66388 c 0,10.56746 -8.56662,19.13408 -19.13408,19.13408 -10.56746,0 -19.13408,-8.56662 -19.13408,-19.13408 0,-10.56746 8.56662,-19.13408 19.13408,-19.13408 10.56746,0 19.13408,8.56662 19.13408,19.13408 z"
                         sodipodi:cx="610.99548"
                         sodipodi:cy="479.66388"
                         sodipodi:rx="19.134081"
                         sodipodi:ry="19.134081" />
                      <path
                         style="fill:#3f224b;fill-opacity:1;fill-rule:evenodd;stroke:none"
                         d="m 598.67943,493.65621 11.44601,-23.18859 c 5.60266,5.88152 18.98364,10.6085 18.98364,10.6085 l 1.39585,2.23337 c -7.31195,19.73788 -19.37,17.06139 -31.8255,10.34672 z"
                         id="path4756-4"
                         inkscape:connector-curvature="0"
                         sodipodi:nodetypes="ccccc" />
                      <path
                         style="fill:#ffffff;fill-opacity:1;fill-rule:evenodd;stroke:none"
                         d="m 600.64547,495.6202 3.71848,-4.56822 3.76154,1.7885 3.2785,-4.84896 12.61021,4.76417 c -4.44546,7.04228 -11.85513,8.97599 -23.36873,2.86451 z"
                         id="path4793-2"
                         inkscape:connector-curvature="0"
                         sodipodi:nodetypes="cccccc" />
                      <circle
                         style="fill:none;stroke:#3f224b;stroke-width:2;stroke-linecap:round;stroke-linejoin:round;stroke-miterlimit:4;stroke-opacity:1;stroke-dasharray:none"
                         id="path4740-5-4"
                         cx="610.91852"
                         cy="479.44278"
                         r="19.134081"
                         d="m 630.0526,479.44278 c 0,10.56746 -8.56662,19.13408 -19.13408,19.13408 -10.56746,0 -19.13408,-8.56662 -19.13408,-19.13408 0,-10.56746 8.56662,-19.13408 19.13408,-19.13408 10.56746,0 19.13408,8.56662 19.13408,19.13408 z"
                         sodipodi:cx="610.91852"
                         sodipodi:cy="479.44278"
                         sodipodi:rx="19.134081"
                         sodipodi:ry="19.134081" />
                    </g>
                  </g>
                </g>
              </g>
            </g>
            <g
               transform="matrix(0.98540968,-0.17019916,0.17019916,0.98540968,-6.1807956,131.71689)"
               id="g4955">
              <g
                 id="g4727"
                 transform="matrix(1.7367633,0.29645235,-0.29645235,1.7367633,-404.04903,-540.07287)">
                <g
                   transform="translate(202.30596,-70.898882)"
                   inkscape:label="Capa 1"
                   id="layer1-7-2">
                  <g
                     transform="translate(-112.5209,-0.17284439)"
                     id="layer1-8"
                     inkscape:label="Capa 1"
                     style="stroke:none">
                    <path
                       inkscape:connector-curvature="0"
                       d=""
                       cx="408.57144"
                       cy="519.79797"
                       r="9.9999886"
                       style="fill:url(#linearGradient4352);fill-opacity:1;stroke:none"
                       id="circle4309-6" />
                    <path
                       inkscape:connector-curvature="0"
                       d=""
                       cx="408.57144"
                       cy="519.79797"
                       r="9.9999886"
                       style="fill:url(#linearGradient4352-6);fill-opacity:1;stroke:none"
                       id="circle4309-6-0" />
                    <path
                       inkscape:connector-curvature="0"
                       d=""
                       cx="408.57144"
                       cy="519.79797"
                       r="9.9999886"
                       style="fill:url(#linearGradient4352-5);fill-opacity:1;stroke:none"
                       id="circle4309-6-7" />
                    <path
                       inkscape:connector-curvature="0"
                       d=""
                       cx="408.57144"
                       cy="519.79797"
                       r="9.9999886"
                       style="fill:url(#linearGradient4352-9);fill-opacity:1;stroke:none"
                       id="circle4309-6-4" />
                    <g
                       id="g4823"
                       transform="matrix(0.87053099,0,0,0.87053099,103.47199,117.2361)">
                      <g
                         transform="matrix(0.58271538,-0.10323419,0.10323419,0.58271538,163.82668,269.75821)"
                         id="g4528" />
                    </g>
                  </g>
                </g>
              </g>
            </g>
          </g>
        </g>
      </g>
    </g>
    <text
       xml:space="preserve"
       style="font-size:8px;font-style:normal;font-weight:normal;line-height:125%;letter-spacing:0px;word-spacing:0px;fill:#ffffff;fill-opacity:1;stroke:none;font-family:Sans"
       x="-45.987469"
       y="55.383808"
       id="text3109"
       sodipodi:linespacing="125%"><tspan
         sodipodi:role="line"
         id="tspan3111"
         x="-45.987469"
         y="55.383808">imagebmp</tspan></text>
  </g>
</svg>
