<?xml version="1.0" encoding="UTF-8" standalone="no"?>
<svg
   xmlns:sketch="http://www.bohemiancoding.com/sketch/ns"
   xmlns:osb="http://www.openswatchbook.org/uri/2009/osb"
   xmlns:dc="http://purl.org/dc/elements/1.1/"
   xmlns:cc="http://creativecommons.org/ns#"
   xmlns:rdf="http://www.w3.org/1999/02/22-rdf-syntax-ns#"
   xmlns:svg="http://www.w3.org/2000/svg"
   xmlns="http://www.w3.org/2000/svg"
   xmlns:xlink="http://www.w3.org/1999/xlink"
   xmlns:sodipodi="http://sodipodi.sourceforge.net/DTD/sodipodi-0.dtd"
   xmlns:inkscape="http://www.inkscape.org/namespaces/inkscape"
   width="64"
   viewBox="0 0 64 64"
   height="64"
   id="svg2"
   version="1.1"
   inkscape:version="0.48.5 r10040"
   sodipodi:docname="gnome-mime-text-x-gtkrc.svg"
   inkscape:export-filename="E:\Usuarios\David\Desktop\android.png"
   inkscape:export-xdpi="90"
   inkscape:export-ydpi="90">
  <metadata
     id="metadata14">
    <rdf:RDF>
      <cc:Work
         rdf:about="">
        <dc:format>image/svg+xml</dc:format>
        <dc:type
           rdf:resource="http://purl.org/dc/dcmitype/StillImage" />
        <dc:title />
      </cc:Work>
    </rdf:RDF>
  </metadata>
  <defs
     id="defs12">
    <linearGradient
       osb:paint="gradient"
       id="linearGradient4207">
      <stop
         id="stop3371"
         offset="0"
         style="stop-color:#3498db;stop-opacity:1;" />
      <stop
         id="stop3373"
         offset="1"
         style="stop-color:#3498db;stop-opacity:0;" />
    </linearGradient>
    <linearGradient
       inkscape:collect="always"
       xlink:href="#linearGradient5822"
       id="linearGradient4182"
       x1="-74.929466"
       y1="52.199436"
       x2="-75.259552"
       y2="2.3564887"
       gradientUnits="userSpaceOnUse"
       gradientTransform="matrix(1.0749904,0,0,1.0292896,56.688954,-0.01528455)" />
    <linearGradient
       inkscape:collect="always"
       id="linearGradient5822">
      <stop
         style="stop-color:#ff292f;stop-opacity:1"
         offset="0"
         id="stop5824" />
      <stop
         style="stop-color:#ff4f1c;stop-opacity:1"
         offset="1"
         id="stop5826" />
    </linearGradient>
  </defs>
  <sodipodi:namedview
     pagecolor="#747474"
     bordercolor="#666666"
     borderopacity="1"
     objecttolerance="10"
     gridtolerance="10"
     guidetolerance="10"
     inkscape:pageopacity="1"
     inkscape:pageshadow="2"
     inkscape:window-width="1366"
     inkscape:window-height="712"
     id="namedview10"
     showgrid="false"
     inkscape:zoom="7.4552197"
     inkscape:cx="33.101444"
     inkscape:cy="28.791242"
     inkscape:window-x="0"
     inkscape:window-y="0"
     inkscape:window-maximized="1"
     inkscape:current-layer="g4186"
     inkscape:snap-bbox="true"
     inkscape:bbox-nodes="true"
     inkscape:object-nodes="true"
     borderlayer="false"
     showguides="true"
     inkscape:snap-nodes="true"
     inkscape:object-paths="false"
     inkscape:showpageshadow="false"
     showborder="true"
     inkscape:snap-global="false">
    <inkscape:grid
       type="xygrid"
       id="grid4160"
       visible="true" />
    <sodipodi:guide
       position="28.888657,63.404975"
       orientation="0,35.2"
       id="guide6108" />
    <sodipodi:guide
       position="54,55.679691"
       orientation="51.200004,0"
       id="guide6112" />
    <sodipodi:guide
       position="58.527669,62"
       orientation="0,1"
       id="guide6114"
       inkscape:label=""
       inkscape:color="rgb(0,0,255)" />
    <sodipodi:guide
       position="10,4"
       orientation="-56,0"
       id="guide6116" />
    <sodipodi:guide
       position="12,62"
       orientation="0,35.2"
       id="guide6120" />
    <sodipodi:guide
       position="52,2"
       orientation="0,-40"
       id="guide6126" />
    <sodipodi:guide
       position="12,62"
       orientation="0,35.2"
       id="guide6138" />
    <sodipodi:guide
       position="53,4.3973202"
       orientation="-56,0"
       id="guide6158" />
    <sodipodi:guide
       position="60.22626,46.946973"
       orientation="0,22"
       id="guide4238" />
    <sodipodi:guide
       position="43,48"
       orientation="22,0"
       id="guide4240" />
    <sodipodi:guide
       position="57.409442,32.997016"
       orientation="0,-22"
       id="guide4242" />
    <sodipodi:guide
       position="21,26"
       orientation="-22,0"
       id="guide4244" />
  </sodipodi:namedview>
  <g
     id="g4186"
     transform="translate(56.391766,-0.17677665)">
    <rect
       ry="2.5"
       y="1.6457753"
       x="-46.391766"
       height="52.831711"
       width="44"
       id="rect4174"
       style="opacity:1;fill:url(#linearGradient4182);fill-opacity:1.0;stroke:none;stroke-width:0.30000001;stroke-linecap:round;stroke-linejoin:round;stroke-miterlimit:4;stroke-dasharray:none;stroke-dashoffset:0;stroke-opacity:1" />
    <g
       id="g3052"
       transform="matrix(1,0,0,1.6495126,0,-40.384599)">
      <rect
         style="fill:#5f0c0d;fill-opacity:1;stroke:none"
         id="rect4162"
         width="44"
         height="7.6992903"
         x="-46.391766"
         y="54.477486"
         ry="2.5" />
      <rect
         style="fill:#5f0c0d;fill-opacity:1;stroke:none"
         id="rect4184"
         width="44"
         height="7.9118414"
         x="-46.391766"
         y="51.264462"
         ry="0" />
    </g>
    <g
       id="g4186-3"
       transform="translate(-46.754763,0.40346316)">
      <g
         transform="translate(-400.92463,-509.18113)"
         id="layer1-38"
         inkscape:label="Capa 1"
         inkscape:transform-center-x="5.4653607"
         inkscape:transform-center-y="-9.4924686">
        <g
           inkscape:transform-center-y="-9.4924686"
           inkscape:transform-center-x="5.4653607"
           inkscape:label="Capa 1"
           id="layer1"
           transform="translate(-47.017055,-3.1738266)">
          <g
             id="layer1-3"
             inkscape:label="Capa 1"
             transform="translate(0.41988239,0.03484499)">
            <g
               inkscape:label="Capa 1"
               id="layer1-7"
               transform="translate(-37.074403,0.97032551)">
              <g
                 id="g4231-5"
                 transform="matrix(1.5263052,0,0,1.5263052,376.31698,-1040.1258)" />
            </g>
          </g>
        </g>
      </g>
    </g>
    <g
       id="g4186-35"
       transform="translate(-47.291301,-1.7187235)">
      <g
         transform="translate(-509.70748,-515.64674)"
         id="layer1-4-0"
         inkscape:label="Capa 1"
         inkscape:transform-center-x="5.4653607"
         inkscape:transform-center-y="-9.4924686">
        <g
           transform="translate(0.41988239,0.03484499)"
           inkscape:label="Capa 1"
           id="layer1-3-65" />
      </g>
      <g
         style="font-size:13.75px;font-style:normal;font-weight:normal;line-height:125%;letter-spacing:0px;word-spacing:0px;fill:#000000;fill-opacity:1;stroke:none;font-family:sans-serif"
         id="text4467"
         transform="matrix(0.56780692,0,0,0.56780692,28.192512,27.145107)" />
      <g
         transform="translate(48.012107,0.23123155)"
         id="g3889">
        <rect
           ry="2"
           y="19.256327"
           x="-39.839722"
           height="12.921938"
           width="12.921937"
           id="rect3054"
           style="fill:#ffffff;fill-opacity:1;fill-rule:evenodd;stroke:#5f0c0d;stroke-width:1.07806218;stroke-linecap:round;stroke-linejoin:round;stroke-miterlimit:4;stroke-opacity:1;stroke-dasharray:none;stroke-dashoffset:0" />
        <circle
           transform="translate(33.08709,-5.571582)"
           r="6.5094953"
           cy="31.288876"
           cx="-48.491863"
           id="circle3056"
           style="fill:#ffffff;fill-opacity:1;fill-rule:evenodd;stroke:#5f0c0d;stroke-width:0.98100001;stroke-linecap:round;stroke-linejoin:round;stroke-miterlimit:4;stroke-opacity:1;stroke-dasharray:none;stroke-dashoffset:0"
           d="m -41.982368,31.288876 c 0,3.595095 -2.9144,6.509495 -6.509495,6.509495 -3.595095,0 -6.509496,-2.9144 -6.509496,-6.509495 0,-3.595095 2.914401,-6.509496 6.509496,-6.509496 3.595095,0 6.509495,2.914401 6.509495,6.509496 z"
           sodipodi:cx="-48.491863"
           sodipodi:cy="31.288876"
           sodipodi:rx="6.5094953"
           sodipodi:ry="6.5094953" />
        <circle
           transform="matrix(0.9329329,0,0,0.9329329,29.842907,-3.467439)"
           r="4"
           cy="31.282778"
           cx="-48.500465"
           id="circle3058"
           style="fill:#5f0c0d;fill-opacity:1;fill-rule:evenodd;stroke:none"
           d="m -44.500465,31.282778 c 0,2.209139 -1.790861,4 -4,4 -2.209139,0 -4,-1.790861 -4,-4 0,-2.209139 1.790861,-4 4,-4 2.209139,0 4,1.790861 4,4 z"
           sodipodi:cx="-48.500465"
           sodipodi:cy="31.282778"
           sodipodi:rx="4"
           sodipodi:ry="4" />
        <g
           style="fill:#5f0c0d;fill-opacity:1"
           inkscape:label="Capa 1"
           id="g3060"
           transform="matrix(0.81899914,0,0,0.81899914,-338.8752,-415.69015)">
          <g
             transform="matrix(1.3120824,0,0,1.3120824,-382.5677,-272.0713)"
             id="g3062"
             inkscape:label="Capa 1"
             style="fill:#5f0c0d;fill-opacity:1">
            <g
               style="fill:#5f0c0d;fill-opacity:1"
               transform="matrix(0.14300539,0,0,0.14300539,554.04072,610.29161)"
               sketch:type="MSShapeGroup"
               id="g3064">
              <g
                 style="fill:#5f0c0d;fill-opacity:1"
                 transform="matrix(0.7214167,0,0,0.7214167,123.07951,19.201456)"
                 sketch:type="MSLayerGroup"
                 id="g3066">
                <path
                   style="fill:#5f0c0d;fill-opacity:1"
                   inkscape:connector-curvature="0"
                   sketch:type="MSShapeGroup"
                   id="path3068"
                   d="m 121.35661,2.1136578 -11.08,-11.08 c -1.52,-1.5209998 -3.368,-2.2809998 -5.54,-2.2809998 -2.173,0 -4.021,0.76 -5.540997,2.2809998 l -53.446,53.5280002 -23.953,-24.035 c -1.521,-1.521 -3.368,-2.281 -5.54,-2.281 -2.173,0 -4.02,0.76 -5.541,2.281 l -11.07999967,11.08 c -1.52100003,1.521 -2.28100003,3.368 -2.28100003,5.541 0,2.172 0.76,4.02 2.28100003,5.54 l 29.49299967,29.493 11.081,11.08 c 1.52,1.521 3.367,2.281 5.54,2.281 2.172,0 4.019,-0.761 5.54,-2.281 l 11.081,-11.08 58.985997,-58.986 c 1.52,-1.521 2.281,-3.3680002 2.281,-5.5410002 0.001,-2.172 -0.761,-4.019 -2.281,-5.54 l 0,0 z" />
              </g>
            </g>
          </g>
        </g>
      </g>
    </g>
    <text
       xml:space="preserve"
       style="font-size:13px;font-style:normal;font-weight:normal;line-height:125%;letter-spacing:0px;word-spacing:0px;fill:#ffffff;fill-opacity:1;stroke:none;font-family:Sans"
       x="-40.103561"
       y="56.763203"
       id="text3056"
       sodipodi:linespacing="125%"><tspan
         sodipodi:role="line"
         id="tspan3058"
         x="-40.103561"
         y="56.763203">gtkrc</tspan></text>
  </g>
</svg>
