<?xml version="1.0" encoding="UTF-8" standalone="no"?>
<svg
   xmlns:sketch="http://www.bohemiancoding.com/sketch/ns"
   xmlns:osb="http://www.openswatchbook.org/uri/2009/osb"
   xmlns:dc="http://purl.org/dc/elements/1.1/"
   xmlns:cc="http://creativecommons.org/ns#"
   xmlns:rdf="http://www.w3.org/1999/02/22-rdf-syntax-ns#"
   xmlns:svg="http://www.w3.org/2000/svg"
   xmlns="http://www.w3.org/2000/svg"
   xmlns:xlink="http://www.w3.org/1999/xlink"
   xmlns:sodipodi="http://sodipodi.sourceforge.net/DTD/sodipodi-0.dtd"
   xmlns:inkscape="http://www.inkscape.org/namespaces/inkscape"
   width="64"
   viewBox="0 0 64 64"
   height="64"
   id="svg2"
   version="1.1"
   inkscape:version="0.48.5 r10040"
   sodipodi:docname="multipart-encrypted.svg"
   inkscape:export-filename="E:\Usuarios\David\Desktop\android.png"
   inkscape:export-xdpi="90"
   inkscape:export-ydpi="90">
  <metadata
     id="metadata14">
    <rdf:RDF>
      <cc:Work
         rdf:about="">
        <dc:format>image/svg+xml</dc:format>
        <dc:type
           rdf:resource="http://purl.org/dc/dcmitype/StillImage" />
        <dc:title />
      </cc:Work>
    </rdf:RDF>
  </metadata>
  <defs
     id="defs12">
    <linearGradient
       osb:paint="gradient"
       id="linearGradient4207">
      <stop
         id="stop3371"
         offset="0"
         style="stop-color:#3498db;stop-opacity:1;" />
      <stop
         id="stop3373"
         offset="1"
         style="stop-color:#3498db;stop-opacity:0;" />
    </linearGradient>
    <linearGradient
       inkscape:collect="always"
       xlink:href="#linearGradient4422-1"
       id="linearGradient4182"
       x1="-74.929466"
       y1="52.199436"
       x2="-75.259552"
       y2="2.3564887"
       gradientUnits="userSpaceOnUse"
       gradientTransform="matrix(1.0749904,0,0,1.0292896,56.688954,-0.01528455)" />
    <linearGradient
       id="linearGradient4422-1">
      <stop
         id="stop4424-78"
         offset="0"
         style="stop-color:#8798a9;stop-opacity:1" />
      <stop
         id="stop4426-8"
         offset="1"
         style="stop-color:#aeb6be;stop-opacity:1" />
    </linearGradient>
    <linearGradient
       inkscape:collect="always"
       xlink:href="#linearGradient4422-0"
       id="linearGradient4182-3"
       x1="-74.929466"
       y1="52.199436"
       x2="-75.259552"
       y2="2.3564887"
       gradientUnits="userSpaceOnUse"
       gradientTransform="matrix(1.0749904,0,0,1.0292896,56.688954,-0.01528455)" />
    <linearGradient
       id="linearGradient4422-0">
      <stop
         style="stop-color:#25292d;stop-opacity:1"
         offset="0"
         id="stop4424-4" />
      <stop
         style="stop-color:#525962;stop-opacity:1"
         offset="1"
         id="stop4426-0" />
    </linearGradient>
    <linearGradient
       y2="2.3564887"
       x2="-75.259552"
       y1="52.199436"
       x1="-74.929466"
       gradientTransform="matrix(1.0749904,0,0,1.0292896,56.548388,-0.02422135)"
       gradientUnits="userSpaceOnUse"
       id="linearGradient3058"
       xlink:href="#linearGradient4422-0"
       inkscape:collect="always" />
  </defs>
  <sodipodi:namedview
     pagecolor="#747474"
     bordercolor="#666666"
     borderopacity="1"
     objecttolerance="10"
     gridtolerance="10"
     guidetolerance="10"
     inkscape:pageopacity="1"
     inkscape:pageshadow="2"
     inkscape:window-width="1366"
     inkscape:window-height="701"
     id="namedview10"
     showgrid="false"
     inkscape:zoom="9.965651"
     inkscape:cx="45.840708"
     inkscape:cy="39.820146"
     inkscape:window-x="0"
     inkscape:window-y="0"
     inkscape:window-maximized="1"
     inkscape:current-layer="g4186"
     inkscape:snap-bbox="true"
     inkscape:bbox-nodes="true"
     inkscape:object-nodes="true"
     borderlayer="false"
     showguides="true"
     inkscape:snap-nodes="true"
     inkscape:object-paths="false"
     inkscape:showpageshadow="false"
     showborder="true"
     inkscape:snap-global="false">
    <inkscape:grid
       type="xygrid"
       id="grid4160"
       visible="true" />
    <sodipodi:guide
       position="28.888657,63.404975"
       orientation="0,35.2"
       id="guide6108" />
    <sodipodi:guide
       position="54,55.679691"
       orientation="51.200004,0"
       id="guide6112" />
    <sodipodi:guide
       position="58.527669,62"
       orientation="0,1"
       id="guide6114"
       inkscape:label=""
       inkscape:color="rgb(0,0,255)" />
    <sodipodi:guide
       position="10,4"
       orientation="-56,0"
       id="guide6116" />
    <sodipodi:guide
       position="11,4"
       orientation="-2.8421709e-014,0"
       id="guide6118" />
    <sodipodi:guide
       position="12,62"
       orientation="0,35.2"
       id="guide6120" />
    <sodipodi:guide
       position="52,2"
       orientation="0,-40"
       id="guide6126" />
    <sodipodi:guide
       position="12,62"
       orientation="0,35.2"
       id="guide6138" />
    <sodipodi:guide
       position="55,3"
       orientation="0,-40"
       id="guide6156" />
    <sodipodi:guide
       position="53,4.3973202"
       orientation="-56,0"
       id="guide6158" />
    <sodipodi:guide
       position="21,48"
       orientation="0,22"
       id="guide4238" />
    <sodipodi:guide
       position="43,48"
       orientation="22,0"
       id="guide4240" />
    <sodipodi:guide
       position="43,26"
       orientation="0,-22"
       id="guide4242" />
    <sodipodi:guide
       position="21,26"
       orientation="-22,0"
       id="guide4244" />
  </sodipodi:namedview>
  <g
     id="g4186"
     transform="translate(56.391766,-0.17677665)">
    <rect
       ry="2.5"
       y="1.6368387"
       x="-46.532333"
       height="52.831711"
       width="44"
       id="rect4174-6"
       style="fill:url(#linearGradient3058);fill-opacity:1;stroke:none" />
    <g
       id="g3803"
       transform="matrix(1,0,0,1.6495126,0,-40.384599)">
      <rect
         style="fill:#3d434a;fill-opacity:1;stroke:none"
         id="rect4162"
         width="44"
         height="7.6992903"
         x="-46.391766"
         y="54.477486"
         ry="2.5" />
      <rect
         style="fill:#3d434a;fill-opacity:1;stroke:none"
         id="rect4184"
         width="44"
         height="7.9118414"
         x="-46.391766"
         y="51.264462"
         ry="0" />
    </g>
    <g
       transform="translate(-406.16011,-512.88664)"
       inkscape:label="Capa 1"
       id="layer1-3"
       style="stroke:none">
      <g
         transform="matrix(0.72249841,0,0,0.72249841,120.78241,155.36674)"
         id="layer1-8"
         inkscape:label="Capa 1"
         style="stroke:none">
        <g
           transform="matrix(0.65762761,0,0,0.65762761,124.45546,178.50762)"
           id="g4447"
           style="stroke:none">
          <g
             transform="translate(0,-0.21046656)"
             id="g8460"
             style="stroke:none">
            <g
               inkscape:label="Capa 1"
               id="layer1-6"
               transform="translate(-48.123492,9.2849703)"
               style="stroke:none">
              <g
                 id="layer1-4"
                 inkscape:label="Capa 1"
                 transform="translate(-51.525445,5.4558218)"
                 style="stroke:none">
                <g
                   transform="translate(-34.965532,2.4832225)"
                   inkscape:label="Capa 1"
                   id="layer1-3-8"
                   style="stroke:none" />
              </g>
              <g
                 id="g4403"
                 transform="translate(50.777056,-5.4014337)"
                 style="stroke:none">
                <rect
                   style="fill:#ffffff;fill-opacity:1;stroke:none;stroke-width:2.63083172000000021;stroke-miterlimit:4;stroke-opacity:1;stroke-dasharray:none"
                   id="rect4195"
                   width="46.302639"
                   height="34.938858"
                   x="334.23404"
                   y="512.70703"
                   ry="1.6441816" />
              </g>
            </g>
            <g
               style="fill:#818a93;fill-opacity:1;stroke:none"
               transform="matrix(0.14062974,0,0,0.14062974,354.88951,525.3256)"
               sketch:type="MSLayerGroup"
               id="chevron18">
              <path
                 style="fill:#373e44;fill-opacity:1;stroke:none"
                 inkscape:connector-curvature="0"
                 sketch:type="MSShapeGroup"
                 id="path1551"
                 d="M 76.988,55.667 23.869,2.628 c -1.956,-2.064 -4.399,-3.096 -7.333,-3.096 -2.934,0 -5.377,1.033 -7.333,3.096 L 3.011,8.739 c -2.01,2.01 -3.015,4.453 -3.015,7.332 0,2.824 1.005,5.296 3.015,7.414 L 42.607,63 3.01,102.596 c -2.01,2.01 -3.015,4.454 -3.015,7.333 0,2.824 1.005,5.296 3.015,7.414 l 6.192,6.11 c 2.01,2.01 4.455,3.015 7.333,3.015 2.879,0 5.324,-1.005 7.333,-3.015 l 53.12,-53.039 c 2.01,-2.118 3.016,-4.59 3.016,-7.414 0,-2.879 -1.006,-5.323 -3.016,-7.333 l 0,0 z" />
            </g>
          </g>
        </g>
      </g>
    </g>
    <text
       xml:space="preserve"
       style="font-size:10px;font-style:normal;font-weight:normal;line-height:125%;letter-spacing:0px;word-spacing:0px;fill:#ffffff;fill-opacity:1;stroke:none;font-family:Sans"
       x="-44.978691"
       y="55.383808"
       id="text3807"
       sodipodi:linespacing="125%"><tspan
         sodipodi:role="line"
         id="tspan3809"
         x="-44.978691"
         y="55.383808"
         style="font-size:8px">encrypted</tspan></text>
  </g>
</svg>
