<?xml version="1.0" encoding="UTF-8" standalone="no"?>
<svg
   xmlns:osb="http://www.openswatchbook.org/uri/2009/osb"
   xmlns:dc="http://purl.org/dc/elements/1.1/"
   xmlns:cc="http://creativecommons.org/ns#"
   xmlns:rdf="http://www.w3.org/1999/02/22-rdf-syntax-ns#"
   xmlns:svg="http://www.w3.org/2000/svg"
   xmlns="http://www.w3.org/2000/svg"
   xmlns:xlink="http://www.w3.org/1999/xlink"
   xmlns:sodipodi="http://sodipodi.sourceforge.net/DTD/sodipodi-0.dtd"
   xmlns:inkscape="http://www.inkscape.org/namespaces/inkscape"
   width="64"
   viewBox="0 0 64 64"
   height="64"
   id="svg2"
   version="1.1"
   inkscape:version="0.48.5 r10040"
   sodipodi:docname="text-directory.svg"
   inkscape:export-filename="E:\Usuarios\David\Desktop\android.png"
   inkscape:export-xdpi="90"
   inkscape:export-ydpi="90">
  <metadata
     id="metadata14">
    <rdf:RDF>
      <cc:Work
         rdf:about="">
        <dc:format>image/svg+xml</dc:format>
        <dc:type
           rdf:resource="http://purl.org/dc/dcmitype/StillImage" />
        <dc:title />
      </cc:Work>
    </rdf:RDF>
  </metadata>
  <defs
     id="defs12">
    <linearGradient
       osb:paint="gradient"
       id="linearGradient4207">
      <stop
         id="stop3371"
         offset="0"
         style="stop-color:#3498db;stop-opacity:1;" />
      <stop
         id="stop3373"
         offset="1"
         style="stop-color:#3498db;stop-opacity:0;" />
    </linearGradient>
    <linearGradient
       inkscape:collect="always"
       xlink:href="#linearGradient4143"
       id="linearGradient4182"
       x1="-74.929466"
       y1="52.199436"
       x2="-75.259552"
       y2="2.3564887"
       gradientUnits="userSpaceOnUse"
       gradientTransform="matrix(1.0749904,0,0,1.0292896,56.688954,-0.01528455)" />
    <linearGradient
       id="linearGradient4143"
       inkscape:collect="always">
      <stop
         id="stop4145"
         offset="0"
         style="stop-color:#197cf1;stop-opacity:1" />
      <stop
         id="stop4147"
         offset="1"
         style="stop-color:#20bcfa;stop-opacity:1" />
    </linearGradient>
    <linearGradient
       id="linearGradient4422-1">
      <stop
         id="stop4424-78"
         offset="0"
         style="stop-color:#8798a9;stop-opacity:1" />
      <stop
         id="stop4426-8"
         offset="1"
         style="stop-color:#aeb6be;stop-opacity:1" />
    </linearGradient>
  </defs>
  <sodipodi:namedview
     pagecolor="#747474"
     bordercolor="#666666"
     borderopacity="1"
     objecttolerance="10"
     gridtolerance="10"
     guidetolerance="10"
     inkscape:pageopacity="1"
     inkscape:pageshadow="2"
     inkscape:window-width="1366"
     inkscape:window-height="712"
     id="namedview10"
     showgrid="false"
     inkscape:zoom="7.4552197"
     inkscape:cx="23.355015"
     inkscape:cy="34.089543"
     inkscape:window-x="0"
     inkscape:window-y="0"
     inkscape:window-maximized="1"
     inkscape:current-layer="g4186"
     inkscape:snap-bbox="true"
     inkscape:bbox-nodes="true"
     inkscape:object-nodes="true"
     borderlayer="false"
     showguides="true"
     inkscape:snap-nodes="true"
     inkscape:object-paths="false"
     inkscape:showpageshadow="false"
     showborder="true">
    <inkscape:grid
       type="xygrid"
       id="grid4160"
       visible="true" />
    <sodipodi:guide
       position="28.888657,63.404975"
       orientation="0,35.2"
       id="guide6108" />
    <sodipodi:guide
       position="54,55.679691"
       orientation="51.200004,0"
       id="guide6112" />
    <sodipodi:guide
       position="58.527669,62"
       orientation="0,1"
       id="guide6114"
       inkscape:label=""
       inkscape:color="rgb(0,0,255)" />
    <sodipodi:guide
       position="10,4"
       orientation="-56,0"
       id="guide6116" />
    <sodipodi:guide
       position="11,4"
       orientation="-2.8421709e-014,0"
       id="guide6118" />
    <sodipodi:guide
       position="12,62"
       orientation="0,35.2"
       id="guide6120" />
    <sodipodi:guide
       position="52,2"
       orientation="0,-40"
       id="guide6126" />
    <sodipodi:guide
       position="12,62"
       orientation="0,35.2"
       id="guide6138" />
    <sodipodi:guide
       position="55,3"
       orientation="0,-40"
       id="guide6156" />
    <sodipodi:guide
       position="53,4.3973202"
       orientation="-56,0"
       id="guide6158" />
    <sodipodi:guide
       position="51.507536,50.03206"
       orientation="0,22"
       id="guide4238" />
    <sodipodi:guide
       position="42.252276,5.767771"
       orientation="22,0"
       id="guide4240" />
    <sodipodi:guide
       position="43,26"
       orientation="0,-22"
       id="guide4242" />
    <sodipodi:guide
       position="21,26"
       orientation="-22,0"
       id="guide4244" />
  </sodipodi:namedview>
  <g
     id="g4186"
     transform="translate(56.391766,-0.17677665)">
    <rect
       ry="2.5"
       y="1.6457753"
       x="-46.391766"
       height="52.831711"
       width="44"
       id="rect4174"
       style="opacity:1;fill:url(#linearGradient4182);fill-opacity:1.0;stroke:none;stroke-width:0.30000001;stroke-linecap:round;stroke-linejoin:round;stroke-miterlimit:4;stroke-dasharray:none;stroke-dashoffset:0;stroke-opacity:1" />
    <g
       id="g3039"
       transform="matrix(1,0,0,1.6495126,0,-40.384599)">
      <rect
         style="fill:#0b3969;fill-opacity:1;stroke:none"
         id="rect4162"
         width="44"
         height="7.6992903"
         x="-46.391766"
         y="54.477486"
         ry="2.5" />
      <rect
         style="fill:#0b3969;fill-opacity:1;stroke:none"
         id="rect4184"
         width="44"
         height="7.9118414"
         x="-46.391766"
         y="51.264462"
         ry="0" />
    </g>
    <g
       inkscape:transform-center-y="-9.4924686"
       inkscape:transform-center-x="5.4653607"
       inkscape:label="Capa 1"
       id="layer1"
       transform="translate(-497.76954,-510.97482)"
       style="fill:#ffffff">
      <g
         id="layer1-3"
         inkscape:label="Capa 1"
         transform="translate(0.41988239,0.03484499)"
         style="fill:#ffffff">
        <g
           id="layer1-9"
           inkscape:label="Capa 1"
           transform="matrix(1.4494182,0,0,1.4494182,-154.30185,-241.53773)"
           style="fill:#ffffff;fill-opacity:1">
          <g
             style="fill:#ffffff;fill-opacity:1"
             inkscape:label="Capa 1"
             id="layer1-1"
             transform="translate(-200.81988,5.277595)">
            <g
               style="fill:#ffffff;fill-opacity:1"
               id="g4184"
               transform="matrix(1.4179451,0,0,1.4179451,380.37593,540.64257)">
              <g
                 id="g4144"
                 style="fill:#ffffff;fill-opacity:1">
                <path
                   id="path4146"
                   d="m 178.6098,-7.441627 c 1.25649,0 2.27488,-1.0185802 2.27488,-2.2748679 0,-1.2562881 -1.01859,-2.2746751 -2.27488,-2.2746751 -1.25628,0 -2.27524,1.018581 -2.27524,2.2748687 0,1.2562877 1.01896,2.2746743 2.27524,2.2746743 z m 0.96496,0.1550519 -1.9303,0 c -1.60607,0 -2.91269,1.3068102 -2.91269,2.9128838 l 0,2.3606207 0.006,0.036972 0.1626,0.05091 c 1.53272,0.4788992 2.86431,0.6385968 3.96031,0.6385968 2.14072,0 3.38153,-0.6103351 3.45799,-0.6492433 l 0.15196,-0.076849 0.0163,0 0,-2.3610078 c 5.8e-4,-1.6060737 -1.30603,-2.9128838 -2.91211,-2.9128838 z"
                   inkscape:connector-curvature="0"
                   sodipodi:nodetypes="sssssssscccsccccs"
                   style="fill:#ffffff;fill-opacity:1" />
              </g>
              <g
                 style="fill:#ffffff;fill-opacity:1"
                 id="g4148" />
              <g
                 style="fill:#ffffff;fill-opacity:1"
                 id="g4150" />
              <g
                 style="fill:#ffffff;fill-opacity:1"
                 id="g4152" />
              <g
                 style="fill:#ffffff;fill-opacity:1"
                 id="g4154" />
              <g
                 style="fill:#ffffff;fill-opacity:1"
                 id="g4156" />
              <g
                 style="fill:#ffffff;fill-opacity:1"
                 id="g4158" />
              <g
                 style="fill:#ffffff;fill-opacity:1"
                 id="g4160" />
              <g
                 style="fill:#ffffff;fill-opacity:1"
                 id="g4162" />
              <g
                 style="fill:#ffffff;fill-opacity:1"
                 id="g4164" />
              <g
                 style="fill:#ffffff;fill-opacity:1"
                 id="g4166" />
              <g
                 style="fill:#ffffff;fill-opacity:1"
                 id="g4168" />
              <g
                 style="fill:#ffffff;fill-opacity:1"
                 id="g4170" />
              <g
                 style="fill:#ffffff;fill-opacity:1"
                 id="g4172" />
              <g
                 style="fill:#ffffff;fill-opacity:1"
                 id="g4174" />
              <g
                 style="fill:#ffffff;fill-opacity:1"
                 id="g4176" />
            </g>
          </g>
        </g>
      </g>
    </g>
    <text
       xml:space="preserve"
       style="font-size:8.00016022px;font-style:normal;font-weight:normal;line-height:125%;letter-spacing:0px;word-spacing:0px;fill:#ffffff;fill-opacity:1;stroke:none;font-family:Sans"
       x="-42.399101"
       y="55.38485"
       id="text3043"
       sodipodi:linespacing="125%"
       transform="scale(1.0000196,0.9999804)"><tspan
         sodipodi:role="line"
         id="tspan3045"
         x="-42.399101"
         y="55.38485"
         style="font-size:8px">directory</tspan></text>
  </g>
</svg>
