<?xml version="1.0" encoding="UTF-8" standalone="no"?>
<svg
   xmlns:osb="http://www.openswatchbook.org/uri/2009/osb"
   xmlns:dc="http://purl.org/dc/elements/1.1/"
   xmlns:cc="http://creativecommons.org/ns#"
   xmlns:rdf="http://www.w3.org/1999/02/22-rdf-syntax-ns#"
   xmlns:svg="http://www.w3.org/2000/svg"
   xmlns="http://www.w3.org/2000/svg"
   xmlns:xlink="http://www.w3.org/1999/xlink"
   xmlns:sodipodi="http://sodipodi.sourceforge.net/DTD/sodipodi-0.dtd"
   xmlns:inkscape="http://www.inkscape.org/namespaces/inkscape"
   width="64"
   viewBox="0 0 64 64"
   height="64"
   id="svg2"
   version="1.1"
   inkscape:version="0.48.5 r10040"
   sodipodi:docname="text-x-readme.svg"
   inkscape:export-filename="E:\Usuarios\David\Desktop\android.png"
   inkscape:export-xdpi="90"
   inkscape:export-ydpi="90">
  <metadata
     id="metadata14">
    <rdf:RDF>
      <cc:Work
         rdf:about="">
        <dc:format>image/svg+xml</dc:format>
        <dc:type
           rdf:resource="http://purl.org/dc/dcmitype/StillImage" />
        <dc:title />
      </cc:Work>
    </rdf:RDF>
  </metadata>
  <defs
     id="defs12">
    <linearGradient
       osb:paint="gradient"
       id="linearGradient4207">
      <stop
         id="stop3371"
         offset="0"
         style="stop-color:#3498db;stop-opacity:1;" />
      <stop
         id="stop3373"
         offset="1"
         style="stop-color:#3498db;stop-opacity:0;" />
    </linearGradient>
    <linearGradient
       inkscape:collect="always"
       xlink:href="#linearGradient4143"
       id="linearGradient4182"
       x1="-74.929466"
       y1="52.199436"
       x2="-75.259552"
       y2="2.3564887"
       gradientUnits="userSpaceOnUse"
       gradientTransform="matrix(1.0749904,0,0,1.0292896,56.688954,-0.01528455)" />
    <linearGradient
       id="linearGradient4143"
       inkscape:collect="always">
      <stop
         id="stop4145"
         offset="0"
         style="stop-color:#197cf1;stop-opacity:1" />
      <stop
         id="stop4147"
         offset="1"
         style="stop-color:#20bcfa;stop-opacity:1" />
    </linearGradient>
  </defs>
  <sodipodi:namedview
     pagecolor="#747474"
     bordercolor="#666666"
     borderopacity="1"
     objecttolerance="10"
     gridtolerance="10"
     guidetolerance="10"
     inkscape:pageopacity="1"
     inkscape:pageshadow="2"
     inkscape:window-width="1360"
     inkscape:window-height="712"
     id="namedview10"
     showgrid="false"
     inkscape:zoom="7.4552197"
     inkscape:cx="21.654676"
     inkscape:cy="28.724175"
     inkscape:window-x="0"
     inkscape:window-y="0"
     inkscape:window-maximized="1"
     inkscape:current-layer="layer1-3-9"
     inkscape:snap-bbox="true"
     inkscape:bbox-nodes="true"
     inkscape:object-nodes="true"
     borderlayer="false"
     showguides="true"
     inkscape:snap-nodes="true"
     inkscape:object-paths="false"
     inkscape:showpageshadow="false"
     showborder="true">
    <inkscape:grid
       type="xygrid"
       id="grid4160"
       visible="true" />
    <sodipodi:guide
       position="28.888657,63.404975"
       orientation="0,35.2"
       id="guide6108" />
    <sodipodi:guide
       position="54,55.679691"
       orientation="51.200004,0"
       id="guide6112" />
    <sodipodi:guide
       position="58.527669,62"
       orientation="0,1"
       id="guide6114"
       inkscape:label=""
       inkscape:color="rgb(0,0,255)" />
    <sodipodi:guide
       position="10,4"
       orientation="-56,0"
       id="guide6116" />
    <sodipodi:guide
       position="11,4"
       orientation="-2.8421709e-014,0"
       id="guide6118" />
    <sodipodi:guide
       position="12,62"
       orientation="0,35.2"
       id="guide6120" />
    <sodipodi:guide
       position="52,2"
       orientation="0,-40"
       id="guide6126" />
    <sodipodi:guide
       position="12,62"
       orientation="0,35.2"
       id="guide6138" />
    <sodipodi:guide
       position="55,3"
       orientation="0,-40"
       id="guide6156" />
    <sodipodi:guide
       position="53,4.3973202"
       orientation="-56,0"
       id="guide6158" />
    <sodipodi:guide
       position="55.799831,50.03206"
       orientation="0,22"
       id="guide4238" />
    <sodipodi:guide
       position="43,48"
       orientation="22,0"
       id="guide4240" />
    <sodipodi:guide
       position="43,26"
       orientation="0,-22"
       id="guide4242" />
    <sodipodi:guide
       position="21,26"
       orientation="-22,0"
       id="guide4244" />
  </sodipodi:namedview>
  <g
     id="g4186"
     transform="translate(56.391766,-0.17677665)">
    <rect
       ry="2.5"
       y="1.6457753"
       x="-46.391766"
       height="52.831711"
       width="44"
       id="rect4174"
       style="opacity:1;fill:url(#linearGradient4182);fill-opacity:1.0;stroke:none;stroke-width:0.30000001;stroke-linecap:round;stroke-linejoin:round;stroke-miterlimit:4;stroke-dasharray:none;stroke-dashoffset:0;stroke-opacity:1" />
    <g
       id="g3039"
       transform="matrix(1,0,0,1.6495126,0,-40.384599)">
      <rect
         style="fill:#0b3969;fill-opacity:1;stroke:none"
         id="rect4162"
         width="44"
         height="7.6992903"
         x="-46.391766"
         y="54.477486"
         ry="2.5" />
      <rect
         style="fill:#0b3969;fill-opacity:1;stroke:none"
         id="rect4184"
         width="44"
         height="7.9118414"
         x="-46.391766"
         y="51.264462"
         ry="0" />
    </g>
    <g
       style="font-size:9.36996746px;font-style:normal;font-weight:normal;line-height:125%;letter-spacing:0px;word-spacing:0px;fill:#ffffff;fill-opacity:1;stroke:none;font-family:sans-serif"
       id="layer1-3-9"
       inkscape:label="Capa 1"
       transform="matrix(0.77829161,0,0,0.77829161,-358.41873,-400.64203)">
      <g
         id="g3894">
        <path
           style="font-size:9.36996745999999980px;font-style:normal;font-weight:normal;line-height:125%;letter-spacing:0px;word-spacing:0px;fill:#ffffff;fill-opacity:1;stroke:#ffffff;font-family:sans-serif;stroke-width:0.71952465;stroke-miterlimit:4;stroke-dasharray:none"
           d="m 429.17971,532.94517 c -7.82997,0 -14.13352,6.30355 -14.13352,14.13352 0,7.82997 6.30355,14.13352 14.13352,14.13352 7.82997,0 14.13352,-6.30355 14.13352,-14.13352 0,-7.82997 -6.30355,-14.13352 -14.13352,-14.13352 z"
           id="rect4129"
           inkscape:connector-curvature="0"
           sodipodi:nodetypes="sssss" />
        <g
           transform="matrix(1.76669,0,0,1.76669,-200.50348,-417.4996)"
           id="layer1-7"
           inkscape:label="Capa 1"
           style="font-size:9.36996745999999980px;font-style:normal;font-weight:normal;line-height:125%;letter-spacing:0px;word-spacing:0px;fill:#0b3969;fill-opacity:1;stroke:none;font-family:sans-serif">
          <g
             style="fill:#0b3969;fill-opacity:1;stroke:none"
             inkscape:label="Layer 1"
             id="layer1-9-1"
             transform="matrix(0.30924083,0,0,0.30924083,99.330471,486.10014)">
            <g
               id="g5257"
               transform="matrix(1.219356,0,0,1.219356,779.29263,166.4101)"
               style="fill:#0b3969;fill-opacity:1;stroke:none">
              <g
                 id="g5211"
                 transform="matrix(0.86821297,0,0,0.86821297,22.89117,3.3794412)"
                 style="fill:#0b3969;fill-opacity:1;stroke:none">
                <g
                   id="g5213"
                   style="fill:#0b3969;fill-opacity:1;stroke:none">
                  <path
                     id="path5215"
                     d="m 22.683,16.977 c -2.028,0 -3.465,1.646 -3.465,3.672 l 0,12.485 c 0,2.028 1.437,3.671 3.465,3.671 2.027,0 3.463,-1.643 3.463,-3.671 l 0,-12.485 c 0,-2.028 -1.436,-3.672 -3.463,-3.672 z"
                     inkscape:connector-curvature="0"
                     style="fill:#0b3969;fill-opacity:1;stroke:none" />
                  <path
                     id="path5217"
                     d="m 22.698,7.432 c -2.095,0 -3.795,1.699 -3.795,3.795 0,2.095 1.7,3.793 3.795,3.793 2.093,0 3.793,-1.698 3.793,-3.793 0,-2.096 -1.7,-3.795 -3.793,-3.795 z"
                     inkscape:connector-curvature="0"
                     style="fill:#0b3969;fill-opacity:1;stroke:none" />
                </g>
              </g>
              <g
                 id="g5221"
                 style="fill:#0b3969;fill-opacity:1;stroke:none" />
              <g
                 id="g5223"
                 style="fill:#0b3969;fill-opacity:1;stroke:none" />
              <g
                 id="g5225"
                 style="fill:#0b3969;fill-opacity:1;stroke:none" />
              <g
                 id="g5227"
                 style="fill:#0b3969;fill-opacity:1;stroke:none" />
              <g
                 id="g5229"
                 style="fill:#0b3969;fill-opacity:1;stroke:none" />
              <g
                 id="g5231"
                 style="fill:#0b3969;fill-opacity:1;stroke:none" />
              <g
                 id="g5233"
                 style="fill:#0b3969;fill-opacity:1;stroke:none" />
              <g
                 id="g5235"
                 style="fill:#0b3969;fill-opacity:1;stroke:none" />
              <g
                 id="g5237"
                 style="fill:#0b3969;fill-opacity:1;stroke:none" />
              <g
                 id="g5239"
                 style="fill:#0b3969;fill-opacity:1;stroke:none" />
              <g
                 id="g5241"
                 style="fill:#0b3969;fill-opacity:1;stroke:none" />
              <g
                 id="g5243"
                 style="fill:#0b3969;fill-opacity:1;stroke:none" />
              <g
                 id="g5245"
                 style="fill:#0b3969;fill-opacity:1;stroke:none" />
              <g
                 id="g5247"
                 style="fill:#0b3969;fill-opacity:1;stroke:none" />
              <g
                 id="g5249"
                 style="fill:#0b3969;fill-opacity:1;stroke:none" />
            </g>
          </g>
        </g>
      </g>
    </g>
    <text
       xml:space="preserve"
       style="font-size:13.08977509px;font-style:normal;font-weight:normal;line-height:125%;letter-spacing:0px;word-spacing:0px;fill:#ffffff;fill-opacity:1;stroke:none;font-family:Sans"
       x="-43.798504"
       y="57.304638"
       id="text3043"
       sodipodi:linespacing="125%"><tspan
         sodipodi:role="line"
         id="tspan3045"
         x="-43.798504"
         y="57.304638"
         style="font-size:10px">readme</tspan></text>
  </g>
</svg>
