<?xml version="1.0" encoding="UTF-8" standalone="no"?>
<svg
   xmlns:sketch="http://www.bohemiancoding.com/sketch/ns"
   xmlns:osb="http://www.openswatchbook.org/uri/2009/osb"
   xmlns:dc="http://purl.org/dc/elements/1.1/"
   xmlns:cc="http://creativecommons.org/ns#"
   xmlns:rdf="http://www.w3.org/1999/02/22-rdf-syntax-ns#"
   xmlns:svg="http://www.w3.org/2000/svg"
   xmlns="http://www.w3.org/2000/svg"
   xmlns:xlink="http://www.w3.org/1999/xlink"
   xmlns:sodipodi="http://sodipodi.sourceforge.net/DTD/sodipodi-0.dtd"
   xmlns:inkscape="http://www.inkscape.org/namespaces/inkscape"
   width="64"
   viewBox="0 0 64 64"
   height="64"
   id="svg2"
   version="1.1"
   inkscape:version="0.48.5 r10040"
   sodipodi:docname="txt.svg"
   inkscape:export-filename="E:\Usuarios\David\Desktop\android.png"
   inkscape:export-xdpi="90"
   inkscape:export-ydpi="90">
  <metadata
     id="metadata14">
    <rdf:RDF>
      <cc:Work
         rdf:about="">
        <dc:format>image/svg+xml</dc:format>
        <dc:type
           rdf:resource="http://purl.org/dc/dcmitype/StillImage" />
        <dc:title />
      </cc:Work>
    </rdf:RDF>
  </metadata>
  <defs
     id="defs12">
    <linearGradient
       osb:paint="gradient"
       id="linearGradient4207">
      <stop
         id="stop3371"
         offset="0"
         style="stop-color:#3498db;stop-opacity:1;" />
      <stop
         id="stop3373"
         offset="1"
         style="stop-color:#3498db;stop-opacity:0;" />
    </linearGradient>
    <linearGradient
       inkscape:collect="always"
       xlink:href="#linearGradient4422-4"
       id="linearGradient4182"
       x1="-74.929466"
       y1="52.199436"
       x2="-75.259552"
       y2="2.3564887"
       gradientUnits="userSpaceOnUse"
       gradientTransform="matrix(1.0749904,0,0,1.0292896,56.688954,-0.01528455)" />
    <linearGradient
       id="linearGradient4422-4">
      <stop
         id="stop4424-3"
         offset="0"
         style="stop-color:#d1d7df;stop-opacity:1" />
      <stop
         id="stop4426-4"
         offset="1"
         style="stop-color:#e0e5e7;stop-opacity:1" />
    </linearGradient>
    <linearGradient
       id="linearGradient4422-1">
      <stop
         id="stop4424-78"
         offset="0"
         style="stop-color:#8798a9;stop-opacity:1" />
      <stop
         id="stop4426-8"
         offset="1"
         style="stop-color:#aeb6be;stop-opacity:1" />
    </linearGradient>
    <linearGradient
       inkscape:collect="always"
       xlink:href="#linearGradient4422-4-6"
       id="linearGradient4182-3"
       x1="-74.929466"
       y1="52.199436"
       x2="-75.259552"
       y2="2.3564887"
       gradientUnits="userSpaceOnUse"
       gradientTransform="matrix(1.0749904,0,0,1.0292896,56.688954,-0.01528455)" />
    <linearGradient
       id="linearGradient4422-4-6">
      <stop
         id="stop4424-3-7"
         offset="0"
         style="stop-color:#d1d7df;stop-opacity:1" />
      <stop
         id="stop4426-4-5"
         offset="1"
         style="stop-color:#e0e5e7;stop-opacity:1" />
    </linearGradient>
    <linearGradient
       y2="2.3564887"
       x2="-75.259552"
       y1="52.199436"
       x1="-74.929466"
       gradientTransform="matrix(1.0749904,0,0,1.0292896,84.454736,0.86281179)"
       gradientUnits="userSpaceOnUse"
       id="linearGradient3101"
       xlink:href="#linearGradient4422-4-6"
       inkscape:collect="always" />
    <linearGradient
       inkscape:collect="always"
       xlink:href="#linearGradient4422-4-6"
       id="linearGradient3114"
       gradientUnits="userSpaceOnUse"
       gradientTransform="matrix(1.0749904,0,0,1.0292896,84.454736,0.86281179)"
       x1="-74.929466"
       y1="52.199436"
       x2="-75.259552"
       y2="2.3564887" />
    <linearGradient
       inkscape:collect="always"
       xlink:href="#linearGradient4422-4"
       id="linearGradient3144"
       gradientUnits="userSpaceOnUse"
       gradientTransform="matrix(1.0749904,0,0,1.0292896,56.688954,-0.01528455)"
       x1="-74.929466"
       y1="52.199436"
       x2="-75.259552"
       y2="2.3564887" />
  </defs>
  <sodipodi:namedview
     pagecolor="#747474"
     bordercolor="#666666"
     borderopacity="1"
     objecttolerance="10"
     gridtolerance="10"
     guidetolerance="10"
     inkscape:pageopacity="1"
     inkscape:pageshadow="2"
     inkscape:window-width="1366"
     inkscape:window-height="701"
     id="namedview10"
     showgrid="false"
     inkscape:zoom="7.4552197"
     inkscape:cx="34.769709"
     inkscape:cy="32.485203"
     inkscape:window-x="0"
     inkscape:window-y="0"
     inkscape:window-maximized="1"
     inkscape:current-layer="g4186-35"
     inkscape:snap-bbox="true"
     inkscape:bbox-nodes="true"
     inkscape:object-nodes="true"
     borderlayer="false"
     showguides="true"
     inkscape:snap-nodes="true"
     inkscape:object-paths="false"
     inkscape:showpageshadow="false"
     showborder="true">
    <inkscape:grid
       type="xygrid"
       id="grid4160"
       visible="true" />
    <sodipodi:guide
       position="28.888657,63.404975"
       orientation="0,35.2"
       id="guide6108" />
    <sodipodi:guide
       position="54,55.679691"
       orientation="51.200004,0"
       id="guide6112" />
    <sodipodi:guide
       position="58.527669,62"
       orientation="0,1"
       id="guide6114"
       inkscape:label=""
       inkscape:color="rgb(0,0,255)" />
    <sodipodi:guide
       position="10,4"
       orientation="-56,0"
       id="guide6116" />
    <sodipodi:guide
       position="12,62"
       orientation="0,35.2"
       id="guide6120" />
    <sodipodi:guide
       position="52,2"
       orientation="0,-40"
       id="guide6126" />
    <sodipodi:guide
       position="12,62"
       orientation="0,35.2"
       id="guide6138" />
    <sodipodi:guide
       position="53,4.3973202"
       orientation="-56,0"
       id="guide6158" />
    <sodipodi:guide
       position="21,48"
       orientation="0,22"
       id="guide4238" />
    <sodipodi:guide
       position="43,48"
       orientation="22,0"
       id="guide4240" />
    <sodipodi:guide
       position="-10.328334,25.887902"
       orientation="0,-22"
       id="guide4242" />
    <sodipodi:guide
       position="21,26"
       orientation="-22,0"
       id="guide4244" />
  </sodipodi:namedview>
  <g
     id="g4186"
     transform="translate(56.391766,-0.17677665)">
    <g
       id="g4186-3"
       transform="translate(-46.754763,0.40346316)">
      <g
         transform="translate(-400.92463,-509.18113)"
         id="layer1-38"
         inkscape:label="Capa 1"
         inkscape:transform-center-x="5.4653607"
         inkscape:transform-center-y="-9.4924686">
        <g
           inkscape:transform-center-y="-9.4924686"
           inkscape:transform-center-x="5.4653607"
           inkscape:label="Capa 1"
           id="layer1"
           transform="translate(-47.017055,-3.1738266)">
          <g
             id="layer1-3"
             inkscape:label="Capa 1"
             transform="translate(0.41988239,0.03484499)">
            <g
               inkscape:label="Capa 1"
               id="layer1-7"
               transform="translate(-37.074403,0.97032551)">
              <g
                 id="g4231-5"
                 transform="matrix(1.5263052,0,0,1.5263052,376.31698,-1040.1258)" />
            </g>
          </g>
        </g>
      </g>
    </g>
    <g
       id="g4186-35"
       transform="translate(-47.291301,-2.3598633e-7)">
      <g
         transform="translate(-509.70748,-515.64674)"
         id="layer1-4-0"
         inkscape:label="Capa 1"
         inkscape:transform-center-x="5.4653607"
         inkscape:transform-center-y="-9.4924686">
        <g
           transform="translate(0.41988239,0.03484499)"
           inkscape:label="Capa 1"
           id="layer1-3-65" />
      </g>
      <rect
         ry="2.5"
         y="1.645775"
         x="0.89953583"
         height="52.831711"
         width="44"
         id="rect4174-3"
         style="fill:#19aeff;fill-opacity:1;stroke:none" />
      <g
         id="g3059"
         transform="matrix(1,0,0,1.6495126,47.291302,-40.3846)">
        <rect
           style="fill:#3d434a;fill-opacity:1;stroke:none"
           id="rect4162-5"
           width="44"
           height="7.6992903"
           x="-46.391766"
           y="54.477486"
           ry="2.5" />
        <rect
           style="fill:#3d434a;fill-opacity:1;stroke:none"
           id="rect4184-6"
           width="44"
           height="7.9118414"
           x="-46.391766"
           y="51.264462"
           ry="0" />
      </g>
      <g
         id="g4186-1-2"
         transform="translate(-10.730735,-3.1654658)"
         style="fill:#ffffff;stroke:#ffffff;stroke-width:0.56;stroke-miterlimit:4;stroke-dasharray:none">
        <g
           id="g4186-3-2-9"
           transform="translate(-46.754763,0.40346316)"
           style="fill:#ffffff;stroke:#ffffff;stroke-width:0.56;stroke-miterlimit:4;stroke-dasharray:none">
          <g
             transform="translate(-400.92463,-509.18113)"
             id="layer1-38-6-1"
             inkscape:label="Capa 1"
             inkscape:transform-center-x="5.4653607"
             inkscape:transform-center-y="-9.4924686"
             style="fill:#ffffff;stroke:#ffffff;stroke-width:0.56;stroke-miterlimit:4;stroke-dasharray:none">
            <g
               inkscape:transform-center-y="-9.4924686"
               inkscape:transform-center-x="5.4653607"
               inkscape:label="Capa 1"
               id="layer1-8-2"
               transform="translate(-47.017055,-3.1738266)"
               style="fill:#ffffff;stroke:#ffffff;stroke-width:0.56;stroke-miterlimit:4;stroke-dasharray:none">
              <g
                 id="layer1-3-3-7"
                 inkscape:label="Capa 1"
                 transform="translate(0.41988239,0.03484499)"
                 style="fill:#ffffff;stroke:#ffffff;stroke-width:0.56;stroke-miterlimit:4;stroke-dasharray:none">
                <g
                   inkscape:label="Capa 1"
                   id="layer1-7-5-0"
                   transform="translate(-37.074403,0.97032551)"
                   style="fill:#ffffff;stroke:#ffffff;stroke-width:0.56;stroke-miterlimit:4;stroke-dasharray:none">
                  <g
                     id="g4231-5-8-9"
                     transform="matrix(1.5263052,0,0,1.5263052,376.31698,-1040.1258)"
                     style="fill:#ffffff;stroke:#ffffff;stroke-width:0.3668991;stroke-miterlimit:4;stroke-dasharray:none" />
                </g>
              </g>
            </g>
          </g>
        </g>
        <g
           transform="matrix(1.9987739,0,0,1.9987739,18.096691,-2059.514)"
           id="layer1-2-3"
           inkscape:label="Capa 1"
           style="fill:#ffffff;fill-opacity:1;stroke:#ffffff;stroke-width:0.28017176;stroke-miterlimit:4;stroke-dasharray:none">
          <g
             style="fill:#ffffff;fill-opacity:1;stroke:#ffffff;stroke-opacity:1;stroke-width:0.30945365;stroke-miterlimit:4;stroke-dasharray:none"
             inkscape:label="Capa 1"
             id="layer1-0-6"
             transform="matrix(0.90537551,0,0,0.90537551,-365.91682,562.06022)" />
          <g
             inkscape:label="Capa 1"
             id="layer1-00-0"
             transform="translate(-401.01229,510.63371)"
             style="fill:#ffffff;fill-opacity:1;stroke:#ffffff;stroke-width:0.28017176;stroke-miterlimit:4;stroke-dasharray:none">
            <g
               inkscape:label="Capa 1"
               id="layer1-4-6"
               transform="translate(5.05585,-5.251147)"
               style="fill:#ffffff;fill-opacity:1;stroke:#ffffff;stroke-width:0.28017176;stroke-miterlimit:4;stroke-dasharray:none">
              <g
                 style="fill:#ffffff;fill-opacity:1;stroke:#ffffff;stroke-opacity:0.80000000000000004;stroke-width:0.28017176;stroke-miterlimit:4;stroke-dasharray:none"
                 inkscape:label="Capa 1"
                 id="layer1-9-2"
                 transform="translate(-11.317,5.8824915)">
                <g
                   style="fill:#ffffff;fill-opacity:1;stroke:#ffffff;stroke-width:0.35683561;stroke-miterlimit:4;stroke-dasharray:none"
                   id="g4187-6"
                   transform="matrix(0.7863692,0,0,0.78394543,93.325829,112.35451)">
                  <path
                     inkscape:connector-curvature="0"
                     d="m 408.99594,530.99649 -5.24403,6.7328 c -0.98326,1.2624 -0.708,3.5111 0.5505,4.4974 1.25852,0.98629 3.50028,0.71019 4.48354,-0.55221 l 5.24403,-6.73281 0.65549,-0.8416 c 0.65551,-0.8416 0.47201,-2.34073 -0.36699,-2.99826 -0.83901,-0.65753 -2.33352,-0.47347 -2.98902,0.36814 l -0.65551,0.8416 -3.93302,5.0496 -0.6555,0.8416 c -0.32776,0.4208 -0.236,1.17037 0.1835,1.49914 0.4195,0.32875 1.16676,0.23673 1.49451,-0.18407 l 4.58852,-5.89121 0.83901,0.65753 -4.58852,5.8912 c -0.65551,0.84161 -2.15002,1.02568 -2.98902,0.36814 -0.83901,-0.65753 -1.02252,-2.15666 -0.36702,-2.99826 l 0.65551,-0.8416 4.58853,-5.8912 c 0.98325,-1.26241 3.22501,-1.5385 4.48353,-0.55221 1.25851,0.98629 1.53377,3.23499 0.55051,4.49739 l -0.6555,0.84161 -5.24403,6.73279 c -1.31102,1.68321 -4.30004,2.05135 -5.97805,0.73629 -1.67801,-1.31507 -2.04502,-4.31332 -0.73401,-5.99653 l 5.24403,-6.7328 0.83901,0.65753 0,0 z"
                     id="Documents-1"
                     sketch:type="MSShapeGroup"
                     style="fill:#ffffff;fill-opacity:1;stroke:#ffffff;stroke-width:0.35683561;stroke-miterlimit:4;stroke-dasharray:none" />
                </g>
              </g>
            </g>
          </g>
        </g>
      </g>
      <text
         xml:space="preserve"
         style="font-size:13px;font-style:normal;font-weight:normal;line-height:125%;letter-spacing:0px;word-spacing:0px;fill:#ffffff;fill-opacity:1;stroke:none;font-family:Sans"
         x="10.048706"
         y="57.648701"
         id="text3063"
         sodipodi:linespacing="125%"><tspan
           sodipodi:role="line"
           id="tspan3065"
           x="10.048706"
           y="57.648701">text</tspan></text>
    </g>
  </g>
</svg>
