<?xml version="1.0" encoding="UTF-8" standalone="no"?>
<svg
   xmlns:osb="http://www.openswatchbook.org/uri/2009/osb"
   xmlns:dc="http://purl.org/dc/elements/1.1/"
   xmlns:cc="http://creativecommons.org/ns#"
   xmlns:rdf="http://www.w3.org/1999/02/22-rdf-syntax-ns#"
   xmlns:svg="http://www.w3.org/2000/svg"
   xmlns="http://www.w3.org/2000/svg"
   xmlns:xlink="http://www.w3.org/1999/xlink"
   xmlns:sodipodi="http://sodipodi.sourceforge.net/DTD/sodipodi-0.dtd"
   xmlns:inkscape="http://www.inkscape.org/namespaces/inkscape"
   width="64"
   viewBox="0 0 64 64"
   height="64"
   id="svg2"
   version="1.1"
   inkscape:version="0.48.5 r10040"
   sodipodi:docname="x-office-address-book.svg"
   inkscape:export-filename="E:\Usuarios\David\Desktop\android.png"
   inkscape:export-xdpi="90"
   inkscape:export-ydpi="90">
  <metadata
     id="metadata14">
    <rdf:RDF>
      <cc:Work
         rdf:about="">
        <dc:format>image/svg+xml</dc:format>
        <dc:type
           rdf:resource="http://purl.org/dc/dcmitype/StillImage" />
        <dc:title />
      </cc:Work>
    </rdf:RDF>
  </metadata>
  <defs
     id="defs12">
    <linearGradient
       osb:paint="gradient"
       id="linearGradient4207">
      <stop
         id="stop3371"
         offset="0"
         style="stop-color:#3498db;stop-opacity:1;" />
      <stop
         id="stop3373"
         offset="1"
         style="stop-color:#3498db;stop-opacity:0;" />
    </linearGradient>
    <linearGradient
       inkscape:collect="always"
       xlink:href="#linearGradient4143"
       id="linearGradient4182"
       x1="-74.929466"
       y1="52.199436"
       x2="-75.259552"
       y2="2.3564887"
       gradientUnits="userSpaceOnUse"
       gradientTransform="matrix(1.0749904,0,0,1.0292896,56.688954,-0.01528455)" />
    <linearGradient
       id="linearGradient4143"
       inkscape:collect="always">
      <stop
         id="stop4145"
         offset="0"
         style="stop-color:#197cf1;stop-opacity:1" />
      <stop
         id="stop4147"
         offset="1"
         style="stop-color:#20bcfa;stop-opacity:1" />
    </linearGradient>
    <linearGradient
       id="linearGradient4422-1">
      <stop
         id="stop4424-78"
         offset="0"
         style="stop-color:#8798a9;stop-opacity:1" />
      <stop
         id="stop4426-8"
         offset="1"
         style="stop-color:#aeb6be;stop-opacity:1" />
    </linearGradient>
    <linearGradient
       inkscape:collect="always"
       xlink:href="#linearGradient4143-6"
       id="linearGradient4182-3"
       x1="-74.929466"
       y1="52.199436"
       x2="-75.259552"
       y2="2.3564887"
       gradientUnits="userSpaceOnUse"
       gradientTransform="matrix(1.0749904,0,0,1.0292896,56.688954,-0.01528455)" />
    <linearGradient
       id="linearGradient4143-6"
       inkscape:collect="always">
      <stop
         id="stop4145-7"
         offset="0"
         style="stop-color:#197cf1;stop-opacity:1" />
      <stop
         id="stop4147-5"
         offset="1"
         style="stop-color:#20bcfa;stop-opacity:1" />
    </linearGradient>
    <linearGradient
       y2="2.3564887"
       x2="-75.259552"
       y1="52.199436"
       x1="-74.929466"
       gradientTransform="matrix(1.0749904,0,0,1.0292896,-59.54733,-24.890957)"
       gradientUnits="userSpaceOnUse"
       id="linearGradient3102"
       xlink:href="#linearGradient4143-6"
       inkscape:collect="always" />
    <linearGradient
       inkscape:collect="always"
       xlink:href="#linearGradient4143-6"
       id="linearGradient3180"
       gradientUnits="userSpaceOnUse"
       gradientTransform="matrix(1.0749904,0,0,1.0292896,-59.54733,-24.890957)"
       x1="-74.929466"
       y1="52.199436"
       x2="-75.259552"
       y2="2.3564887" />
    <linearGradient
       inkscape:collect="always"
       xlink:href="#linearGradient4143"
       id="linearGradient3182"
       gradientUnits="userSpaceOnUse"
       gradientTransform="matrix(1.0749904,0,0,1.0292896,56.688954,-0.01528455)"
       x1="-74.929466"
       y1="52.199436"
       x2="-75.259552"
       y2="2.3564887" />
  </defs>
  <sodipodi:namedview
     pagecolor="#747474"
     bordercolor="#666666"
     borderopacity="1"
     objecttolerance="10"
     gridtolerance="10"
     guidetolerance="10"
     inkscape:pageopacity="1"
     inkscape:pageshadow="2"
     inkscape:window-width="1360"
     inkscape:window-height="712"
     id="namedview10"
     showgrid="false"
     inkscape:zoom="3.7276099"
     inkscape:cx="-46.012694"
     inkscape:cy="42.744124"
     inkscape:window-x="0"
     inkscape:window-y="0"
     inkscape:window-maximized="1"
     inkscape:current-layer="g4186"
     inkscape:snap-bbox="true"
     inkscape:bbox-nodes="true"
     inkscape:object-nodes="true"
     borderlayer="false"
     showguides="true"
     inkscape:snap-nodes="true"
     inkscape:object-paths="false"
     inkscape:showpageshadow="false"
     showborder="true">
    <inkscape:grid
       type="xygrid"
       id="grid4160"
       visible="true" />
    <sodipodi:guide
       position="28.888657,63.404975"
       orientation="0,35.2"
       id="guide6108" />
    <sodipodi:guide
       position="54,55.679691"
       orientation="51.200004,0"
       id="guide6112" />
    <sodipodi:guide
       position="58.527669,62"
       orientation="0,1"
       id="guide6114"
       inkscape:label=""
       inkscape:color="rgb(0,0,255)" />
    <sodipodi:guide
       position="10,4"
       orientation="-56,0"
       id="guide6116" />
    <sodipodi:guide
       position="11,4"
       orientation="-2.8421709e-014,0"
       id="guide6118" />
    <sodipodi:guide
       position="12,62"
       orientation="0,35.2"
       id="guide6120" />
    <sodipodi:guide
       position="52,2"
       orientation="0,-40"
       id="guide6126" />
    <sodipodi:guide
       position="12,62"
       orientation="0,35.2"
       id="guide6138" />
    <sodipodi:guide
       position="55,3"
       orientation="0,-40"
       id="guide6156" />
    <sodipodi:guide
       position="53,4.3973202"
       orientation="-56,0"
       id="guide6158" />
    <sodipodi:guide
       position="21,48"
       orientation="0,22"
       id="guide4238" />
    <sodipodi:guide
       position="43,48"
       orientation="22,0"
       id="guide4240" />
    <sodipodi:guide
       position="43,26"
       orientation="0,-22"
       id="guide4242" />
    <sodipodi:guide
       position="21,26"
       orientation="-22,0"
       id="guide4244" />
  </sodipodi:namedview>
  <g
     id="g4186"
     transform="translate(56.391766,-0.17677665)">
    <g
       id="g3113"
       transform="translate(111.93252,24.981965)">
      <rect
         style="fill:url(#linearGradient3180);fill-opacity:1;stroke:none"
         id="rect4174-3"
         width="44"
         height="52.831711"
         x="-162.62805"
         y="-23.229897"
         ry="2.5" />
      <g
         transform="matrix(1,0,0,1.6495126,-116.23628,-65.260271)"
         id="g3052">
        <rect
           ry="2.5"
           y="54.477486"
           x="-46.391766"
           height="7.6992903"
           width="44"
           id="rect4162-5"
           style="fill:#0b3969;fill-opacity:1;stroke:none" />
        <rect
           ry="0"
           y="51.264462"
           x="-46.391766"
           height="7.9118414"
           width="44"
           id="rect4184-6"
           style="fill:#0b3969;fill-opacity:1;stroke:none" />
      </g>
      <g
         style="fill:#ffffff"
         transform="translate(-613.87169,-535.44809)"
         id="layer1-2"
         inkscape:label="Capa 1"
         inkscape:transform-center-x="5.4653607"
         inkscape:transform-center-y="-9.4924686">
        <g
           style="fill:#ffffff"
           transform="translate(0.41988239,0.03484499)"
           inkscape:label="Capa 1"
           id="layer1-3-9">
          <g
             style="fill:#ffffff;fill-opacity:1"
             transform="matrix(1.4494182,0,0,1.4494182,-154.30185,-241.53773)"
             inkscape:label="Capa 1"
             id="layer1-9-1">
            <g
               transform="translate(-200.81988,5.277595)"
               id="layer1-1-2"
               inkscape:label="Capa 1"
               style="fill:#ffffff;fill-opacity:1">
              <g
                 transform="matrix(1.4179451,0,0,1.4179451,380.37593,540.64257)"
                 id="g4184-7"
                 style="fill:#ffffff;fill-opacity:1">
                <g
                   style="fill:#ffffff;fill-opacity:1"
                   id="g4144-0">
                  <path
                     style="fill:#ffffff;fill-opacity:1"
                     sodipodi:nodetypes="sssssssscccsccccs"
                     inkscape:connector-curvature="0"
                     d="m 178.6098,-7.441627 c 1.25649,0 2.27488,-1.0185802 2.27488,-2.2748679 0,-1.2562881 -1.01859,-2.2746751 -2.27488,-2.2746751 -1.25628,0 -2.27524,1.018581 -2.27524,2.2748687 0,1.2562877 1.01896,2.2746743 2.27524,2.2746743 z m 0.96496,0.1550519 -1.9303,0 c -1.60607,0 -2.91269,1.3068102 -2.91269,2.9128838 l 0,2.3606207 0.006,0.036972 0.1626,0.05091 c 1.53272,0.4788992 2.86431,0.6385968 3.96031,0.6385968 2.14072,0 3.38153,-0.6103351 3.45799,-0.6492433 l 0.15196,-0.076849 0.0163,0 0,-2.3610078 c 5.8e-4,-1.6060737 -1.30603,-2.9128838 -2.91211,-2.9128838 z"
                     id="path4146-9" />
                </g>
                <g
                   id="g4148-3"
                   style="fill:#ffffff;fill-opacity:1" />
                <g
                   id="g4150-6"
                   style="fill:#ffffff;fill-opacity:1" />
                <g
                   id="g4152-0"
                   style="fill:#ffffff;fill-opacity:1" />
                <g
                   id="g4154-6"
                   style="fill:#ffffff;fill-opacity:1" />
                <g
                   id="g4156-2"
                   style="fill:#ffffff;fill-opacity:1" />
                <g
                   id="g4158-6"
                   style="fill:#ffffff;fill-opacity:1" />
                <g
                   id="g4160-1"
                   style="fill:#ffffff;fill-opacity:1" />
                <g
                   id="g4162-8"
                   style="fill:#ffffff;fill-opacity:1" />
                <g
                   id="g4164-7"
                   style="fill:#ffffff;fill-opacity:1" />
                <g
                   id="g4166-9"
                   style="fill:#ffffff;fill-opacity:1" />
                <g
                   id="g4168-2"
                   style="fill:#ffffff;fill-opacity:1" />
                <g
                   id="g4170-0"
                   style="fill:#ffffff;fill-opacity:1" />
                <g
                   id="g4172-2"
                   style="fill:#ffffff;fill-opacity:1" />
                <g
                   id="g4174-3"
                   style="fill:#ffffff;fill-opacity:1" />
                <g
                   id="g4176-7"
                   style="fill:#ffffff;fill-opacity:1" />
              </g>
            </g>
          </g>
        </g>
      </g>
      <text
         sodipodi:linespacing="125%"
         id="text3056"
         y="31.741047"
         x="-161.99524"
         style="font-size:13px;font-style:normal;font-weight:normal;line-height:125%;letter-spacing:0px;word-spacing:0px;fill:#ffffff;fill-opacity:1;stroke:none;font-family:Sans"
         xml:space="preserve"><tspan
           style="font-size:10px"
           y="31.741047"
           x="-161.99524"
           id="tspan3058"
           sodipodi:role="line">contacts</tspan></text>
    </g>
  </g>
</svg>
