<?xml version="1.0" encoding="iso-8859-1"?>
<!-- Generator: Adobe Illustrator 19.0.0, SVG Export Plug-In . SVG Version: 6.00 Build 0)  -->
<svg version="1.1" id="Layer_1" xmlns="http://www.w3.org/2000/svg" xmlns:xlink="http://www.w3.org/1999/xlink" x="0px" y="0px"
	 viewBox="0 0 512 512" style="enable-background:new 0 0 512 512;" xml:space="preserve">
<path style="fill:#EDEDED;" d="M512,454.4c0,21.207-17.193,38.4-38.4,38.4H38.4C17.193,492.8,0,475.607,0,454.4V57.6
	c0-21.207,17.193-38.4,38.4-38.4h435.2c21.207,0,38.4,17.193,38.4,38.4V454.4z"/>
<path style="fill:#D8D8DA;" d="M473.6,19.2H256v473.6h217.6c21.207,0,38.4-17.193,38.4-38.4V57.6
	C512,36.393,494.807,19.2,473.6,19.2z"/>
<path style="fill:#88888F;" d="M0,134.4v320c0,21.207,17.193,38.4,38.4,38.4h435.2c21.207,0,38.4-17.193,38.4-38.4v-320H0z"/>
<path style="fill:#797781;" d="M256,134.4v358.4h217.6c21.207,0,38.4-17.193,38.4-38.4v-320H256z"/>
<rect x="256" y="57.6" style="fill:#C6C5CA;" width="217.6" height="38.4"/>
<circle style="fill:#E07188;" cx="57.6" cy="76.8" r="25.6"/>
<path style="fill:#F8F8F9;" d="M326.4,313.6c0-5.946-0.749-11.72-2.143-17.239l18.936-10.931l-19.2-33.256l-18.982,10.958
	c-8.25-8.014-18.449-14.022-29.811-17.249V224h-38.4v21.883c-11.363,3.227-21.562,9.234-29.811,17.249l-18.984-10.961l-19.2,33.254
	l18.938,10.934c-1.394,5.521-2.143,11.295-2.143,17.24c0,5.946,0.749,11.718,2.143,17.236l-18.936,10.932l19.199,33.257
	l18.984-10.959c8.25,8.015,18.449,14.024,29.811,17.251l-0.001,21.88l38.4,0.001l0.001-21.882
	c11.363-3.227,21.562-9.234,29.813-17.249l18.98,10.959l19.201-33.254l-18.936-10.934C325.652,325.318,326.4,319.546,326.4,313.6z
	 M256,345.6c-17.645,0-32-14.355-32-32s14.355-32,32-32s32,14.355,32,32S273.645,345.6,256,345.6z"/>
<path style="fill:#EDEDED;" d="M326.4,313.6c0-5.946-0.749-11.72-2.143-17.239l18.936-10.931l-19.2-33.256l-18.982,10.958
	c-8.25-8.014-18.449-14.022-29.811-17.249V224H256v57.6c17.645,0,32,14.355,32,32s-14.355,32-32,32v57.597h19.199l0.001-21.88
	c11.363-3.227,21.562-9.234,29.813-17.249l18.98,10.959l19.201-33.254l-18.936-10.934C325.652,325.318,326.4,319.546,326.4,313.6z"
	/>
<g>
</g>
<g>
</g>
<g>
</g>
<g>
</g>
<g>
</g>
<g>
</g>
<g>
</g>
<g>
</g>
<g>
</g>
<g>
</g>
<g>
</g>
<g>
</g>
<g>
</g>
<g>
</g>
<g>
</g>
</svg>
