<?xml version="1.0" encoding="UTF-8" standalone="no"?>
<svg
   xmlns:dc="http://purl.org/dc/elements/1.1/"
   xmlns:cc="http://creativecommons.org/ns#"
   xmlns:rdf="http://www.w3.org/1999/02/22-rdf-syntax-ns#"
   xmlns:svg="http://www.w3.org/2000/svg"
   xmlns="http://www.w3.org/2000/svg"
   xmlns:sodipodi="http://sodipodi.sourceforge.net/DTD/sodipodi-0.dtd"
   xmlns:inkscape="http://www.inkscape.org/namespaces/inkscape"
   viewBox="0 0 48 48"
   version="1.1"
   id="svg57"
   sodipodi:docname="terminix.svg"
   inkscape:version="0.92.1 r15371">
  <metadata
     id="metadata61">
    <rdf:RDF>
      <cc:Work
         rdf:about="">
        <dc:format>image/svg+xml</dc:format>
        <dc:type
           rdf:resource="http://purl.org/dc/dcmitype/StillImage" />
      </cc:Work>
    </rdf:RDF>
  </metadata>
  <sodipodi:namedview
     pagecolor="#ffffff"
     bordercolor="#666666"
     borderopacity="1"
     objecttolerance="10"
     gridtolerance="10"
     guidetolerance="10"
     inkscape:pageopacity="0"
     inkscape:pageshadow="2"
     inkscape:window-width="645"
     inkscape:window-height="480"
     id="namedview59"
     showgrid="false"
     inkscape:zoom="4.9166667"
     inkscape:cx="24"
     inkscape:cy="24"
     inkscape:window-x="0"
     inkscape:window-y="0"
     inkscape:window-maximized="0"
     inkscape:current-layer="svg57" />
  <defs
     id="defs7">
    <linearGradient
       id="linearGradient3764"
       x1="1"
       x2="47"
       gradientUnits="userSpaceOnUse"
       gradientTransform="matrix(0,-1,1,0,-1.5e-6,47.999998)">
      <stop
         style="stop-color:#575757;stop-opacity:1"
         id="stop2" />
      <stop
         offset="1"
         style="stop-color:#616161;stop-opacity:1"
         id="stop4" />
    </linearGradient>
  </defs>
  <g
     id="g15">
    <path
       d="m 36.31 5 c 5.859 4.062 9.688 10.831 9.688 18.5 c 0 12.426 -10.07 22.5 -22.5 22.5 c -7.669 0 -14.438 -3.828 -18.5 -9.688 c 1.037 1.822 2.306 3.499 3.781 4.969 c 4.085 3.712 9.514 5.969 15.469 5.969 c 12.703 0 23 -10.298 23 -23 c 0 -5.954 -2.256 -11.384 -5.969 -15.469 c -1.469 -1.475 -3.147 -2.744 -4.969 -3.781 z m 4.969 3.781 c 3.854 4.113 6.219 9.637 6.219 15.719 c 0 12.703 -10.297 23 -23 23 c -6.081 0 -11.606 -2.364 -15.719 -6.219 c 4.16 4.144 9.883 6.719 16.219 6.719 c 12.703 0 23 -10.298 23 -23 c 0 -6.335 -2.575 -12.06 -6.719 -16.219 z"
       style="opacity:0.05"
       id="path9" />
    <path
       d="m 41.28 8.781 c 3.712 4.085 5.969 9.514 5.969 15.469 c 0 12.703 -10.297 23 -23 23 c -5.954 0 -11.384 -2.256 -15.469 -5.969 c 4.113 3.854 9.637 6.219 15.719 6.219 c 12.703 0 23 -10.298 23 -23 c 0 -6.081 -2.364 -11.606 -6.219 -15.719 z"
       style="opacity:0.1"
       id="path11" />
    <path
       d="m 31.25 2.375 c 8.615 3.154 14.75 11.417 14.75 21.13 c 0 12.426 -10.07 22.5 -22.5 22.5 c -9.708 0 -17.971 -6.135 -21.12 -14.75 a 23 23 0 0 0 44.875 -7 a 23 23 0 0 0 -16 -21.875 z"
       style="opacity:0.2"
       id="path13" />
  </g>
  <g
     id="g19"
     style="fill:#ff4141">
    <path
       d="m 24 1 c 12.703 0 23 10.297 23 23 c 0 12.703 -10.297 23 -23 23 -12.703 0 -23 -10.297 -23 -23 0 -12.703 10.297 -23 23 -23 z"
       style="fill:#ff4141;fill-opacity:1"
       id="path17" />
  </g>
  <g
     id="g37">
    <g
       id="g35">
      <g
         transform="translate(1,1)"
         id="g33">
        <g
           style="opacity:0.1"
           id="g31">
          <!-- color: #cf1717 -->
          <g
             id="g29">
            <path
               d="m 28 22 l 0 -1.996 l -6 0 l 0 1.996 m 6 0"
               style="fill:#000;fill-opacity:1;stroke:none;fill-rule:nonzero"
               id="path21" />
            <path
               d="m 15.668 21.332 l -1.668 -1.699 l 3.754 -2.969 l -3.754 -2.969 l 1.668 -1.699 l 5.633 4.664 l -5.633 4.664 m 0 0.008"
               style="fill:#000;fill-opacity:1;stroke:none;fill-rule:nonzero"
               id="path23" />
            <path
               d="m 28 36 l 0 -2 l -6 0 l 0 2 m 6 0"
               style="fill:#000;fill-opacity:1;stroke:none;fill-rule:nonzero"
               id="path25" />
            <path
               d="m 15.668 35.32 l -1.668 -1.699 l 3.754 -2.969 l -3.754 -2.969 l 1.668 -1.695 l 5.633 4.66 l -5.633 4.664 m 0 0.008"
               style="fill:#000;fill-opacity:1;stroke:none;fill-rule:nonzero"
               id="path27" />
          </g>
        </g>
      </g>
    </g>
  </g>
  <g
     id="g51">
    <g
       id="g49">
      <!-- color: #cf1717 -->
      <g
         id="g47">
        <path
           d="m 28 22 l 0 -1.996 l -6 0 l 0 1.996 m 6 0"
           style="fill:#fff;fill-opacity:1;stroke:none;fill-rule:nonzero"
           id="path39" />
        <path
           d="m 15.668 21.332 l -1.668 -1.699 l 3.754 -2.969 l -3.754 -2.969 l 1.668 -1.699 l 5.633 4.664 l -5.633 4.664 m 0 0.008"
           style="fill:#fff;fill-opacity:1;stroke:none;fill-rule:nonzero"
           id="path41" />
        <path
           d="m 28 36 l 0 -2 l -6 0 l 0 2 m 6 0"
           style="fill:#fff;fill-opacity:1;stroke:none;fill-rule:nonzero"
           id="path43" />
        <path
           d="m 15.668 35.32 l -1.668 -1.699 l 3.754 -2.969 l -3.754 -2.969 l 1.668 -1.695 l 5.633 4.66 l -5.633 4.664 m 0 0.008"
           style="fill:#fff;fill-opacity:1;stroke:none;fill-rule:nonzero"
           id="path45" />
      </g>
    </g>
  </g>
  <g
     id="g55">
    <path
       d="m 40.03 7.531 c 3.712 4.084 5.969 9.514 5.969 15.469 0 12.703 -10.297 23 -23 23 c -5.954 0 -11.384 -2.256 -15.469 -5.969 4.178 4.291 10.01 6.969 16.469 6.969 c 12.703 0 23 -10.298 23 -23 0 -6.462 -2.677 -12.291 -6.969 -16.469 z"
       style="opacity:0.1"
       id="path53" />
  </g>
</svg>
