<?xml version="1.0" encoding="UTF-8" standalone="no"?>
<!-- Created with Inkscape (http://www.inkscape.org/) -->

<svg
   xmlns:dc="http://purl.org/dc/elements/1.1/"
   xmlns:cc="http://creativecommons.org/ns#"
   xmlns:rdf="http://www.w3.org/1999/02/22-rdf-syntax-ns#"
   xmlns:svg="http://www.w3.org/2000/svg"
   xmlns="http://www.w3.org/2000/svg"
   xmlns:sodipodi="http://sodipodi.sourceforge.net/DTD/sodipodi-0.dtd"
   xmlns:inkscape="http://www.inkscape.org/namespaces/inkscape"
   width="43"
   height="50"
   id="svg80818"
   version="1.1"
   inkscape:version="0.48.5 r10040"
   sodipodi:docname="applications-photography.svg">
  <defs
     id="defs80820" />
  <sodipodi:namedview
     id="base"
     pagecolor="#ffffff"
     bordercolor="#666666"
     borderopacity="1.0"
     inkscape:pageopacity="0.0"
     inkscape:pageshadow="2"
     inkscape:zoom="11.2"
     inkscape:cx="18.009479"
     inkscape:cy="22.632633"
     inkscape:document-units="px"
     inkscape:current-layer="layer1"
     showgrid="false"
     inkscape:window-width="1440"
     inkscape:window-height="833"
     inkscape:window-x="0"
     inkscape:window-y="0"
     inkscape:window-maximized="1" />
  <metadata
     id="metadata80823">
    <rdf:RDF>
      <cc:Work
         rdf:about="">
        <dc:format>image/svg+xml</dc:format>
        <dc:type
           rdf:resource="http://purl.org/dc/dcmitype/StillImage" />
        <dc:title></dc:title>
      </cc:Work>
    </rdf:RDF>
  </metadata>
  <g
     inkscape:label="Camada 1"
     inkscape:groupmode="layer"
     id="layer1"
     transform="translate(0,-1002.3622)">
    <path
       inkscape:connector-curvature="0"
       style="fill:#2d2d2d;fill-opacity:1;fill-rule:evenodd;stroke:#0c84ef;stroke-width:2.5;stroke-miterlimit:4;stroke-opacity:1;stroke-dasharray:none"
       d="m 39.951105,1004.331 -17.5,1.6562 -18.0625,0 c -2.23121,-0.1653 -3.125,0.042 -3.125,2.0625 l 0,38.875 c -0.14014,2.2183 0.79911,2.1563 2.96875,2.1563 l 18.5,0 17.375,2.0312 c 2.10445,0 2.10467,-1.0003 1.96875,-3.2187 l 0.15625,-41.0938 c 0,-2.0216 -0.11708,-2.6342 -2.28125,-2.4687 z"
       id="path4248" />
    <g
       transform="matrix(1.5263052,0,0,1.5263052,-9.9945913,-535.47831)"
       id="g8227">
      <path
         transform="matrix(0.3733497,0,0,0.35098803,7.5969649,1012.8156)"
         d="m 45,36 c 0,8.284271 -6.715729,15 -15,15 -8.284271,0 -15,-6.715729 -15,-15 0,-8.284271 6.715729,-15 15,-15 8.284271,0 15,6.715729 15,15 z"
         sodipodi:ry="15"
         sodipodi:rx="15"
         sodipodi:cy="36"
         sodipodi:cx="30"
         id="path3792"
         style="fill:#ffffff;fill-opacity:1;fill-rule:nonzero;stroke:none"
         sodipodi:type="arc" />
      <path
         inkscape:connector-curvature="0"
         id="path3810"
         d="m 14.44171,1026.6913 c 0.938986,1.7232 2.539354,2.8547 4.355747,2.8547 1.816394,0 3.416761,-1.1315 4.355747,-2.8547 l -8.711494,0 z"
         style="fill:#2d2d2d;fill-opacity:1;fill-rule:nonzero;stroke:none" />
      <path
         id="path3854"
         d="m 18.797457,1014.3365 c -3.015206,0 -5.742854,1.0942 -7.832567,2.8445 l 0,1.265 c 1.971587,-1.9484 4.741989,-3.1735 7.832567,-3.1735 5.985563,0 10.827143,4.5516 10.827143,10.1786 0,3.5939 -1.983663,6.7298 -4.970219,8.5407 l 1.625627,0 c 2.630588,-2.0395 4.340191,-5.0891 4.340191,-8.5407 0,-6.1329 -5.299118,-11.1146 -11.822742,-11.1146 z m 0,2.1132 c -3.242494,0 -6.100275,1.5266 -7.832567,3.8463 l 0,1.8646 c 1.341933,-2.818 4.334616,-4.7895 7.832567,-4.7895 4.748389,0 8.594823,3.616 8.594823,8.08 0,4.464 -3.846434,8.0801 -8.594823,8.0801 -3.497951,0 -6.490634,-1.9715 -7.832567,-4.7896 l 0,1.8647 c 1.192819,1.5972 2.933686,2.7827 4.954663,3.3855 l 5.755808,0 c 3.8711,-1.1546 6.696962,-4.5202 6.696962,-8.5407 0,-4.9698 -4.288416,-9.0014 -9.574866,-9.0014 z m 0,2.0987 c -4.04928,0 -7.342545,3.096 -7.342545,6.9027 0,3.8068 3.293265,6.9028 7.342545,6.9028 4.04928,0 7.342545,-3.096 7.342545,-6.9028 0,-3.8067 -3.293265,-6.9027 -7.342545,-6.9027 z m 0,0.936 c 3.511218,0 6.346946,2.6658 6.346946,5.9667 0,3.3009 -2.835728,5.9668 -6.346946,5.9668 -3.511218,0 -6.346946,-2.6659 -6.346946,-5.9668 0,-3.3009 2.835728,-5.9667 6.346946,-5.9667 z m -7.832567,12.9719 0,0.797 c 0,0.2042 0.09158,0.3932 0.233344,0.5265 0.141766,0.1332 0.33499,0.212 0.552247,0.212 l 1.190052,0 c -0.724887,-0.4395 -1.383722,-0.9505 -1.975643,-1.5355 z"
         style="font-size:medium;font-style:normal;font-variant:normal;font-weight:normal;font-stretch:normal;text-indent:0;text-align:start;text-decoration:none;line-height:normal;letter-spacing:normal;word-spacing:normal;text-transform:none;direction:ltr;block-progression:tb;writing-mode:lr-tb;text-anchor:start;baseline-shift:baseline;color:#000000;fill:#ffffff;fill-opacity:1;stroke:none;stroke-width:2.18181777;marker:none;visibility:visible;display:inline;overflow:visible;enable-background:accumulate;font-family:Sans;-inkscape-font-specification:Sans"
         inkscape:connector-curvature="0" />
    </g>
  </g>
</svg>
