<?xml version="1.0" encoding="UTF-8" standalone="no"?>
<!-- Created with Inkscape (http://www.inkscape.org/) -->

<svg
   xmlns:dc="http://purl.org/dc/elements/1.1/"
   xmlns:cc="http://creativecommons.org/ns#"
   xmlns:rdf="http://www.w3.org/1999/02/22-rdf-syntax-ns#"
   xmlns:svg="http://www.w3.org/2000/svg"
   xmlns="http://www.w3.org/2000/svg"
   xmlns:sodipodi="http://sodipodi.sourceforge.net/DTD/sodipodi-0.dtd"
   xmlns:inkscape="http://www.inkscape.org/namespaces/inkscape"
   width="43"
   height="50"
   id="svg80818"
   version="1.1"
   inkscape:version="0.48.5 r10040"
   sodipodi:docname="modelo.svg">
  <defs
     id="defs80820" />
  <sodipodi:namedview
     id="base"
     pagecolor="#ffffff"
     bordercolor="#666666"
     borderopacity="1.0"
     inkscape:pageopacity="0.0"
     inkscape:pageshadow="2"
     inkscape:zoom="7.9195959"
     inkscape:cx="12.602869"
     inkscape:cy="27.247862"
     inkscape:document-units="px"
     inkscape:current-layer="layer1"
     showgrid="false"
     inkscape:window-width="1366"
     inkscape:window-height="701"
     inkscape:window-x="0"
     inkscape:window-y="0"
     inkscape:window-maximized="1" />
  <metadata
     id="metadata80823">
    <rdf:RDF>
      <cc:Work
         rdf:about="">
        <dc:format>image/svg+xml</dc:format>
        <dc:type
           rdf:resource="http://purl.org/dc/dcmitype/StillImage" />
        <dc:title></dc:title>
      </cc:Work>
    </rdf:RDF>
  </metadata>
  <g
     inkscape:label="Camada 1"
     inkscape:groupmode="layer"
     id="layer1"
     transform="translate(0,-1002.3622)">
    <path
       inkscape:connector-curvature="0"
       style="fill:#2d2d2d;fill-opacity:1;fill-rule:evenodd;stroke:#0c84ef;stroke-width:2.5;stroke-miterlimit:4;stroke-opacity:1;stroke-dasharray:none"
       d="m 39.951105,1004.331 -17.5,1.6562 -18.0625,0 c -2.23121,-0.1653 -3.125,0.042 -3.125,2.0625 l 0,38.875 c -0.14014,2.2183 0.79911,2.1563 2.96875,2.1563 l 18.5,0 17.375,2.0312 c 2.10445,0 2.10467,-1.0003 1.96875,-3.2187 l 0.15625,-41.0938 c 0,-2.0216 -0.11708,-2.6342 -2.28125,-2.4687 z"
       id="path4248" />
    <g
       id="g3032"
       transform="matrix(0.50793651,0,0,0.50793694,4.9792727,527.70834)">
      <path
         d="m 18.46875,974.84375 0,59.06245 59.0625,0 0,-59.06245 -59.0625,0 z"
         id="path2997"
         style="fill:#ffffff;fill-opacity:1;fill-rule:nonzero;stroke:none"
         inkscape:original="M 8.96875 962.375 C 7.3210935 962.375 6 963.69609 6 965.34375 L 6 1043.375 C 6 1045.0227 7.3210935 1046.375 8.96875 1046.375 L 87.03125 1046.375 C 88.678906 1046.375 90 1045.0227 90 1043.375 L 90 965.34375 C 90 963.69609 88.678906 962.375 87.03125 962.375 L 8.96875 962.375 z "
         inkscape:radius="-12.477806"
         sodipodi:type="inkscape:offset"
         transform="translate(-15,-20)" />
      <g
         style="fill:#cc0000;fill-opacity:1"
         transform="matrix(0.62441084,0,0,0.64177696,3.411174,342.98483)"
         id="g3017">
        <path
           inkscape:connector-curvature="0"
           d="m 16.917921,989.57072 -4.263387,-5.39647 4.263387,-5.39645 4.26338,5.39645 z"
           id="path915"
           style="fill:#cc0000;fill-opacity:1;stroke:none" />
        <g
           transform="matrix(2.5033085,0,0,2.5033085,-2.672756,-1633.7224)"
           id="text917"
           style="font-size:9.41568947px;font-style:normal;font-variant:normal;font-weight:normal;font-stretch:normal;line-height:125%;letter-spacing:0px;word-spacing:0px;fill:#cc0000;fill-opacity:1;stroke:none;font-family:Decker;-inkscape-font-specification:Decker">
          <path
             style="fill:#cc0000;fill-opacity:1"
             inkscape:connector-curvature="0"
             d="m 5.5317605,1043.3467 -0.6942232,0 2.5975901,-6.694 0.7907708,0 2.5883948,6.694 -0.703418,0 -0.7999657,-2.1011 -2.979183,0 -0.7999658,2.1011 z m 3.5492736,-2.7034 -1.2689113,-3.3607 -1.2505213,3.3607 2.5194326,0 z"
             id="path103" />
        </g>
      </g>
      <path
         style="fill:#cc0000;fill-opacity:1;stroke:none"
         id="path971"
         d="M 33.110863,999.37487 21.54896,984.3332 33.110863,969.29148 44.672767,984.3332 z"
         inkscape:connector-curvature="0" />
      <g
         id="g3770"
         transform="matrix(0.62441084,0,0,-0.64177696,42.099678,1625.5725)"
         style="fill:#cc0000;fill-opacity:1">
        <path
           style="fill:#cc0000;fill-opacity:1;stroke:none"
           id="path3772"
           d="m 16.917921,989.57072 -4.263387,-5.39647 4.263387,-5.39645 4.26338,5.39645 z"
           inkscape:connector-curvature="0" />
        <g
           style="font-size:9.41568947px;font-style:normal;font-variant:normal;font-weight:normal;font-stretch:normal;line-height:125%;letter-spacing:0px;word-spacing:0px;fill:#cc0000;fill-opacity:1;stroke:none;font-family:Decker;-inkscape-font-specification:Decker"
           id="g3774"
           transform="matrix(2.5033085,0,0,2.5033085,-2.672756,-1633.7224)">
          <path
             id="path3776"
             d="m 5.5317605,1043.3467 -0.6942232,0 2.5975901,-6.694 0.7907708,0 2.5883948,6.694 -0.703418,0 -0.7999657,-2.1011 -2.979183,0 -0.7999658,2.1011 z m 3.5492736,-2.7034 -1.2689113,-3.3607 -1.2505213,3.3607 2.5194326,0 z"
             inkscape:connector-curvature="0"
             style="fill:#cc0000;fill-opacity:1" />
        </g>
      </g>
    </g>
  </g>
</svg>
