<?xml version="1.0" encoding="UTF-8" standalone="no"?>
<!-- Created with Inkscape (http://www.inkscape.org/) -->

<svg
   xmlns:dc="http://purl.org/dc/elements/1.1/"
   xmlns:cc="http://creativecommons.org/ns#"
   xmlns:rdf="http://www.w3.org/1999/02/22-rdf-syntax-ns#"
   xmlns:svg="http://www.w3.org/2000/svg"
   xmlns="http://www.w3.org/2000/svg"
   xmlns:sodipodi="http://sodipodi.sourceforge.net/DTD/sodipodi-0.dtd"
   xmlns:inkscape="http://www.inkscape.org/namespaces/inkscape"
   width="43"
   height="50"
   id="svg80818"
   version="1.1"
   inkscape:version="0.48.5 r10040"
   sodipodi:docname="applications-mail.svg">
  <defs
     id="defs80820" />
  <sodipodi:namedview
     id="base"
     pagecolor="#ffffff"
     bordercolor="#666666"
     borderopacity="1.0"
     inkscape:pageopacity="0.0"
     inkscape:pageshadow="2"
     inkscape:zoom="11.2"
     inkscape:cx="18.009479"
     inkscape:cy="22.632633"
     inkscape:document-units="px"
     inkscape:current-layer="layer1"
     showgrid="false"
     inkscape:window-width="1440"
     inkscape:window-height="833"
     inkscape:window-x="0"
     inkscape:window-y="0"
     inkscape:window-maximized="1" />
  <metadata
     id="metadata80823">
    <rdf:RDF>
      <cc:Work
         rdf:about="">
        <dc:format>image/svg+xml</dc:format>
        <dc:type
           rdf:resource="http://purl.org/dc/dcmitype/StillImage" />
        <dc:title></dc:title>
      </cc:Work>
    </rdf:RDF>
  </metadata>
  <g
     inkscape:label="Camada 1"
     inkscape:groupmode="layer"
     id="layer1"
     transform="translate(0,-1002.3622)">
    <path
       inkscape:connector-curvature="0"
       style="fill:#2d2d2d;fill-opacity:1;fill-rule:evenodd;stroke:#0c84ef;stroke-width:2.5;stroke-miterlimit:4;stroke-opacity:1;stroke-dasharray:none"
       d="m 39.951105,1004.331 -17.5,1.6562 -18.0625,0 c -2.23121,-0.1653 -3.125,0.042 -3.125,2.0625 l 0,38.875 c -0.14014,2.2183 0.79911,2.1563 2.96875,2.1563 l 18.5,0 17.375,2.0312 c 2.10445,0 2.10467,-1.0003 1.96875,-3.2187 l 0.15625,-41.0938 c 0,-2.0216 -0.11708,-2.6342 -2.28125,-2.4687 z"
       id="path4248" />
    <path
       style="fill:#ffffff;fill-opacity:1;fill-rule:nonzero;stroke:none"
       d="m 8.9658616,1012.7091 c -0.0377,0 -0.242077,0.076 -0.399645,0.2436 -0.157568,0.1661 -0.226466,0.3655 -0.226466,0.4155 0,0.05 0.069,0.2494 0.226466,0.4154 0.157464,0.1661 0.361568,0.2436 0.399645,0.2436 0.03808,0 0.242182,-0.078 0.399644,-0.2436 0.157463,-0.166 0.226466,-0.3652 0.226466,-0.4154 0,-0.049 -0.0689,-0.2494 -0.226466,-0.4155 -0.157568,-0.1662 -0.361943,-0.2436 -0.399644,-0.2436 z m 5.1154544,0 c -0.0377,0 -0.242078,0.076 -0.399646,0.2436 -0.15757,0.1661 -0.226465,0.3655 -0.226465,0.4155 0,0.05 0.069,0.2494 0.226465,0.4154 0.157463,0.1661 0.361568,0.2436 0.399646,0.2436 0.148296,0 0.357166,-0.096 0.43961,-0.1863 0.08694,-0.095 0.173179,-0.329 0.173179,-0.4727 0,-0.1435 -0.08622,-0.3786 -0.173179,-0.4729 -0.08248,-0.089 -0.291442,-0.1862 -0.43961,-0.1862 z m 5.102134,0 c -0.0377,0 -0.242077,0.076 -0.399647,0.2436 -0.157569,0.1661 -0.226464,0.3655 -0.226464,0.4155 0,0.05 0.06901,0.2494 0.226464,0.4154 0.157465,0.1661 0.361571,0.2436 0.399647,0.2436 0.03808,0 0.24218,-0.078 0.399643,-0.2436 0.157464,-0.166 0.226465,-0.3652 0.226465,-0.4154 0,-0.049 -0.0689,-0.2494 -0.226465,-0.4155 -0.15757,-0.1662 -0.361947,-0.2436 -0.399643,-0.2436 z m 5.115451,0 c -0.0377,0 -0.242075,0.076 -0.399643,0.2436 -0.157571,0.1661 -0.226467,0.3655 -0.226467,0.4155 0,0.05 0.069,0.2494 0.226467,0.4154 0.157463,0.1661 0.361569,0.2436 0.399643,0.2436 0.03808,0 0.242181,-0.078 0.399645,-0.2436 0.157464,-0.166 0.226465,-0.3652 0.226465,-0.4154 0,-0.049 -0.0689,-0.2494 -0.226465,-0.4155 -0.15757,-0.1662 -0.361947,-0.2436 -0.399645,-0.2436 z m 5.102132,0 c -0.0377,0 -0.242074,0.076 -0.399644,0.2436 -0.157574,0.1661 -0.226467,0.3655 -0.226467,0.4155 0,0.05 0.069,0.2494 0.226467,0.4154 0.157462,0.1661 0.361568,0.2436 0.399644,0.2436 0.03808,0 0.242182,-0.078 0.399647,-0.2436 0.15746,-0.166 0.226463,-0.3652 0.226463,-0.4154 0,-0.049 -0.0689,-0.2494 -0.226463,-0.4155 -0.157574,-0.1662 -0.361949,-0.2436 -0.399647,-0.2436 z m 5.115451,0 c -0.0377,0 -0.242073,0.076 -0.399643,0.2436 -0.157568,0.1661 -0.226467,0.3655 -0.226467,0.4155 0,0.05 0.069,0.2494 0.226467,0.4154 0.157461,0.1661 0.361574,0.2436 0.399643,0.2436 0.03808,0 0.242182,-0.078 0.399648,-0.2436 0.15746,-0.166 0.226462,-0.3652 0.226462,-0.4154 0,-0.049 -0.0689,-0.2494 -0.226462,-0.4155 -0.157568,-0.1662 -0.361951,-0.2436 -0.399648,-0.2436 z m -25.5506224,5.0716 c -0.416718,0 -0.932506,0.5373 -0.932506,0.9886 0,0.431 0.548303,0.9741 0.932506,0.9741 0.384203,0 0.932505,-0.5431 0.932505,-0.9741 0,-0.4509 -0.516279,-0.9886 -0.932505,-0.9886 z m 5.1154544,0 c -0.416721,0 -0.932505,0.5373 -0.932505,0.9886 0,0.431 0.548301,0.9741 0.932505,0.9741 0.364342,0 0.919182,-0.5799 0.919182,-0.9741 0,-0.4145 -0.522381,-0.9886 -0.919182,-0.9886 z m 5.102134,0 c -0.416726,0 -0.932506,0.5373 -0.932506,0.9886 0,0.431 0.548296,0.9741 0.932506,0.9741 0.384207,0 0.932502,-0.5431 0.932502,-0.9741 0,-0.4509 -0.516282,-0.9886 -0.932502,-0.9886 z m 5.115451,0 c -0.416721,0 -0.932504,0.5373 -0.932504,0.9886 0,0.431 0.548296,0.9741 0.932504,0.9741 0.384209,0 0.932505,-0.5431 0.932505,-0.9741 0,-0.4509 -0.516283,-0.9886 -0.932505,-0.9886 z m 5.102132,0 c -0.416724,0 -0.932504,0.5373 -0.932504,0.9886 0,0.431 0.548294,0.9741 0.932504,0.9741 0.384209,0 0.932505,-0.5431 0.932505,-0.9741 0,-0.4509 -0.516282,-0.9886 -0.932505,-0.9886 z m 5.115451,0 c -0.416724,0 -0.932504,0.5373 -0.932504,0.9886 0,0.431 0.5483,0.9741 0.932504,0.9741 0.384208,0 0.932504,-0.5431 0.932504,-0.9741 0,-0.4509 -0.51628,-0.9886 -0.932504,-0.9886 z m -25.5506224,5.0858 c -0.59446,0 -1.225578,0.6452 -1.225578,1.2894 0,0.5448 0.415212,1.0662 0.959147,1.2177 a 1.295649,1.3933857 0 0 1 0.253109,0.1008 1.295649,1.3933857 0 0 1 0.01328,0 1.295649,1.3933857 0 0 1 0.26643,-0.1008 c 0.543904,-0.1511 0.9591474,-0.6731 0.9591474,-1.2177 0,-0.6442 -0.6311184,-1.2894 -1.2255774,-1.2894 z m 5.1154544,0 c -0.594459,0 -1.225579,0.6452 -1.225579,1.2894 0,0.5448 0.415212,1.0662 0.959147,1.2177 a 1.295649,1.3933857 0 0 1 0.253111,0.1008 1.295649,1.3933857 0 0 1 0.01328,0 1.295649,1.3933857 0 0 1 0.253107,-0.1008 c 0.532708,-0.1511 0.959148,-0.6925 0.959148,-1.2177 0,-0.6204 -0.630542,-1.2894 -1.212255,-1.2894 z m 5.102134,0 c -0.594461,0 -1.225579,0.6452 -1.225579,1.2894 0,0.5448 0.415211,1.0662 0.959148,1.2177 a 1.295649,1.3933857 0 0 1 0.253109,0.1008 1.295649,1.3933857 0 0 1 0.01328,0 1.295649,1.3933857 0 0 1 0.266429,-0.1008 c 0.543905,-0.1511 0.959148,-0.6731 0.959148,-1.2177 0,-0.6442 -0.631118,-1.2894 -1.225577,-1.2894 z m 5.115451,0 c -0.594459,0 -1.225577,0.6452 -1.225577,1.2894 0,0.5448 0.415213,1.0662 0.959148,1.2177 a 1.295649,1.3933857 0 0 1 0.253108,0.1008 1.295649,1.3933857 0 0 1 0.01328,0 1.295649,1.3933857 0 0 1 0.266431,-0.1008 c 0.543903,-0.1511 0.959147,-0.6731 0.959147,-1.2177 0,-0.6442 -0.63112,-1.2894 -1.225578,-1.2894 z m 5.102132,0 c -0.594457,0 -1.225578,0.6452 -1.225578,1.2894 0,0.5448 0.415213,1.0662 0.95915,1.2177 a 1.295649,1.3933857 0 0 1 0.253105,0.1008 1.295649,1.3933857 0 0 1 0.01328,0 1.295649,1.3933857 0 0 1 0.266429,-0.1008 c 0.543905,-0.1511 0.959149,-0.6731 0.959149,-1.2177 0,-0.6442 -0.631121,-1.2894 -1.225578,-1.2894 z m 5.115451,0 c -0.594456,0 -1.225576,0.6452 -1.225576,1.2894 0,0.5448 0.41521,1.0662 0.959147,1.2177 a 1.295649,1.3933857 0 0 1 0.253108,0.1008 1.295649,1.3933857 0 0 1 0.01328,0 1.295649,1.3933857 0 0 1 0.266429,-0.1008 c 0.543905,-0.1511 0.959147,-0.6731 0.959147,-1.2177 0,-0.6442 -0.631115,-1.2894 -1.225576,-1.2894 z m -25.5506224,5.1003 a 1.295649,1.3933857 0 0 1 -0.293072,0.1145 c -0.682839,0.1679 -1.198936,0.7648 -1.198936,1.4756 0,0.5367 0.299012,1.0133 0.785968,1.318 a 1.295649,1.3933857 0 0 1 -0.06661,2.4499 c -0.603231,0.329 -0.9991119,0.9275 -0.9991119,1.6331 0,0.5307 0.2229289,0.9941 0.6127899,1.361 a 1.295649,1.3933857 0 0 1 -0.106566,2.1776 c -0.5990537,0.4583 -0.9591472,1.105 -0.9591472,1.8624 0,1.2909 1.0136502,2.3496 2.2246902,2.3496 0.629485,0 1.1859564,-0.2998 1.6118994,-0.7879 a 1.295649,1.3933857 0 0 1 1.891652,0 c 0.425946,0.4881 0.982416,0.7879 1.611902,0.7879 0.621161,0 1.173912,-0.3006 1.598579,-0.7879 a 1.295649,1.3933857 0 0 1 1.891653,0 c 0.425946,0.4881 0.982415,0.7879 1.611902,0.7879 0.629486,0 1.185954,-0.2998 1.6119,-0.7879 a 1.295649,1.3933857 0 0 1 1.891652,0 c 0.425946,0.4881 0.982414,0.7879 1.611901,0.7879 0.62116,0 1.173912,-0.3006 1.598579,-0.7879 a 1.295649,1.3933857 0 0 1 1.891652,0 c 0.425946,0.4881 0.982412,0.7879 1.6119,0.7879 0.629488,0 1.185955,-0.2998 1.611902,-0.7879 a 1.295649,1.3933857 0 0 1 1.891652,0 c 0.425942,0.4881 0.982414,0.7879 1.611898,0.7879 1.211019,0 2.224689,-1.0588 2.224689,-2.3496 0,-0.7574 -0.360091,-1.4041 -0.959149,-1.8624 a 1.295649,1.3933857 0 0 1 -0.106582,-2.1776 c 0.389862,-0.3669 0.612789,-0.8303 0.612789,-1.361 0,-0.7056 -0.395882,-1.3041 -0.999115,-1.6331 a 1.295649,1.3933857 0 0 1 -0.06661,-2.4499 c 0.486954,-0.3047 0.785968,-0.7813 0.785968,-1.318 0,-0.7108 -0.516097,-1.3077 -1.198937,-1.4756 a 1.295649,1.3933857 0 0 1 -0.293072,-0.1145 1.295649,1.3933857 0 0 1 -0.293072,0.1145 c -0.507399,0.1251 -0.905861,0.4625 -1.079041,0.8881 a 1.295649,1.3933857 0 0 1 -0.45293,0.5875 1.295649,1.3933857 0 0 1 0.45293,0.5873 c 0.107223,0.2636 0.332554,0.522 0.666076,0.7307 a 1.295649,1.3933857 0 0 1 -0.06661,2.4499 c -0.282023,0.1537 -0.504019,0.3679 -0.692713,0.6876 a 1.295649,1.3933857 0 0 1 -2.184726,0 c -0.188693,-0.3197 -0.410689,-0.5339 -0.692718,-0.6876 a 1.295649,1.3933857 0 0 1 -0.06661,-2.4499 c 0.333523,-0.2087 0.558837,-0.4671 0.66607,-0.7307 a 1.295649,1.3933857 0 0 1 0.45293,-0.5873 1.295649,1.3933857 0 0 1 -0.45293,-0.5875 c -0.173174,-0.4256 -0.571642,-0.7633 -1.07904,-0.8881 a 1.295649,1.3933857 0 0 1 -0.293072,-0.1145 1.295649,1.3933857 0 0 1 -0.293073,0.1145 c -0.509504,0.1251 -0.907216,0.4562 -1.07904,0.8738 a 1.295649,1.3933857 0 0 1 -0.466252,0.6018 1.295649,1.3933857 0 0 1 0.466252,0.6017 c 0.104186,0.2532 0.327869,0.5047 0.666077,0.7163 a 1.295649,1.3933857 0 0 1 -0.06661,2.4499 c -0.282026,0.1537 -0.504024,0.3679 -0.692717,0.6876 a 1.295649,1.3933857 0 0 1 -2.184724,0 c -0.185371,-0.3149 -0.421724,-0.5515 -0.692718,-0.702 a 1.295649,1.3933857 0 0 1 -0.05328,-2.4355 c 0.323182,-0.2023 0.541362,-0.4619 0.652754,-0.7307 a 1.295649,1.3933857 0 0 1 0.466252,-0.5873 1.295649,1.3933857 0 0 1 -0.466252,-0.5875 c -0.177218,-0.4276 -0.565997,-0.7652 -1.06572,-0.8881 a 1.295649,1.3933857 0 0 1 -0.293072,-0.1145 1.295649,1.3933857 0 0 1 -0.293075,0.1145 c -0.507397,0.1251 -0.905861,0.4625 -1.079038,0.8881 a 1.295649,1.3933857 0 0 1 -0.452933,0.5875 1.295649,1.3933857 0 0 1 0.452933,0.5873 c 0.107223,0.2636 0.33255,0.522 0.666073,0.7307 a 1.295649,1.3933857 0 0 1 -0.06661,2.4499 c -0.282027,0.1537 -0.504024,0.3679 -0.692716,0.6876 a 1.295649,1.3933857 0 0 1 -2.184726,0 c -0.188693,-0.3197 -0.410691,-0.5339 -0.692717,-0.6876 a 1.295649,1.3933857 0 0 1 -0.06661,-2.4499 c 0.333524,-0.2087 0.558842,-0.4671 0.666075,-0.7307 a 1.295649,1.3933857 0 0 1 0.45293,-0.5873 1.295649,1.3933857 0 0 1 -0.45293,-0.5875 c -0.173177,-0.4256 -0.571642,-0.7633 -1.079041,-0.8881 a 1.295649,1.3933857 0 0 1 -0.293072,-0.1145 1.295649,1.3933857 0 0 1 -0.293074,0.1145 c -0.509505,0.1251 -0.907217,0.4562 -1.079041,0.8738 a 1.295649,1.3933857 0 0 1 -0.466251,0.6018 1.295649,1.3933857 0 0 1 0.466251,0.6017 c 0.104186,0.2532 0.32787,0.5047 0.666075,0.7163 a 1.295649,1.3933857 0 0 1 -0.06661,2.4499 c -0.282026,0.1537 -0.504022,0.3679 -0.692716,0.6876 a 1.295649,1.3933857 0 0 1 -2.184726,0 c -0.18536,-0.3143 -0.421715,-0.5509 -0.692707,-0.7014 a 1.295649,1.3933857 0 0 1 -0.05328,-2.4355 c 0.328358,-0.2085 0.548229,-0.4625 0.652752,-0.7163 a 1.295649,1.3933857 0 0 1 0.466254,-0.6017 1.295649,1.3933857 0 0 1 -0.466254,-0.6018 c -0.171845,-0.4173 -0.564431,-0.749 -1.065718,-0.8738 a 1.295649,1.3933857 0 0 1 -0.279752,-0.1145 1.295649,1.3933857 0 0 1 -0.306395,0.1145 c -0.507399,0.1251 -0.905863,0.4625 -1.079042,0.8881 a 1.295649,1.3933857 0 0 1 -0.452929,0.5875 1.295649,1.3933857 0 0 1 0.452929,0.5873 c 0.107223,0.2636 0.332552,0.522 0.666075,0.7307 a 1.295649,1.3933857 0 0 1 -0.06661,2.4499 c -0.282027,0.1537 -0.504024,0.368 -0.692718,0.6876 a 1.295649,1.3933857 0 0 1 -2.184724,0 c -0.188694,-0.3196 -0.410692,-0.5339 -0.6927184,-0.6876 a 1.295649,1.3933857 0 0 1 -0.06661,-2.4499 c 0.3335234,-0.2087 0.5588414,-0.4671 0.6660754,-0.7307 a 1.295649,1.3933857 0 0 1 0.452929,-0.5873 1.295649,1.3933857 0 0 1 -0.452929,-0.5875 c -0.17318,-0.4256 -0.5716434,-0.7633 -1.0790424,-0.8881 a 1.295649,1.3933857 0 0 1 -0.293073,-0.1145 z m 2.4245114,7.2777 a 1.295649,1.3933857 0 0 1 1.225577,0.6448 c 0.139474,0.2345 0.238437,0.3658 0.306395,0.4298 a 1.295649,1.3933857 0 0 1 -0.106566,2.1775 c -0.209502,0.1603 -0.310242,0.2595 -0.34636,0.3009 a 1.295649,1.3933857 0 0 1 -1.891652,0 c -0.03611,-0.043 -0.136864,-0.1404 -0.346359,-0.3009 a 1.295649,1.3933857 0 0 1 -0.106566,-2.1775 c 0.06797,-0.064 0.166919,-0.1953 0.306393,-0.4298 a 1.295649,1.3933857 0 0 1 0.959147,-0.6448 z m 5.102133,0 a 1.295649,1.3933857 0 0 1 1.225578,0.6448 c 0.139473,0.2345 0.238436,0.3658 0.306395,0.4298 a 1.295649,1.3933857 0 0 1 -0.106582,2.1775 c -0.209501,0.1603 -0.310242,0.2595 -0.34636,0.3009 a 1.295649,1.3933857 0 0 1 -1.891653,-0.015 c -0.01725,-0.02 -0.126118,-0.1084 -0.359678,-0.2866 a 1.295649,1.3933857 0 0 1 -0.106567,-2.1775 c 0.09483,-0.088 0.194696,-0.2185 0.319717,-0.4296 a 1.295649,1.3933857 0 0 1 0.959147,-0.6449 z m 5.115453,0 a 1.295649,1.3933857 0 0 1 1.225578,0.6448 c 0.139473,0.2345 0.238436,0.3658 0.306395,0.4298 a 1.295649,1.3933857 0 0 1 -0.106567,2.1775 c -0.2095,0.1603 -0.31024,0.2595 -0.346358,0.3009 a 1.295649,1.3933857 0 0 1 -1.891652,0 c -0.03611,-0.043 -0.136864,-0.1404 -0.34636,-0.3009 a 1.295649,1.3933857 0 0 1 -0.106567,-2.1775 c 0.06797,-0.064 0.16692,-0.1953 0.306394,-0.4298 a 1.295649,1.3933857 0 0 1 0.959148,-0.6448 z m 5.102132,0 a 1.295649,1.3933857 0 0 1 1.225577,0.6448 c 0.139474,0.2345 0.238437,0.3658 0.306395,0.4298 a 1.295649,1.3933857 0 0 1 -0.106582,2.1775 c -0.2095,0.1603 -0.310239,0.2595 -0.346358,0.3009 a 1.295649,1.3933857 0 0 1 -1.891652,-0.015 c -0.01725,-0.02 -0.126134,-0.1084 -0.35968,-0.2866 a 1.295649,1.3933857 0 0 1 -0.106567,-2.1775 c 0.09483,-0.088 0.194694,-0.2185 0.319717,-0.4296 a 1.295649,1.3933857 0 0 1 0.959147,-0.6449 z m 5.115456,0 a 1.295649,1.3933857 0 0 1 1.225576,0.6448 c 0.139474,0.2345 0.238432,0.3658 0.306393,0.4298 a 1.295649,1.3933857 0 0 1 -0.106566,2.1775 c -0.209498,0.1603 -0.31024,0.2595 -0.346354,0.3009 a 1.295649,1.3933857 0 0 1 -1.891652,0 c -0.03608,-0.043 -0.136864,-0.1404 -0.34636,-0.3009 a 1.295649,1.3933857 0 0 1 -0.106567,-2.1775 c 0.06795,-0.064 0.16692,-0.1953 0.306394,-0.4298 a 1.295649,1.3933857 0 0 1 0.959148,-0.6448 z"
       id="path2998"
       inkscape:connector-curvature="0" />
  </g>
</svg>
