<?xml version="1.0" encoding="UTF-8" standalone="no"?>
<!-- Created with Inkscape (http://www.inkscape.org/) -->

<svg
   xmlns:dc="http://purl.org/dc/elements/1.1/"
   xmlns:cc="http://creativecommons.org/ns#"
   xmlns:rdf="http://www.w3.org/1999/02/22-rdf-syntax-ns#"
   xmlns:svg="http://www.w3.org/2000/svg"
   xmlns="http://www.w3.org/2000/svg"
   xmlns:sodipodi="http://sodipodi.sourceforge.net/DTD/sodipodi-0.dtd"
   xmlns:inkscape="http://www.inkscape.org/namespaces/inkscape"
   width="43"
   height="50"
   id="svg80818"
   version="1.1"
   inkscape:version="0.48.5 r10040"
   sodipodi:docname="applications-science.svg">
  <defs
     id="defs80820" />
  <sodipodi:namedview
     id="base"
     pagecolor="#ffffff"
     bordercolor="#666666"
     borderopacity="1.0"
     inkscape:pageopacity="0.0"
     inkscape:pageshadow="2"
     inkscape:zoom="11.2"
     inkscape:cx="18.009479"
     inkscape:cy="22.632633"
     inkscape:document-units="px"
     inkscape:current-layer="layer1"
     showgrid="false"
     inkscape:window-width="1440"
     inkscape:window-height="833"
     inkscape:window-x="0"
     inkscape:window-y="0"
     inkscape:window-maximized="1" />
  <metadata
     id="metadata80823">
    <rdf:RDF>
      <cc:Work
         rdf:about="">
        <dc:format>image/svg+xml</dc:format>
        <dc:type
           rdf:resource="http://purl.org/dc/dcmitype/StillImage" />
        <dc:title></dc:title>
      </cc:Work>
    </rdf:RDF>
  </metadata>
  <g
     inkscape:label="Camada 1"
     inkscape:groupmode="layer"
     id="layer1"
     transform="translate(0,-1002.3622)">
    <path
       inkscape:connector-curvature="0"
       style="fill:#2d2d2d;fill-opacity:1;fill-rule:evenodd;stroke:#0c84ef;stroke-width:2.5;stroke-miterlimit:4;stroke-opacity:1;stroke-dasharray:none"
       d="m 39.951105,1004.331 -17.5,1.6562 -18.0625,0 c -2.23121,-0.1653 -3.125,0.042 -3.125,2.0625 l 0,38.875 c -0.14014,2.2183 0.79911,2.1563 2.96875,2.1563 l 18.5,0 17.375,2.0312 c 2.10445,0 2.10467,-1.0003 1.96875,-3.2187 l 0.15625,-41.0938 c 0,-2.0216 -0.11708,-2.6342 -2.28125,-2.4687 z"
       id="path4248" />
    <g
       id="g47181"
       transform="matrix(1.5263052,0,0,1.5263052,-6.0671108,-536.08487)">
      <path
         sodipodi:nodetypes="cccccccccccc"
         inkscape:connector-curvature="0"
         id="path47153"
         d="m 13.610854,1031.1359 c -2.052708,-2.6783 -2.077819,-5.7275 1.826007,-9.4958 -4.544494,-2.7151 1.223258,-8.1714 2.912917,-3.1813 2.901766,-3.5911 7.257521,2.0689 2.173816,2.9403 2.683177,1.1719 5.696839,6.3368 2.639703,9.5193 0.57088,-0.07 2.15711,-3.5965 2.403557,-5.4702 l 2.434679,-0.2411 -2.391202,-2.8922 c -2.627007,-10.5239 -12.909209,-9.597 -14.608059,0.096 l -2.5651055,2.6994 2.6085795,0.2893 c 0.180539,2.2696 1.051334,4.1732 2.565108,5.7359 z"
         style="fill:#ffffff;stroke:none" />
      <path
         transform="matrix(0.08695273,0,0,0.09640454,3.8286721,1020.917)"
         d="m 166.25,-17.875 c 0,4.487314 -4.14137,8.125 -9.25,8.125 -5.10863,0 -9.25,-3.637686 -9.25,-8.125 0,-4.487314 4.14137,-8.125 9.25,-8.125 5.10863,0 9.25,3.637686 9.25,8.125 z"
         sodipodi:ry="8.125"
         sodipodi:rx="9.25"
         sodipodi:cy="-17.875"
         sodipodi:cx="157"
         id="path47155"
         style="fill:#ffffff;fill-opacity:1;stroke:none"
         sodipodi:type="arc" />
      <path
         transform="matrix(0.08695273,0,0,0.09640454,3.8286721,1020.8206)"
         d="m 179.75,-16.125 c 0,3.244673 -2.79822,5.875 -6.25,5.875 -3.45178,0 -6.25,-2.630327 -6.25,-5.875 0,-3.244673 2.79822,-5.875 6.25,-5.875 3.45178,0 6.25,2.630327 6.25,5.875 z"
         sodipodi:ry="5.875"
         sodipodi:rx="6.25"
         sodipodi:cy="-16.125"
         sodipodi:cx="173.5"
         id="path47157"
         style="fill:#ffffff;fill-opacity:1;stroke:none"
         sodipodi:type="arc" />
      <path
         sodipodi:nodetypes="cccc"
         inkscape:connector-curvature="0"
         id="path47159"
         d="m 16.262913,1020.8688 c 0.994184,-0.3447 1.711663,-0.9808 3.80418,-0.1686 l -1.78253,2.5306 z"
         style="fill:#ffffff;stroke:none" />
      <path
         transform="matrix(0.08695273,0,0,0.09640454,3.7364446,1020.2095)"
         d="m 156.9777,129.49405 c 0,9.47021 -17.01631,17.14734 -38.00699,17.14734 -20.990679,0 -38.006988,-7.67713 -38.006988,-17.14734 0,-9.47021 17.016309,-17.14734 38.006988,-17.14734 20.99068,0 38.00699,7.67713 38.00699,17.14734 z"
         sodipodi:ry="17.147339"
         sodipodi:rx="38.006989"
         sodipodi:cy="129.49405"
         sodipodi:cx="118.97071"
         id="path47161"
         style="fill:#ffffff;fill-opacity:1;stroke:none"
         sodipodi:type="arc" />
      <path
         transform="matrix(0.08695273,0,0,0.09640454,12.451926,1020.1925)"
         d="m 156.9777,129.49405 c 0,9.47021 -17.01631,17.14734 -38.00699,17.14734 -20.990679,0 -38.006988,-7.67713 -38.006988,-17.14734 0,-9.47021 17.016309,-17.14734 38.006988,-17.14734 20.99068,0 38.00699,7.67713 38.00699,17.14734 z"
         sodipodi:ry="17.147339"
         sodipodi:rx="38.006989"
         sodipodi:cy="129.49405"
         sodipodi:cx="118.97071"
         id="path47161-1"
         style="fill:#ffffff;fill-opacity:1;stroke:none"
         sodipodi:type="arc" />
    </g>
  </g>
</svg>
