<?xml version="1.0" encoding="UTF-8" standalone="no"?>
<!-- Created with Inkscape (http://www.inkscape.org/) -->

<svg
   xmlns:dc="http://purl.org/dc/elements/1.1/"
   xmlns:cc="http://creativecommons.org/ns#"
   xmlns:rdf="http://www.w3.org/1999/02/22-rdf-syntax-ns#"
   xmlns:svg="http://www.w3.org/2000/svg"
   xmlns="http://www.w3.org/2000/svg"
   xmlns:sodipodi="http://sodipodi.sourceforge.net/DTD/sodipodi-0.dtd"
   xmlns:inkscape="http://www.inkscape.org/namespaces/inkscape"
   width="43"
   height="50"
   id="svg80818"
   version="1.1"
   inkscape:version="0.48.5 r10040"
   sodipodi:docname="applications-java.svg">
  <defs
     id="defs80820" />
  <sodipodi:namedview
     id="base"
     pagecolor="#ffffff"
     bordercolor="#666666"
     borderopacity="1.0"
     inkscape:pageopacity="0.0"
     inkscape:pageshadow="2"
     inkscape:zoom="11.2"
     inkscape:cx="18.009479"
     inkscape:cy="22.632633"
     inkscape:document-units="px"
     inkscape:current-layer="layer1"
     showgrid="false"
     inkscape:window-width="1440"
     inkscape:window-height="833"
     inkscape:window-x="0"
     inkscape:window-y="0"
     inkscape:window-maximized="1" />
  <metadata
     id="metadata80823">
    <rdf:RDF>
      <cc:Work
         rdf:about="">
        <dc:format>image/svg+xml</dc:format>
        <dc:type
           rdf:resource="http://purl.org/dc/dcmitype/StillImage" />
        <dc:title></dc:title>
      </cc:Work>
    </rdf:RDF>
  </metadata>
  <g
     inkscape:label="Camada 1"
     inkscape:groupmode="layer"
     id="layer1"
     transform="translate(0,-1002.3622)">
    <path
       inkscape:connector-curvature="0"
       style="fill:#2d2d2d;fill-opacity:1;fill-rule:evenodd;stroke:#0c84ef;stroke-width:2.5;stroke-miterlimit:4;stroke-opacity:1;stroke-dasharray:none"
       d="m 39.951105,1004.331 -17.5,1.6562 -18.0625,0 c -2.23121,-0.1653 -3.125,0.042 -3.125,2.0625 l 0,38.875 c -0.14014,2.2183 0.79911,2.1563 2.96875,2.1563 l 18.5,0 17.375,2.0312 c 2.10445,0 2.10467,-1.0003 1.96875,-3.2187 l 0.15625,-41.0938 c 0,-2.0216 -0.11708,-2.6342 -2.28125,-2.4687 z"
       id="path4248" />
    <g
       transform="matrix(1.5263052,0,0,1.5263052,-8.7466843,-536.42171)"
       id="g8231">
      <g
         transform="matrix(0.30470071,0,0,0.40390569,46.753154,623.39164)"
         id="g4014">
        <rect
           style="fill:#f1001f;fill-opacity:1;fill-rule:evenodd;stroke:none"
           id="rect4008"
           width="40.316841"
           height="10.138153"
           x="-91.243385"
           y="978.56586" />
        <rect
           y="998.84216"
           x="-91.243385"
           height="10.138153"
           width="40.316841"
           id="rect4010"
           style="fill:#214478;fill-opacity:1;fill-rule:evenodd;stroke:none" />
        <rect
           y="988.70398"
           x="-91.243385"
           height="10.138153"
           width="40.316841"
           id="rect4012"
           style="fill:#ffffff;fill-opacity:1;fill-rule:evenodd;stroke:none" />
      </g>
      <path
         transform="matrix(0.40669034,0,0,0.32715438,46.284991,1013.5557)"
         d="m -55.877731,36.232048 c 0,7.487232 -4.750123,13.556833 -10.609696,13.556833 -5.859573,0 -10.609695,-6.069601 -10.609695,-13.556833 0,-7.487232 4.750122,-13.556833 10.609695,-13.556833 5.859573,0 10.609696,6.069601 10.609696,13.556833 z"
         sodipodi:ry="13.556833"
         sodipodi:rx="10.609695"
         sodipodi:cy="36.232048"
         sodipodi:cx="-66.487427"
         id="path4019"
         style="fill:none;stroke:#ffffff;stroke-width:1.67235541;stroke-miterlimit:4;stroke-opacity:1;stroke-dasharray:none"
         sodipodi:type="arc" />
      <path
         sodipodi:type="arc"
         style="fill:none;stroke:#ffffff;stroke-width:2.87046075;stroke-miterlimit:4;stroke-opacity:0.67123287;stroke-dasharray:none"
         id="path4021"
         sodipodi:cx="-66.487427"
         sodipodi:cy="36.232048"
         sodipodi:rx="10.609695"
         sodipodi:ry="13.556833"
         d="m -55.877731,36.232048 c 0,7.487232 -4.750123,13.556833 -10.609696,13.556833 -5.859573,0 -10.609695,-6.069601 -10.609695,-13.556833 0,-7.487232 4.750122,-13.556833 10.609695,-13.556833 5.859573,0 10.609696,6.069601 10.609696,13.556833 z"
         transform="matrix(0.23694133,0,0,0.19060299,34.998808,1018.5033)" />
      <rect
         y="1021.9158"
         x="8.7140894"
         height="0.81897128"
         width="13.10354"
         id="rect3011"
         style="fill:#ffffff;fill-opacity:1;fill-rule:evenodd;stroke:none" />
      <rect
         style="fill:#ffffff;fill-opacity:1;fill-rule:evenodd;stroke:none"
         id="rect3782"
         width="13.10354"
         height="0.81897026"
         x="8.7140894"
         y="1023.9633" />
      <rect
         y="1026.0107"
         x="8.7140894"
         height="0.81897026"
         width="13.10354"
         id="rect3784"
         style="fill:#ffffff;fill-opacity:1;fill-rule:evenodd;stroke:none" />
      <rect
         style="fill:#ffffff;fill-opacity:1;fill-rule:evenodd;stroke:none"
         id="rect3786"
         width="13.10354"
         height="0.81896919"
         x="8.7140894"
         y="1028.0581" />
    </g>
  </g>
</svg>
