<?xml version="1.0" encoding="UTF-8" standalone="no"?>
<!-- Created with Inkscape (http://www.inkscape.org/) -->

<svg
   xmlns:dc="http://purl.org/dc/elements/1.1/"
   xmlns:cc="http://creativecommons.org/ns#"
   xmlns:rdf="http://www.w3.org/1999/02/22-rdf-syntax-ns#"
   xmlns:svg="http://www.w3.org/2000/svg"
   xmlns="http://www.w3.org/2000/svg"
   xmlns:xlink="http://www.w3.org/1999/xlink"
   xmlns:sodipodi="http://sodipodi.sourceforge.net/DTD/sodipodi-0.dtd"
   xmlns:inkscape="http://www.inkscape.org/namespaces/inkscape"
   width="48"
   height="48"
   id="svg865"
   version="1.1"
   inkscape:version="0.48.5 r10040"
   sodipodi:docname="folder-image-people.svg">
  <defs
     id="defs867">
    <clipPath
       id="clipPath3823"
       clipPathUnits="userSpaceOnUse">
      <rect
         y="-2.8691742"
         x="124.84656"
         height="4.4258509"
         width="26.346256"
         id="rect3825"
         style="opacity:0.3157895;fill:#ffffff;fill-opacity:1;stroke:none" />
    </clipPath>
    <clipPath
       id="clipPath3817"
       clipPathUnits="userSpaceOnUse">
      <rect
         ry="0"
         y="-34.623631"
         x="103.62109"
         height="38.543312"
         width="50.767868"
         id="rect3819"
         style="fill:#1a1a1a;fill-opacity:1;stroke:none" />
    </clipPath>
    <path
       d="m 69.626,12.145 -.052,0 c -22.727,-0.292 -46.472,4.077 -46.709,4.122 -2.424,0.451 -4.946,2.974 -5.397,5.397 -0.044,0.237 -4.414,23.983 -4.122,46.71 -0.292,22.777 4.078,46.523 4.122,46.761 0.451,2.423 2.974,4.945 5.398,5.398 0.237,0.044 23.982,4.413 46.709,4.121 22.779,0.292 46.524,-4.077 46.761,-4.121 2.423,-0.452 4.946,-2.976 5.398,-5.399 0.044,-0.236 4.413,-23.981 4.121,-46.709 0.292,-22.777 -4.077,-46.523 -4.121,-46.761 -0.453,-2.423 -2.976,-4.946 -5.398,-5.397 -0.238,-0.045 -23.984,-4.414 -46.71,-4.122 z "
       id="XMLID_10_" />
    <clipPath
       id="clipPath4458">
      <use
         id="use4460"
         xlink:href="#XMLID_10_"
         height="1"
         y="0"
         x="0"
         width="1" />
    </clipPath>
    <filter
       color-interpolation-filters="sRGB"
       inkscape:collect="always"
       id="filter3816">
      <feGaussianBlur
         inkscape:collect="always"
         stdDeviation="0.25895215"
         id="feGaussianBlur3818" />
    </filter>
    <linearGradient
       inkscape:collect="always"
       xlink:href="#SVGID_1_"
       id="linearGradient3044"
       gradientUnits="userSpaceOnUse"
       x1="24.0089"
       y1="15.9896"
       x2="24.0089"
       y2="44.989601"
       gradientTransform="matrix(1.2,0,0,1.1523902,-4.8107981,-3.8460361)" />
    <linearGradient
       x1="24.0089"
       y1="15.9896"
       x2="24.0089"
       y2="44.989601"
       id="SVGID_1_"
       gradientUnits="userSpaceOnUse">
      <stop
         id="stop22"
         style="stop-color:#8ec5ff;stop-opacity:1"
         offset="0" />
      <stop
         id="stop24"
         style="stop-color:#70bcff;stop-opacity:1"
         offset="0.97000003" />
      <stop
         id="stop26"
         style="stop-color:#0f70e6;stop-opacity:1"
         offset="1" />
    </linearGradient>
  </defs>
  <sodipodi:namedview
     id="base"
     pagecolor="#ffffff"
     bordercolor="#666666"
     borderopacity="1.0"
     inkscape:pageopacity="0.0"
     inkscape:pageshadow="2"
     inkscape:zoom="5.6568543"
     inkscape:cx="7.7212095"
     inkscape:cy="19.367353"
     inkscape:document-units="px"
     inkscape:current-layer="folderLayer"
     showgrid="false"
     inkscape:window-width="1440"
     inkscape:window-height="833"
     inkscape:window-x="0"
     inkscape:window-y="0"
     inkscape:window-maximized="1"
     borderlayer="true"
     inkscape:showpageshadow="false"
     showguides="true"
     inkscape:guide-bbox="true">
    <sodipodi:guide
       position="0,39.000017"
       orientation="30,0"
       id="guide4110" />
    <sodipodi:guide
       position="30,39.000017"
       orientation="0,-30"
       id="guide4116" />
    <sodipodi:guide
       position="30,9.0000174"
       orientation="0,18"
       id="guide4120" />
    <sodipodi:guide
       position="48,9.0000174"
       orientation="-30,0"
       id="guide4122" />
    <sodipodi:guide
       position="48,39.000017"
       orientation="0,-18"
       id="guide4124" />
    <sodipodi:guide
       position="4,41.000017"
       orientation="34,0"
       id="guide4164" />
    <sodipodi:guide
       position="22,41.000017"
       orientation="0,-18"
       id="guide4170" />
    <sodipodi:guide
       position="6,37.0002"
       orientation="27.999817,0"
       id="guide4174" />
    <sodipodi:guide
       position="6,9.0003836"
       orientation="0,35.999992"
       id="guide4176" />
    <sodipodi:guide
       position="41.999992,37.0002"
       orientation="0,-35.999992"
       id="guide4180" />
    <sodipodi:guide
       position="14,31.000017"
       orientation="20,0"
       id="guide4221" />
    <sodipodi:guide
       position="34,11.000017"
       orientation="-20,0"
       id="guide4225" />
    <sodipodi:guide
       position="34,31.000017"
       orientation="0,-20"
       id="guide4227" />
    <sodipodi:guide
       position="14,31.000017"
       orientation="11,0"
       id="guide4412" />
    <sodipodi:guide
       position="14,20.000017"
       orientation="6.123234e-17,1"
       id="guide4414" />
    <sodipodi:guide
       position="25,20.000017"
       orientation="-11,0"
       id="guide4416" />
    <sodipodi:guide
       position="25,31.000017"
       orientation="0,-11"
       id="guide4418" />
    <sodipodi:guide
       position="25,20.000017"
       orientation="9,0"
       id="guide4420" />
    <sodipodi:guide
       position="25,11.000017"
       orientation="0,9"
       id="guide4422" />
    <sodipodi:guide
       position="34,11.000017"
       orientation="-9,0"
       id="guide4424" />
    <sodipodi:guide
       position="34,20.000017"
       orientation="0,-9"
       id="guide4426" />
    <sodipodi:guide
       position="23.000001,35.000017"
       orientation="-1.9999999,0"
       id="guide4068" />
    <sodipodi:guide
       position="23.000001,37.000017"
       orientation="0,2"
       id="guide4070" />
    <sodipodi:guide
       position="25,37.000017"
       orientation="1.9999999,0"
       id="guide4072" />
    <sodipodi:guide
       position="25,35.000017"
       orientation="0,-2"
       id="guide4074" />
    <sodipodi:guide
       orientation="0,1"
       position="-5.0900019,45.012788"
       id="guide3049" />
    <sodipodi:guide
       orientation="0,1"
       position="14,5.0286766"
       id="guide3051" />
    <sodipodi:guide
       orientation="1,0"
       position="18.481902,18.990154"
       id="guide3071" />
  </sodipodi:namedview>
  <metadata
     id="metadata870">
    <rdf:RDF>
      <cc:Work
         rdf:about="">
        <dc:format>image/svg+xml</dc:format>
        <dc:type
           rdf:resource="http://purl.org/dc/dcmitype/StillImage" />
        <dc:title />
      </cc:Work>
    </rdf:RDF>
  </metadata>
  <g
     inkscape:groupmode="layer"
     id="folderLayer"
     inkscape:label="folder">
    <polygon
       points="42.009,8.99 42.009,38.99 6.009,38.99 6.009,10.99 28.181,10.99 30.246,8.99 "
       id="polygon17"
       style="fill:#31a4fc"
       transform="matrix(1.2,0,0,1.1523902,-4.8107981,-10.359988)" />
    <polygon
       points="37.934,22.329 37.746,38.166 7.008,38.154 7.008,18.824 11.711,9.333 "
       id="polygon19-3"
       style="opacity:0.56432746;fill:#364e59;filter:url(#filter3816)"
       transform="matrix(1.2,0,0,1.1523902,-5.3416021,-9.6805976)" />
    <polygon
       points="11.711,9.333 37.934,22.329 37.746,38.166 7.008,38.154 7.008,18.824 "
       id="polygon19"
       style="fill:#ffffff"
       transform="matrix(1.2,0,0,1.1523902,-5.0984351,-9.1286067)" />
    <rect
       width="48"
       height="33.419319"
       x="0"
       y="14.580683"
       id="rect28"
       style="fill:url(#linearGradient3044)"
       ry="2.1973546" />
    <path
       style="fill:#ffffff;fill-opacity:1;stroke:none"
       id="path3813"
       inkscape:connector-curvature="0"
       d="m 23.860119,20.25 c -1.323885,0 -2.399605,0.998535 -2.399605,2.235116 0.0032,0.141714 0.0046,0.307524 0.01935,0.483791 -0.209516,0.111778 -0.235265,0.546264 -0.04838,0.986934 0.07206,0.169927 0.171603,0.313912 0.270923,0.425737 0.0032,0.0037 0.0063,0.006 0.0097,0.0097 0.0237,0.116429 0.03907,0.207322 0.06773,0.338653 0.08882,0.266669 0.460536,0.768595 0.783742,1.199802 0.03223,0.332643 0.03582,0.656942 -0.02904,1.035314 -0.523708,0.434831 -1.495979,0.742475 -2.254469,1.064341 -0.27283,-0.125448 -0.520187,-0.262489 -0.696659,-0.41606 -0.0279,-0.229733 -0.02388,-0.460709 -0.0097,-0.686984 0.220391,-0.340229 0.506801,-0.775197 0.58055,-0.996611 0.02711,-0.114663 0.037,-0.191812 0.05806,-0.290273 0.06509,-0.07961 0.126122,-0.176993 0.174165,-0.290276 0.133106,-0.313862 0.11631,-0.614106 -0.01935,-0.71601 0.0094,-0.136376 0.02506,-0.260802 0.02903,-0.377359 0,-0.927433 -0.806788,-1.683593 -1.799703,-1.683593 -0.992915,0 -1.799704,0.756164 -1.799704,1.683593 0.0025,0.106285 0.0083,0.225805 0.01935,0.358007 -0.157138,0.08383 -0.178869,0.404857 -0.0387,0.735362 0.05404,0.127442 0.128702,0.235435 0.203193,0.319302 0.0025,0.0028 0.0072,0.007 0.0097,0.0097 0.01777,0.08732 0.02687,0.153073 0.04838,0.251571 0.06662,0.200001 0.338144,0.576448 0.580549,0.899853 0.02417,0.24948 0.02929,0.499959 -0.01935,0.783742 -0.697725,0.579317 -2.479687,0.832285 -2.477012,1.432022 l -0.241887,1.567486 c 0,0.319475 0.479381,0.60544 1.238505,0.803093 l 0.106435,0.425736 a 0.26106894,0.2612696 0 0 0 0.164489,0.174166 c 0.0337,0.01303 0.0528,0.04091 0.145137,0.06773 0.486451,0.141334 1.228094,0.241896 2.060952,0.241896 0.784784,0 1.48758,-0.09419 1.973868,-0.222544 l 0.125786,0.512818 a 0.34809193,0.34835948 0 0 0 0.212868,0.232221 c 0.04493,0.0174 0.08006,0.0513 0.203193,0.08708 0.648601,0.188448 1.637456,0.319302 2.747934,0.319302 1.110478,0 2.109009,-0.130854 2.757611,-0.319302 0.123127,-0.03578 0.158265,-0.06969 0.203192,-0.08708 a 0.34809193,0.34835948 0 0 0 0.203193,-0.222542 l 0.145137,-0.51282 c 0.485032,0.12651 1.176617,0.212868 1.954516,0.212868 0.832858,0 1.584176,-0.10056 2.070627,-0.241894 0.09235,-0.02685 0.111444,-0.05469 0.145138,-0.06773 a 0.26106894,0.2612696 0 0 0 0.154814,-0.16449 l 0.135461,-0.445087 c 0.740577,-0.197345 1.209478,-0.478442 1.209478,-0.793418 L 32.59742,29.045379 c -0.0029,-0.513293 -1.797518,-0.832286 -2.486688,-1.432022 -0.0279,-0.229734 -0.02388,-0.46071 -0.0097,-0.686985 0.220391,-0.340229 0.506801,-0.775195 0.58055,-0.99661 0.0271,-0.114664 0.03701,-0.191812 0.05805,-0.290275 0.06509,-0.07961 0.126122,-0.176991 0.174165,-0.290274 0.133105,-0.313862 0.11631,-0.614107 -0.01935,-0.716012 0.0094,-0.136375 0.02506,-0.260801 0.02904,-0.377357 0,-0.927433 -0.806789,-1.683594 -1.799705,-1.683594 -0.992914,0 -1.799703,0.756164 -1.799703,1.683594 0.0025,0.106285 0.0083,0.225804 0.01935,0.358005 -0.157136,0.08383 -0.178866,0.40486 -0.0387,0.735364 0.05404,0.127442 0.128702,0.235433 0.203192,0.319302 0.0025,0.0028 0.0072,0.007 0.0097,0.0097 0.01778,0.08732 0.02687,0.153074 0.04838,0.251572 0.06662,0.2 0.338144,0.576448 0.58055,0.899852 0.02417,0.249481 0.02929,0.49996 -0.01935,0.783742 -0.1992,0.165393 -0.483941,0.297024 -0.793419,0.425737 -0.746481,-0.314987 -1.662984,-0.643492 -2.157709,-1.074018 -0.0372,-0.306313 -0.03829,-0.607827 -0.01935,-0.909527 0.293855,-0.453637 0.685411,-1.030369 0.783742,-1.325588 0.03614,-0.152888 0.04934,-0.255752 0.07742,-0.387032 0.08678,-0.106148 0.168163,-0.235989 0.232219,-0.387035 0.177475,-0.418478 0.161532,-0.822032 -0.01935,-0.957907 0.01264,-0.181833 0.02374,-0.35741 0.02903,-0.512817 -4.5e-5,-1.236591 -1.075764,-2.23513 -2.39965,-2.23513 z" />
    <rect
       style="color:#000000;fill:none;fill-opacity:1;fill-rule:evenodd;stroke:#ffffff;stroke-width:1;marker:none;visibility:visible;display:inline;overflow:visible;enable-background:accumulate;stroke-opacity:1;stroke-miterlimit:4;stroke-dasharray:none"
       id="rect3875"
       width="20"
       height="20"
       x="14"
       y="16.999983"
       rx="3.0233593e-07" />
  </g>
</svg>
