<?xml version="1.0" encoding="UTF-8" standalone="no"?>
<svg
   xmlns:dc="http://purl.org/dc/elements/1.1/"
   xmlns:cc="http://creativecommons.org/ns#"
   xmlns:rdf="http://www.w3.org/1999/02/22-rdf-syntax-ns#"
   xmlns:svg="http://www.w3.org/2000/svg"
   xmlns="http://www.w3.org/2000/svg"
   xmlns:xlink="http://www.w3.org/1999/xlink"
   xmlns:sodipodi="http://sodipodi.sourceforge.net/DTD/sodipodi-0.dtd"
   xmlns:inkscape="http://www.inkscape.org/namespaces/inkscape"
   width="48"
   version="1.1"
   height="48"
   id="svg2"
   inkscape:version="0.48.5 r10040"
   sodipodi:docname="folder-java.svg">
  <metadata
     id="metadata20">
    <rdf:RDF>
      <cc:Work
         rdf:about="">
        <dc:format>image/svg+xml</dc:format>
        <dc:type
           rdf:resource="http://purl.org/dc/dcmitype/StillImage" />
      </cc:Work>
    </rdf:RDF>
  </metadata>
  <defs
     id="defs18">
    <filter
       color-interpolation-filters="sRGB"
       inkscape:collect="always"
       id="filter3816">
      <feGaussianBlur
         inkscape:collect="always"
         stdDeviation="0.25895215"
         id="feGaussianBlur3818" />
    </filter>
    <linearGradient
       inkscape:collect="always"
       xlink:href="#SVGID_1_"
       id="linearGradient3044"
       gradientUnits="userSpaceOnUse"
       x1="24.0089"
       y1="15.9896"
       x2="24.0089"
       y2="44.989601"
       gradientTransform="matrix(1.2,0,0,1.3333333,-4.8107998,-11.986667)" />
    <linearGradient
       x1="24.0089"
       y1="15.9896"
       x2="24.0089"
       y2="44.989601"
       id="SVGID_1_"
       gradientUnits="userSpaceOnUse">
      <stop
         id="stop22"
         style="stop-color:#8ec5ff;stop-opacity:1"
         offset="0" />
      <stop
         id="stop24"
         style="stop-color:#70bcff;stop-opacity:1"
         offset="0.97000003" />
      <stop
         id="stop26"
         style="stop-color:#0f70e6;stop-opacity:1"
         offset="1" />
    </linearGradient>
  </defs>
  <sodipodi:namedview
     pagecolor="#ffffff"
     bordercolor="#666666"
     borderopacity="1"
     objecttolerance="10"
     gridtolerance="10"
     guidetolerance="10"
     inkscape:pageopacity="0"
     inkscape:pageshadow="2"
     inkscape:window-width="667"
     inkscape:window-height="480"
     id="namedview16"
     showgrid="false"
     inkscape:zoom="4.9166667"
     inkscape:cx="24"
     inkscape:cy="24"
     inkscape:window-x="0"
     inkscape:window-y="0"
     inkscape:window-maximized="0"
     inkscape:current-layer="svg2" />
  <polygon
     points="6.009,10.99 28.181,10.99 30.246,8.99 42.009,8.99 42.009,38.99 6.009,38.99 "
     id="polygon17"
     style="fill:#31a4fc"
     transform="matrix(1.2,0,0,1.3333333,-4.8107998,-11.986667)" />
  <polygon
     points="7.008,38.154 7.008,18.824 11.711,9.333 37.934,22.329 37.746,38.166 "
     id="polygon19-3"
     style="opacity:0.56432746;fill:#364e59;filter:url(#filter3816)"
     transform="matrix(1.2,0,0,1.3333333,-5.3416033,-11.200602)" />
  <polygon
     points="37.746,38.166 7.008,38.154 7.008,18.824 11.711,9.333 37.934,22.329 "
     id="polygon19"
     style="fill:#ffffff"
     transform="matrix(1.2,0,0,1.3333333,-5.0984365,-10.56194)" />
  <rect
     width="48"
     height="38.666668"
     x="0"
     y="9.3333321"
     id="rect28"
     style="fill:url(#linearGradient3044)"
     ry="2.5423732" />
  <rect
     width="30"
     x="9.380971"
     y="11.101083"
     height="30"
     style="fill:none;stroke:none"
     id="rect3265" />
  <path
     style="fill:#ffffff;fill-rule:evenodd;stroke:none"
     id="path3079"
     d="m 23.9254,10.0559 c 1.93912,1.29858 4.11443,3.56641 -2.56403,5.73037 -6.67846,2.16465 -0.251824,6.81032 -0.251824,6.81032 l 1.0989,1.6089 c 4.95541,-0.865896 2.999,-2.04971 2.999,-2.04971 -4.3087,-4.00366 -0.658574,-2.95794 2.60982,-5.42181 3.26872,-2.46318 -3.89184,-6.67809 -3.89184,-6.67809 z m 1.717,11.5048 c 0.234874,0.183881 0.475424,0.403246 0.778367,0.617117 2.52655,0.322411 4.28102,1.00376 4.28102,1.78523 0,1.08967 -3.37564,2.77703 -7.55474,2.77703 -4.17795,0 -7.57767,-1.68736 -7.57767,-2.77703 0,-0.7274 1.53086,-1.35204 3.77737,-1.69707 -0.189943,-0.140627 -0.373009,-0.294481 -0.572329,-0.46284 -2.85392,0.424546 -4.83045,1.22151 -4.83045,2.15991 0,0.05922 0.0077,0.118191 0.02289,0.176319 h -0.02289 v 11.7693 c 0,0.332824 0.530242,0.983057 0.869939,1.27831 0.251692,1.33192 3.70683,3.19579 8.33311,3.19579 4.60072,0 8.04293,-1.85268 8.33311,-3.17374 0.356117,-0.301494 0.869941,-0.959134 0.869941,-1.30035 v -1.38851 l 0.1831,-0.0662 c 0.176058,-0.06665 4.30943,-1.66398 5.17385,-4.49614 0.337237,-1.10779 0.09555,-2.2494 -0.663902,-3.39414 l -0.0229,-0.0441 -0.0229,-0.022 c -0.728234,-0.413498 -3.66074,-0.03018 -4.64731,0.1102 v -2.46847 h -0.04578 c 0.01516,-0.05813 0.04578,-0.117114 0.04578,-0.176319 0,-1.13542 -2.84147,-2.10576 -6.70769,-2.40235 z m -5.0136,1.5649 c -1.64483,0.21609 -2.61939,0.619845 -3.20504,1.14607 0.864278,0.770902 2.91647,1.71911 5.72329,1.71911 2.80759,0 4.85923,-0.948208 5.72329,-1.71911 -0.452341,-0.407867 -1.01742,-0.734885 -2.15196,-0.969755 -0.558299,0.419121 -1.90932,0.99714 -5.03649,1.65299 l -1.0531,-1.8293 z m 14.8348,6.083 c 0.219537,0.136058 0.228932,0.263199 0.228932,0.352638 v 0.02204 c -0.01586,0.756678 -2.03271,2.08625 -3.3424,2.77703 v -2.57867 l 0.0458,0.022 h 0.06868 c 1.28564,-0.304574 2.74078,-0.602479 2.999,-0.595076 z"
     inkscape:connector-curvature="0" />
</svg>
