<?xml version="1.0" encoding="UTF-8" standalone="no"?>
<svg
   xmlns:dc="http://purl.org/dc/elements/1.1/"
   xmlns:cc="http://creativecommons.org/ns#"
   xmlns:rdf="http://www.w3.org/1999/02/22-rdf-syntax-ns#"
   xmlns:svg="http://www.w3.org/2000/svg"
   xmlns="http://www.w3.org/2000/svg"
   xmlns:xlink="http://www.w3.org/1999/xlink"
   xmlns:sodipodi="http://sodipodi.sourceforge.net/DTD/sodipodi-0.dtd"
   xmlns:inkscape="http://www.inkscape.org/namespaces/inkscape"
   width="48"
   version="1.1"
   height="48"
   id="svg2"
   inkscape:version="0.48.5 r10040"
   sodipodi:docname="mail-inbox.svg">
  <metadata
     id="metadata22">
    <rdf:RDF>
      <cc:Work
         rdf:about="">
        <dc:format>image/svg+xml</dc:format>
        <dc:type
           rdf:resource="http://purl.org/dc/dcmitype/StillImage" />
      </cc:Work>
    </rdf:RDF>
  </metadata>
  <defs
     id="defs20">
    <clipPath
       id="clipPath3823"
       clipPathUnits="userSpaceOnUse">
      <rect
         y="-2.8691742"
         x="124.84656"
         height="4.4258509"
         width="26.346256"
         id="rect3825"
         style="opacity:0.3157895;fill:#ffffff;fill-opacity:1;stroke:none" />
    </clipPath>
    <clipPath
       id="clipPath3817"
       clipPathUnits="userSpaceOnUse">
      <rect
         ry="0"
         y="-34.623631"
         x="103.62109"
         height="38.543312"
         width="50.767868"
         id="rect3819"
         style="fill:#1a1a1a;fill-opacity:1;stroke:none" />
    </clipPath>
    <path
       d="m 69.626,12.145 -.052,0 c -22.727,-0.292 -46.472,4.077 -46.709,4.122 -2.424,0.451 -4.946,2.974 -5.397,5.397 -0.044,0.237 -4.414,23.983 -4.122,46.71 -0.292,22.777 4.078,46.523 4.122,46.761 0.451,2.423 2.974,4.945 5.398,5.398 0.237,0.044 23.982,4.413 46.709,4.121 22.779,0.292 46.524,-4.077 46.761,-4.121 2.423,-0.452 4.946,-2.976 5.398,-5.399 0.044,-0.236 4.413,-23.981 4.121,-46.709 0.292,-22.777 -4.077,-46.523 -4.121,-46.761 -0.453,-2.423 -2.976,-4.946 -5.398,-5.397 -0.238,-0.045 -23.984,-4.414 -46.71,-4.122 z "
       id="XMLID_10_" />
    <clipPath
       id="clipPath4458">
      <use
         id="use4460"
         xlink:href="#XMLID_10_"
         height="1"
         y="0"
         x="0"
         width="1" />
    </clipPath>
    <linearGradient
       inkscape:collect="always"
       xlink:href="#SVGID_1_"
       id="linearGradient3044"
       gradientUnits="userSpaceOnUse"
       x1="24.0089"
       y1="15.9896"
       x2="24.0089"
       y2="44.989601"
       gradientTransform="matrix(1.2,0,0,1.3333333,-4.8107998,-11.986666)" />
    <linearGradient
       x1="24.0089"
       y1="15.9896"
       x2="24.0089"
       y2="44.989601"
       id="SVGID_1_"
       gradientUnits="userSpaceOnUse">
      <stop
         id="stop22"
         style="stop-color:#8ec5ff;stop-opacity:1"
         offset="0" />
      <stop
         id="stop24"
         style="stop-color:#70bcff;stop-opacity:1"
         offset="0.97000003" />
      <stop
         id="stop26"
         style="stop-color:#0f70e6;stop-opacity:1"
         offset="1" />
    </linearGradient>
    <filter
       color-interpolation-filters="sRGB"
       inkscape:collect="always"
       id="filter3816">
      <feGaussianBlur
         inkscape:collect="always"
         stdDeviation="0.25895215"
         id="feGaussianBlur3818" />
    </filter>
    <linearGradient
       inkscape:collect="always"
       xlink:href="#SVGID_1_"
       id="linearGradient3100"
       gradientUnits="userSpaceOnUse"
       gradientTransform="matrix(1.2,0,0,1.3333333,-4.8107993,-11.986667)"
       x1="24.0089"
       y1="15.9896"
       x2="24.0089"
       y2="44.989601" />
  </defs>
  <sodipodi:namedview
     pagecolor="#ffffff"
     bordercolor="#666666"
     borderopacity="1"
     objecttolerance="10"
     gridtolerance="10"
     guidetolerance="10"
     inkscape:pageopacity="0"
     inkscape:pageshadow="2"
     inkscape:window-width="667"
     inkscape:window-height="480"
     id="namedview18"
     showgrid="false"
     inkscape:zoom="3.4766083"
     inkscape:cx="44.77793"
     inkscape:cy="23.835616"
     inkscape:window-x="0"
     inkscape:window-y="0"
     inkscape:window-maximized="0"
     inkscape:current-layer="svg2" />
  <polygon
     points="30.246,8.99 42.009,8.99 42.009,38.99 6.009,38.99 6.009,10.99 28.181,10.99 "
     id="polygon17"
     style="fill:#31a4fc"
     transform="matrix(1.2,0,0,1.3333333,-4.8107993,-11.986667)" />
  <polygon
     points="11.711,9.333 37.934,22.329 37.746,38.166 7.008,38.154 7.008,18.824 "
     id="polygon19-3"
     style="opacity:0.56432746;fill:#364e59;filter:url(#filter3816)"
     transform="matrix(1.2,0,0,1.3333333,-5.3416023,-11.200602)" />
  <polygon
     points="7.008,18.824 11.711,9.333 37.934,22.329 37.746,38.166 7.008,38.154 "
     id="polygon19"
     style="fill:#ffffff"
     transform="matrix(1.2,0,0,1.3333333,-5.0984363,-10.56194)" />
  <rect
     width="48"
     height="38.666668"
     x="0"
     y="9.3333321"
     id="rect28"
     style="fill:url(#linearGradient3100)"
     ry="2.5423732" />
  <g
     transform="matrix(0.52745067,0,0,0.66563062,3.3627467,11.009307)"
     id="layer1"
     style="fill:#ffffff">
    <path
       inkscape:connector-curvature="0"
       transform="translate(5,9)"
       d="M 0,0 0,30 13.334,15.0012 z"
       id="path4127"
       style="fill-rule:evenodd" />
    <path
       inkscape:connector-curvature="0"
       transform="translate(5,9)"
       d="M 0,0 17.6439,17 19,18.3 20.3561,17 38,0 z"
       id="path4125"
       style="fill-rule:evenodd" />
    <path
       inkscape:connector-curvature="0"
       transform="translate(29.666,9)"
       d="M 13.334,0 0,15.0012 13.334,30 z"
       id="path4123"
       style="fill-rule:evenodd" />
    <path
       inkscape:connector-curvature="0"
       transform="translate(5.22266,26.3691)"
       d="M 15.2227,0 0,12.6309 l 37.5547,0 L 22.332,0 18.7773,3.36719 z"
       id="rect3260"
       style="fill-rule:evenodd" />
  </g>
  <g
     transform="matrix(1.2694179,0,0,1.4174352,-7.797978,-19.197216)"
     id="g4280"
     style="fill:#ff0505">
    <path
       inkscape:connector-curvature="0"
       d="m 31.3611,13.5436 0,16.1524 7,0 0,-16.1524 z"
       id="path4149"
       style="fill-rule:evenodd;stroke:none" />
    <path
       inkscape:connector-curvature="0"
       d="m 34.8611,35.2309 -7.5,-9 15,0 z"
       id="path3766"
       style="stroke:none" />
  </g>
</svg>
