<?xml version="1.0" encoding="UTF-8" standalone="no"?>
<svg
   xmlns:osb="http://www.openswatchbook.org/uri/2009/osb"
   xmlns:dc="http://purl.org/dc/elements/1.1/"
   xmlns:cc="http://creativecommons.org/ns#"
   xmlns:rdf="http://www.w3.org/1999/02/22-rdf-syntax-ns#"
   xmlns:svg="http://www.w3.org/2000/svg"
   xmlns="http://www.w3.org/2000/svg"
   xmlns:xlink="http://www.w3.org/1999/xlink"
   xmlns:sodipodi="http://sodipodi.sourceforge.net/DTD/sodipodi-0.dtd"
   xmlns:inkscape="http://www.inkscape.org/namespaces/inkscape"
   width="48"
   version="1.1"
   height="48"
   id="svg2"
   inkscape:version="0.48.5 r10040"
   sodipodi:docname="folder-pictures.svg">
  <metadata
     id="metadata16">
    <rdf:RDF>
      <cc:Work
         rdf:about="">
        <dc:format>image/svg+xml</dc:format>
        <dc:type
           rdf:resource="http://purl.org/dc/dcmitype/StillImage" />
      </cc:Work>
    </rdf:RDF>
  </metadata>
  <defs
     id="defs14">
    <clipPath
       id="clipPath3823"
       clipPathUnits="userSpaceOnUse">
      <rect
         y="-2.8691742"
         x="124.84656"
         height="4.4258509"
         width="26.346256"
         id="rect3825"
         style="opacity:0.3157895;fill:#ffffff;fill-opacity:1;stroke:none" />
    </clipPath>
    <clipPath
       id="clipPath3817"
       clipPathUnits="userSpaceOnUse">
      <rect
         ry="0"
         y="-34.623631"
         x="103.62109"
         height="38.543312"
         width="50.767868"
         id="rect3819"
         style="fill:#1a1a1a;fill-opacity:1;stroke:none" />
    </clipPath>
    <path
       d="m 69.626,12.145 -.052,0 c -22.727,-0.292 -46.472,4.077 -46.709,4.122 -2.424,0.451 -4.946,2.974 -5.397,5.397 -0.044,0.237 -4.414,23.983 -4.122,46.71 -0.292,22.777 4.078,46.523 4.122,46.761 0.451,2.423 2.974,4.945 5.398,5.398 0.237,0.044 23.982,4.413 46.709,4.121 22.779,0.292 46.524,-4.077 46.761,-4.121 2.423,-0.452 4.946,-2.976 5.398,-5.399 0.044,-0.236 4.413,-23.981 4.121,-46.709 0.292,-22.777 -4.077,-46.523 -4.121,-46.761 -0.453,-2.423 -2.976,-4.946 -5.398,-5.397 -0.238,-0.045 -23.984,-4.414 -46.71,-4.122 z "
       id="XMLID_10_" />
    <clipPath
       id="clipPath4458">
      <use
         id="use4460"
         xlink:href="#XMLID_10_"
         height="1"
         y="0"
         x="0"
         width="1" />
    </clipPath>
    <clipPath
       id="clipPath3823-7"
       clipPathUnits="userSpaceOnUse">
      <rect
         y="-2.8691742"
         x="124.84656"
         height="4.4258509"
         width="26.346256"
         id="rect3825-5"
         style="opacity:0.3157895;fill:#ffffff;fill-opacity:1;stroke:none" />
    </clipPath>
    <clipPath
       id="clipPath3817-3"
       clipPathUnits="userSpaceOnUse">
      <rect
         ry="0"
         y="-34.623631"
         x="103.62109"
         height="38.543312"
         width="50.767868"
         id="rect3819-5"
         style="fill:#1a1a1a;fill-opacity:1;stroke:none" />
    </clipPath>
    <path
       d="m 69.626,12.145 -.052,0 c -22.727,-0.292 -46.472,4.077 -46.709,4.122 -2.424,0.451 -4.946,2.974 -5.397,5.397 -0.044,0.237 -4.414,23.983 -4.122,46.71 -0.292,22.777 4.078,46.523 4.122,46.761 0.451,2.423 2.974,4.945 5.398,5.398 0.237,0.044 23.982,4.413 46.709,4.121 22.779,0.292 46.524,-4.077 46.761,-4.121 2.423,-0.452 4.946,-2.976 5.398,-5.399 0.044,-0.236 4.413,-23.981 4.121,-46.709 0.292,-22.777 -4.077,-46.523 -4.121,-46.761 -0.453,-2.423 -2.976,-4.946 -5.398,-5.397 -0.238,-0.045 -23.984,-4.414 -46.71,-4.122 z "
       id="XMLID_10_-6" />
    <clipPath
       id="clipPath4458-2">
      <use
         id="use4460-9"
         xlink:href="#XMLID_10_-6"
         height="1"
         y="0"
         x="0"
         width="1" />
    </clipPath>
    <filter
       id="filter3816"
       inkscape:collect="always">
      <feGaussianBlur
         id="feGaussianBlur3818"
         stdDeviation="0.25895215"
         inkscape:collect="always" />
    </filter>
    <linearGradient
       gradientUnits="userSpaceOnUse"
       id="SVGID_1_"
       y2="44.989601"
       x2="24.0089"
       y1="15.9896"
       x1="24.0089">
      <stop
         offset="0"
         style="stop-color:#8ec5ff;stop-opacity:1"
         id="stop22" />
      <stop
         offset="0.97000003"
         style="stop-color:#70bcff;stop-opacity:1"
         id="stop24" />
      <stop
         offset="1"
         style="stop-color:#0f70e6;stop-opacity:1"
         id="stop26" />
    </linearGradient>
    <linearGradient
       gradientTransform="matrix(1.2,0,0,1.3333333,-4.8107998,-11.986667)"
       y2="44.989601"
       x2="24.0089"
       y1="15.9896"
       x1="24.0089"
       gradientUnits="userSpaceOnUse"
       id="linearGradient3044"
       xlink:href="#SVGID_1_"
       inkscape:collect="always" />
    <clipPath
       id="clipPath3823-2"
       clipPathUnits="userSpaceOnUse">
      <rect
         y="-2.8691742"
         x="124.84656"
         height="4.4258509"
         width="26.346256"
         id="rect3825-9"
         style="opacity:0.3157895;fill:#ffffff;fill-opacity:1;stroke:none" />
    </clipPath>
    <clipPath
       id="clipPath3817-35"
       clipPathUnits="userSpaceOnUse">
      <rect
         ry="0"
         y="-34.623631"
         x="103.62109"
         height="38.543312"
         width="50.767868"
         id="rect3819-6"
         style="fill:#1a1a1a;fill-opacity:1;stroke:none" />
    </clipPath>
    <path
       d="m 69.626,12.145 -.052,0 c -22.727,-0.292 -46.472,4.077 -46.709,4.122 -2.424,0.451 -4.946,2.974 -5.397,5.397 -0.044,0.237 -4.414,23.983 -4.122,46.71 -0.292,22.777 4.078,46.523 4.122,46.761 0.451,2.423 2.974,4.945 5.398,5.398 0.237,0.044 23.982,4.413 46.709,4.121 22.779,0.292 46.524,-4.077 46.761,-4.121 2.423,-0.452 4.946,-2.976 5.398,-5.399 0.044,-0.236 4.413,-23.981 4.121,-46.709 0.292,-22.777 -4.077,-46.523 -4.121,-46.761 -0.453,-2.423 -2.976,-4.946 -5.398,-5.397 -0.238,-0.045 -23.984,-4.414 -46.71,-4.122 z "
       id="XMLID_10_-5" />
    <clipPath
       id="clipPath4458-6">
      <use
         id="use4460-7"
         xlink:href="#XMLID_10_-5"
         height="1"
         y="0"
         x="0"
         width="1" />
    </clipPath>
    <linearGradient
       y2="527.79797"
       x2="415.57144"
       y1="512.79797"
       x1="400.57144"
       gradientTransform="matrix(1.1818182,0,0,1.1818182,3.714275,-96.23596)"
       gradientUnits="userSpaceOnUse"
       id="linearGradient3564"
       xlink:href="#linearGradient5002"
       inkscape:collect="always" />
    <linearGradient
       y2="527.79797"
       x2="415.57144"
       y1="512.79797"
       x1="400.57144"
       gradientTransform="matrix(1.1818182,0,0,1.1818182,6.714285,-89.23598)"
       gradientUnits="userSpaceOnUse"
       id="linearGradient3562"
       xlink:href="#linearGradient5002"
       inkscape:collect="always" />
    <linearGradient
       y2="527.79797"
       x2="415.57144"
       y1="512.79797"
       x1="400.57144"
       gradientTransform="translate(78.999997,3.6562389)"
       gradientUnits="userSpaceOnUse"
       id="linearGradient3560"
       xlink:href="#linearGradient5002"
       inkscape:collect="always" />
    <linearGradient
       y2="527.79797"
       x2="415.57144"
       y1="512.79797"
       x1="400.57144"
       gradientTransform="matrix(1.1818182,0,0,1.1818182,-74.285714,-95.732083)"
       gradientUnits="userSpaceOnUse"
       id="linearGradient3558"
       xlink:href="#linearGradient5002"
       inkscape:collect="always" />
    <linearGradient
       y2="527.79797"
       x2="415.57144"
       y1="512.79797"
       x1="400.57144"
       gradientTransform="matrix(1.1818182,0,0,1.1818182,3.714275,-96.23596)"
       gradientUnits="userSpaceOnUse"
       id="linearGradient3528"
       xlink:href="#linearGradient5002"
       inkscape:collect="always" />
    <linearGradient
       y2="527.79797"
       x2="415.57144"
       y1="512.79797"
       x1="400.57144"
       gradientTransform="matrix(1.1818182,0,0,1.1818182,6.714285,-89.23598)"
       gradientUnits="userSpaceOnUse"
       id="linearGradient3526"
       xlink:href="#linearGradient5002"
       inkscape:collect="always" />
    <linearGradient
       y2="527.79797"
       x2="415.57144"
       y1="512.79797"
       x1="400.57144"
       gradientTransform="translate(78.999997,3.6562389)"
       gradientUnits="userSpaceOnUse"
       id="linearGradient3524"
       xlink:href="#linearGradient5002"
       inkscape:collect="always" />
    <linearGradient
       y2="527.79797"
       x2="415.57144"
       y1="512.79797"
       x1="400.57144"
       gradientTransform="matrix(1.1818182,0,0,1.1818182,-74.285714,-95.732083)"
       gradientUnits="userSpaceOnUse"
       id="linearGradient3522"
       xlink:href="#linearGradient5002"
       inkscape:collect="always" />
    <linearGradient
       y2="527.79797"
       x2="415.57144"
       y1="512.79797"
       x1="400.57144"
       gradientTransform="matrix(1.1818182,0,0,1.1818182,3.714275,-96.23596)"
       gradientUnits="userSpaceOnUse"
       id="linearGradient3520"
       xlink:href="#linearGradient5002"
       inkscape:collect="always" />
    <linearGradient
       y2="527.79797"
       x2="415.57144"
       y1="512.79797"
       x1="400.57144"
       gradientTransform="matrix(1.1818182,0,0,1.1818182,6.714285,-89.23598)"
       gradientUnits="userSpaceOnUse"
       id="linearGradient3518"
       xlink:href="#linearGradient5002"
       inkscape:collect="always" />
    <linearGradient
       y2="527.79797"
       x2="415.57144"
       y1="512.79797"
       x1="400.57144"
       gradientTransform="translate(78.999997,3.6562389)"
       gradientUnits="userSpaceOnUse"
       id="linearGradient3516"
       xlink:href="#linearGradient5002"
       inkscape:collect="always" />
    <linearGradient
       y2="527.79797"
       x2="415.57144"
       y1="512.79797"
       x1="400.57144"
       gradientTransform="matrix(1.1818182,0,0,1.1818182,-74.285714,-95.732083)"
       gradientUnits="userSpaceOnUse"
       id="linearGradient3514"
       xlink:href="#linearGradient5002"
       inkscape:collect="always" />
    <linearGradient
       y2="527.79797"
       x2="415.57144"
       y1="512.79797"
       x1="400.57144"
       gradientTransform="matrix(1.1818182,0,0,1.1818182,3.714275,-96.23596)"
       gradientUnits="userSpaceOnUse"
       id="linearGradient3483"
       xlink:href="#linearGradient5002"
       inkscape:collect="always" />
    <linearGradient
       y2="527.79797"
       x2="415.57144"
       y1="512.79797"
       x1="400.57144"
       gradientTransform="matrix(1.1818182,0,0,1.1818182,6.714285,-89.23598)"
       gradientUnits="userSpaceOnUse"
       id="linearGradient3481"
       xlink:href="#linearGradient5002"
       inkscape:collect="always" />
    <linearGradient
       y2="527.79797"
       x2="415.57144"
       y1="512.79797"
       x1="400.57144"
       gradientTransform="translate(78.999997,3.6562389)"
       gradientUnits="userSpaceOnUse"
       id="linearGradient3479"
       xlink:href="#linearGradient5002"
       inkscape:collect="always" />
    <linearGradient
       y2="527.79797"
       x2="415.57144"
       y1="512.79797"
       x1="400.57144"
       gradientTransform="matrix(1.1818182,0,0,1.1818182,-74.285714,-95.732083)"
       gradientUnits="userSpaceOnUse"
       id="linearGradient3477"
       xlink:href="#linearGradient5002"
       inkscape:collect="always" />
    <linearGradient
       y2="527.79797"
       x2="415.57144"
       y1="512.79797"
       x1="400.57144"
       gradientTransform="matrix(1.1818182,0,0,1.1818182,3.714275,-96.23596)"
       gradientUnits="userSpaceOnUse"
       id="linearGradient3475"
       xlink:href="#linearGradient5002"
       inkscape:collect="always" />
    <linearGradient
       y2="527.79797"
       x2="415.57144"
       y1="512.79797"
       x1="400.57144"
       gradientTransform="matrix(1.1818182,0,0,1.1818182,6.714285,-89.23598)"
       gradientUnits="userSpaceOnUse"
       id="linearGradient3473"
       xlink:href="#linearGradient5002"
       inkscape:collect="always" />
    <linearGradient
       y2="527.79797"
       x2="415.57144"
       y1="512.79797"
       x1="400.57144"
       gradientTransform="translate(78.999997,3.6562389)"
       gradientUnits="userSpaceOnUse"
       id="linearGradient3471"
       xlink:href="#linearGradient5002"
       inkscape:collect="always" />
    <linearGradient
       y2="527.79797"
       x2="415.57144"
       y1="512.79797"
       x1="400.57144"
       gradientTransform="matrix(1.1818182,0,0,1.1818182,-74.285714,-95.732083)"
       gradientUnits="userSpaceOnUse"
       id="linearGradient3469"
       xlink:href="#linearGradient5002"
       inkscape:collect="always" />
    <linearGradient
       y2="527.79797"
       x2="415.57144"
       y1="512.79797"
       x1="400.57144"
       gradientTransform="matrix(1.1818182,0,0,1.1818182,3.714275,-96.23596)"
       gradientUnits="userSpaceOnUse"
       id="linearGradient3421"
       xlink:href="#linearGradient5002"
       inkscape:collect="always" />
    <linearGradient
       y2="527.79797"
       x2="415.57144"
       y1="512.79797"
       x1="400.57144"
       gradientTransform="matrix(1.1818182,0,0,1.1818182,6.714285,-89.23598)"
       gradientUnits="userSpaceOnUse"
       id="linearGradient3419"
       xlink:href="#linearGradient5002"
       inkscape:collect="always" />
    <linearGradient
       y2="527.79797"
       x2="415.57144"
       y1="512.79797"
       x1="400.57144"
       gradientTransform="translate(78.999997,3.6562389)"
       gradientUnits="userSpaceOnUse"
       id="linearGradient3417"
       xlink:href="#linearGradient5002"
       inkscape:collect="always" />
    <linearGradient
       y2="527.79797"
       x2="415.57144"
       y1="512.79797"
       x1="400.57144"
       gradientTransform="matrix(1.1818182,0,0,1.1818182,-74.285714,-95.732083)"
       gradientUnits="userSpaceOnUse"
       id="linearGradient3415"
       xlink:href="#linearGradient5002"
       inkscape:collect="always" />
    <linearGradient
       y2="527.79797"
       x2="415.57144"
       y1="512.79797"
       x1="400.57144"
       gradientTransform="matrix(1.1818182,0,0,1.1818182,3.714275,-96.23596)"
       gradientUnits="userSpaceOnUse"
       id="linearGradient3413"
       xlink:href="#linearGradient5002"
       inkscape:collect="always" />
    <linearGradient
       y2="527.79797"
       x2="415.57144"
       y1="512.79797"
       x1="400.57144"
       gradientTransform="matrix(1.1818182,0,0,1.1818182,6.714285,-89.23598)"
       gradientUnits="userSpaceOnUse"
       id="linearGradient3411"
       xlink:href="#linearGradient5002"
       inkscape:collect="always" />
    <linearGradient
       y2="527.79797"
       x2="415.57144"
       y1="512.79797"
       x1="400.57144"
       gradientTransform="translate(78.999997,3.6562389)"
       gradientUnits="userSpaceOnUse"
       id="linearGradient3409"
       xlink:href="#linearGradient5002"
       inkscape:collect="always" />
    <linearGradient
       y2="527.79797"
       x2="415.57144"
       y1="512.79797"
       x1="400.57144"
       gradientTransform="matrix(1.1818182,0,0,1.1818182,-74.285714,-95.732083)"
       gradientUnits="userSpaceOnUse"
       id="linearGradient3407"
       xlink:href="#linearGradient5002"
       inkscape:collect="always" />
    <linearGradient
       y2="527.79797"
       x2="415.57144"
       y1="512.79797"
       x1="400.57144"
       gradientTransform="matrix(1.1818182,0,0,1.1818182,3.714275,-96.23596)"
       gradientUnits="userSpaceOnUse"
       id="linearGradient3374"
       xlink:href="#linearGradient5002"
       inkscape:collect="always" />
    <linearGradient
       y2="527.79797"
       x2="415.57144"
       y1="512.79797"
       x1="400.57144"
       gradientTransform="matrix(1.1818182,0,0,1.1818182,6.714285,-89.23598)"
       gradientUnits="userSpaceOnUse"
       id="linearGradient3372"
       xlink:href="#linearGradient5002"
       inkscape:collect="always" />
    <linearGradient
       y2="527.79797"
       x2="415.57144"
       y1="512.79797"
       x1="400.57144"
       gradientTransform="translate(78.999997,3.6562389)"
       gradientUnits="userSpaceOnUse"
       id="linearGradient3370"
       xlink:href="#linearGradient5002"
       inkscape:collect="always" />
    <linearGradient
       y2="527.79797"
       x2="415.57144"
       y1="512.79797"
       x1="400.57144"
       gradientTransform="matrix(1.1818182,0,0,1.1818182,-74.285714,-95.732083)"
       gradientUnits="userSpaceOnUse"
       id="linearGradient3368"
       xlink:href="#linearGradient5002"
       inkscape:collect="always" />
    <linearGradient
       y2="527.79797"
       x2="415.57144"
       y1="512.79797"
       x1="400.57144"
       gradientTransform="matrix(1.1818182,0,0,1.1818182,3.714275,-96.23596)"
       gradientUnits="userSpaceOnUse"
       id="linearGradient3366"
       xlink:href="#linearGradient5002"
       inkscape:collect="always" />
    <linearGradient
       y2="527.79797"
       x2="415.57144"
       y1="512.79797"
       x1="400.57144"
       gradientTransform="matrix(1.1818182,0,0,1.1818182,6.714285,-89.23598)"
       gradientUnits="userSpaceOnUse"
       id="linearGradient3364"
       xlink:href="#linearGradient5002"
       inkscape:collect="always" />
    <linearGradient
       y2="527.79797"
       x2="415.57144"
       y1="512.79797"
       x1="400.57144"
       gradientTransform="translate(78.999997,3.6562389)"
       gradientUnits="userSpaceOnUse"
       id="linearGradient3362"
       xlink:href="#linearGradient5002"
       inkscape:collect="always" />
    <linearGradient
       y2="527.79797"
       x2="415.57144"
       y1="512.79797"
       x1="400.57144"
       gradientTransform="matrix(1.1818182,0,0,1.1818182,-74.285714,-95.732083)"
       gradientUnits="userSpaceOnUse"
       id="linearGradient3360"
       xlink:href="#linearGradient5002"
       inkscape:collect="always" />
    <linearGradient
       y2="527.79797"
       x2="415.57144"
       y1="512.79797"
       x1="400.57144"
       gradientTransform="matrix(1.1818182,0,0,1.1818182,3.714275,-96.23596)"
       gradientUnits="userSpaceOnUse"
       id="linearGradient3349"
       xlink:href="#linearGradient5002"
       inkscape:collect="always" />
    <linearGradient
       y2="527.79797"
       x2="415.57144"
       y1="512.79797"
       x1="400.57144"
       gradientTransform="matrix(1.1818182,0,0,1.1818182,6.714285,-89.23598)"
       gradientUnits="userSpaceOnUse"
       id="linearGradient3347"
       xlink:href="#linearGradient5002"
       inkscape:collect="always" />
    <linearGradient
       y2="527.79797"
       x2="415.57144"
       y1="512.79797"
       x1="400.57144"
       gradientTransform="translate(78.999997,3.6562389)"
       gradientUnits="userSpaceOnUse"
       id="linearGradient3345"
       xlink:href="#linearGradient5002"
       inkscape:collect="always" />
    <linearGradient
       y2="527.79797"
       x2="415.57144"
       y1="512.79797"
       x1="400.57144"
       gradientTransform="matrix(1.1818182,0,0,1.1818182,-74.285714,-95.732083)"
       gradientUnits="userSpaceOnUse"
       id="linearGradient3343"
       xlink:href="#linearGradient5002"
       inkscape:collect="always" />
    <linearGradient
       y2="527.79797"
       x2="415.57144"
       y1="512.79797"
       x1="400.57144"
       gradientTransform="matrix(1.1818182,0,0,1.1818182,3.714275,-96.23596)"
       gradientUnits="userSpaceOnUse"
       id="linearGradient3299"
       xlink:href="#linearGradient5002"
       inkscape:collect="always" />
    <linearGradient
       y2="527.79797"
       x2="415.57144"
       y1="512.79797"
       x1="400.57144"
       gradientTransform="matrix(1.1818182,0,0,1.1818182,6.714285,-89.23598)"
       gradientUnits="userSpaceOnUse"
       id="linearGradient3297"
       xlink:href="#linearGradient5002"
       inkscape:collect="always" />
    <linearGradient
       y2="527.79797"
       x2="415.57144"
       y1="512.79797"
       x1="400.57144"
       gradientTransform="translate(78.999997,3.6562389)"
       gradientUnits="userSpaceOnUse"
       id="linearGradient3295"
       xlink:href="#linearGradient5002"
       inkscape:collect="always" />
    <linearGradient
       y2="527.79797"
       x2="415.57144"
       y1="512.79797"
       x1="400.57144"
       gradientTransform="matrix(1.1818182,0,0,1.1818182,-74.285714,-95.732083)"
       gradientUnits="userSpaceOnUse"
       id="linearGradient3293"
       xlink:href="#linearGradient5002"
       inkscape:collect="always" />
    <linearGradient
       y2="527.79797"
       x2="415.57144"
       y1="512.79797"
       x1="400.57144"
       gradientTransform="matrix(1.1818182,0,0,1.1818182,3.714275,-96.23596)"
       gradientUnits="userSpaceOnUse"
       id="linearGradient3291"
       xlink:href="#linearGradient5002"
       inkscape:collect="always" />
    <linearGradient
       y2="527.79797"
       x2="415.57144"
       y1="512.79797"
       x1="400.57144"
       gradientTransform="matrix(1.1818182,0,0,1.1818182,6.714285,-89.23598)"
       gradientUnits="userSpaceOnUse"
       id="linearGradient3289"
       xlink:href="#linearGradient5002"
       inkscape:collect="always" />
    <linearGradient
       y2="527.79797"
       x2="415.57144"
       y1="512.79797"
       x1="400.57144"
       gradientTransform="translate(78.999997,3.6562389)"
       gradientUnits="userSpaceOnUse"
       id="linearGradient3287"
       xlink:href="#linearGradient5002"
       inkscape:collect="always" />
    <linearGradient
       y2="527.79797"
       x2="415.57144"
       y1="512.79797"
       x1="400.57144"
       gradientTransform="matrix(1.1818182,0,0,1.1818182,-74.285714,-95.732083)"
       gradientUnits="userSpaceOnUse"
       id="linearGradient3285"
       xlink:href="#linearGradient5002"
       inkscape:collect="always" />
    <linearGradient
       y2="527.79797"
       x2="415.57144"
       y1="512.79797"
       x1="400.57144"
       gradientTransform="matrix(1.1818182,0,0,1.1818182,3.714275,-96.23596)"
       gradientUnits="userSpaceOnUse"
       id="linearGradient3283"
       xlink:href="#linearGradient5002"
       inkscape:collect="always" />
    <linearGradient
       y2="527.79797"
       x2="415.57144"
       y1="512.79797"
       x1="400.57144"
       gradientTransform="matrix(1.1818182,0,0,1.1818182,6.714285,-89.23598)"
       gradientUnits="userSpaceOnUse"
       id="linearGradient3281"
       xlink:href="#linearGradient5002"
       inkscape:collect="always" />
    <linearGradient
       y2="527.79797"
       x2="415.57144"
       y1="512.79797"
       x1="400.57144"
       gradientTransform="translate(78.999997,3.6562389)"
       gradientUnits="userSpaceOnUse"
       id="linearGradient3279"
       xlink:href="#linearGradient5002"
       inkscape:collect="always" />
    <linearGradient
       y2="527.79797"
       x2="415.57144"
       y1="512.79797"
       x1="400.57144"
       gradientTransform="matrix(1.1818182,0,0,1.1818182,-74.285714,-95.732083)"
       gradientUnits="userSpaceOnUse"
       id="linearGradient3277"
       xlink:href="#linearGradient5002"
       inkscape:collect="always" />
    <linearGradient
       y2="527.79797"
       x2="415.57144"
       y1="512.79797"
       x1="400.57144"
       gradientTransform="matrix(1.1818182,0,0,1.1818182,3.714275,-96.23596)"
       gradientUnits="userSpaceOnUse"
       id="linearGradient3231"
       xlink:href="#linearGradient5002"
       inkscape:collect="always" />
    <linearGradient
       y2="527.79797"
       x2="415.57144"
       y1="512.79797"
       x1="400.57144"
       gradientTransform="matrix(1.1818182,0,0,1.1818182,6.714285,-89.23598)"
       gradientUnits="userSpaceOnUse"
       id="linearGradient3229"
       xlink:href="#linearGradient5002"
       inkscape:collect="always" />
    <linearGradient
       y2="527.79797"
       x2="415.57144"
       y1="512.79797"
       x1="400.57144"
       gradientTransform="translate(78.999997,3.6562389)"
       gradientUnits="userSpaceOnUse"
       id="linearGradient3227"
       xlink:href="#linearGradient5002"
       inkscape:collect="always" />
    <linearGradient
       y2="527.79797"
       x2="415.57144"
       y1="512.79797"
       x1="400.57144"
       gradientTransform="matrix(1.1818182,0,0,1.1818182,-74.285714,-95.732083)"
       gradientUnits="userSpaceOnUse"
       id="linearGradient3225"
       xlink:href="#linearGradient5002"
       inkscape:collect="always" />
    <linearGradient
       y2="527.79797"
       x2="415.57144"
       y1="512.79797"
       x1="400.57144"
       gradientTransform="matrix(1.1818182,0,0,1.1818182,3.714275,-96.23596)"
       gradientUnits="userSpaceOnUse"
       id="linearGradient3223"
       xlink:href="#linearGradient5002"
       inkscape:collect="always" />
    <linearGradient
       y2="527.79797"
       x2="415.57144"
       y1="512.79797"
       x1="400.57144"
       gradientTransform="matrix(1.1818182,0,0,1.1818182,6.714285,-89.23598)"
       gradientUnits="userSpaceOnUse"
       id="linearGradient3221"
       xlink:href="#linearGradient5002"
       inkscape:collect="always" />
    <linearGradient
       y2="527.79797"
       x2="415.57144"
       y1="512.79797"
       x1="400.57144"
       gradientTransform="translate(78.999997,3.6562389)"
       gradientUnits="userSpaceOnUse"
       id="linearGradient3219"
       xlink:href="#linearGradient5002"
       inkscape:collect="always" />
    <linearGradient
       y2="527.79797"
       x2="415.57144"
       y1="512.79797"
       x1="400.57144"
       gradientTransform="matrix(1.1818182,0,0,1.1818182,-74.285714,-95.732083)"
       gradientUnits="userSpaceOnUse"
       id="linearGradient3217"
       xlink:href="#linearGradient5002"
       inkscape:collect="always" />
    <linearGradient
       y2="527.79797"
       x2="415.57144"
       y1="512.79797"
       x1="400.57144"
       gradientTransform="matrix(1.1818182,0,0,1.1818182,3.714275,-96.23596)"
       gradientUnits="userSpaceOnUse"
       id="linearGradient3215"
       xlink:href="#linearGradient5002"
       inkscape:collect="always" />
    <linearGradient
       y2="527.79797"
       x2="415.57144"
       y1="512.79797"
       x1="400.57144"
       gradientTransform="matrix(1.1818182,0,0,1.1818182,6.714285,-89.23598)"
       gradientUnits="userSpaceOnUse"
       id="linearGradient3213"
       xlink:href="#linearGradient5002"
       inkscape:collect="always" />
    <linearGradient
       y2="527.79797"
       x2="415.57144"
       y1="512.79797"
       x1="400.57144"
       gradientTransform="translate(78.999997,3.6562389)"
       gradientUnits="userSpaceOnUse"
       id="linearGradient3211"
       xlink:href="#linearGradient5002"
       inkscape:collect="always" />
    <linearGradient
       y2="527.79797"
       x2="415.57144"
       y1="512.79797"
       x1="400.57144"
       gradientTransform="matrix(1.1818182,0,0,1.1818182,-74.285714,-95.732083)"
       gradientUnits="userSpaceOnUse"
       id="linearGradient3209"
       xlink:href="#linearGradient5002"
       inkscape:collect="always" />
    <linearGradient
       y2="527.79797"
       x2="415.57144"
       y1="512.79797"
       x1="400.57144"
       gradientTransform="matrix(1.1818182,0,0,1.1818182,3.714275,-96.23596)"
       gradientUnits="userSpaceOnUse"
       id="linearGradient3161"
       xlink:href="#linearGradient5002"
       inkscape:collect="always" />
    <linearGradient
       y2="527.79797"
       x2="415.57144"
       y1="512.79797"
       x1="400.57144"
       gradientTransform="matrix(1.1818182,0,0,1.1818182,6.714285,-89.23598)"
       gradientUnits="userSpaceOnUse"
       id="linearGradient3159"
       xlink:href="#linearGradient5002"
       inkscape:collect="always" />
    <linearGradient
       y2="527.79797"
       x2="415.57144"
       y1="512.79797"
       x1="400.57144"
       gradientTransform="translate(78.999997,3.6562389)"
       gradientUnits="userSpaceOnUse"
       id="linearGradient3157"
       xlink:href="#linearGradient5002"
       inkscape:collect="always" />
    <linearGradient
       y2="527.79797"
       x2="415.57144"
       y1="512.79797"
       x1="400.57144"
       gradientTransform="matrix(1.1818182,0,0,1.1818182,-74.285714,-95.732083)"
       gradientUnits="userSpaceOnUse"
       id="linearGradient3155"
       xlink:href="#linearGradient5002"
       inkscape:collect="always" />
    <linearGradient
       y2="527.79797"
       x2="415.57144"
       y1="512.79797"
       x1="400.57144"
       gradientTransform="matrix(1.1818182,0,0,1.1818182,3.714275,-96.23596)"
       gradientUnits="userSpaceOnUse"
       id="linearGradient3153"
       xlink:href="#linearGradient5002"
       inkscape:collect="always" />
    <linearGradient
       y2="527.79797"
       x2="415.57144"
       y1="512.79797"
       x1="400.57144"
       gradientTransform="matrix(1.1818182,0,0,1.1818182,6.714285,-89.23598)"
       gradientUnits="userSpaceOnUse"
       id="linearGradient3151"
       xlink:href="#linearGradient5002"
       inkscape:collect="always" />
    <linearGradient
       y2="527.79797"
       x2="415.57144"
       y1="512.79797"
       x1="400.57144"
       gradientTransform="translate(78.999997,3.6562389)"
       gradientUnits="userSpaceOnUse"
       id="linearGradient3149"
       xlink:href="#linearGradient5002"
       inkscape:collect="always" />
    <linearGradient
       y2="527.79797"
       x2="415.57144"
       y1="512.79797"
       x1="400.57144"
       gradientTransform="matrix(1.1818182,0,0,1.1818182,-74.285714,-95.732083)"
       gradientUnits="userSpaceOnUse"
       id="linearGradient3147"
       xlink:href="#linearGradient5002"
       inkscape:collect="always" />
    <linearGradient
       y2="527.79797"
       x2="415.57144"
       y1="512.79797"
       x1="400.57144"
       gradientTransform="matrix(1.1818182,0,0,1.1818182,3.714275,-96.23596)"
       gradientUnits="userSpaceOnUse"
       id="linearGradient3145"
       xlink:href="#linearGradient5002"
       inkscape:collect="always" />
    <linearGradient
       y2="527.79797"
       x2="415.57144"
       y1="512.79797"
       x1="400.57144"
       gradientTransform="matrix(1.1818182,0,0,1.1818182,6.714285,-89.23598)"
       gradientUnits="userSpaceOnUse"
       id="linearGradient3143"
       xlink:href="#linearGradient5002"
       inkscape:collect="always" />
    <linearGradient
       y2="527.79797"
       x2="415.57144"
       y1="512.79797"
       x1="400.57144"
       gradientTransform="translate(78.999997,3.6562389)"
       gradientUnits="userSpaceOnUse"
       id="linearGradient3141"
       xlink:href="#linearGradient5002"
       inkscape:collect="always" />
    <linearGradient
       y2="527.79797"
       x2="415.57144"
       y1="512.79797"
       x1="400.57144"
       gradientTransform="matrix(1.1818182,0,0,1.1818182,-74.285714,-95.732083)"
       gradientUnits="userSpaceOnUse"
       id="linearGradient3139"
       xlink:href="#linearGradient5002"
       inkscape:collect="always" />
    <linearGradient
       y2="527.79797"
       x2="415.57144"
       y1="512.79797"
       x1="400.57144"
       gradientTransform="matrix(1.1818182,0,0,1.1818182,3.714275,-96.23596)"
       gradientUnits="userSpaceOnUse"
       id="linearGradient4779"
       xlink:href="#linearGradient5002"
       inkscape:collect="always" />
    <linearGradient
       y2="527.79797"
       x2="415.57144"
       y1="512.79797"
       x1="400.57144"
       gradientTransform="matrix(1.1818182,0,0,1.1818182,6.714285,-89.23598)"
       gradientUnits="userSpaceOnUse"
       id="linearGradient4777"
       xlink:href="#linearGradient5002"
       inkscape:collect="always" />
    <linearGradient
       y2="527.79797"
       x2="415.57144"
       y1="512.79797"
       x1="400.57144"
       gradientTransform="translate(78.999997,3.6562389)"
       gradientUnits="userSpaceOnUse"
       id="linearGradient4775"
       xlink:href="#linearGradient5002"
       inkscape:collect="always" />
    <linearGradient
       y2="527.79797"
       x2="415.57144"
       y1="512.79797"
       x1="400.57144"
       gradientTransform="matrix(1.1818182,0,0,1.1818182,-74.285714,-95.732083)"
       gradientUnits="userSpaceOnUse"
       id="linearGradient4773"
       xlink:href="#linearGradient5002"
       inkscape:collect="always" />
    <linearGradient
       gradientTransform="matrix(1.1818182,0,0,1.1818182,3.714275,-96.23596)"
       inkscape:collect="always"
       xlink:href="#linearGradient5002"
       id="linearGradient4352-9-4-5"
       gradientUnits="userSpaceOnUse"
       x1="400.57144"
       y1="512.79797"
       x2="415.57144"
       y2="527.79797" />
    <linearGradient
       gradientTransform="matrix(1.1818182,0,0,1.1818182,6.714285,-89.23598)"
       inkscape:collect="always"
       xlink:href="#linearGradient5002"
       id="linearGradient4352-5-5-2"
       gradientUnits="userSpaceOnUse"
       x1="400.57144"
       y1="512.79797"
       x2="415.57144"
       y2="527.79797" />
    <linearGradient
       y2="527.79797"
       x2="415.57144"
       y1="512.79797"
       x1="400.57144"
       gradientUnits="userSpaceOnUse"
       id="linearGradient4352-6-8-3"
       xlink:href="#linearGradient5002"
       inkscape:collect="always"
       gradientTransform="translate(78.999997,3.6562389)" />
    <linearGradient
       y2="527.79797"
       x2="415.57144"
       y1="512.79797"
       x1="400.57144"
       gradientUnits="userSpaceOnUse"
       id="linearGradient4352-68-2"
       xlink:href="#linearGradient5002"
       inkscape:collect="always"
       gradientTransform="matrix(1.1818182,0,0,1.1818182,-74.285714,-95.732083)" />
    <linearGradient
       gradientTransform="matrix(1.1818182,0,0,1.1818182,3.714275,-96.23596)"
       inkscape:collect="always"
       xlink:href="#linearGradient5002"
       id="linearGradient4726"
       gradientUnits="userSpaceOnUse"
       x1="400.57144"
       y1="512.79797"
       x2="415.57144"
       y2="527.79797" />
    <linearGradient
       gradientTransform="matrix(1.1818182,0,0,1.1818182,6.714285,-89.23598)"
       inkscape:collect="always"
       xlink:href="#linearGradient5002"
       id="linearGradient4724"
       gradientUnits="userSpaceOnUse"
       x1="400.57144"
       y1="512.79797"
       x2="415.57144"
       y2="527.79797" />
    <linearGradient
       y2="527.79797"
       x2="415.57144"
       y1="512.79797"
       x1="400.57144"
       gradientUnits="userSpaceOnUse"
       id="linearGradient4722"
       xlink:href="#linearGradient5002"
       inkscape:collect="always"
       gradientTransform="translate(78.999997,3.6562389)" />
    <linearGradient
       y2="527.79797"
       x2="415.57144"
       y1="512.79797"
       x1="400.57144"
       gradientUnits="userSpaceOnUse"
       id="linearGradient4720"
       xlink:href="#linearGradient5002"
       inkscape:collect="always"
       gradientTransform="matrix(1.1818182,0,0,1.1818182,-74.285714,-95.732083)" />
    <linearGradient
       gradientTransform="matrix(1.1818182,0,0,1.1818182,3.714275,-96.23596)"
       inkscape:collect="always"
       xlink:href="#linearGradient5002"
       id="linearGradient4531"
       gradientUnits="userSpaceOnUse"
       x1="400.57144"
       y1="512.79797"
       x2="415.57144"
       y2="527.79797" />
    <linearGradient
       gradientTransform="matrix(1.1818182,0,0,1.1818182,6.714285,-89.23598)"
       inkscape:collect="always"
       xlink:href="#linearGradient5002"
       id="linearGradient4529"
       gradientUnits="userSpaceOnUse"
       x1="400.57144"
       y1="512.79797"
       x2="415.57144"
       y2="527.79797" />
    <linearGradient
       y2="527.79797"
       x2="415.57144"
       y1="512.79797"
       x1="400.57144"
       gradientUnits="userSpaceOnUse"
       id="linearGradient4527"
       xlink:href="#linearGradient5002"
       inkscape:collect="always"
       gradientTransform="translate(78.999997,3.6562389)" />
    <linearGradient
       y2="527.79797"
       x2="415.57144"
       y1="512.79797"
       x1="400.57144"
       gradientUnits="userSpaceOnUse"
       id="linearGradient4525"
       xlink:href="#linearGradient5002"
       inkscape:collect="always"
       gradientTransform="matrix(1.1818182,0,0,1.1818182,-74.285714,-95.732083)" />
    <linearGradient
       y2="527.79797"
       x2="415.57144"
       y1="512.79797"
       x1="400.57144"
       gradientUnits="userSpaceOnUse"
       id="linearGradient4352-9"
       xlink:href="#linearGradient5002"
       inkscape:collect="always"
       gradientTransform="matrix(1.1818182,0,0,1.1818182,3.714275,-96.23596)" />
    <linearGradient
       y2="527.79797"
       x2="415.57144"
       y1="512.79797"
       x1="400.57144"
       gradientUnits="userSpaceOnUse"
       id="linearGradient4352-5"
       xlink:href="#linearGradient5002"
       inkscape:collect="always"
       gradientTransform="matrix(1.1818182,0,0,1.1818182,6.714285,-89.23598)" />
    <linearGradient
       gradientTransform="translate(78.999997,3.6562389)"
       inkscape:collect="always"
       xlink:href="#linearGradient5002"
       id="linearGradient4352-6"
       gradientUnits="userSpaceOnUse"
       x1="400.57144"
       y1="512.79797"
       x2="415.57144"
       y2="527.79797" />
    <linearGradient
       gradientTransform="matrix(1.1818182,0,0,1.1818182,-74.285714,-95.732083)"
       inkscape:collect="always"
       xlink:href="#linearGradient5002"
       id="linearGradient4352"
       gradientUnits="userSpaceOnUse"
       x1="400.57144"
       y1="512.79797"
       x2="415.57144"
       y2="527.79797" />
    <linearGradient
       id="linearGradient5002"
       inkscape:collect="always">
      <stop
         id="stop5004"
         offset="0"
         style="stop-color:#2e5d89;stop-opacity:1" />
      <stop
         id="stop5006"
         offset="1"
         style="stop-color:#1b92f4;stop-opacity:1" />
    </linearGradient>
    <linearGradient
       id="linearGradient4422-1">
      <stop
         style="stop-color:#8798a9;stop-opacity:1"
         offset="0"
         id="stop4424-78" />
      <stop
         style="stop-color:#aeb6be;stop-opacity:1"
         offset="1"
         id="stop4426-8" />
    </linearGradient>
    <linearGradient
       inkscape:collect="always"
       id="linearGradient4143">
      <stop
         style="stop-color:#197cf1;stop-opacity:1"
         offset="0"
         id="stop4145" />
      <stop
         style="stop-color:#20bcfa;stop-opacity:1"
         offset="1"
         id="stop4147" />
    </linearGradient>
    <linearGradient
       id="linearGradient4207"
       osb:paint="gradient">
      <stop
         style="stop-color:#3498db;stop-opacity:1;"
         offset="0"
         id="stop3371" />
      <stop
         style="stop-color:#3498db;stop-opacity:0;"
         offset="1"
         id="stop3373" />
    </linearGradient>
    <linearGradient
       inkscape:collect="always"
       xlink:href="#linearGradient4143"
       id="linearGradient3420"
       gradientUnits="userSpaceOnUse"
       gradientTransform="matrix(1.0749904,0,0,1.0292896,43.250211,-23.384188)"
       x1="-74.929466"
       y1="52.199436"
       x2="-75.259552"
       y2="2.3564887" />
    <linearGradient
       inkscape:collect="always"
       xlink:href="#linearGradient5002"
       id="linearGradient3423"
       gradientUnits="userSpaceOnUse"
       gradientTransform="matrix(1.1818182,0,0,1.1818182,-74.285714,-95.732083)"
       x1="400.57144"
       y1="512.79797"
       x2="415.57144"
       y2="527.79797" />
    <linearGradient
       inkscape:collect="always"
       xlink:href="#linearGradient5002"
       id="linearGradient3425"
       gradientUnits="userSpaceOnUse"
       gradientTransform="translate(78.999997,3.6562389)"
       x1="400.57144"
       y1="512.79797"
       x2="415.57144"
       y2="527.79797" />
    <linearGradient
       inkscape:collect="always"
       xlink:href="#linearGradient5002"
       id="linearGradient3427"
       gradientUnits="userSpaceOnUse"
       gradientTransform="matrix(1.1818182,0,0,1.1818182,6.714285,-89.23598)"
       x1="400.57144"
       y1="512.79797"
       x2="415.57144"
       y2="527.79797" />
    <linearGradient
       inkscape:collect="always"
       xlink:href="#linearGradient5002"
       id="linearGradient3429"
       gradientUnits="userSpaceOnUse"
       gradientTransform="matrix(1.1818182,0,0,1.1818182,3.714275,-96.23596)"
       x1="400.57144"
       y1="512.79797"
       x2="415.57144"
       y2="527.79797" />
    <linearGradient
       inkscape:collect="always"
       xlink:href="#linearGradient5002"
       id="linearGradient3448"
       gradientUnits="userSpaceOnUse"
       gradientTransform="matrix(1.1818182,0,0,1.1818182,-74.285714,-95.732083)"
       x1="400.57144"
       y1="512.79797"
       x2="415.57144"
       y2="527.79797" />
    <linearGradient
       inkscape:collect="always"
       xlink:href="#linearGradient5002"
       id="linearGradient3450"
       gradientUnits="userSpaceOnUse"
       gradientTransform="translate(78.999997,3.6562389)"
       x1="400.57144"
       y1="512.79797"
       x2="415.57144"
       y2="527.79797" />
    <linearGradient
       inkscape:collect="always"
       xlink:href="#linearGradient5002"
       id="linearGradient3452"
       gradientUnits="userSpaceOnUse"
       gradientTransform="matrix(1.1818182,0,0,1.1818182,6.714285,-89.23598)"
       x1="400.57144"
       y1="512.79797"
       x2="415.57144"
       y2="527.79797" />
    <linearGradient
       inkscape:collect="always"
       xlink:href="#linearGradient5002"
       id="linearGradient3454"
       gradientUnits="userSpaceOnUse"
       gradientTransform="matrix(1.1818182,0,0,1.1818182,3.714275,-96.23596)"
       x1="400.57144"
       y1="512.79797"
       x2="415.57144"
       y2="527.79797" />
  </defs>
  <sodipodi:namedview
     pagecolor="#ffffff"
     bordercolor="#666666"
     borderopacity="1"
     objecttolerance="10"
     gridtolerance="10"
     guidetolerance="10"
     inkscape:pageopacity="0"
     inkscape:pageshadow="2"
     inkscape:window-width="1440"
     inkscape:window-height="833"
     id="namedview12"
     showgrid="false"
     inkscape:zoom="4.9166667"
     inkscape:cx="9.4889232"
     inkscape:cy="19.752811"
     inkscape:window-x="0"
     inkscape:window-y="0"
     inkscape:window-maximized="1"
     inkscape:current-layer="svg2" />
  <g
     id="g3043">
    <polygon
       transform="matrix(1.2,0,0,1.3333333,-4.8107998,-11.986667)"
       style="fill:#31a4fc"
       id="polygon17"
       points="6.009,38.99 6.009,10.99 28.181,10.99 30.246,8.99 42.009,8.99 42.009,38.99 " />
    <polygon
       transform="matrix(1.2,0,0,1.3333333,-5.3416033,-11.200602)"
       style="opacity:0.56432746;fill:#364e59;filter:url(#filter3816)"
       id="polygon19-3"
       points="37.746,38.166 7.008,38.154 7.008,18.824 11.711,9.333 37.934,22.329 " />
    <polygon
       transform="matrix(1.2,0,0,1.3333333,-5.0984365,-10.56194)"
       style="fill:#ffffff"
       id="polygon19"
       points="37.934,22.329 37.746,38.166 7.008,38.154 7.008,18.824 11.711,9.333 " />
    <rect
       ry="2.5423732"
       style="fill:url(#linearGradient3044)"
       id="rect28"
       y="9.3333321"
       x="0"
       height="38.666668"
       width="48" />
  </g>
  <g
     style="stroke:none"
     inkscape:label="Capa 1"
     id="layer1-8-9"
     transform="matrix(0.47344028,-9.3207561e-4,9.3207561e-4,0.47344028,-305.33319,-246.8032)">
    <path
       id="circle4309-6-02"
       style="fill:url(#linearGradient3448);fill-opacity:1;stroke:none"
       r="9.9999886"
       cy="519.79797"
       cx="408.57144"
       d=""
       inkscape:connector-curvature="0" />
    <path
       id="circle4309-6-0-7"
       style="fill:url(#linearGradient3450);fill-opacity:1;stroke:none"
       r="9.9999886"
       cy="519.79797"
       cx="408.57144"
       d=""
       inkscape:connector-curvature="0" />
    <path
       id="circle4309-6-7-2"
       style="fill:url(#linearGradient3452);fill-opacity:1;stroke:none"
       r="9.9999886"
       cy="519.79797"
       cx="408.57144"
       d=""
       inkscape:connector-curvature="0" />
    <path
       id="circle4309-6-4-9"
       style="fill:url(#linearGradient3454);fill-opacity:1;stroke:none"
       r="9.9999886"
       cy="519.79797"
       cx="408.57144"
       d=""
       inkscape:connector-curvature="0" />
    <g
       transform="matrix(0.87053099,0,0,0.87053099,103.47199,117.2361)"
       id="g4823-6">
      <g
         id="g4528-6"
         transform="matrix(0.58271538,-0.10323419,0.10323419,0.58271538,163.82668,269.75821)" />
    </g>
  </g>
  <g
     style="fill:#ffffff"
     id="g4727-1"
     transform="matrix(0.4966193,0.08476916,-0.08476916,0.4966193,-258.59549,-260.13992)">
    <g
       style="fill:#ffffff"
       transform="translate(202.30596,-70.898882)"
       inkscape:label="Capa 1"
       id="layer1-7-9">
      <g
         transform="translate(-112.5209,-0.17284439)"
         id="layer1-8-0"
         inkscape:label="Capa 1"
         style="fill:#ffffff;stroke:none">
        <path
           inkscape:connector-curvature="0"
           d=""
           cx="408.57144"
           cy="519.79797"
           r="9.9999886"
           style="fill:#ffffff;fill-opacity:1;stroke:none"
           id="circle4309-6-1" />
        <path
           inkscape:connector-curvature="0"
           d=""
           cx="408.57144"
           cy="519.79797"
           r="9.9999886"
           style="fill:#ffffff;fill-opacity:1;stroke:none"
           id="circle4309-6-0-2" />
        <path
           inkscape:connector-curvature="0"
           d=""
           cx="408.57144"
           cy="519.79797"
           r="9.9999886"
           style="fill:#ffffff;fill-opacity:1;stroke:none"
           id="circle4309-6-7-8" />
        <path
           inkscape:connector-curvature="0"
           d=""
           cx="408.57144"
           cy="519.79797"
           r="9.9999886"
           style="fill:#ffffff;fill-opacity:1;stroke:none"
           id="circle4309-6-4-3" />
        <g
           style="fill:#ffffff"
           id="g4823-9"
           transform="matrix(0.87053099,0,0,0.87053099,103.47199,117.2361)">
          <g
             style="fill:#ffffff"
             transform="matrix(0.58271538,-0.10323419,0.10323419,0.58271538,163.82668,269.75821)"
             id="g4528-2">
            <rect
               style="fill:#ffffff;fill-opacity:1;stroke:none"
               id="rect4473-3"
               width="76.809471"
               height="58.986568"
               x="504.25668"
               y="426.46411"
               ry="2.3" />
          </g>
        </g>
      </g>
    </g>
  </g>
  <rect
     ry="0.59695154"
     y="26.507637"
     x="8.7321291"
     height="15.30962"
     width="19.93545"
     id="rect4473-6"
     style="fill:#7cc0ff;fill-opacity:1;stroke:#ffffff;stroke-width:0.49395168;stroke-linecap:round;stroke-linejoin:round;stroke-miterlimit:4;stroke-opacity:1;stroke-dasharray:none"
     transform="matrix(0.98432173,-0.17638235,0.17638235,0.98432173,0,0)" />
  <path
     sodipodi:nodetypes="ccccccccccccc"
     inkscape:connector-curvature="0"
     id="path4486-0"
     d="m 15.687885,38.079871 3.504334,-1.855981 1.31534,0.58037 2.560907,-1.436784 2.846855,0.411641 2.010456,0.06478 1.396845,-0.783729 1.751022,-0.794066 3.155182,0.585153 0.250006,1.461555 -17.707919,3.323017 c 0,0 -0.767067,0.289966 -0.88319,-0.388445 z"
     style="fill:#ffffff;fill-opacity:1;fill-rule:evenodd;stroke:none" />
  <circle
     sodipodi:ry="7.5944858"
     sodipodi:rx="7.5944858"
     sodipodi:cy="443.27579"
     sodipodi:cx="521.2431"
     d="m 528.83759,443.27579 c 0,4.19432 -3.40017,7.59448 -7.59449,7.59448 -4.19432,0 -7.59448,-3.40016 -7.59448,-7.59448 0,-4.19432 3.40016,-7.59449 7.59448,-7.59449 4.19432,0 7.59449,3.40017 7.59449,7.59449 z"
     r="7.5944858"
     cy="443.27579"
     cx="521.2431"
     id="path4488-2"
     style="fill:#ffffff;fill-opacity:1;stroke:none"
     transform="matrix(0.25547496,-0.04577901,0.04577901,0.25547496,-135.07735,-61.314681)" />
  <circle
     sodipodi:ry="19.134081"
     sodipodi:rx="19.134081"
     sodipodi:cy="479.66388"
     sodipodi:cx="610.99548"
     d="m 630.12956,479.66388 c 0,10.56746 -8.56662,19.13408 -19.13408,19.13408 -10.56746,0 -19.13408,-8.56662 -19.13408,-19.13408 0,-10.56746 8.56662,-19.13408 19.13408,-19.13408 10.56746,0 19.13408,8.56662 19.13408,19.13408 z"
     r="19.134081"
     cy="479.66388"
     cx="610.99548"
     id="path4740-3"
     style="fill:none;stroke:#0b3969;stroke-width:2;stroke-linecap:round;stroke-linejoin:round;stroke-miterlimit:4;stroke-opacity:1;stroke-dasharray:none"
     transform="matrix(0.28177327,-0.04866765,0.04866765,0.28177327,-164.43508,-70.034298)" />
  <path
     sodipodi:nodetypes="ccccc"
     inkscape:connector-curvature="0"
     id="path4756-4"
     d="m 28.281862,39.928506 2.096646,-7.090976 c 1.864919,1.384587 5.865373,2.065303 5.865373,2.065303 l 0.502006,0.561371 c -1.099716,5.917463 -4.627611,5.750136 -8.464025,4.464302 z"
     style="fill:#ffffff;fill-opacity:1;fill-rule:evenodd;stroke:none" />
  <path
     sodipodi:nodetypes="cccccc"
     inkscape:connector-curvature="0"
     id="path4793-2"
     d="m 28.931423,40.386223 0.825443,-1.468172 1.146944,0.320886 0.687806,-1.525864 3.785081,0.728706 c -0.90988,2.200677 -2.903618,3.106156 -6.445274,1.944444 z"
     style="fill:#77beff;fill-opacity:1;fill-rule:evenodd;stroke:none" />
  <circle
     sodipodi:ry="19.134081"
     sodipodi:rx="19.134081"
     sodipodi:cy="479.44278"
     sodipodi:cx="610.91852"
     d="m 630.0526,479.44278 c 0,10.56746 -8.56662,19.13408 -19.13408,19.13408 -10.56746,0 -19.13408,-8.56662 -19.13408,-19.13408 0,-10.56746 8.56662,-19.13408 19.13408,-19.13408 10.56746,0 19.13408,8.56662 19.13408,19.13408 z"
     r="19.134081"
     cy="479.44278"
     cx="610.91852"
     id="path4740-5-4"
     style="fill:none;stroke:#ffffff;stroke-width:2;stroke-linecap:round;stroke-linejoin:round;stroke-miterlimit:4;stroke-opacity:1;stroke-dasharray:none"
     transform="matrix(0.28177327,-0.04866765,0.04866765,0.28177327,-164.43508,-70.034298)" />
  <g
     style="stroke:none"
     inkscape:label="Capa 1"
     id="layer1-8"
     transform="matrix(0.46192582,-9.0940363e-4,9.0940363e-4,0.46192582,-298.34304,-241.54088)">
    <path
       id="circle4309-6"
       style="fill:url(#linearGradient3423);fill-opacity:1;stroke:none"
       r="9.9999886"
       cy="519.79797"
       cx="408.57144"
       d=""
       inkscape:connector-curvature="0" />
    <path
       id="circle4309-6-0"
       style="fill:url(#linearGradient3425);fill-opacity:1;stroke:none"
       r="9.9999886"
       cy="519.79797"
       cx="408.57144"
       d=""
       inkscape:connector-curvature="0" />
    <path
       id="circle4309-6-7"
       style="fill:url(#linearGradient3427);fill-opacity:1;stroke:none"
       r="9.9999886"
       cy="519.79797"
       cx="408.57144"
       d=""
       inkscape:connector-curvature="0" />
    <path
       id="circle4309-6-4"
       style="fill:url(#linearGradient3429);fill-opacity:1;stroke:none"
       r="9.9999886"
       cy="519.79797"
       cx="408.57144"
       d=""
       inkscape:connector-curvature="0" />
    <g
       transform="matrix(0.87053099,0,0,0.87053099,103.47199,117.2361)"
       id="g4823">
      <g
         id="g4528"
         transform="matrix(0.58271538,-0.10323419,0.10323419,0.58271538,163.82668,269.75821)" />
    </g>
  </g>
</svg>
