<?xml version="1.0" encoding="UTF-8" standalone="no"?>
<!-- Created with Inkscape (http://www.inkscape.org/) -->

<svg
   xmlns:sketch="http://www.bohemiancoding.com/sketch/ns"
   xmlns:osb="http://www.openswatchbook.org/uri/2009/osb"
   xmlns:dc="http://purl.org/dc/elements/1.1/"
   xmlns:cc="http://creativecommons.org/ns#"
   xmlns:rdf="http://www.w3.org/1999/02/22-rdf-syntax-ns#"
   xmlns:svg="http://www.w3.org/2000/svg"
   xmlns="http://www.w3.org/2000/svg"
   xmlns:sodipodi="http://sodipodi.sourceforge.net/DTD/sodipodi-0.dtd"
   xmlns:inkscape="http://www.inkscape.org/namespaces/inkscape"
   width="48"
   height="48"
   id="svg5453"
   version="1.1"
   inkscape:version="0.48.5 r10040"
   sodipodi:docname="system-shutdown.svg">
  <defs
     id="defs5455">
    <linearGradient
       id="linearGradient4232">
      <stop
         style="stop-color:#3889e9;stop-opacity:1"
         offset="0"
         id="stop4234-0" />
      <stop
         style="stop-color:#5ea5fb;stop-opacity:1"
         offset="1"
         id="stop4236" />
    </linearGradient>
    <linearGradient
       id="linearGradient4207"
       osb:paint="gradient">
      <stop
         style="stop-color:#3498db;stop-opacity:1;"
         offset="0"
         id="stop3371" />
      <stop
         style="stop-color:#3498db;stop-opacity:0;"
         offset="1"
         id="stop3373" />
    </linearGradient>
    <linearGradient
       id="linearGradient4227-2">
      <stop
         id="stop4229-9"
         style="stop-color:#566069;stop-opacity:1"
         offset="0" />
      <stop
         id="stop4231-4"
         style="stop-color:#6c7884;stop-opacity:1"
         offset="1" />
    </linearGradient>
  </defs>
  <sodipodi:namedview
     id="base"
     pagecolor="#757575"
     bordercolor="#666666"
     borderopacity="1.0"
     inkscape:pageopacity="0"
     inkscape:pageshadow="2"
     inkscape:zoom="5.590563"
     inkscape:cx="63.484"
     inkscape:cy="21.049173"
     inkscape:document-units="px"
     inkscape:current-layer="layer1"
     showgrid="false"
     fit-margin-top="0"
     fit-margin-left="0"
     fit-margin-right="0"
     fit-margin-bottom="0"
     inkscape:window-width="1440"
     inkscape:window-height="833"
     inkscape:window-x="0"
     inkscape:window-y="0"
     inkscape:window-maximized="1"
     inkscape:showpageshadow="false"
     borderlayer="true"
     showguides="false">
    <inkscape:grid
       type="xygrid"
       id="grid4063" />
    <sodipodi:guide
       position="1.1650391e-05,32.000026"
       orientation="32,0"
       id="guide4157" />
    <sodipodi:guide
       position="1.1650391e-05,2.6367188e-05"
       orientation="0,32"
       id="guide4159" />
    <sodipodi:guide
       position="32.000012,2.6367188e-05"
       orientation="-32,0"
       id="guide4161" />
    <sodipodi:guide
       position="32.000012,32.000026"
       orientation="0,-32"
       id="guide4163" />
    <sodipodi:guide
       position="2.0000117,30.000026"
       orientation="28,0"
       id="guide4167" />
    <sodipodi:guide
       position="30.000012,2.0000264"
       orientation="-28,0"
       id="guide4171" />
    <sodipodi:guide
       position="30.000012,30.000026"
       orientation="0,-28"
       id="guide4173" />
    <sodipodi:guide
       position="2.0000117,30.000026"
       orientation="28,0"
       id="guide4181" />
    <sodipodi:guide
       position="2.0000117,2.0000264"
       orientation="0,14"
       id="guide4183" />
    <sodipodi:guide
       position="16.000012,2.0000264"
       orientation="-28,0"
       id="guide4185" />
    <sodipodi:guide
       position="16.000012,30.000026"
       orientation="0,-14"
       id="guide4187" />
    <sodipodi:guide
       position="9.0000117,23.000026"
       orientation="14,0"
       id="guide4193" />
    <sodipodi:guide
       position="9.0000117,9.0000264"
       orientation="0,14.000031"
       id="guide4195" />
    <sodipodi:guide
       position="23.000042,9.0000264"
       orientation="-14,0"
       id="guide4197" />
    <sodipodi:guide
       position="23.000042,23.000026"
       orientation="0,-14.000031"
       id="guide4199" />
  </sodipodi:namedview>
  <metadata
     id="metadata5458">
    <rdf:RDF>
      <cc:Work
         rdf:about="">
        <dc:format>image/svg+xml</dc:format>
        <dc:type
           rdf:resource="http://purl.org/dc/dcmitype/StillImage" />
        <dc:title />
      </cc:Work>
    </rdf:RDF>
  </metadata>
  <g
     inkscape:label="Capa 1"
     inkscape:groupmode="layer"
     id="layer1"
     transform="translate(-384.57143,-499.798)">
    <rect
       style="fill:#ffffff;fill-opacity:1;stroke:none"
       id="rect3026"
       width="30.05064"
       height="30.229513"
       x="8.4070244"
       y="9.0057163"
       transform="translate(384.57143,499.798)"
       ry="1.0497735" />
    <g
       id="layer1-33"
       inkscape:label="Capa 1"
       transform="matrix(1.6383893,0,0,1.6383893,-247.74016,-347.5567)"
       style="fill:#ff4141">
      <g
         style="stroke:none;fill:#ff4141"
         transform="translate(-0.11123528,0.03124873)"
         inkscape:label="Capa 1"
         id="layer1-39">
        <g
           id="layer1-3"
           inkscape:label="Capa 1"
           transform="translate(0.13524268,0.04517549)"
           style="stroke:none;stroke-width:1.29999994999999990;stroke-miterlimit:4;stroke-dasharray:none;stroke-opacity:1;fill:#ff4141">
          <circle
             style="opacity:1;fill:#ff4141;fill-opacity:0;stroke:none;stroke-width:1.29999994999999990;stroke-miterlimit:4;stroke-dasharray:none;stroke-dashoffset:0;stroke-opacity:1"
             id="circle4174"
             cx="400.57144"
             cy="531.79797"
             r="13.999958"
             d="m 414.5714,531.79797 c 0,7.73197 -6.268,13.99996 -13.99996,13.99996 -7.73196,0 -13.99996,-6.26799 -13.99996,-13.99996 0,-7.73196 6.268,-13.99995 13.99996,-13.99995 7.73196,0 13.99996,6.26799 13.99996,13.99995 z" />
          <circle
             style="opacity:1;fill:#ff4141;fill-opacity:1;stroke:none;stroke-width:1.29999994999999990;stroke-miterlimit:4;stroke-dasharray:none;stroke-dashoffset:0;stroke-opacity:1"
             id="ellipse4233"
             cx="400.57138"
             cy="531.79791"
             r="0" />
        </g>
      </g>
      <g
         inkscape:label="Capa 1"
         id="layer1-7"
         transform="translate(-47.590987,3.7263221)"
         style="fill:#ff4141">
        <g
           id="g4471"
           transform="matrix(1.0931221,0,0,1.0931221,33.310366,-50.486049)"
           style="fill:#ff4141">
          <g
             inkscape:label="Capa 1"
             id="layer1-39-1"
             transform="matrix(1.5444819,0,0,1.5444819,-275.38426,-295.80854)"
             style="fill:#ff4141" />
          <g
             transform="matrix(0.91481089,0,0,0.91481089,-76.187461,46.864295)"
             id="layer1-32"
             inkscape:label="Capa 1"
             style="fill:#ff4141" />
          <g
             transform="matrix(0.7996534,0,0,0.7996534,370.63944,-303.64638)"
             id="layer1-5"
             inkscape:label="Capa 1"
             style="fill:#ff4141;fill-opacity:1">
            <g
               inkscape:label="Capa 1"
               id="layer1-49"
               transform="matrix(1.1440093,0,0,1.1440093,-493.45168,459.63863)"
               style="fill:#ff4141">
              <g
                 id="g4471-7"
                 transform="matrix(1.0931221,0,0,1.0931221,33.310366,-50.486049)"
                 style="fill:#ff4141">
                <g
                   inkscape:label="Capa 1"
                   id="layer1-39-3"
                   transform="matrix(1.5444819,0,0,1.5444819,-275.38426,-295.80854)"
                   style="fill:#ff4141" />
                <g
                   transform="matrix(0.91481089,0,0,0.91481089,-76.187461,46.864295)"
                   id="layer1-32-18"
                   inkscape:label="Capa 1"
                   style="fill:#ff4141" />
                <g
                   transform="matrix(0.89306045,0,0,0.89306045,-131.28729,-19.247082)"
                   id="layer1-8"
                   inkscape:label="Capa 1"
                   style="fill:#ff4141;fill-opacity:1">
                  <g
                     transform="matrix(1.1292757,0,0,1.1292757,-72.968384,-75.847691)"
                     id="layer1-4"
                     inkscape:label="Capa 1"
                     style="fill:#ff4141;fill-opacity:1">
                    <g
                       style="fill:#ff4141;fill-opacity:1"
                       transform="matrix(0.12676497,0,0,0.12676497,556.71721,584.86309)"
                       sketch:type="MSLayerGroup"
                       id="power27">
                      <g
                         style="fill:#ff4141;fill-opacity:1"
                         sketch:type="MSShapeGroup"
                         id="g953" />
                    </g>
                  </g>
                </g>
              </g>
            </g>
          </g>
        </g>
      </g>
      <path
         inkscape:connector-curvature="0"
         d="m 414.57143,531.798 a 13.999996,13.999996 0 0 1 -13.99999,14 13.999996,13.999996 0 0 1 -14.00001,-14 13.999996,13.999996 0 0 1 14.00001,-14 13.999996,13.999996 0 0 1 13.99999,14 z m -6.42621,-3.07344 c -0.59128,-1.18227 -1.42282,-2.17377 -2.49504,-2.97421 -0.3084,-0.235 -0.65725,-0.32681 -1.04652,-0.27543 -0.38928,0.0514 -0.6977,0.235 -0.92539,0.55072 -0.235,0.30839 -0.3249,0.65536 -0.26988,1.04097 0.0548,0.38577 0.23689,0.69592 0.5453,0.93091 0.71946,0.54343 1.27611,1.20812 1.66876,1.99396 0.39292,0.78571 0.58926,1.62306 0.58926,2.51153 0,0.76392 -0.14874,1.49271 -0.44607,2.18676 -0.29746,0.69402 -0.69958,1.29436 -1.20634,1.80113 -0.50677,0.50662 -1.10697,0.90873 -1.801,1.20621 -0.69404,0.29746 -1.42295,0.44632 -2.18675,0.44632 -0.76367,0 -1.49258,-0.14886 -2.18662,-0.44632 -0.69403,-0.29747 -1.29436,-0.69958 -1.80114,-1.20621 -0.50663,-0.50677 -0.90874,-1.10712 -1.2062,-1.80113 -0.29747,-0.69403 -0.4462,-1.42283 -0.4462,-2.18676 0,-0.88847 0.19646,-1.72569 0.58939,-2.51153 0.39292,-0.7857 0.94917,-1.45039 1.6689,-1.99396 0.30841,-0.23512 0.49013,-0.54526 0.5453,-0.93091 0.055,-0.38548 -0.0349,-0.73258 -0.26988,-1.04097 -0.22769,-0.31573 -0.53421,-0.49934 -0.91984,-0.55072 -0.38562,-0.0514 -0.73635,0.0404 -1.05207,0.27543 -1.07235,0.80044 -1.90389,1.79193 -2.49516,2.97421 -0.59128,1.18242 -0.88685,2.44191 -0.88685,3.77845 0,1.14576 0.22405,2.23988 0.67199,3.28277 0.44809,1.04289 1.05019,1.94242 1.80668,2.69894 0.75637,0.75636 1.65606,1.35871 2.69893,1.80641 1.04289,0.44808 2.13714,0.67226 3.28277,0.67226 1.14563,0 2.23989,-0.22418 3.28277,-0.67226 1.04287,-0.44782 1.94256,-1.05005 2.69892,-1.80641 0.75636,-0.75637 1.35846,-1.65606 1.80654,-2.69894 0.44796,-1.04288 0.67187,-2.13713 0.67187,-3.28277 0,-1.33654 -0.29517,-2.59603 -0.88644,-3.77845 l 0,0 z m -7.57387,3.77859 c 0.38183,0 0.71256,-0.1394 0.99136,-0.41861 0.27906,-0.27894 0.41888,-0.60953 0.41888,-0.99135 l 0,-7.0504 c 0,-0.38198 -0.13967,-0.71243 -0.41888,-0.99136 -0.27881,-0.27921 -0.60939,-0.41874 -0.99136,-0.41874 -0.38196,0 -0.71242,0.13966 -0.99149,0.41874 -0.27907,0.27894 -0.4186,0.60952 -0.4186,0.99136 l 0,7.0504 c 0,0.38181 0.13952,0.71242 0.4186,0.99135 0.27907,0.27922 0.60966,0.41861 0.99149,0.41861 l 0,0 z"
         style="opacity:1;fill:#ff4141;fill-opacity:1;fill-rule:evenodd;stroke:none;stroke-width:0.98939365000000001;stroke-linecap:round;stroke-linejoin:round;stroke-miterlimit:4;stroke-dasharray:none;stroke-dashoffset:0;stroke-opacity:1"
         id="path4206" />
    </g>
  </g>
</svg>
