<?xml version="1.0" encoding="UTF-8" standalone="no"?>
<svg
   xmlns:dc="http://purl.org/dc/elements/1.1/"
   xmlns:cc="http://creativecommons.org/ns#"
   xmlns:rdf="http://www.w3.org/1999/02/22-rdf-syntax-ns#"
   xmlns:svg="http://www.w3.org/2000/svg"
   xmlns="http://www.w3.org/2000/svg"
   xmlns:xlink="http://www.w3.org/1999/xlink"
   xmlns:sodipodi="http://sodipodi.sourceforge.net/DTD/sodipodi-0.dtd"
   xmlns:inkscape="http://www.inkscape.org/namespaces/inkscape"
   width="48"
   version="1.1"
   height="48"
   id="svg2"
   inkscape:version="0.48.5 r10040"
   sodipodi:docname="folder-important.svg">
  <metadata
     id="metadata15">
    <rdf:RDF>
      <cc:Work
         rdf:about="">
        <dc:format>image/svg+xml</dc:format>
        <dc:type
           rdf:resource="http://purl.org/dc/dcmitype/StillImage" />
      </cc:Work>
    </rdf:RDF>
  </metadata>
  <defs
     id="defs13">
    <filter
       color-interpolation-filters="sRGB"
       inkscape:collect="always"
       id="filter3816">
      <feGaussianBlur
         inkscape:collect="always"
         stdDeviation="0.25895215"
         id="feGaussianBlur3818" />
    </filter>
    <linearGradient
       inkscape:collect="always"
       xlink:href="#SVGID_1_"
       id="linearGradient3044"
       gradientUnits="userSpaceOnUse"
       x1="24.0089"
       y1="15.9896"
       x2="24.0089"
       y2="44.989601"
       gradientTransform="matrix(1.2,0,0,1.3333333,-4.8107998,-11.986667)" />
    <linearGradient
       x1="24.0089"
       y1="15.9896"
       x2="24.0089"
       y2="44.989601"
       id="SVGID_1_"
       gradientUnits="userSpaceOnUse">
      <stop
         id="stop22"
         style="stop-color:#8ec5ff;stop-opacity:1"
         offset="0" />
      <stop
         id="stop24"
         style="stop-color:#70bcff;stop-opacity:1"
         offset="0.97000003" />
      <stop
         id="stop26"
         style="stop-color:#0f70e6;stop-opacity:1"
         offset="1" />
    </linearGradient>
  </defs>
  <sodipodi:namedview
     pagecolor="#ffffff"
     bordercolor="#666666"
     borderopacity="1"
     objecttolerance="10"
     gridtolerance="10"
     guidetolerance="10"
     inkscape:pageopacity="0"
     inkscape:pageshadow="2"
     inkscape:window-width="667"
     inkscape:window-height="480"
     id="namedview11"
     showgrid="false"
     inkscape:zoom="4.9166667"
     inkscape:cx="24"
     inkscape:cy="24"
     inkscape:window-x="0"
     inkscape:window-y="0"
     inkscape:window-maximized="0"
     inkscape:current-layer="svg2" />
  <polygon
     points="6.009,10.99 28.181,10.99 30.246,8.99 42.009,8.99 42.009,38.99 6.009,38.99 "
     id="polygon17"
     style="fill:#31a4fc"
     transform="matrix(1.2,0,0,1.3333333,-4.8107998,-11.986667)" />
  <polygon
     points="7.008,38.154 7.008,18.824 11.711,9.333 37.934,22.329 37.746,38.166 "
     id="polygon19-3"
     style="opacity:0.56432746;fill:#364e59;filter:url(#filter3816)"
     transform="matrix(1.2,0,0,1.3333333,-5.3416033,-11.200602)" />
  <polygon
     points="37.746,38.166 7.008,38.154 7.008,18.824 11.711,9.333 37.934,22.329 "
     id="polygon19"
     style="fill:#ffffff"
     transform="matrix(1.2,0,0,1.3333333,-5.0984365,-10.56194)" />
  <rect
     width="48"
     height="38.666668"
     x="0"
     y="9.3333321"
     id="rect28"
     style="fill:url(#linearGradient3044)"
     ry="2.5423732" />
  <path
     inkscape:connector-curvature="0"
     d="m 23.9702,14.066 c -0.57822,0 -1.09599,0.329209 -1.38728,0.852488 l -9.9122,18.8553 c -0.233226,0.465136 -0.23775,1.08981 0.04942,1.55495 0.287172,0.465136 0.743755,0.702464 1.32198,0.702464 h 19.8914 c 0.578219,0 1.10463,-0.286746 1.33786,-0.751884 0.291048,-0.465136 0.29441,-1.04756 0.06531,-1.57084 l -9.9792,-18.8395 C 25.070562,14.3457 24.54843,14.06591 23.97021,14.06591 z m -0.1165,3.8459 c 1.23118,-0.0072 2.37844,1.10745 2.22388,2.02267 -0.377665,2.71304 -0.896782,5.40604 -1.22137,8.12246 h -1.5373 c -0.391312,-2.82865 -0.927589,-5.30485 -1.38728,-8.12246 -0.162768,-0.901693 0.690888,-2.0154 1.92207,-2.02267 z m 0.1006,12.4026 c 0.768647,-0.0031 1.55088,0.424954 1.90442,1.13665 0.631902,1.10157 -0.0026,2.62755 -1.23549,2.94223 -1.27298,0.429588 -2.77441,-0.634127 -2.72514,-1.98914 -0.01553,-0.632875 0.303082,-1.2081 0.785419,-1.60437 0.35783,-0.326814 0.809603,-0.48371 1.27079,-0.485371 z"
     id="path2993"
     style="fill:#ffffff;stroke:none" />
</svg>
