<?xml version="1.0" encoding="UTF-8" standalone="no"?>
<!-- Created with Inkscape (http://www.inkscape.org/) -->

<svg
   xmlns:dc="http://purl.org/dc/elements/1.1/"
   xmlns:cc="http://creativecommons.org/ns#"
   xmlns:rdf="http://www.w3.org/1999/02/22-rdf-syntax-ns#"
   xmlns:svg="http://www.w3.org/2000/svg"
   xmlns="http://www.w3.org/2000/svg"
   xmlns:xlink="http://www.w3.org/1999/xlink"
   xmlns:sodipodi="http://sodipodi.sourceforge.net/DTD/sodipodi-0.dtd"
   xmlns:inkscape="http://www.inkscape.org/namespaces/inkscape"
   width="48"
   height="48"
   id="svg865"
   version="1.1"
   inkscape:version="0.48.5 r10040"
   sodipodi:docname="folder-wallpaper.svg">
  <defs
     id="defs867">
    <clipPath
       id="clipPath3823"
       clipPathUnits="userSpaceOnUse">
      <rect
         y="-2.8691742"
         x="124.84656"
         height="4.4258509"
         width="26.346256"
         id="rect3825"
         style="opacity:0.3157895;fill:#ffffff;fill-opacity:1;stroke:none" />
    </clipPath>
    <clipPath
       id="clipPath3817"
       clipPathUnits="userSpaceOnUse">
      <rect
         ry="0"
         y="-34.623631"
         x="103.62109"
         height="38.543312"
         width="50.767868"
         id="rect3819"
         style="fill:#1a1a1a;fill-opacity:1;stroke:none" />
    </clipPath>
    <path
       d="m 69.626,12.145 -.052,0 c -22.727,-0.292 -46.472,4.077 -46.709,4.122 -2.424,0.451 -4.946,2.974 -5.397,5.397 -0.044,0.237 -4.414,23.983 -4.122,46.71 -0.292,22.777 4.078,46.523 4.122,46.761 0.451,2.423 2.974,4.945 5.398,5.398 0.237,0.044 23.982,4.413 46.709,4.121 22.779,0.292 46.524,-4.077 46.761,-4.121 2.423,-0.452 4.946,-2.976 5.398,-5.399 0.044,-0.236 4.413,-23.981 4.121,-46.709 0.292,-22.777 -4.077,-46.523 -4.121,-46.761 -0.453,-2.423 -2.976,-4.946 -5.398,-5.397 -0.238,-0.045 -23.984,-4.414 -46.71,-4.122 z "
       id="XMLID_10_" />
    <clipPath
       id="clipPath4458">
      <use
         id="use4460"
         xlink:href="#XMLID_10_"
         height="1"
         y="0"
         x="0"
         width="1" />
    </clipPath>
    <filter
       color-interpolation-filters="sRGB"
       inkscape:collect="always"
       id="filter3816">
      <feGaussianBlur
         inkscape:collect="always"
         stdDeviation="0.25895215"
         id="feGaussianBlur3818" />
    </filter>
    <linearGradient
       inkscape:collect="always"
       xlink:href="#SVGID_1_"
       id="linearGradient3044"
       gradientUnits="userSpaceOnUse"
       x1="24.0089"
       y1="15.9896"
       x2="24.0089"
       y2="44.989601"
       gradientTransform="matrix(1.2,0,0,1.3333333,-4.8108004,-11.986667)" />
    <linearGradient
       x1="24.0089"
       y1="15.9896"
       x2="24.0089"
       y2="44.989601"
       id="SVGID_1_"
       gradientUnits="userSpaceOnUse">
      <stop
         id="stop22"
         style="stop-color:#8ec5ff;stop-opacity:1"
         offset="0" />
      <stop
         id="stop24"
         style="stop-color:#70bcff;stop-opacity:1"
         offset="0.97000003" />
      <stop
         id="stop26"
         style="stop-color:#0f70e6;stop-opacity:1"
         offset="1" />
    </linearGradient>
  </defs>
  <sodipodi:namedview
     id="base"
     pagecolor="#ffffff"
     bordercolor="#666666"
     borderopacity="1.0"
     inkscape:pageopacity="0.0"
     inkscape:pageshadow="2"
     inkscape:zoom="4.516979"
     inkscape:cx="39.858249"
     inkscape:cy="21.457936"
     inkscape:document-units="px"
     inkscape:current-layer="folderLayer"
     showgrid="true"
     inkscape:window-width="667"
     inkscape:window-height="467"
     inkscape:window-x="56"
     inkscape:window-y="67"
     inkscape:window-maximized="0"
     borderlayer="true"
     inkscape:showpageshadow="false"
     showguides="false"
     inkscape:guide-bbox="true">
    <sodipodi:guide
       position="0,39.000017"
       orientation="30,0"
       id="guide4110" />
    <sodipodi:guide
       position="30,39.000017"
       orientation="0,-30"
       id="guide4116" />
    <sodipodi:guide
       position="30,9.0000174"
       orientation="0,18"
       id="guide4120" />
    <sodipodi:guide
       position="48,9.0000174"
       orientation="-30,0"
       id="guide4122" />
    <sodipodi:guide
       position="48,39.000017"
       orientation="0,-18"
       id="guide4124" />
    <sodipodi:guide
       position="4,41.000017"
       orientation="34,0"
       id="guide4164" />
    <sodipodi:guide
       position="22,41.000017"
       orientation="0,-18"
       id="guide4170" />
    <sodipodi:guide
       position="6,37.0002"
       orientation="27.999817,0"
       id="guide4174" />
    <sodipodi:guide
       position="6,9.0003836"
       orientation="0,35.999992"
       id="guide4176" />
    <sodipodi:guide
       position="41.999992,9.0003836"
       orientation="-27.999817,0"
       id="guide4178" />
    <sodipodi:guide
       position="41.999992,37.0002"
       orientation="0,-35.999992"
       id="guide4180" />
    <sodipodi:guide
       position="14,31.000017"
       orientation="20,0"
       id="guide4221" />
    <sodipodi:guide
       position="34,11.000017"
       orientation="-20,0"
       id="guide4225" />
    <sodipodi:guide
       position="34,31.000017"
       orientation="0,-20"
       id="guide4227" />
    <sodipodi:guide
       position="14,31.000017"
       orientation="11,0"
       id="guide4412" />
    <sodipodi:guide
       position="14,20.000017"
       orientation="6.123234e-17,1"
       id="guide4414" />
    <sodipodi:guide
       position="25,20.000017"
       orientation="-11,0"
       id="guide4416" />
    <sodipodi:guide
       position="25,31.000017"
       orientation="0,-11"
       id="guide4418" />
    <sodipodi:guide
       position="25,20.000017"
       orientation="9,0"
       id="guide4420" />
    <sodipodi:guide
       position="25,11.000017"
       orientation="0,9"
       id="guide4422" />
    <sodipodi:guide
       position="34,11.000017"
       orientation="-9,0"
       id="guide4424" />
    <sodipodi:guide
       position="34,20.000017"
       orientation="0,-9"
       id="guide4426" />
    <sodipodi:guide
       position="23.000001,35.000017"
       orientation="-1.9999999,0"
       id="guide4068" />
    <sodipodi:guide
       position="23.000001,37.000017"
       orientation="0,2"
       id="guide4070" />
    <sodipodi:guide
       position="25,37.000017"
       orientation="1.9999999,0"
       id="guide4072" />
    <sodipodi:guide
       position="25,35.000017"
       orientation="0,-2"
       id="guide4074" />
    <sodipodi:guide
       orientation="0,1"
       position="-5.0900019,45.012788"
       id="guide3049" />
    <sodipodi:guide
       orientation="0,1"
       position="14,5.0286766"
       id="guide3051" />
    <sodipodi:guide
       orientation="1,0"
       position="18.481902,18.990154"
       id="guide3071" />
  </sodipodi:namedview>
  <metadata
     id="metadata870">
    <rdf:RDF>
      <cc:Work
         rdf:about="">
        <dc:format>image/svg+xml</dc:format>
        <dc:type
           rdf:resource="http://purl.org/dc/dcmitype/StillImage" />
        <dc:title />
      </cc:Work>
    </rdf:RDF>
  </metadata>
  <g
     inkscape:groupmode="layer"
     id="folderLayer"
     inkscape:label="folder">
    <polygon
       points="42.009,8.99 42.009,38.99 6.009,38.99 6.009,10.99 28.181,10.99 30.246,8.99 "
       id="polygon17"
       style="fill:#31a4fc"
       transform="matrix(1.2,0,0,1.3333333,-4.8108004,-11.986667)" />
    <polygon
       points="37.934,22.329 37.746,38.166 7.008,38.154 7.008,18.824 11.711,9.333 "
       id="polygon19-3"
       style="opacity:0.56432746;fill:#364e59;filter:url(#filter3816)"
       transform="matrix(1.2,0,0,1.3333333,-5.3416034,-11.200602)" />
    <polygon
       points="11.711,9.333 37.934,22.329 37.746,38.166 7.008,38.154 7.008,18.824 "
       id="polygon19"
       style="fill:#ffffff"
       transform="matrix(1.2,0,0,1.3333333,-5.0984364,-10.56194)" />
    <rect
       width="48"
       height="38.666668"
       x="0"
       y="9.3333321"
       id="rect28"
       style="fill:url(#linearGradient3044)"
       ry="2.5423732" />
    <g
       id="g3910"
       transform="matrix(1.0181857,0,0,1.0181857,-0.43645647,-0.41778786)"
       style="opacity:0.3" />
    <rect
       style="fill:none;stroke:none"
       id="rect3265"
       width="30"
       height="30"
       x="9.380971"
       y="11.101083" />
    <g
       id="g3930"
       transform="matrix(0.80738207,0,0,0.72643148,3.9191285,8.5414845)">
      <path
         d="m 8.2524263,11.268767 c -0.828722,0 -1.49896,0.705695 -1.49896,1.58177 v 24.7369 c 0,0.876077 0.670235,1.58177 1.49896,1.58177 H 40.119726 c 0.82872,0 1.49896,-0.705695 1.49896,-1.58177 v -24.7369 c 0,-0.876077 -0.670237,-1.58177 -1.49896,-1.58177 z m 1.4575,1.9941 c 0.04515,0.0062 1.0216697,-4.5e-5 1.0682497,0 l 27.7432,0.0266 c 1.3032,0.0013 1.34161,0.03841 1.34161,1.34161 v 21.0516 c 0,1.3032 0.03132,1.34161 -1.34161,1.34161 H 9.8507763 c -1.37293,0 -1.34161,-0.03841 -1.34161,-1.34161 v -21.0516 c 0,-1.18688 0.172088,-1.50877 1.20082,-1.36824 z"
         id="rect2459"
         style="fill:#ffffff;fill-opacity:1;fill-rule:evenodd;stroke:none"
         inkscape:connector-curvature="0" />
      <path
         d="m 17.891426,18.374967 c -1.12485,0 -2.09375,0.5 -2.09375,0.5 0,0 1.61727,0.8439 2.25,1.96875 0.632728,1.12485 0.84375,5.625 0.84375,5.625 h 14.625 c 0,0 0.218562,-5.35174 -1.1875,-6.6875 -1.33401,-1.2673 -3.25,-0.96875 -3.25,-0.96875 l -0.0625,0.5625 c 0,0 -0.703294,-0.492197 -1.96875,-0.5625 -1.26546,-0.0703 -2.1875,0.0625 -2.1875,0.0625 l 0.4375,0.4375 c 0,0 -1.78148,-0.71875 -3.46875,-0.71875 -1.68727,0 -2.03125,0.0625 -2.03125,0.0625 l 0.625,0.375 c 0,0 -1.4064,-0.65625 -2.53125,-0.65625 z m 0.6562,9.125 v 4.9375 c 0,1.06658 0.837447,1.9375 1.875,1.9375 h 3.5625 c -0.261807,2.69771 -0.786174,4.71809 -0.65625,7.0625 0.08138,1.46853 1.31759,3.375 3.28125,3.375 1.75863,0 3.0336,-1.74695 3.15625,-3.5 0.136779,-1.95504 -0.714699,-4.23467 -1.09375,-6.9375 h 3.3125 c 1.03756,0 1.875,-0.870921 1.875,-1.9375 v -4.9375 h -15.3125 z"
         id="path4900"
         style="color:#000000;fill:#ffffff;fill-opacity:1;stroke:none"
         inkscape:connector-curvature="0" />
    </g>
  </g>
</svg>
