<?xml version="1.0" encoding="UTF-8" standalone="no"?>
<svg
   xmlns:dc="http://purl.org/dc/elements/1.1/"
   xmlns:cc="http://creativecommons.org/ns#"
   xmlns:rdf="http://www.w3.org/1999/02/22-rdf-syntax-ns#"
   xmlns:svg="http://www.w3.org/2000/svg"
   xmlns="http://www.w3.org/2000/svg"
   xmlns:xlink="http://www.w3.org/1999/xlink"
   xmlns:sodipodi="http://sodipodi.sourceforge.net/DTD/sodipodi-0.dtd"
   xmlns:inkscape="http://www.inkscape.org/namespaces/inkscape"
   width="48"
   version="1.1"
   height="48"
   id="svg2"
   inkscape:version="0.48.5 r10040"
   sodipodi:docname="folder-book.svg">
  <metadata
     id="metadata20">
    <rdf:RDF>
      <cc:Work
         rdf:about="">
        <dc:format>image/svg+xml</dc:format>
        <dc:type
           rdf:resource="http://purl.org/dc/dcmitype/StillImage" />
      </cc:Work>
    </rdf:RDF>
  </metadata>
  <defs
     id="defs18">
    <clipPath
       id="clipPath3823"
       clipPathUnits="userSpaceOnUse">
      <rect
         y="-2.8691742"
         x="124.84656"
         height="4.4258509"
         width="26.346256"
         id="rect3825"
         style="opacity:0.3157895;fill:#ffffff;fill-opacity:1;stroke:none" />
    </clipPath>
    <clipPath
       id="clipPath3817"
       clipPathUnits="userSpaceOnUse">
      <rect
         ry="0"
         y="-34.623631"
         x="103.62109"
         height="38.543312"
         width="50.767868"
         id="rect3819"
         style="fill:#1a1a1a;fill-opacity:1;stroke:none" />
    </clipPath>
    <path
       d="m 69.626,12.145 -.052,0 c -22.727,-0.292 -46.472,4.077 -46.709,4.122 -2.424,0.451 -4.946,2.974 -5.397,5.397 -0.044,0.237 -4.414,23.983 -4.122,46.71 -0.292,22.777 4.078,46.523 4.122,46.761 0.451,2.423 2.974,4.945 5.398,5.398 0.237,0.044 23.982,4.413 46.709,4.121 22.779,0.292 46.524,-4.077 46.761,-4.121 2.423,-0.452 4.946,-2.976 5.398,-5.399 0.044,-0.236 4.413,-23.981 4.121,-46.709 0.292,-22.777 -4.077,-46.523 -4.121,-46.761 -0.453,-2.423 -2.976,-4.946 -5.398,-5.397 -0.238,-0.045 -23.984,-4.414 -46.71,-4.122 z "
       id="XMLID_10_" />
    <clipPath
       id="clipPath4458">
      <use
         id="use4460"
         xlink:href="#XMLID_10_"
         height="1"
         y="0"
         x="0"
         width="1" />
    </clipPath>
    <filter
       color-interpolation-filters="sRGB"
       inkscape:collect="always"
       id="filter3816">
      <feGaussianBlur
         inkscape:collect="always"
         stdDeviation="0.25895215"
         id="feGaussianBlur3818" />
    </filter>
    <linearGradient
       inkscape:collect="always"
       xlink:href="#SVGID_1_"
       id="linearGradient3044"
       gradientUnits="userSpaceOnUse"
       x1="24.0089"
       y1="15.9896"
       x2="24.0089"
       y2="44.989601"
       gradientTransform="matrix(1.2,0,0,1.3333333,-4.8107998,-11.986667)" />
    <linearGradient
       x1="24.0089"
       y1="15.9896"
       x2="24.0089"
       y2="44.989601"
       id="SVGID_1_"
       gradientUnits="userSpaceOnUse">
      <stop
         id="stop22"
         style="stop-color:#8ec5ff;stop-opacity:1"
         offset="0" />
      <stop
         id="stop24"
         style="stop-color:#70bcff;stop-opacity:1"
         offset="0.97000003" />
      <stop
         id="stop26"
         style="stop-color:#0f70e6;stop-opacity:1"
         offset="1" />
    </linearGradient>
  </defs>
  <sodipodi:namedview
     pagecolor="#ffffff"
     bordercolor="#666666"
     borderopacity="1"
     objecttolerance="10"
     gridtolerance="10"
     guidetolerance="10"
     inkscape:pageopacity="0"
     inkscape:pageshadow="2"
     inkscape:window-width="1440"
     inkscape:window-height="833"
     id="namedview16"
     showgrid="false"
     inkscape:zoom="4.9166667"
     inkscape:cx="24"
     inkscape:cy="24"
     inkscape:window-x="0"
     inkscape:window-y="0"
     inkscape:window-maximized="1"
     inkscape:current-layer="svg2" />
  <polygon
     points="30.246,8.99 42.009,8.99 42.009,38.99 6.009,38.99 6.009,10.99 28.181,10.99 "
     id="polygon17"
     style="fill:#31a4fc"
     transform="matrix(1.2,0,0,1.3333333,-4.8107998,-11.986667)" />
  <polygon
     points="11.711,9.333 37.934,22.329 37.746,38.166 7.008,38.154 7.008,18.824 "
     id="polygon19-3"
     style="opacity:0.56432746;fill:#364e59;filter:url(#filter3816)"
     transform="matrix(1.2,0,0,1.3333333,-5.3416033,-11.200602)" />
  <polygon
     points="7.008,18.824 11.711,9.333 37.934,22.329 37.746,38.166 7.008,38.154 "
     id="polygon19"
     style="fill:#ffffff"
     transform="matrix(1.2,0,0,1.3333333,-5.0984365,-10.56194)" />
  <rect
     width="48"
     height="38.666668"
     x="0"
     y="9.3333321"
     id="rect28"
     style="fill:url(#linearGradient3044)"
     ry="2.5423732" />
  <rect
     id="rect3265"
     style="fill:none;stroke:none"
     height="30"
     y="13.958147"
     x="38.058937"
     width="30" />
  <path
     d="m 33.948071,18.222615 v 20.25 c 0,0.552263 0.385721,1 0.875,1 h 5.375 c 0.48928,0 0.90625,-0.447737 0.90625,-1 v -20.25 h -7.15625 z m -9.3438,2.125 v 18.25 c 0,0.494858 0.416971,0.90625 0.90625,0.90625 h 5.375 c 0.489279,0 0.875,-0.411392 0.875,-0.90625 v -18.25 h -7.15625 z m -6.875,0.125 -11.5311996,14.125 c -0.312805,0.383455 -0.285382,0.971971 0.09375,1.28125 l 4.1874996,3.4062 c 0.379132,0.309279 0.937196,0.227204 1.25,-0.15625 l 11.5312,-14.1562 -5.5312,-4.5 z m -6.5,11.625 c 0.456632,-0.04238 0.929766,0.06278 1.3125,0.375 0.765469,0.624435 0.874434,1.76578 0.25,2.53125 -0.624434,0.765467 -1.76578,0.874434 -2.53125,0.25 -0.7654686,-0.624435 -0.8744336,-1.76578 -0.25,-2.53125 0.312217,-0.382734 0.762118,-0.58262 1.21875,-0.625 z m 26.2812,0.8125 c 0.987857,0 1.8125,0.795218 1.8125,1.78125 0,0.986033 -0.824643,1.78125 -1.8125,1.78125 -0.987857,0 -1.78125,-0.795217 -1.78125,-1.78125 0,-0.986032 0.793393,-1.78125 1.78125,-1.78125 z m -9.3125,0.0312 c 0.987857,0 1.78125,0.793394 1.78125,1.78125 0,0.987855 -0.793393,1.8125 -1.78125,1.8125 -0.987856,0 -1.8125,-0.824645 -1.8125,-1.8125 0,-0.987856 0.824644,-1.78125 1.8125,-1.78125 z"
     id="path3001"
     style="fill:#ffffff;stroke:none"
     inkscape:connector-curvature="0" />
</svg>
