<?xml version="1.0" encoding="UTF-8" standalone="no"?>
<svg
   xmlns:dc="http://purl.org/dc/elements/1.1/"
   xmlns:cc="http://creativecommons.org/ns#"
   xmlns:rdf="http://www.w3.org/1999/02/22-rdf-syntax-ns#"
   xmlns:svg="http://www.w3.org/2000/svg"
   xmlns="http://www.w3.org/2000/svg"
   xmlns:xlink="http://www.w3.org/1999/xlink"
   xmlns:sodipodi="http://sodipodi.sourceforge.net/DTD/sodipodi-0.dtd"
   xmlns:inkscape="http://www.inkscape.org/namespaces/inkscape"
   width="48"
   version="1.1"
   height="48"
   id="svg2"
   inkscape:version="0.48.5 r10040"
   sodipodi:docname="folder-fedora.svg">
  <metadata
     id="metadata14">
    <rdf:RDF>
      <cc:Work
         rdf:about="">
        <dc:format>image/svg+xml</dc:format>
        <dc:type
           rdf:resource="http://purl.org/dc/dcmitype/StillImage" />
      </cc:Work>
    </rdf:RDF>
  </metadata>
  <sodipodi:namedview
     pagecolor="#ffffff"
     bordercolor="#666666"
     borderopacity="1"
     objecttolerance="10"
     gridtolerance="10"
     guidetolerance="10"
     inkscape:pageopacity="0"
     inkscape:pageshadow="2"
     inkscape:window-width="667"
     inkscape:window-height="480"
     id="namedview12"
     showgrid="false"
     inkscape:zoom="4.9166667"
     inkscape:cx="24"
     inkscape:cy="24"
     inkscape:window-x="0"
     inkscape:window-y="0"
     inkscape:window-maximized="0"
     inkscape:current-layer="svg2" />
  <defs
     id="defs12">
    <filter
       color-interpolation-filters="sRGB"
       inkscape:collect="always"
       id="filter3816">
      <feGaussianBlur
         inkscape:collect="always"
         stdDeviation="0.25895215"
         id="feGaussianBlur3818" />
    </filter>
    <linearGradient
       inkscape:collect="always"
       xlink:href="#SVGID_1_"
       id="linearGradient3044"
       gradientUnits="userSpaceOnUse"
       x1="24.0089"
       y1="15.9896"
       x2="24.0089"
       y2="44.989601"
       gradientTransform="matrix(1.2,0,0,1.3333333,-4.8107998,-11.986667)" />
    <linearGradient
       x1="24.0089"
       y1="15.9896"
       x2="24.0089"
       y2="44.989601"
       id="SVGID_1_"
       gradientUnits="userSpaceOnUse">
      <stop
         id="stop22"
         style="stop-color:#8ec5ff;stop-opacity:1"
         offset="0" />
      <stop
         id="stop24"
         style="stop-color:#70bcff;stop-opacity:1"
         offset="0.97000003" />
      <stop
         id="stop26"
         style="stop-color:#0f70e6;stop-opacity:1"
         offset="1" />
    </linearGradient>
  </defs>
  <polygon
     points="6.009,10.99 28.181,10.99 30.246,8.99 42.009,8.99 42.009,38.99 6.009,38.99 "
     id="polygon17"
     style="fill:#31a4fc"
     transform="matrix(1.2,0,0,1.3333333,-4.8107998,-11.986667)" />
  <polygon
     points="7.008,38.154 7.008,18.824 11.711,9.333 37.934,22.329 37.746,38.166 "
     id="polygon19-3"
     style="opacity:0.56432746;fill:#364e59;filter:url(#filter3816)"
     transform="matrix(1.2,0,0,1.3333333,-5.3416033,-11.200602)" />
  <polygon
     points="37.746,38.166 7.008,38.154 7.008,18.824 11.711,9.333 37.934,22.329 "
     id="polygon19"
     style="fill:#ffffff"
     transform="matrix(1.2,0,0,1.3333333,-5.0984365,-10.56194)" />
  <rect
     width="48"
     height="38.666668"
     x="0"
     y="9.3333321"
     id="rect28"
     style="fill:url(#linearGradient3044)"
     ry="2.5423732" />
  <path
     style="fill:#fff;stroke:none"
     id="path4175"
     d="m 24,13.5584 c -6.77277,0 -12.2452,5.47817 -12.25,12.25 v 9.5 c 0.0036,1.53759 1.27395,2.78125 2.8125,2.78125 h 9.4375 c 6.77356,-0.0027 12.25,-5.50718 12.25,-12.2812 0,-6.77587 -5.47418,-12.25 -12.25,-12.25 z  m 3.5625,2.875 c 3.16216,0 5.75,2.58784 5.75,5.75 0,3.16216 -2.58784,5.75 -5.75,5.75 h -2.875 v 3.09375 c 0,3.16216 -2.58784,5.75 -5.75,5.75 -3.16216,0 -5.75,-2.58784 -5.75,-5.75 0,-3.16216 2.58784,-5.75 5.75,-5.75 h 2.875 v -3.09375 c 0,-3.16216 2.58784,-5.75 5.75,-5.75 z  m 0,2.6875 c -1.70566,0 -3.0625,1.35684 -3.0625,3.0625 v 3.0625 h 3.0625 c 1.70566,0 3.0625,-1.35684 3.0625,-3.0625 0,-1.70566 -1.35684,-3.0625 -3.0625,-3.0625 z  m -8.625,8.8438 c -1.70566,0 -3.0625,1.35684 -3.0625,3.0625 0,1.70566 1.35684,3.0625 3.0625,3.0625 1.70566,0 3.0625,-1.35684 3.0625,-3.0625 v -3.0625 h -3.0625 z " />
</svg>
