<?xml version="1.0" encoding="UTF-8" standalone="no"?>
<svg
   xmlns:dc="http://purl.org/dc/elements/1.1/"
   xmlns:cc="http://creativecommons.org/ns#"
   xmlns:rdf="http://www.w3.org/1999/02/22-rdf-syntax-ns#"
   xmlns:svg="http://www.w3.org/2000/svg"
   xmlns="http://www.w3.org/2000/svg"
   xmlns:xlink="http://www.w3.org/1999/xlink"
   xmlns:sodipodi="http://sodipodi.sourceforge.net/DTD/sodipodi-0.dtd"
   xmlns:inkscape="http://www.inkscape.org/namespaces/inkscape"
   width="48"
   version="1.1"
   height="48"
   id="svg2"
   inkscape:version="0.48.5 r10040"
   sodipodi:docname="folder-music.svg">
  <metadata
     id="metadata15">
    <rdf:RDF>
      <cc:Work
         rdf:about="">
        <dc:format>image/svg+xml</dc:format>
        <dc:type
           rdf:resource="http://purl.org/dc/dcmitype/StillImage" />
      </cc:Work>
    </rdf:RDF>
  </metadata>
  <defs
     id="defs13">
    <clipPath
       id="clipPath3823"
       clipPathUnits="userSpaceOnUse">
      <rect
         y="-2.8691742"
         x="124.84656"
         height="4.4258509"
         width="26.346256"
         id="rect3825"
         style="opacity:0.3157895;fill:#ffffff;fill-opacity:1;stroke:none" />
    </clipPath>
    <clipPath
       id="clipPath3817"
       clipPathUnits="userSpaceOnUse">
      <rect
         ry="0"
         y="-34.623631"
         x="103.62109"
         height="38.543312"
         width="50.767868"
         id="rect3819"
         style="fill:#1a1a1a;fill-opacity:1;stroke:none" />
    </clipPath>
    <path
       d="m 69.626,12.145 -.052,0 c -22.727,-0.292 -46.472,4.077 -46.709,4.122 -2.424,0.451 -4.946,2.974 -5.397,5.397 -0.044,0.237 -4.414,23.983 -4.122,46.71 -0.292,22.777 4.078,46.523 4.122,46.761 0.451,2.423 2.974,4.945 5.398,5.398 0.237,0.044 23.982,4.413 46.709,4.121 22.779,0.292 46.524,-4.077 46.761,-4.121 2.423,-0.452 4.946,-2.976 5.398,-5.399 0.044,-0.236 4.413,-23.981 4.121,-46.709 0.292,-22.777 -4.077,-46.523 -4.121,-46.761 -0.453,-2.423 -2.976,-4.946 -5.398,-5.397 -0.238,-0.045 -23.984,-4.414 -46.71,-4.122 z "
       id="XMLID_10_" />
    <clipPath
       id="clipPath4458">
      <use
         id="use4460"
         xlink:href="#XMLID_10_"
         height="1"
         y="0"
         x="0"
         width="1" />
    </clipPath>
    <clipPath
       id="clipPath3823-7"
       clipPathUnits="userSpaceOnUse">
      <rect
         y="-2.8691742"
         x="124.84656"
         height="4.4258509"
         width="26.346256"
         id="rect3825-5"
         style="opacity:0.3157895;fill:#ffffff;fill-opacity:1;stroke:none" />
    </clipPath>
    <clipPath
       id="clipPath3817-3"
       clipPathUnits="userSpaceOnUse">
      <rect
         ry="0"
         y="-34.623631"
         x="103.62109"
         height="38.543312"
         width="50.767868"
         id="rect3819-5"
         style="fill:#1a1a1a;fill-opacity:1;stroke:none" />
    </clipPath>
    <path
       d="m 69.626,12.145 -.052,0 c -22.727,-0.292 -46.472,4.077 -46.709,4.122 -2.424,0.451 -4.946,2.974 -5.397,5.397 -0.044,0.237 -4.414,23.983 -4.122,46.71 -0.292,22.777 4.078,46.523 4.122,46.761 0.451,2.423 2.974,4.945 5.398,5.398 0.237,0.044 23.982,4.413 46.709,4.121 22.779,0.292 46.524,-4.077 46.761,-4.121 2.423,-0.452 4.946,-2.976 5.398,-5.399 0.044,-0.236 4.413,-23.981 4.121,-46.709 0.292,-22.777 -4.077,-46.523 -4.121,-46.761 -0.453,-2.423 -2.976,-4.946 -5.398,-5.397 -0.238,-0.045 -23.984,-4.414 -46.71,-4.122 z "
       id="XMLID_10_-6" />
    <clipPath
       id="clipPath4458-2">
      <use
         id="use4460-9"
         xlink:href="#XMLID_10_-6"
         height="1"
         y="0"
         x="0"
         width="1" />
    </clipPath>
    <filter
       id="filter3816"
       inkscape:collect="always">
      <feGaussianBlur
         id="feGaussianBlur3818"
         stdDeviation="0.25895215"
         inkscape:collect="always" />
    </filter>
    <linearGradient
       gradientUnits="userSpaceOnUse"
       id="SVGID_1_"
       y2="44.989601"
       x2="24.0089"
       y1="15.9896"
       x1="24.0089">
      <stop
         offset="0"
         style="stop-color:#8ec5ff;stop-opacity:1"
         id="stop22" />
      <stop
         offset="0.97000003"
         style="stop-color:#70bcff;stop-opacity:1"
         id="stop24" />
      <stop
         offset="1"
         style="stop-color:#0f70e6;stop-opacity:1"
         id="stop26" />
    </linearGradient>
    <linearGradient
       gradientTransform="matrix(1.2,0,0,1.3333333,-4.8107998,-11.986667)"
       y2="44.989601"
       x2="24.0089"
       y1="15.9896"
       x1="24.0089"
       gradientUnits="userSpaceOnUse"
       id="linearGradient3044"
       xlink:href="#SVGID_1_"
       inkscape:collect="always" />
    <clipPath
       id="clipPath3823-2"
       clipPathUnits="userSpaceOnUse">
      <rect
         y="-2.8691742"
         x="124.84656"
         height="4.4258509"
         width="26.346256"
         id="rect3825-9"
         style="opacity:0.3157895;fill:#ffffff;fill-opacity:1;stroke:none" />
    </clipPath>
    <clipPath
       id="clipPath3817-35"
       clipPathUnits="userSpaceOnUse">
      <rect
         ry="0"
         y="-34.623631"
         x="103.62109"
         height="38.543312"
         width="50.767868"
         id="rect3819-6"
         style="fill:#1a1a1a;fill-opacity:1;stroke:none" />
    </clipPath>
    <path
       d="m 69.626,12.145 -.052,0 c -22.727,-0.292 -46.472,4.077 -46.709,4.122 -2.424,0.451 -4.946,2.974 -5.397,5.397 -0.044,0.237 -4.414,23.983 -4.122,46.71 -0.292,22.777 4.078,46.523 4.122,46.761 0.451,2.423 2.974,4.945 5.398,5.398 0.237,0.044 23.982,4.413 46.709,4.121 22.779,0.292 46.524,-4.077 46.761,-4.121 2.423,-0.452 4.946,-2.976 5.398,-5.399 0.044,-0.236 4.413,-23.981 4.121,-46.709 0.292,-22.777 -4.077,-46.523 -4.121,-46.761 -0.453,-2.423 -2.976,-4.946 -5.398,-5.397 -0.238,-0.045 -23.984,-4.414 -46.71,-4.122 z "
       id="XMLID_10_-5" />
    <clipPath
       id="clipPath4458-6">
      <use
         id="use4460-7"
         xlink:href="#XMLID_10_-5"
         height="1"
         y="0"
         x="0"
         width="1" />
    </clipPath>
  </defs>
  <sodipodi:namedview
     pagecolor="#ffffff"
     bordercolor="#666666"
     borderopacity="1"
     objecttolerance="10"
     gridtolerance="10"
     guidetolerance="10"
     inkscape:pageopacity="0"
     inkscape:pageshadow="2"
     inkscape:window-width="1440"
     inkscape:window-height="833"
     id="namedview11"
     showgrid="false"
     inkscape:zoom="4.9166667"
     inkscape:cx="24"
     inkscape:cy="24"
     inkscape:window-x="0"
     inkscape:window-y="0"
     inkscape:window-maximized="1"
     inkscape:current-layer="svg2" />
  <g
     id="g3043">
    <polygon
       transform="matrix(1.2,0,0,1.3333333,-4.8107998,-11.986667)"
       style="fill:#31a4fc"
       id="polygon17"
       points="6.009,10.99 28.181,10.99 30.246,8.99 42.009,8.99 42.009,38.99 6.009,38.99 " />
    <polygon
       transform="matrix(1.2,0,0,1.3333333,-5.3416033,-11.200602)"
       style="opacity:0.56432746;fill:#364e59;filter:url(#filter3816)"
       id="polygon19-3"
       points="7.008,38.154 7.008,18.824 11.711,9.333 37.934,22.329 37.746,38.166 " />
    <polygon
       transform="matrix(1.2,0,0,1.3333333,-5.0984365,-10.56194)"
       style="fill:#ffffff"
       id="polygon19"
       points="37.746,38.166 7.008,38.154 7.008,18.824 11.711,9.333 37.934,22.329 " />
    <rect
       ry="2.5423732"
       style="fill:url(#linearGradient3044)"
       id="rect28"
       y="9.3333321"
       x="0"
       height="38.666668"
       width="48" />
  </g>
  <path
     inkscape:connector-curvature="0"
     d="m 19.0096,17.071 0,3.9628 0,9.3053 c -0.463641,-0.23894 -0.970553,-0.388962 -1.4973,-0.388932 -1.82705,10e-5 -3.48722,1.65201 -3.48722,3.46749 0,1.81538 1.66017,3.46739 3.48722,3.46749 1.82705,9.9e-5 3.49111,-1.65191 3.49111,-3.46749 v -12.3839 h 10.9659 v 9.30534 c -0.463638,-0.23894 -0.970552,-0.388962 -1.4973,-0.388932 -1.82705,10e-5 -3.48722,1.65201 -3.48722,3.46749 0,1.81538 1.66017,3.46739 3.48722,3.46749 1.82705,9.9e-5 3.49111,-1.65191 3.49111,-3.46749 v -12.3839 -3.96285 h -14.9536 z"
     id="folderGlyph"
     style="fill:#ffffff;fill-rule:evenodd;stroke:none" />
</svg>
