<?xml version="1.0" encoding="UTF-8" standalone="no"?>
<svg
   xmlns:dc="http://purl.org/dc/elements/1.1/"
   xmlns:cc="http://creativecommons.org/ns#"
   xmlns:rdf="http://www.w3.org/1999/02/22-rdf-syntax-ns#"
   xmlns:svg="http://www.w3.org/2000/svg"
   xmlns="http://www.w3.org/2000/svg"
   xmlns:xlink="http://www.w3.org/1999/xlink"
   xmlns:sodipodi="http://sodipodi.sourceforge.net/DTD/sodipodi-0.dtd"
   xmlns:inkscape="http://www.inkscape.org/namespaces/inkscape"
   width="48"
   version="1.1"
   height="48"
   id="svg2"
   inkscape:version="0.48.5 r10040"
   sodipodi:docname="mail-outbox.svg">
  <metadata
     id="metadata22">
    <rdf:RDF>
      <cc:Work
         rdf:about="">
        <dc:format>image/svg+xml</dc:format>
        <dc:type
           rdf:resource="http://purl.org/dc/dcmitype/StillImage" />
      </cc:Work>
    </rdf:RDF>
  </metadata>
  <defs
     id="defs20">
    <clipPath
       id="clipPath3823"
       clipPathUnits="userSpaceOnUse">
      <rect
         y="-2.8691742"
         x="124.84656"
         height="4.4258509"
         width="26.346256"
         id="rect3825"
         style="opacity:0.3157895;fill:#ffffff;fill-opacity:1;stroke:none" />
    </clipPath>
    <clipPath
       id="clipPath3817"
       clipPathUnits="userSpaceOnUse">
      <rect
         ry="0"
         y="-34.623631"
         x="103.62109"
         height="38.543312"
         width="50.767868"
         id="rect3819"
         style="fill:#1a1a1a;fill-opacity:1;stroke:none" />
    </clipPath>
    <path
       d="m 69.626,12.145 -.052,0 c -22.727,-0.292 -46.472,4.077 -46.709,4.122 -2.424,0.451 -4.946,2.974 -5.397,5.397 -0.044,0.237 -4.414,23.983 -4.122,46.71 -0.292,22.777 4.078,46.523 4.122,46.761 0.451,2.423 2.974,4.945 5.398,5.398 0.237,0.044 23.982,4.413 46.709,4.121 22.779,0.292 46.524,-4.077 46.761,-4.121 2.423,-0.452 4.946,-2.976 5.398,-5.399 0.044,-0.236 4.413,-23.981 4.121,-46.709 0.292,-22.777 -4.077,-46.523 -4.121,-46.761 -0.453,-2.423 -2.976,-4.946 -5.398,-5.397 -0.238,-0.045 -23.984,-4.414 -46.71,-4.122 z "
       id="XMLID_10_" />
    <clipPath
       id="clipPath4458">
      <use
         id="use4460"
         xlink:href="#XMLID_10_"
         height="1"
         y="0"
         x="0"
         width="1" />
    </clipPath>
    <linearGradient
       gradientUnits="userSpaceOnUse"
       id="SVGID_1_"
       y2="44.989601"
       x2="24.0089"
       y1="15.9896"
       x1="24.0089">
      <stop
         offset="0"
         style="stop-color:#8ec5ff;stop-opacity:1"
         id="stop22" />
      <stop
         offset="0.97000003"
         style="stop-color:#70bcff;stop-opacity:1"
         id="stop24" />
      <stop
         offset="1"
         style="stop-color:#0f70e6;stop-opacity:1"
         id="stop26" />
    </linearGradient>
    <linearGradient
       gradientTransform="matrix(1.2,0,0,1.3333333,-4.8107996,-11.986667)"
       y2="44.989601"
       x2="24.0089"
       y1="15.9896"
       x1="24.0089"
       gradientUnits="userSpaceOnUse"
       id="linearGradient3044"
       xlink:href="#SVGID_1_"
       inkscape:collect="always" />
    <filter
       id="filter3816"
       inkscape:collect="always"
       color-interpolation-filters="sRGB">
      <feGaussianBlur
         id="feGaussianBlur3818"
         stdDeviation="0.25895215"
         inkscape:collect="always" />
    </filter>
    <clipPath
       id="clipPath4458-6">
      <use
         width="1"
         x="0"
         y="0"
         height="1"
         xlink:href="#XMLID_10_-5"
         id="use4460-2" />
    </clipPath>
    <path
       id="XMLID_10_-5"
       d="m 69.626,12.145 -.052,0 c -22.727,-0.292 -46.472,4.077 -46.709,4.122 -2.424,0.451 -4.946,2.974 -5.397,5.397 -0.044,0.237 -4.414,23.983 -4.122,46.71 -0.292,22.777 4.078,46.523 4.122,46.761 0.451,2.423 2.974,4.945 5.398,5.398 0.237,0.044 23.982,4.413 46.709,4.121 22.779,0.292 46.524,-4.077 46.761,-4.121 2.423,-0.452 4.946,-2.976 5.398,-5.399 0.044,-0.236 4.413,-23.981 4.121,-46.709 0.292,-22.777 -4.077,-46.523 -4.121,-46.761 -0.453,-2.423 -2.976,-4.946 -5.398,-5.397 -0.238,-0.045 -23.984,-4.414 -46.71,-4.122 z " />
    <clipPath
       clipPathUnits="userSpaceOnUse"
       id="clipPath3817-5">
      <rect
         style="fill:#1a1a1a;fill-opacity:1;stroke:none"
         id="rect3819-3"
         width="50.767868"
         height="38.543312"
         x="103.62109"
         y="-34.623631"
         ry="0" />
    </clipPath>
    <clipPath
       clipPathUnits="userSpaceOnUse"
       id="clipPath3823-6">
      <rect
         style="opacity:0.3157895;fill:#ffffff;fill-opacity:1;stroke:none"
         id="rect3825-7"
         width="26.346256"
         height="4.4258509"
         x="124.84656"
         y="-2.8691742" />
    </clipPath>
    <filter
       id="filter4026"
       style="color-interpolation-filters:sRGB">
      <feGaussianBlur
         id="feGaussianBlur4028"
         stdDeviation="0.12426569" />
    </filter>
    <linearGradient
       inkscape:collect="always"
       xlink:href="#SVGID_1_"
       id="linearGradient3068"
       gradientUnits="userSpaceOnUse"
       gradientTransform="matrix(1.2,0,0,1.3333333,51.528183,-14.630734)"
       x1="24.0089"
       y1="15.9896"
       x2="24.0089"
       y2="44.989601" />
    <linearGradient
       inkscape:collect="always"
       xlink:href="#SVGID_1_"
       id="linearGradient3079"
       gradientUnits="userSpaceOnUse"
       gradientTransform="matrix(1.2,0,0,1.3333333,51.528183,-14.630734)"
       x1="24.0089"
       y1="15.9896"
       x2="24.0089"
       y2="44.989601" />
  </defs>
  <sodipodi:namedview
     pagecolor="#ffffff"
     bordercolor="#666666"
     borderopacity="1"
     objecttolerance="10"
     gridtolerance="10"
     guidetolerance="10"
     inkscape:pageopacity="0"
     inkscape:pageshadow="2"
     inkscape:window-width="1440"
     inkscape:window-height="833"
     id="namedview18"
     showgrid="false"
     inkscape:zoom="4.9166667"
     inkscape:cx="24"
     inkscape:cy="24"
     inkscape:window-x="0"
     inkscape:window-y="0"
     inkscape:window-maximized="1"
     inkscape:current-layer="svg2" />
  <g
     id="g3073"
     transform="translate(-56.338982,2.6440678)">
    <polygon
       transform="matrix(1.2,0,0,1.3333333,51.528183,-14.630734)"
       style="fill:#31a4fc"
       id="polygon17"
       points="30.246,8.99 42.009,8.99 42.009,38.99 6.009,38.99 6.009,10.99 28.181,10.99 " />
    <polygon
       transform="matrix(1.2,0,0,1.3333333,50.99738,-13.844669)"
       style="opacity:0.56432746;fill:#364e59;filter:url(#filter3816)"
       id="polygon19-3"
       points="37.934,22.329 37.746,38.166 7.008,38.154 7.008,18.824 11.711,9.333 " />
    <polygon
       transform="matrix(1.2,0,0,1.3333333,51.240547,-13.206007)"
       style="fill:#ffffff"
       id="polygon19"
       points="11.711,9.333 37.934,22.329 37.746,38.166 7.008,38.154 7.008,18.824 " />
    <rect
       ry="2.5423732"
       style="fill:url(#linearGradient3079)"
       id="rect28"
       y="6.6892648"
       x="56.338982"
       height="38.666668"
       width="48" />
  </g>
  <g
     transform="matrix(0.52745067,0,0,0.66563062,3.3627467,11.009307)"
     id="layer1"
     style="fill:#ffffff">
    <path
       inkscape:connector-curvature="0"
       transform="translate(5,9)"
       d="M 0,0 0,30 13.334,15.0012 z"
       id="path4127"
       style="fill-rule:evenodd" />
    <path
       inkscape:connector-curvature="0"
       transform="translate(5,9)"
       d="M 0,0 17.6439,17 19,18.3 20.3561,17 38,0 z"
       id="path4125"
       style="fill-rule:evenodd" />
    <path
       inkscape:connector-curvature="0"
       transform="translate(29.666,9)"
       d="M 13.334,0 0,15.0012 13.334,30 z"
       id="path4123"
       style="fill-rule:evenodd" />
    <path
       inkscape:connector-curvature="0"
       transform="translate(5.22266,26.3691)"
       d="M 15.2227,0 0,12.6309 l 37.5547,0 L 22.332,0 18.7773,3.36719 z"
       id="rect3260"
       style="fill-rule:evenodd" />
  </g>
  <g
     transform="matrix(1.2694179,0,0,-1.4174352,-7.797978,72.146292)"
     id="g4280"
     style="fill:#ff0505">
    <path
       inkscape:connector-curvature="0"
       d="m 31.3611,17.0352 0,12.802 7,0 0,-12.802 z"
       id="path4149"
       style="fill-rule:evenodd;stroke:none" />
    <path
       inkscape:connector-curvature="0"
       d="m 34.8611,36.5711 -7.5,-9 15,0 z"
       id="path3766"
       style="stroke:none" />
  </g>
</svg>
