<?xml version="1.0" encoding="UTF-8" standalone="no"?>
<svg
   xmlns:osb="http://www.openswatchbook.org/uri/2009/osb"
   xmlns:dc="http://purl.org/dc/elements/1.1/"
   xmlns:cc="http://creativecommons.org/ns#"
   xmlns:rdf="http://www.w3.org/1999/02/22-rdf-syntax-ns#"
   xmlns:svg="http://www.w3.org/2000/svg"
   xmlns="http://www.w3.org/2000/svg"
   xmlns:xlink="http://www.w3.org/1999/xlink"
   xmlns:sodipodi="http://sodipodi.sourceforge.net/DTD/sodipodi-0.dtd"
   xmlns:inkscape="http://www.inkscape.org/namespaces/inkscape"
   width="64"
   viewBox="0 0 64 64"
   height="64"
   id="svg2"
   version="1.1"
   inkscape:version="0.91 r13725"
   sodipodi:docname="application-image-tga.svg"
   inkscape:export-filename="E:\Usuarios\David\Desktop\android.png"
   inkscape:export-xdpi="90"
   inkscape:export-ydpi="90">
  <metadata
     id="metadata14">
    <rdf:RDF>
      <cc:Work
         rdf:about="">
        <dc:format>image/svg+xml</dc:format>
        <dc:type
           rdf:resource="http://purl.org/dc/dcmitype/StillImage" />
        <dc:title />
      </cc:Work>
    </rdf:RDF>
  </metadata>
  <defs
     id="defs12">
    <linearGradient
       osb:paint="gradient"
       id="linearGradient4207">
      <stop
         id="stop3371"
         offset="0"
         style="stop-color:#3498db;stop-opacity:1;" />
      <stop
         id="stop3373"
         offset="1"
         style="stop-color:#3498db;stop-opacity:0;" />
    </linearGradient>
    <linearGradient
       inkscape:collect="always"
       xlink:href="#linearGradient4531-0"
       id="linearGradient4182"
       x1="-74.929466"
       y1="52.199436"
       x2="-75.259552"
       y2="2.3564887"
       gradientUnits="userSpaceOnUse"
       gradientTransform="matrix(1.0749904,0,0,1.0292896,56.688954,-0.01528455)" />
    <linearGradient
       inkscape:collect="always"
       id="linearGradient5002">
      <stop
         style="stop-color:#2e5d89;stop-opacity:1"
         offset="0"
         id="stop5004" />
      <stop
         style="stop-color:#1b92f4;stop-opacity:1"
         offset="1"
         id="stop5006" />
    </linearGradient>
    <linearGradient
       y2="527.79797"
       x2="415.57144"
       y1="512.79797"
       x1="400.57144"
       gradientUnits="userSpaceOnUse"
       id="linearGradient4352"
       xlink:href="#linearGradient5002"
       inkscape:collect="always"
       gradientTransform="matrix(1.1818182,0,0,1.1818182,-74.285714,-95.732083)" />
    <linearGradient
       y2="527.79797"
       x2="415.57144"
       y1="512.79797"
       x1="400.57144"
       gradientUnits="userSpaceOnUse"
       id="linearGradient4352-6"
       xlink:href="#linearGradient5002"
       inkscape:collect="always"
       gradientTransform="translate(78.999997,3.6562389)" />
    <linearGradient
       gradientTransform="matrix(1.1818182,0,0,1.1818182,6.714285,-89.23598)"
       inkscape:collect="always"
       xlink:href="#linearGradient5002"
       id="linearGradient4352-5"
       gradientUnits="userSpaceOnUse"
       x1="400.57144"
       y1="512.79797"
       x2="415.57144"
       y2="527.79797" />
    <linearGradient
       gradientTransform="matrix(1.1818182,0,0,1.1818182,3.714275,-96.23596)"
       inkscape:collect="always"
       xlink:href="#linearGradient5002"
       id="linearGradient4352-9"
       gradientUnits="userSpaceOnUse"
       x1="400.57144"
       y1="512.79797"
       x2="415.57144"
       y2="527.79797" />
    <linearGradient
       gradientTransform="matrix(1.1818182,0,0,1.1818182,-74.285714,-95.732083)"
       inkscape:collect="always"
       xlink:href="#linearGradient5002"
       id="linearGradient4352-68-2"
       gradientUnits="userSpaceOnUse"
       x1="400.57144"
       y1="512.79797"
       x2="415.57144"
       y2="527.79797" />
    <linearGradient
       gradientTransform="translate(78.999997,3.6562389)"
       inkscape:collect="always"
       xlink:href="#linearGradient5002"
       id="linearGradient4352-6-8-3"
       gradientUnits="userSpaceOnUse"
       x1="400.57144"
       y1="512.79797"
       x2="415.57144"
       y2="527.79797" />
    <linearGradient
       y2="527.79797"
       x2="415.57144"
       y1="512.79797"
       x1="400.57144"
       gradientUnits="userSpaceOnUse"
       id="linearGradient4352-5-5-2"
       xlink:href="#linearGradient5002"
       inkscape:collect="always"
       gradientTransform="matrix(1.1818182,0,0,1.1818182,6.714285,-89.23598)" />
    <linearGradient
       y2="527.79797"
       x2="415.57144"
       y1="512.79797"
       x1="400.57144"
       gradientUnits="userSpaceOnUse"
       id="linearGradient4352-9-4-5"
       xlink:href="#linearGradient5002"
       inkscape:collect="always"
       gradientTransform="matrix(1.1818182,0,0,1.1818182,3.714275,-96.23596)" />
    <linearGradient
       inkscape:collect="always"
       xlink:href="#linearGradient5002"
       id="linearGradient4773"
       gradientUnits="userSpaceOnUse"
       gradientTransform="matrix(1.1818182,0,0,1.1818182,-74.285714,-95.732083)"
       x1="400.57144"
       y1="512.79797"
       x2="415.57144"
       y2="527.79797" />
    <linearGradient
       inkscape:collect="always"
       xlink:href="#linearGradient5002"
       id="linearGradient4775"
       gradientUnits="userSpaceOnUse"
       gradientTransform="translate(78.999997,3.6562389)"
       x1="400.57144"
       y1="512.79797"
       x2="415.57144"
       y2="527.79797" />
    <linearGradient
       inkscape:collect="always"
       xlink:href="#linearGradient5002"
       id="linearGradient4777"
       gradientUnits="userSpaceOnUse"
       gradientTransform="matrix(1.1818182,0,0,1.1818182,6.714285,-89.23598)"
       x1="400.57144"
       y1="512.79797"
       x2="415.57144"
       y2="527.79797" />
    <linearGradient
       inkscape:collect="always"
       xlink:href="#linearGradient5002"
       id="linearGradient4779"
       gradientUnits="userSpaceOnUse"
       gradientTransform="matrix(1.1818182,0,0,1.1818182,3.714275,-96.23596)"
       x1="400.57144"
       y1="512.79797"
       x2="415.57144"
       y2="527.79797" />
    <linearGradient
       id="linearGradient4422-9">
      <stop
         id="stop4424-7"
         offset="0"
         style="stop-color:#ffa400;stop-opacity:1" />
      <stop
         id="stop4426-7"
         offset="1"
         style="stop-color:#ffdd00;stop-opacity:1" />
    </linearGradient>
    <linearGradient
       id="linearGradient4422-1">
      <stop
         id="stop4424-78"
         offset="0"
         style="stop-color:#8798a9;stop-opacity:1" />
      <stop
         id="stop4426-8"
         offset="1"
         style="stop-color:#aeb6be;stop-opacity:1" />
    </linearGradient>
    <linearGradient
       inkscape:collect="always"
       id="linearGradient4531-0">
      <stop
         style="stop-color:#ff5e38;stop-opacity:1"
         offset="0"
         id="stop4533-2" />
      <stop
         style="stop-color:#ff8f36;stop-opacity:1"
         offset="1"
         id="stop4535-0" />
    </linearGradient>
    <linearGradient
       y2="527.79797"
       x2="415.57144"
       y1="512.79797"
       x1="400.57144"
       gradientUnits="userSpaceOnUse"
       id="linearGradient5024"
       xlink:href="#linearGradient5002"
       inkscape:collect="always"
       gradientTransform="matrix(1.1818182,0,0,1.1818182,-74.285714,-95.732083)" />
    <linearGradient
       y2="527.79797"
       x2="415.57144"
       y1="512.79797"
       x1="400.57144"
       gradientUnits="userSpaceOnUse"
       id="linearGradient5026"
       xlink:href="#linearGradient5002"
       inkscape:collect="always"
       gradientTransform="translate(78.999997,3.6562389)" />
    <linearGradient
       gradientTransform="matrix(1.1818182,0,0,1.1818182,6.714285,-89.23598)"
       inkscape:collect="always"
       xlink:href="#linearGradient5002"
       id="linearGradient5028"
       gradientUnits="userSpaceOnUse"
       x1="400.57144"
       y1="512.79797"
       x2="415.57144"
       y2="527.79797" />
    <linearGradient
       gradientTransform="matrix(1.1818182,0,0,1.1818182,3.714275,-96.23596)"
       inkscape:collect="always"
       xlink:href="#linearGradient5002"
       id="linearGradient5030"
       gradientUnits="userSpaceOnUse"
       x1="400.57144"
       y1="512.79797"
       x2="415.57144"
       y2="527.79797" />
  </defs>
  <sodipodi:namedview
     pagecolor="#747474"
     bordercolor="#666666"
     borderopacity="1"
     objecttolerance="10"
     gridtolerance="10"
     guidetolerance="10"
     inkscape:pageopacity="1"
     inkscape:pageshadow="2"
     inkscape:window-width="1366"
     inkscape:window-height="712"
     id="namedview10"
     showgrid="false"
     inkscape:zoom="6.8766146"
     inkscape:cx="24.341002"
     inkscape:cy="39.26021"
     inkscape:window-x="0"
     inkscape:window-y="0"
     inkscape:window-maximized="1"
     inkscape:current-layer="g4186"
     inkscape:snap-bbox="true"
     inkscape:bbox-nodes="true"
     inkscape:object-nodes="true"
     borderlayer="false"
     showguides="true"
     inkscape:snap-nodes="true"
     inkscape:object-paths="false"
     inkscape:showpageshadow="false"
     showborder="true">
    <inkscape:grid
       type="xygrid"
       id="grid4160"
       visible="true" />
    <sodipodi:guide
       position="28.888657,63.404975"
       orientation="0,35.2"
       id="guide6108" />
    <sodipodi:guide
       position="54,55.679691"
       orientation="51.200004,0"
       id="guide6112" />
    <sodipodi:guide
       position="58.527669,62"
       orientation="0,1"
       id="guide6114"
       inkscape:label=""
       inkscape:color="rgb(0,0,255)" />
    <sodipodi:guide
       position="10,4"
       orientation="-56,0"
       id="guide6116" />
    <sodipodi:guide
       position="11,4"
       orientation="-2.8421709e-014,0"
       id="guide6118" />
    <sodipodi:guide
       position="12,62"
       orientation="0,35.2"
       id="guide6120" />
    <sodipodi:guide
       position="52,2"
       orientation="0,-40"
       id="guide6126" />
    <sodipodi:guide
       position="12,62"
       orientation="0,35.2"
       id="guide6138" />
    <sodipodi:guide
       position="55,3"
       orientation="0,-40"
       id="guide6156" />
    <sodipodi:guide
       position="53,4.3973202"
       orientation="-56,0"
       id="guide6158" />
    <sodipodi:guide
       position="59.845748,52.030839"
       orientation="0,22"
       id="guide4238" />
    <sodipodi:guide
       position="43,48"
       orientation="22,0"
       id="guide4240" />
    <sodipodi:guide
       position="57.172227,28.380458"
       orientation="0,-22"
       id="guide4242" />
    <sodipodi:guide
       position="21,26"
       orientation="-22,0"
       id="guide4244" />
  </sodipodi:namedview>
  <g
     id="g4186"
     transform="translate(56.391766,-0.17677665)">
    <rect
       ry="2.5"
       y="54.477486"
       x="-46.391766"
       height="7.6992903"
       width="44"
       id="rect4162"
       style="opacity:1;fill:#6f2c18;fill-opacity:1;stroke:none;stroke-width:0.185;stroke-linecap:round;stroke-linejoin:round;stroke-miterlimit:4;stroke-dasharray:none;stroke-dashoffset:0;stroke-opacity:1" />
    <rect
       ry="2.5"
       y="1.6457753"
       x="-46.391766"
       height="52.831711"
       width="44"
       id="rect4174"
       style="opacity:1;fill:url(#linearGradient4182);fill-opacity:1.0;stroke:none;stroke-width:0.30000001;stroke-linecap:round;stroke-linejoin:round;stroke-miterlimit:4;stroke-dasharray:none;stroke-dashoffset:0;stroke-opacity:1" />
    <rect
       ry="0"
       y="44.176304"
       x="-46.391766"
       height="15"
       width="44"
       id="rect4184"
       style="fill:#6f2c18;fill-opacity:1;stroke:none" />
    <text
       xml:space="preserve"
       style="font-style:normal;font-weight:normal;font-size:13px;line-height:125%;font-family:Sans;letter-spacing:0px;word-spacing:0px;fill:#ffffff;fill-opacity:1;stroke:none"
       x="-34.636883"
       y="55.726322"
       id="text3120"
       sodipodi:linespacing="125%"><tspan
         sodipodi:role="line"
         id="tspan3122"
         x="-34.636883"
         y="55.726322">tga</tspan></text>
    <g
       id="g4257"
       transform="translate(-7.4202358e-7,-1.5926421)">
      <g
         style="fill:#ffffff"
         transform="matrix(0.4966193,0.08476916,-0.08476916,0.4966193,-307.96171,-264.01904)"
         id="g4727-1-3">
        <g
           style="fill:#ffffff"
           id="layer1-7-9-6"
           inkscape:label="Capa 1"
           transform="translate(202.30596,-70.898882)">
          <g
             style="fill:#ffffff;stroke:none"
             inkscape:label="Capa 1"
             id="layer1-8-0-7"
             transform="translate(-112.5209,-0.17284439)">
            <path
               id="circle4309-6-1-5"
               style="fill:#ffffff;fill-opacity:1;stroke:none"
               r="9.9999886"
               cy="519.79797"
               cx="408.57144"
               d=""
               inkscape:connector-curvature="0" />
            <path
               id="circle4309-6-0-2-3"
               style="fill:#ffffff;fill-opacity:1;stroke:none"
               r="9.9999886"
               cy="519.79797"
               cx="408.57144"
               d=""
               inkscape:connector-curvature="0" />
            <path
               id="circle4309-6-7-8-5"
               style="fill:#ffffff;fill-opacity:1;stroke:none"
               r="9.9999886"
               cy="519.79797"
               cx="408.57144"
               d=""
               inkscape:connector-curvature="0" />
            <path
               id="circle4309-6-4-3-6"
               style="fill:#ffffff;fill-opacity:1;stroke:none"
               r="9.9999886"
               cy="519.79797"
               cx="408.57144"
               d=""
               inkscape:connector-curvature="0" />
            <g
               style="fill:#ffffff"
               transform="matrix(0.87053099,0,0,0.87053099,103.47199,117.2361)"
               id="g4823-9-2">
              <g
                 style="fill:#ffffff"
                 id="g4528-2-9"
                 transform="matrix(0.58271538,-0.10323419,0.10323419,0.58271538,163.82668,269.75821)">
                <rect
                   ry="2.3"
                   y="426.46411"
                   x="504.25668"
                   height="58.986568"
                   width="76.809471"
                   id="rect4473-3-1"
                   style="fill:#ffffff;fill-opacity:1;stroke:none" />
              </g>
            </g>
          </g>
        </g>
      </g>
      <rect
         transform="matrix(0.98432173,-0.17638235,0.17638235,0.98432173,0,0)"
         style="fill:#ffffff;fill-opacity:1;stroke:#6f2c18;stroke-width:0.49395168;stroke-linecap:round;stroke-linejoin:round;stroke-miterlimit:4;stroke-dasharray:none;stroke-opacity:1"
         id="rect4473-6-2"
         width="19.93545"
         height="15.30962"
         x="-39.175896"
         y="13.982004"
         ry="0.59695154" />
      <path
         style="fill:#6f2c18;fill-opacity:1;fill-rule:evenodd;stroke:none"
         d="m -33.678327,34.200749 3.504334,-1.855981 1.31534,0.58037 2.560907,-1.436784 2.846855,0.411641 2.010456,0.06478 1.396845,-0.783729 1.751022,-0.794066 3.155182,0.585153 0.250006,1.461555 -17.707919,3.323017 c 0,0 -0.767067,0.289966 -0.88319,-0.388445 z"
         id="path4486-0-7"
         inkscape:connector-curvature="0"
         sodipodi:nodetypes="ccccccccccccc" />
      <circle
         transform="matrix(0.98432173,-0.17638235,0.17638235,0.98432173,0,0)"
         style="fill:#6f2c18;fill-opacity:1;stroke:none;stroke-width:0.25954416;stroke-opacity:1"
         id="path4488-2-0"
         cx="-34.76717"
         cy="18.345377"
         r="1.9711045" />
      <circle
         transform="matrix(0.98540968,-0.17019916,0.17019916,0.98540968,0,0)"
         style="fill:#ffffff;fill-opacity:1;stroke:#144e36;stroke-width:0.57189059;stroke-linecap:round;stroke-linejoin:round;stroke-miterlimit:4;stroke-dasharray:none;stroke-opacity:1"
         id="path4740-3"
         cx="-23.390583"
         cy="27.933832"
         r="5.4713006" />
      <path
         style="fill:#6f2c18;fill-opacity:1;fill-rule:evenodd;stroke:none"
         d="m -21.08435,36.049384 2.096646,-7.090976 c 1.864919,1.384587 5.865373,2.065303 5.865373,2.065303 l 0.502006,0.561371 c -1.099716,5.917463 -4.627611,5.750136 -8.464025,4.464302 z"
         id="path4756-4-9"
         inkscape:connector-curvature="0"
         sodipodi:nodetypes="ccccc" />
      <path
         style="fill:#ffffff;fill-opacity:1;fill-rule:evenodd;stroke:none"
         d="m -20.434789,36.507101 0.825443,-1.468172 1.146944,0.320886 0.687806,-1.525864 3.785081,0.728706 c -0.90988,2.200677 -2.903618,3.106156 -6.445274,1.944444 z"
         id="path4793-2"
         inkscape:connector-curvature="0"
         sodipodi:nodetypes="cccccc" />
      <circle
         transform="matrix(0.98540968,-0.17019916,0.17019916,0.98540968,0,0)"
         style="fill:none;stroke:#6f2c18;stroke-width:0.57189059;stroke-linecap:round;stroke-linejoin:round;stroke-miterlimit:4;stroke-dasharray:none;stroke-opacity:1"
         id="path4740-5-4-3"
         cx="-23.41259"
         cy="27.870609"
         r="5.4713006" />
    </g>
  </g>
</svg>
