<?xml version="1.0" encoding="UTF-8" standalone="no"?>
<svg
   xmlns:osb="http://www.openswatchbook.org/uri/2009/osb"
   xmlns:dc="http://purl.org/dc/elements/1.1/"
   xmlns:cc="http://creativecommons.org/ns#"
   xmlns:rdf="http://www.w3.org/1999/02/22-rdf-syntax-ns#"
   xmlns:svg="http://www.w3.org/2000/svg"
   xmlns="http://www.w3.org/2000/svg"
   xmlns:xlink="http://www.w3.org/1999/xlink"
   xmlns:sodipodi="http://sodipodi.sourceforge.net/DTD/sodipodi-0.dtd"
   xmlns:inkscape="http://www.inkscape.org/namespaces/inkscape"
   width="64"
   viewBox="0 0 64 64"
   height="64"
   id="svg2"
   version="1.1"
   inkscape:version="0.91 r13725"
   sodipodi:docname="application-image-gif.svg"
   inkscape:export-filename="E:\Usuarios\David\Desktop\android.png"
   inkscape:export-xdpi="90"
   inkscape:export-ydpi="90">
  <metadata
     id="metadata14">
    <rdf:RDF>
      <cc:Work
         rdf:about="">
        <dc:format>image/svg+xml</dc:format>
        <dc:type
           rdf:resource="http://purl.org/dc/dcmitype/StillImage" />
        <dc:title />
      </cc:Work>
    </rdf:RDF>
  </metadata>
  <defs
     id="defs12">
    <linearGradient
       osb:paint="gradient"
       id="linearGradient4207">
      <stop
         id="stop3371"
         offset="0"
         style="stop-color:#3498db;stop-opacity:1;" />
      <stop
         id="stop3373"
         offset="1"
         style="stop-color:#3498db;stop-opacity:0;" />
    </linearGradient>
    <linearGradient
       inkscape:collect="always"
       xlink:href="#linearGradient4531"
       id="linearGradient4182"
       x1="-74.929466"
       y1="52.199436"
       x2="-75.259552"
       y2="2.3564887"
       gradientUnits="userSpaceOnUse"
       gradientTransform="matrix(1.0749904,0,0,1.0292896,56.688954,-0.01528455)" />
    <linearGradient
       inkscape:collect="always"
       id="linearGradient5002">
      <stop
         style="stop-color:#2e5d89;stop-opacity:1"
         offset="0"
         id="stop5004" />
      <stop
         style="stop-color:#1b92f4;stop-opacity:1"
         offset="1"
         id="stop5006" />
    </linearGradient>
    <linearGradient
       y2="527.79797"
       x2="415.57144"
       y1="512.79797"
       x1="400.57144"
       gradientUnits="userSpaceOnUse"
       id="linearGradient4352"
       xlink:href="#linearGradient5002"
       inkscape:collect="always"
       gradientTransform="matrix(1.1818182,0,0,1.1818182,-74.285714,-95.732083)" />
    <linearGradient
       y2="527.79797"
       x2="415.57144"
       y1="512.79797"
       x1="400.57144"
       gradientUnits="userSpaceOnUse"
       id="linearGradient4352-6"
       xlink:href="#linearGradient5002"
       inkscape:collect="always"
       gradientTransform="translate(78.999997,3.6562389)" />
    <linearGradient
       gradientTransform="matrix(1.1818182,0,0,1.1818182,6.714285,-89.23598)"
       inkscape:collect="always"
       xlink:href="#linearGradient5002"
       id="linearGradient4352-5"
       gradientUnits="userSpaceOnUse"
       x1="400.57144"
       y1="512.79797"
       x2="415.57144"
       y2="527.79797" />
    <linearGradient
       gradientTransform="matrix(1.1818182,0,0,1.1818182,3.714275,-96.23596)"
       inkscape:collect="always"
       xlink:href="#linearGradient5002"
       id="linearGradient4352-9"
       gradientUnits="userSpaceOnUse"
       x1="400.57144"
       y1="512.79797"
       x2="415.57144"
       y2="527.79797" />
    <linearGradient
       gradientTransform="matrix(1.1818182,0,0,1.1818182,-74.285714,-95.732083)"
       inkscape:collect="always"
       xlink:href="#linearGradient5002"
       id="linearGradient4352-68-2"
       gradientUnits="userSpaceOnUse"
       x1="400.57144"
       y1="512.79797"
       x2="415.57144"
       y2="527.79797" />
    <linearGradient
       gradientTransform="translate(78.999997,3.6562389)"
       inkscape:collect="always"
       xlink:href="#linearGradient5002"
       id="linearGradient4352-6-8-3"
       gradientUnits="userSpaceOnUse"
       x1="400.57144"
       y1="512.79797"
       x2="415.57144"
       y2="527.79797" />
    <linearGradient
       y2="527.79797"
       x2="415.57144"
       y1="512.79797"
       x1="400.57144"
       gradientUnits="userSpaceOnUse"
       id="linearGradient4352-5-5-2"
       xlink:href="#linearGradient5002"
       inkscape:collect="always"
       gradientTransform="matrix(1.1818182,0,0,1.1818182,6.714285,-89.23598)" />
    <linearGradient
       y2="527.79797"
       x2="415.57144"
       y1="512.79797"
       x1="400.57144"
       gradientUnits="userSpaceOnUse"
       id="linearGradient4352-9-4-5"
       xlink:href="#linearGradient5002"
       inkscape:collect="always"
       gradientTransform="matrix(1.1818182,0,0,1.1818182,3.714275,-96.23596)" />
    <linearGradient
       inkscape:collect="always"
       xlink:href="#linearGradient5002"
       id="linearGradient4773"
       gradientUnits="userSpaceOnUse"
       gradientTransform="matrix(1.1818182,0,0,1.1818182,-74.285714,-95.732083)"
       x1="400.57144"
       y1="512.79797"
       x2="415.57144"
       y2="527.79797" />
    <linearGradient
       inkscape:collect="always"
       xlink:href="#linearGradient5002"
       id="linearGradient4775"
       gradientUnits="userSpaceOnUse"
       gradientTransform="translate(78.999997,3.6562389)"
       x1="400.57144"
       y1="512.79797"
       x2="415.57144"
       y2="527.79797" />
    <linearGradient
       inkscape:collect="always"
       xlink:href="#linearGradient5002"
       id="linearGradient4777"
       gradientUnits="userSpaceOnUse"
       gradientTransform="matrix(1.1818182,0,0,1.1818182,6.714285,-89.23598)"
       x1="400.57144"
       y1="512.79797"
       x2="415.57144"
       y2="527.79797" />
    <linearGradient
       inkscape:collect="always"
       xlink:href="#linearGradient5002"
       id="linearGradient4779"
       gradientUnits="userSpaceOnUse"
       gradientTransform="matrix(1.1818182,0,0,1.1818182,3.714275,-96.23596)"
       x1="400.57144"
       y1="512.79797"
       x2="415.57144"
       y2="527.79797" />
    <linearGradient
       id="linearGradient4422-9">
      <stop
         id="stop4424-7"
         offset="0"
         style="stop-color:#ffa400;stop-opacity:1" />
      <stop
         id="stop4426-7"
         offset="1"
         style="stop-color:#ffdd00;stop-opacity:1" />
    </linearGradient>
    <linearGradient
       id="linearGradient4422-1">
      <stop
         id="stop4424-78"
         offset="0"
         style="stop-color:#8798a9;stop-opacity:1" />
      <stop
         id="stop4426-8"
         offset="1"
         style="stop-color:#aeb6be;stop-opacity:1" />
    </linearGradient>
    <linearGradient
       y2="527.79797"
       x2="415.57144"
       y1="512.79797"
       x1="400.57144"
       gradientUnits="userSpaceOnUse"
       id="linearGradient5024"
       xlink:href="#linearGradient5002"
       inkscape:collect="always"
       gradientTransform="matrix(1.1818182,0,0,1.1818182,-74.285714,-95.732083)" />
    <linearGradient
       y2="527.79797"
       x2="415.57144"
       y1="512.79797"
       x1="400.57144"
       gradientUnits="userSpaceOnUse"
       id="linearGradient5026"
       xlink:href="#linearGradient5002"
       inkscape:collect="always"
       gradientTransform="translate(78.999997,3.6562389)" />
    <linearGradient
       gradientTransform="matrix(1.1818182,0,0,1.1818182,6.714285,-89.23598)"
       inkscape:collect="always"
       xlink:href="#linearGradient5002"
       id="linearGradient5028"
       gradientUnits="userSpaceOnUse"
       x1="400.57144"
       y1="512.79797"
       x2="415.57144"
       y2="527.79797" />
    <linearGradient
       gradientTransform="matrix(1.1818182,0,0,1.1818182,3.714275,-96.23596)"
       inkscape:collect="always"
       xlink:href="#linearGradient5002"
       id="linearGradient5030"
       gradientUnits="userSpaceOnUse"
       x1="400.57144"
       y1="512.79797"
       x2="415.57144"
       y2="527.79797" />
    <linearGradient
       id="linearGradient4351">
      <stop
         style="stop-color:#ffd6af;stop-opacity:1"
         offset="0"
         id="stop4353" />
      <stop
         style="stop-color:#fffcf9;stop-opacity:1"
         offset="1"
         id="stop4355" />
    </linearGradient>
    <linearGradient
       id="linearGradient4300">
      <stop
         style="stop-color:#f62459;stop-opacity:1"
         offset="0"
         id="stop4302" />
      <stop
         style="stop-color:#f73768;stop-opacity:1"
         offset="1"
         id="stop4304" />
    </linearGradient>
    <linearGradient
       id="linearGradient4422">
      <stop
         id="stop4424"
         offset="0"
         style="stop-color:#1a85f2;stop-opacity:1" />
      <stop
         id="stop4426"
         offset="1"
         style="stop-color:#1fb0f9;stop-opacity:1" />
    </linearGradient>
    <linearGradient
       id="linearGradient4256">
      <stop
         style="stop-color:#8cbdf8;stop-opacity:1;"
         offset="0"
         id="stop4258" />
      <stop
         style="stop-color:#d5e8ff;stop-opacity:1;"
         offset="1"
         id="stop4260" />
    </linearGradient>
    <linearGradient
       id="linearGradient4300-2">
      <stop
         style="stop-color:#3a539b;stop-opacity:1"
         offset="0"
         id="stop4302-4" />
      <stop
         style="stop-color:#3f5aa9;stop-opacity:1"
         offset="1"
         id="stop4304-1" />
    </linearGradient>
    <linearGradient
       id="linearGradient4422-4">
      <stop
         style="stop-color:#d1d7df;stop-opacity:1"
         offset="0"
         id="stop4424-3" />
      <stop
         style="stop-color:#e0e5e7;stop-opacity:1"
         offset="1"
         id="stop4426-4" />
    </linearGradient>
    <linearGradient
       id="linearGradient4422-41">
      <stop
         id="stop4424-2"
         offset="0"
         style="stop-color:#13b89f;stop-opacity:1" />
      <stop
         id="stop4426-43"
         offset="1"
         style="stop-color:#3aedca;stop-opacity:1" />
    </linearGradient>
    <linearGradient
       id="linearGradient4351-9">
      <stop
         style="stop-color:#fddda3;stop-opacity:1"
         offset="0"
         id="stop4353-1" />
      <stop
         style="stop-color:#fde3a7;stop-opacity:1"
         offset="1"
         id="stop4355-7" />
    </linearGradient>
    <linearGradient
       id="linearGradient4300-0">
      <stop
         style="stop-color:#f39c12;stop-opacity:1;"
         offset="0"
         id="stop4302-9" />
      <stop
         style="stop-color:#f89406;stop-opacity:1"
         offset="1"
         id="stop4304-7" />
    </linearGradient>
    <clipPath
       clipPathUnits="userSpaceOnUse"
       id="clipPath4157">
      <path
         d="m 27.642964,3.2951379 13.085584,13.0855841 -11.072418,0 c -0.977824,0 -2.013166,-1.035372 -2.013166,-2.013167 l 0,-11.0724171 z"
         id="path4159"
         inkscape:connector-curvature="0"
         style="fill:#f9f8f2;fill-opacity:1;stroke-width:1.00658333" />
    </clipPath>
    <linearGradient
       id="linearGradient4422-3">
      <stop
         style="stop-color:#ff721a;stop-opacity:1"
         offset="0"
         id="stop4424-7-3" />
      <stop
         style="stop-color:#fbb521;stop-opacity:1"
         offset="1"
         id="stop4426-91" />
    </linearGradient>
    <linearGradient
       id="linearGradient8467">
      <stop
         id="stop8469"
         style="stop-color:#d3d3d3;stop-opacity:1"
         offset="0" />
      <stop
         id="stop8471"
         style="stop-color:#fcf9f9;stop-opacity:1"
         offset="1" />
    </linearGradient>
    <linearGradient
       id="linearGradient4300-3">
      <stop
         style="stop-color:#f39c12;stop-opacity:1;"
         offset="0"
         id="stop4302-0" />
      <stop
         style="stop-color:#f9a11f;stop-opacity:1"
         offset="1"
         id="stop4304-0" />
    </linearGradient>
    <linearGradient
       id="linearGradient4422-04">
      <stop
         style="stop-color:#db733d;stop-opacity:1"
         offset="0"
         id="stop4424-0" />
      <stop
         style="stop-color:#ff8f65;stop-opacity:1"
         offset="1"
         id="stop4426-9" />
    </linearGradient>
    <linearGradient
       id="linearGradient4422-4-7">
      <stop
         style="stop-color:#14b59e;stop-opacity:1"
         offset="0"
         id="stop4424-5" />
      <stop
         style="stop-color:#33d6b6;stop-opacity:1"
         offset="1"
         id="stop4426-7-9" />
    </linearGradient>
    <linearGradient
       id="linearGradient4351-3">
      <stop
         style="stop-color:#c8e3fe;stop-opacity:1"
         offset="0"
         id="stop4353-5" />
      <stop
         style="stop-color:#ffffff;stop-opacity:1"
         offset="1"
         id="stop4355-4" />
    </linearGradient>
    <linearGradient
       id="linearGradient4300-2-8">
      <stop
         id="stop4302-4-2"
         offset="0"
         style="stop-color:#7fcc74;stop-opacity:1" />
      <stop
         id="stop4304-1-2"
         offset="1"
         style="stop-color:#87d37c;stop-opacity:1" />
    </linearGradient>
    <linearGradient
       y2="527.79797"
       x2="415.57144"
       y1="512.79797"
       x1="400.57144"
       gradientUnits="userSpaceOnUse"
       id="linearGradient5356"
       xlink:href="#linearGradient5002"
       inkscape:collect="always"
       gradientTransform="matrix(1.1818182,0,0,1.1818182,-74.285714,-95.732083)" />
    <linearGradient
       y2="527.79797"
       x2="415.57144"
       y1="512.79797"
       x1="400.57144"
       gradientUnits="userSpaceOnUse"
       id="linearGradient5358"
       xlink:href="#linearGradient5002"
       inkscape:collect="always"
       gradientTransform="translate(78.999997,3.6562389)" />
    <linearGradient
       gradientTransform="matrix(1.1818182,0,0,1.1818182,6.714285,-89.23598)"
       inkscape:collect="always"
       xlink:href="#linearGradient5002"
       id="linearGradient5360"
       gradientUnits="userSpaceOnUse"
       x1="400.57144"
       y1="512.79797"
       x2="415.57144"
       y2="527.79797" />
    <linearGradient
       gradientTransform="matrix(1.1818182,0,0,1.1818182,3.714275,-96.23596)"
       inkscape:collect="always"
       xlink:href="#linearGradient5002"
       id="linearGradient5362"
       gradientUnits="userSpaceOnUse"
       x1="400.57144"
       y1="512.79797"
       x2="415.57144"
       y2="527.79797" />
    <linearGradient
       inkscape:collect="always"
       id="linearGradient4531">
      <stop
         style="stop-color:#37baab;stop-opacity:1"
         offset="0"
         id="stop4533" />
      <stop
         style="stop-color:#50d5cb;stop-opacity:1"
         offset="1"
         id="stop4535" />
    </linearGradient>
    <linearGradient
       y2="527.79797"
       x2="415.57144"
       y1="512.79797"
       x1="400.57144"
       gradientUnits="userSpaceOnUse"
       id="linearGradient5602"
       xlink:href="#linearGradient5002"
       inkscape:collect="always"
       gradientTransform="matrix(1.1818182,0,0,1.1818182,-74.285714,-95.732083)" />
    <linearGradient
       y2="527.79797"
       x2="415.57144"
       y1="512.79797"
       x1="400.57144"
       gradientUnits="userSpaceOnUse"
       id="linearGradient5604"
       xlink:href="#linearGradient5002"
       inkscape:collect="always"
       gradientTransform="translate(78.999997,3.6562389)" />
    <linearGradient
       gradientTransform="matrix(1.1818182,0,0,1.1818182,6.714285,-89.23598)"
       inkscape:collect="always"
       xlink:href="#linearGradient5002"
       id="linearGradient5606"
       gradientUnits="userSpaceOnUse"
       x1="400.57144"
       y1="512.79797"
       x2="415.57144"
       y2="527.79797" />
    <linearGradient
       gradientTransform="matrix(1.1818182,0,0,1.1818182,3.714275,-96.23596)"
       inkscape:collect="always"
       xlink:href="#linearGradient5002"
       id="linearGradient5608"
       gradientUnits="userSpaceOnUse"
       x1="400.57144"
       y1="512.79797"
       x2="415.57144"
       y2="527.79797" />
    <linearGradient
       inkscape:collect="always"
       xlink:href="#linearGradient5002"
       id="linearGradient3190"
       gradientUnits="userSpaceOnUse"
       gradientTransform="matrix(1.1818182,0,0,1.1818182,-74.285714,-95.732083)"
       x1="400.57144"
       y1="512.79797"
       x2="415.57144"
       y2="527.79797" />
    <linearGradient
       inkscape:collect="always"
       xlink:href="#linearGradient5002"
       id="linearGradient3192"
       gradientUnits="userSpaceOnUse"
       gradientTransform="translate(78.999997,3.6562389)"
       x1="400.57144"
       y1="512.79797"
       x2="415.57144"
       y2="527.79797" />
    <linearGradient
       inkscape:collect="always"
       xlink:href="#linearGradient5002"
       id="linearGradient3194"
       gradientUnits="userSpaceOnUse"
       gradientTransform="matrix(1.1818182,0,0,1.1818182,6.714285,-89.23598)"
       x1="400.57144"
       y1="512.79797"
       x2="415.57144"
       y2="527.79797" />
    <linearGradient
       inkscape:collect="always"
       xlink:href="#linearGradient5002"
       id="linearGradient3196"
       gradientUnits="userSpaceOnUse"
       gradientTransform="matrix(1.1818182,0,0,1.1818182,3.714275,-96.23596)"
       x1="400.57144"
       y1="512.79797"
       x2="415.57144"
       y2="527.79797" />
    <linearGradient
       inkscape:collect="always"
       xlink:href="#linearGradient5002"
       id="linearGradient3198"
       gradientUnits="userSpaceOnUse"
       gradientTransform="matrix(1.1818182,0,0,1.1818182,-74.285714,-95.732083)"
       x1="400.57144"
       y1="512.79797"
       x2="415.57144"
       y2="527.79797" />
    <linearGradient
       inkscape:collect="always"
       xlink:href="#linearGradient5002"
       id="linearGradient3200"
       gradientUnits="userSpaceOnUse"
       gradientTransform="translate(78.999997,3.6562389)"
       x1="400.57144"
       y1="512.79797"
       x2="415.57144"
       y2="527.79797" />
    <linearGradient
       inkscape:collect="always"
       xlink:href="#linearGradient5002"
       id="linearGradient3202"
       gradientUnits="userSpaceOnUse"
       gradientTransform="matrix(1.1818182,0,0,1.1818182,6.714285,-89.23598)"
       x1="400.57144"
       y1="512.79797"
       x2="415.57144"
       y2="527.79797" />
    <linearGradient
       inkscape:collect="always"
       xlink:href="#linearGradient5002"
       id="linearGradient3204"
       gradientUnits="userSpaceOnUse"
       gradientTransform="matrix(1.1818182,0,0,1.1818182,3.714275,-96.23596)"
       x1="400.57144"
       y1="512.79797"
       x2="415.57144"
       y2="527.79797" />
    <linearGradient
       inkscape:collect="always"
       xlink:href="#linearGradient5002"
       id="linearGradient3206"
       gradientUnits="userSpaceOnUse"
       gradientTransform="matrix(1.1818182,0,0,1.1818182,-74.285714,-95.732083)"
       x1="400.57144"
       y1="512.79797"
       x2="415.57144"
       y2="527.79797" />
    <linearGradient
       inkscape:collect="always"
       xlink:href="#linearGradient5002"
       id="linearGradient3208"
       gradientUnits="userSpaceOnUse"
       gradientTransform="translate(78.999997,3.6562389)"
       x1="400.57144"
       y1="512.79797"
       x2="415.57144"
       y2="527.79797" />
    <linearGradient
       inkscape:collect="always"
       xlink:href="#linearGradient5002"
       id="linearGradient3210"
       gradientUnits="userSpaceOnUse"
       gradientTransform="matrix(1.1818182,0,0,1.1818182,6.714285,-89.23598)"
       x1="400.57144"
       y1="512.79797"
       x2="415.57144"
       y2="527.79797" />
    <linearGradient
       inkscape:collect="always"
       xlink:href="#linearGradient5002"
       id="linearGradient3212"
       gradientUnits="userSpaceOnUse"
       gradientTransform="matrix(1.1818182,0,0,1.1818182,3.714275,-96.23596)"
       x1="400.57144"
       y1="512.79797"
       x2="415.57144"
       y2="527.79797" />
    <linearGradient
       inkscape:collect="always"
       xlink:href="#linearGradient5002"
       id="linearGradient3260"
       gradientUnits="userSpaceOnUse"
       gradientTransform="matrix(1.1818182,0,0,1.1818182,-74.285714,-95.732083)"
       x1="400.57144"
       y1="512.79797"
       x2="415.57144"
       y2="527.79797" />
    <linearGradient
       inkscape:collect="always"
       xlink:href="#linearGradient5002"
       id="linearGradient3262"
       gradientUnits="userSpaceOnUse"
       gradientTransform="translate(78.999997,3.6562389)"
       x1="400.57144"
       y1="512.79797"
       x2="415.57144"
       y2="527.79797" />
    <linearGradient
       inkscape:collect="always"
       xlink:href="#linearGradient5002"
       id="linearGradient3264"
       gradientUnits="userSpaceOnUse"
       gradientTransform="matrix(1.1818182,0,0,1.1818182,6.714285,-89.23598)"
       x1="400.57144"
       y1="512.79797"
       x2="415.57144"
       y2="527.79797" />
    <linearGradient
       inkscape:collect="always"
       xlink:href="#linearGradient5002"
       id="linearGradient3266"
       gradientUnits="userSpaceOnUse"
       gradientTransform="matrix(1.1818182,0,0,1.1818182,3.714275,-96.23596)"
       x1="400.57144"
       y1="512.79797"
       x2="415.57144"
       y2="527.79797" />
    <linearGradient
       inkscape:collect="always"
       xlink:href="#linearGradient5002"
       id="linearGradient3268"
       gradientUnits="userSpaceOnUse"
       gradientTransform="matrix(1.1818182,0,0,1.1818182,-74.285714,-95.732083)"
       x1="400.57144"
       y1="512.79797"
       x2="415.57144"
       y2="527.79797" />
    <linearGradient
       inkscape:collect="always"
       xlink:href="#linearGradient5002"
       id="linearGradient3270"
       gradientUnits="userSpaceOnUse"
       gradientTransform="translate(78.999997,3.6562389)"
       x1="400.57144"
       y1="512.79797"
       x2="415.57144"
       y2="527.79797" />
    <linearGradient
       inkscape:collect="always"
       xlink:href="#linearGradient5002"
       id="linearGradient3272"
       gradientUnits="userSpaceOnUse"
       gradientTransform="matrix(1.1818182,0,0,1.1818182,6.714285,-89.23598)"
       x1="400.57144"
       y1="512.79797"
       x2="415.57144"
       y2="527.79797" />
    <linearGradient
       inkscape:collect="always"
       xlink:href="#linearGradient5002"
       id="linearGradient3274"
       gradientUnits="userSpaceOnUse"
       gradientTransform="matrix(1.1818182,0,0,1.1818182,3.714275,-96.23596)"
       x1="400.57144"
       y1="512.79797"
       x2="415.57144"
       y2="527.79797" />
    <linearGradient
       inkscape:collect="always"
       xlink:href="#linearGradient5002"
       id="linearGradient3276"
       gradientUnits="userSpaceOnUse"
       gradientTransform="matrix(1.1818182,0,0,1.1818182,-74.285714,-95.732083)"
       x1="400.57144"
       y1="512.79797"
       x2="415.57144"
       y2="527.79797" />
    <linearGradient
       inkscape:collect="always"
       xlink:href="#linearGradient5002"
       id="linearGradient3278"
       gradientUnits="userSpaceOnUse"
       gradientTransform="translate(78.999997,3.6562389)"
       x1="400.57144"
       y1="512.79797"
       x2="415.57144"
       y2="527.79797" />
    <linearGradient
       inkscape:collect="always"
       xlink:href="#linearGradient5002"
       id="linearGradient3280"
       gradientUnits="userSpaceOnUse"
       gradientTransform="matrix(1.1818182,0,0,1.1818182,6.714285,-89.23598)"
       x1="400.57144"
       y1="512.79797"
       x2="415.57144"
       y2="527.79797" />
    <linearGradient
       inkscape:collect="always"
       xlink:href="#linearGradient5002"
       id="linearGradient3282"
       gradientUnits="userSpaceOnUse"
       gradientTransform="matrix(1.1818182,0,0,1.1818182,3.714275,-96.23596)"
       x1="400.57144"
       y1="512.79797"
       x2="415.57144"
       y2="527.79797" />
    <linearGradient
       inkscape:collect="always"
       xlink:href="#linearGradient5002"
       id="linearGradient3328"
       gradientUnits="userSpaceOnUse"
       gradientTransform="matrix(1.1818182,0,0,1.1818182,-74.285714,-95.732083)"
       x1="400.57144"
       y1="512.79797"
       x2="415.57144"
       y2="527.79797" />
    <linearGradient
       inkscape:collect="always"
       xlink:href="#linearGradient5002"
       id="linearGradient3330"
       gradientUnits="userSpaceOnUse"
       gradientTransform="translate(78.999997,3.6562389)"
       x1="400.57144"
       y1="512.79797"
       x2="415.57144"
       y2="527.79797" />
    <linearGradient
       inkscape:collect="always"
       xlink:href="#linearGradient5002"
       id="linearGradient3332"
       gradientUnits="userSpaceOnUse"
       gradientTransform="matrix(1.1818182,0,0,1.1818182,6.714285,-89.23598)"
       x1="400.57144"
       y1="512.79797"
       x2="415.57144"
       y2="527.79797" />
    <linearGradient
       inkscape:collect="always"
       xlink:href="#linearGradient5002"
       id="linearGradient3334"
       gradientUnits="userSpaceOnUse"
       gradientTransform="matrix(1.1818182,0,0,1.1818182,3.714275,-96.23596)"
       x1="400.57144"
       y1="512.79797"
       x2="415.57144"
       y2="527.79797" />
    <linearGradient
       inkscape:collect="always"
       xlink:href="#linearGradient5002"
       id="linearGradient3336"
       gradientUnits="userSpaceOnUse"
       gradientTransform="matrix(1.1818182,0,0,1.1818182,-74.285714,-95.732083)"
       x1="400.57144"
       y1="512.79797"
       x2="415.57144"
       y2="527.79797" />
    <linearGradient
       inkscape:collect="always"
       xlink:href="#linearGradient5002"
       id="linearGradient3338"
       gradientUnits="userSpaceOnUse"
       gradientTransform="translate(78.999997,3.6562389)"
       x1="400.57144"
       y1="512.79797"
       x2="415.57144"
       y2="527.79797" />
    <linearGradient
       inkscape:collect="always"
       xlink:href="#linearGradient5002"
       id="linearGradient3340"
       gradientUnits="userSpaceOnUse"
       gradientTransform="matrix(1.1818182,0,0,1.1818182,6.714285,-89.23598)"
       x1="400.57144"
       y1="512.79797"
       x2="415.57144"
       y2="527.79797" />
    <linearGradient
       inkscape:collect="always"
       xlink:href="#linearGradient5002"
       id="linearGradient3342"
       gradientUnits="userSpaceOnUse"
       gradientTransform="matrix(1.1818182,0,0,1.1818182,3.714275,-96.23596)"
       x1="400.57144"
       y1="512.79797"
       x2="415.57144"
       y2="527.79797" />
    <linearGradient
       inkscape:collect="always"
       xlink:href="#linearGradient5002"
       id="linearGradient3344"
       gradientUnits="userSpaceOnUse"
       gradientTransform="matrix(1.1818182,0,0,1.1818182,-74.285714,-95.732083)"
       x1="400.57144"
       y1="512.79797"
       x2="415.57144"
       y2="527.79797" />
    <linearGradient
       inkscape:collect="always"
       xlink:href="#linearGradient5002"
       id="linearGradient3346"
       gradientUnits="userSpaceOnUse"
       gradientTransform="translate(78.999997,3.6562389)"
       x1="400.57144"
       y1="512.79797"
       x2="415.57144"
       y2="527.79797" />
    <linearGradient
       inkscape:collect="always"
       xlink:href="#linearGradient5002"
       id="linearGradient3348"
       gradientUnits="userSpaceOnUse"
       gradientTransform="matrix(1.1818182,0,0,1.1818182,6.714285,-89.23598)"
       x1="400.57144"
       y1="512.79797"
       x2="415.57144"
       y2="527.79797" />
    <linearGradient
       inkscape:collect="always"
       xlink:href="#linearGradient5002"
       id="linearGradient3350"
       gradientUnits="userSpaceOnUse"
       gradientTransform="matrix(1.1818182,0,0,1.1818182,3.714275,-96.23596)"
       x1="400.57144"
       y1="512.79797"
       x2="415.57144"
       y2="527.79797" />
    <linearGradient
       inkscape:collect="always"
       xlink:href="#linearGradient5002"
       id="linearGradient3394"
       gradientUnits="userSpaceOnUse"
       gradientTransform="matrix(1.1818182,0,0,1.1818182,-74.285714,-95.732083)"
       x1="400.57144"
       y1="512.79797"
       x2="415.57144"
       y2="527.79797" />
    <linearGradient
       inkscape:collect="always"
       xlink:href="#linearGradient5002"
       id="linearGradient3396"
       gradientUnits="userSpaceOnUse"
       gradientTransform="translate(78.999997,3.6562389)"
       x1="400.57144"
       y1="512.79797"
       x2="415.57144"
       y2="527.79797" />
    <linearGradient
       inkscape:collect="always"
       xlink:href="#linearGradient5002"
       id="linearGradient3398"
       gradientUnits="userSpaceOnUse"
       gradientTransform="matrix(1.1818182,0,0,1.1818182,6.714285,-89.23598)"
       x1="400.57144"
       y1="512.79797"
       x2="415.57144"
       y2="527.79797" />
    <linearGradient
       inkscape:collect="always"
       xlink:href="#linearGradient5002"
       id="linearGradient3400"
       gradientUnits="userSpaceOnUse"
       gradientTransform="matrix(1.1818182,0,0,1.1818182,3.714275,-96.23596)"
       x1="400.57144"
       y1="512.79797"
       x2="415.57144"
       y2="527.79797" />
    <linearGradient
       inkscape:collect="always"
       xlink:href="#linearGradient5002"
       id="linearGradient3411"
       gradientUnits="userSpaceOnUse"
       gradientTransform="matrix(1.1818182,0,0,1.1818182,-74.285714,-95.732083)"
       x1="400.57144"
       y1="512.79797"
       x2="415.57144"
       y2="527.79797" />
    <linearGradient
       inkscape:collect="always"
       xlink:href="#linearGradient5002"
       id="linearGradient3413"
       gradientUnits="userSpaceOnUse"
       gradientTransform="translate(78.999997,3.6562389)"
       x1="400.57144"
       y1="512.79797"
       x2="415.57144"
       y2="527.79797" />
    <linearGradient
       inkscape:collect="always"
       xlink:href="#linearGradient5002"
       id="linearGradient3415"
       gradientUnits="userSpaceOnUse"
       gradientTransform="matrix(1.1818182,0,0,1.1818182,6.714285,-89.23598)"
       x1="400.57144"
       y1="512.79797"
       x2="415.57144"
       y2="527.79797" />
    <linearGradient
       inkscape:collect="always"
       xlink:href="#linearGradient5002"
       id="linearGradient3417"
       gradientUnits="userSpaceOnUse"
       gradientTransform="matrix(1.1818182,0,0,1.1818182,3.714275,-96.23596)"
       x1="400.57144"
       y1="512.79797"
       x2="415.57144"
       y2="527.79797" />
    <linearGradient
       inkscape:collect="always"
       xlink:href="#linearGradient5002"
       id="linearGradient3419"
       gradientUnits="userSpaceOnUse"
       gradientTransform="matrix(1.1818182,0,0,1.1818182,-74.285714,-95.732083)"
       x1="400.57144"
       y1="512.79797"
       x2="415.57144"
       y2="527.79797" />
    <linearGradient
       inkscape:collect="always"
       xlink:href="#linearGradient5002"
       id="linearGradient3421"
       gradientUnits="userSpaceOnUse"
       gradientTransform="translate(78.999997,3.6562389)"
       x1="400.57144"
       y1="512.79797"
       x2="415.57144"
       y2="527.79797" />
    <linearGradient
       inkscape:collect="always"
       xlink:href="#linearGradient5002"
       id="linearGradient3423"
       gradientUnits="userSpaceOnUse"
       gradientTransform="matrix(1.1818182,0,0,1.1818182,6.714285,-89.23598)"
       x1="400.57144"
       y1="512.79797"
       x2="415.57144"
       y2="527.79797" />
    <linearGradient
       inkscape:collect="always"
       xlink:href="#linearGradient5002"
       id="linearGradient3425"
       gradientUnits="userSpaceOnUse"
       gradientTransform="matrix(1.1818182,0,0,1.1818182,3.714275,-96.23596)"
       x1="400.57144"
       y1="512.79797"
       x2="415.57144"
       y2="527.79797" />
    <linearGradient
       inkscape:collect="always"
       xlink:href="#linearGradient5002"
       id="linearGradient3458"
       gradientUnits="userSpaceOnUse"
       gradientTransform="matrix(1.1818182,0,0,1.1818182,-74.285714,-95.732083)"
       x1="400.57144"
       y1="512.79797"
       x2="415.57144"
       y2="527.79797" />
    <linearGradient
       inkscape:collect="always"
       xlink:href="#linearGradient5002"
       id="linearGradient3460"
       gradientUnits="userSpaceOnUse"
       gradientTransform="translate(78.999997,3.6562389)"
       x1="400.57144"
       y1="512.79797"
       x2="415.57144"
       y2="527.79797" />
    <linearGradient
       inkscape:collect="always"
       xlink:href="#linearGradient5002"
       id="linearGradient3462"
       gradientUnits="userSpaceOnUse"
       gradientTransform="matrix(1.1818182,0,0,1.1818182,6.714285,-89.23598)"
       x1="400.57144"
       y1="512.79797"
       x2="415.57144"
       y2="527.79797" />
    <linearGradient
       inkscape:collect="always"
       xlink:href="#linearGradient5002"
       id="linearGradient3464"
       gradientUnits="userSpaceOnUse"
       gradientTransform="matrix(1.1818182,0,0,1.1818182,3.714275,-96.23596)"
       x1="400.57144"
       y1="512.79797"
       x2="415.57144"
       y2="527.79797" />
    <linearGradient
       inkscape:collect="always"
       xlink:href="#linearGradient5002"
       id="linearGradient3466"
       gradientUnits="userSpaceOnUse"
       gradientTransform="matrix(1.1818182,0,0,1.1818182,-74.285714,-95.732083)"
       x1="400.57144"
       y1="512.79797"
       x2="415.57144"
       y2="527.79797" />
    <linearGradient
       inkscape:collect="always"
       xlink:href="#linearGradient5002"
       id="linearGradient3468"
       gradientUnits="userSpaceOnUse"
       gradientTransform="translate(78.999997,3.6562389)"
       x1="400.57144"
       y1="512.79797"
       x2="415.57144"
       y2="527.79797" />
    <linearGradient
       inkscape:collect="always"
       xlink:href="#linearGradient5002"
       id="linearGradient3470"
       gradientUnits="userSpaceOnUse"
       gradientTransform="matrix(1.1818182,0,0,1.1818182,6.714285,-89.23598)"
       x1="400.57144"
       y1="512.79797"
       x2="415.57144"
       y2="527.79797" />
    <linearGradient
       inkscape:collect="always"
       xlink:href="#linearGradient5002"
       id="linearGradient3472"
       gradientUnits="userSpaceOnUse"
       gradientTransform="matrix(1.1818182,0,0,1.1818182,3.714275,-96.23596)"
       x1="400.57144"
       y1="512.79797"
       x2="415.57144"
       y2="527.79797" />
    <linearGradient
       inkscape:collect="always"
       xlink:href="#linearGradient5002"
       id="linearGradient3504"
       gradientUnits="userSpaceOnUse"
       gradientTransform="matrix(1.1818182,0,0,1.1818182,-74.285714,-95.732083)"
       x1="400.57144"
       y1="512.79797"
       x2="415.57144"
       y2="527.79797" />
    <linearGradient
       inkscape:collect="always"
       xlink:href="#linearGradient5002"
       id="linearGradient3506"
       gradientUnits="userSpaceOnUse"
       gradientTransform="translate(78.999997,3.6562389)"
       x1="400.57144"
       y1="512.79797"
       x2="415.57144"
       y2="527.79797" />
    <linearGradient
       inkscape:collect="always"
       xlink:href="#linearGradient5002"
       id="linearGradient3508"
       gradientUnits="userSpaceOnUse"
       gradientTransform="matrix(1.1818182,0,0,1.1818182,6.714285,-89.23598)"
       x1="400.57144"
       y1="512.79797"
       x2="415.57144"
       y2="527.79797" />
    <linearGradient
       inkscape:collect="always"
       xlink:href="#linearGradient5002"
       id="linearGradient3510"
       gradientUnits="userSpaceOnUse"
       gradientTransform="matrix(1.1818182,0,0,1.1818182,3.714275,-96.23596)"
       x1="400.57144"
       y1="512.79797"
       x2="415.57144"
       y2="527.79797" />
    <linearGradient
       inkscape:collect="always"
       xlink:href="#linearGradient5002"
       id="linearGradient3520"
       gradientUnits="userSpaceOnUse"
       gradientTransform="matrix(1.1818182,0,0,1.1818182,-74.285714,-95.732083)"
       x1="400.57144"
       y1="512.79797"
       x2="415.57144"
       y2="527.79797" />
    <linearGradient
       inkscape:collect="always"
       xlink:href="#linearGradient5002"
       id="linearGradient3522"
       gradientUnits="userSpaceOnUse"
       gradientTransform="translate(78.999997,3.6562389)"
       x1="400.57144"
       y1="512.79797"
       x2="415.57144"
       y2="527.79797" />
    <linearGradient
       inkscape:collect="always"
       xlink:href="#linearGradient5002"
       id="linearGradient3524"
       gradientUnits="userSpaceOnUse"
       gradientTransform="matrix(1.1818182,0,0,1.1818182,6.714285,-89.23598)"
       x1="400.57144"
       y1="512.79797"
       x2="415.57144"
       y2="527.79797" />
    <linearGradient
       inkscape:collect="always"
       xlink:href="#linearGradient5002"
       id="linearGradient3526"
       gradientUnits="userSpaceOnUse"
       gradientTransform="matrix(1.1818182,0,0,1.1818182,3.714275,-96.23596)"
       x1="400.57144"
       y1="512.79797"
       x2="415.57144"
       y2="527.79797" />
    <linearGradient
       inkscape:collect="always"
       xlink:href="#linearGradient5002"
       id="linearGradient3535"
       gradientUnits="userSpaceOnUse"
       gradientTransform="matrix(1.1818182,0,0,1.1818182,-74.285714,-95.732083)"
       x1="400.57144"
       y1="512.79797"
       x2="415.57144"
       y2="527.79797" />
    <linearGradient
       inkscape:collect="always"
       xlink:href="#linearGradient5002"
       id="linearGradient3537"
       gradientUnits="userSpaceOnUse"
       gradientTransform="translate(78.999997,3.6562389)"
       x1="400.57144"
       y1="512.79797"
       x2="415.57144"
       y2="527.79797" />
    <linearGradient
       inkscape:collect="always"
       xlink:href="#linearGradient5002"
       id="linearGradient3539"
       gradientUnits="userSpaceOnUse"
       gradientTransform="matrix(1.1818182,0,0,1.1818182,6.714285,-89.23598)"
       x1="400.57144"
       y1="512.79797"
       x2="415.57144"
       y2="527.79797" />
    <linearGradient
       inkscape:collect="always"
       xlink:href="#linearGradient5002"
       id="linearGradient3541"
       gradientUnits="userSpaceOnUse"
       gradientTransform="matrix(1.1818182,0,0,1.1818182,3.714275,-96.23596)"
       x1="400.57144"
       y1="512.79797"
       x2="415.57144"
       y2="527.79797" />
    <linearGradient
       inkscape:collect="always"
       xlink:href="#linearGradient5002"
       id="linearGradient3543"
       gradientUnits="userSpaceOnUse"
       gradientTransform="matrix(1.1818182,0,0,1.1818182,-74.285714,-95.732083)"
       x1="400.57144"
       y1="512.79797"
       x2="415.57144"
       y2="527.79797" />
    <linearGradient
       inkscape:collect="always"
       xlink:href="#linearGradient5002"
       id="linearGradient3545"
       gradientUnits="userSpaceOnUse"
       gradientTransform="translate(78.999997,3.6562389)"
       x1="400.57144"
       y1="512.79797"
       x2="415.57144"
       y2="527.79797" />
    <linearGradient
       inkscape:collect="always"
       xlink:href="#linearGradient5002"
       id="linearGradient3547"
       gradientUnits="userSpaceOnUse"
       gradientTransform="matrix(1.1818182,0,0,1.1818182,6.714285,-89.23598)"
       x1="400.57144"
       y1="512.79797"
       x2="415.57144"
       y2="527.79797" />
    <linearGradient
       inkscape:collect="always"
       xlink:href="#linearGradient5002"
       id="linearGradient3549"
       gradientUnits="userSpaceOnUse"
       gradientTransform="matrix(1.1818182,0,0,1.1818182,3.714275,-96.23596)"
       x1="400.57144"
       y1="512.79797"
       x2="415.57144"
       y2="527.79797" />
    <linearGradient
       inkscape:collect="always"
       xlink:href="#linearGradient5002"
       id="linearGradient3580"
       gradientUnits="userSpaceOnUse"
       gradientTransform="matrix(1.1818182,0,0,1.1818182,-74.285714,-95.732083)"
       x1="400.57144"
       y1="512.79797"
       x2="415.57144"
       y2="527.79797" />
    <linearGradient
       inkscape:collect="always"
       xlink:href="#linearGradient5002"
       id="linearGradient3582"
       gradientUnits="userSpaceOnUse"
       gradientTransform="translate(78.999997,3.6562389)"
       x1="400.57144"
       y1="512.79797"
       x2="415.57144"
       y2="527.79797" />
    <linearGradient
       inkscape:collect="always"
       xlink:href="#linearGradient5002"
       id="linearGradient3584"
       gradientUnits="userSpaceOnUse"
       gradientTransform="matrix(1.1818182,0,0,1.1818182,6.714285,-89.23598)"
       x1="400.57144"
       y1="512.79797"
       x2="415.57144"
       y2="527.79797" />
    <linearGradient
       inkscape:collect="always"
       xlink:href="#linearGradient5002"
       id="linearGradient3586"
       gradientUnits="userSpaceOnUse"
       gradientTransform="matrix(1.1818182,0,0,1.1818182,3.714275,-96.23596)"
       x1="400.57144"
       y1="512.79797"
       x2="415.57144"
       y2="527.79797" />
    <linearGradient
       inkscape:collect="always"
       xlink:href="#linearGradient5002"
       id="linearGradient3588"
       gradientUnits="userSpaceOnUse"
       gradientTransform="matrix(1.1818182,0,0,1.1818182,-74.285714,-95.732083)"
       x1="400.57144"
       y1="512.79797"
       x2="415.57144"
       y2="527.79797" />
    <linearGradient
       inkscape:collect="always"
       xlink:href="#linearGradient5002"
       id="linearGradient3590"
       gradientUnits="userSpaceOnUse"
       gradientTransform="translate(78.999997,3.6562389)"
       x1="400.57144"
       y1="512.79797"
       x2="415.57144"
       y2="527.79797" />
    <linearGradient
       inkscape:collect="always"
       xlink:href="#linearGradient5002"
       id="linearGradient3592"
       gradientUnits="userSpaceOnUse"
       gradientTransform="matrix(1.1818182,0,0,1.1818182,6.714285,-89.23598)"
       x1="400.57144"
       y1="512.79797"
       x2="415.57144"
       y2="527.79797" />
    <linearGradient
       inkscape:collect="always"
       xlink:href="#linearGradient5002"
       id="linearGradient3594"
       gradientUnits="userSpaceOnUse"
       gradientTransform="matrix(1.1818182,0,0,1.1818182,3.714275,-96.23596)"
       x1="400.57144"
       y1="512.79797"
       x2="415.57144"
       y2="527.79797" />
    <linearGradient
       inkscape:collect="always"
       xlink:href="#linearGradient5002"
       id="linearGradient3624"
       gradientUnits="userSpaceOnUse"
       gradientTransform="matrix(1.1818182,0,0,1.1818182,-74.285714,-95.732083)"
       x1="400.57144"
       y1="512.79797"
       x2="415.57144"
       y2="527.79797" />
    <linearGradient
       inkscape:collect="always"
       xlink:href="#linearGradient5002"
       id="linearGradient3626"
       gradientUnits="userSpaceOnUse"
       gradientTransform="translate(78.999997,3.6562389)"
       x1="400.57144"
       y1="512.79797"
       x2="415.57144"
       y2="527.79797" />
    <linearGradient
       inkscape:collect="always"
       xlink:href="#linearGradient5002"
       id="linearGradient3628"
       gradientUnits="userSpaceOnUse"
       gradientTransform="matrix(1.1818182,0,0,1.1818182,6.714285,-89.23598)"
       x1="400.57144"
       y1="512.79797"
       x2="415.57144"
       y2="527.79797" />
    <linearGradient
       inkscape:collect="always"
       xlink:href="#linearGradient5002"
       id="linearGradient3630"
       gradientUnits="userSpaceOnUse"
       gradientTransform="matrix(1.1818182,0,0,1.1818182,3.714275,-96.23596)"
       x1="400.57144"
       y1="512.79797"
       x2="415.57144"
       y2="527.79797" />
    <linearGradient
       inkscape:collect="always"
       xlink:href="#linearGradient5002"
       id="linearGradient3635"
       gradientUnits="userSpaceOnUse"
       gradientTransform="matrix(0.54591234,-0.00107475,0.00107475,0.54591234,-283.2761,-262.62923)"
       x1="400.57144"
       y1="512.79797"
       x2="415.57144"
       y2="527.79797" />
    <linearGradient
       inkscape:collect="always"
       xlink:href="#linearGradient5002"
       id="linearGradient3638"
       gradientUnits="userSpaceOnUse"
       gradientTransform="matrix(0.54591234,-0.00107475,0.00107475,0.54591234,-281.88395,-259.39849)"
       x1="400.57144"
       y1="512.79797"
       x2="415.57144"
       y2="527.79797" />
    <linearGradient
       inkscape:collect="always"
       xlink:href="#linearGradient5002"
       id="linearGradient3641"
       gradientUnits="userSpaceOnUse"
       gradientTransform="matrix(0.46192582,-9.0940363e-4,9.0940363e-4,0.46192582,-248.40884,-216.55491)"
       x1="400.57144"
       y1="512.79797"
       x2="415.57144"
       y2="527.79797" />
    <linearGradient
       inkscape:collect="always"
       xlink:href="#linearGradient5002"
       id="linearGradient3644"
       gradientUnits="userSpaceOnUse"
       gradientTransform="matrix(0.54591234,-0.00107475,0.00107475,0.54591234,-319.30585,-262.32555)"
       x1="400.57144"
       y1="512.79797"
       x2="415.57144"
       y2="527.79797" />
    <linearGradient
       inkscape:collect="always"
       xlink:href="#linearGradient5002"
       id="linearGradient3647"
       gradientUnits="userSpaceOnUse"
       gradientTransform="matrix(1.1818182,0,0,1.1818182,-74.285714,-95.732083)"
       x1="400.57144"
       y1="512.79797"
       x2="415.57144"
       y2="527.79797" />
    <linearGradient
       inkscape:collect="always"
       xlink:href="#linearGradient5002"
       id="linearGradient3649"
       gradientUnits="userSpaceOnUse"
       gradientTransform="translate(78.999997,3.6562389)"
       x1="400.57144"
       y1="512.79797"
       x2="415.57144"
       y2="527.79797" />
    <linearGradient
       inkscape:collect="always"
       xlink:href="#linearGradient5002"
       id="linearGradient3651"
       gradientUnits="userSpaceOnUse"
       gradientTransform="matrix(1.1818182,0,0,1.1818182,6.714285,-89.23598)"
       x1="400.57144"
       y1="512.79797"
       x2="415.57144"
       y2="527.79797" />
    <linearGradient
       inkscape:collect="always"
       xlink:href="#linearGradient5002"
       id="linearGradient3653"
       gradientUnits="userSpaceOnUse"
       gradientTransform="matrix(1.1818182,0,0,1.1818182,3.714275,-96.23596)"
       x1="400.57144"
       y1="512.79797"
       x2="415.57144"
       y2="527.79797" />
    <linearGradient
       inkscape:collect="always"
       xlink:href="#linearGradient5002"
       id="linearGradient3673"
       gradientUnits="userSpaceOnUse"
       gradientTransform="matrix(1.1818182,0,0,1.1818182,-74.285714,-95.732083)"
       x1="400.57144"
       y1="512.79797"
       x2="415.57144"
       y2="527.79797" />
    <linearGradient
       inkscape:collect="always"
       xlink:href="#linearGradient5002"
       id="linearGradient3675"
       gradientUnits="userSpaceOnUse"
       gradientTransform="translate(78.999997,3.6562389)"
       x1="400.57144"
       y1="512.79797"
       x2="415.57144"
       y2="527.79797" />
    <linearGradient
       inkscape:collect="always"
       xlink:href="#linearGradient5002"
       id="linearGradient3677"
       gradientUnits="userSpaceOnUse"
       gradientTransform="matrix(1.1818182,0,0,1.1818182,6.714285,-89.23598)"
       x1="400.57144"
       y1="512.79797"
       x2="415.57144"
       y2="527.79797" />
    <linearGradient
       inkscape:collect="always"
       xlink:href="#linearGradient5002"
       id="linearGradient3679"
       gradientUnits="userSpaceOnUse"
       gradientTransform="matrix(1.1818182,0,0,1.1818182,3.714275,-96.23596)"
       x1="400.57144"
       y1="512.79797"
       x2="415.57144"
       y2="527.79797" />
  </defs>
  <sodipodi:namedview
     pagecolor="#747474"
     bordercolor="#666666"
     borderopacity="1"
     objecttolerance="10"
     gridtolerance="10"
     guidetolerance="10"
     inkscape:pageopacity="1"
     inkscape:pageshadow="2"
     inkscape:window-width="1366"
     inkscape:window-height="712"
     id="namedview10"
     showgrid="false"
     inkscape:zoom="7.4552198"
     inkscape:cx="17.888633"
     inkscape:cy="33.745134"
     inkscape:window-x="0"
     inkscape:window-y="0"
     inkscape:window-maximized="1"
     inkscape:current-layer="g4186"
     inkscape:snap-bbox="true"
     inkscape:bbox-nodes="true"
     inkscape:object-nodes="true"
     borderlayer="false"
     showguides="true"
     inkscape:snap-nodes="true"
     inkscape:object-paths="false"
     inkscape:showpageshadow="false"
     showborder="true">
    <inkscape:grid
       type="xygrid"
       id="grid4160"
       visible="true" />
    <sodipodi:guide
       position="28.888657,63.404975"
       orientation="0,35.2"
       id="guide6108" />
    <sodipodi:guide
       position="54,55.679691"
       orientation="51.200004,0"
       id="guide6112" />
    <sodipodi:guide
       position="58.527669,62"
       orientation="0,1"
       id="guide6114"
       inkscape:label=""
       inkscape:color="rgb(0,0,255)" />
    <sodipodi:guide
       position="10,4"
       orientation="-56,0"
       id="guide6116" />
    <sodipodi:guide
       position="11,4"
       orientation="-2.8421709e-014,0"
       id="guide6118" />
    <sodipodi:guide
       position="12,62"
       orientation="0,35.2"
       id="guide6120" />
    <sodipodi:guide
       position="52,2"
       orientation="0,-40"
       id="guide6126" />
    <sodipodi:guide
       position="12,62"
       orientation="0,35.2"
       id="guide6138" />
    <sodipodi:guide
       position="55,3"
       orientation="0,-40"
       id="guide6156" />
    <sodipodi:guide
       position="53,4.3973202"
       orientation="-56,0"
       id="guide6158" />
    <sodipodi:guide
       position="57.677709,50.300328"
       orientation="0,22"
       id="guide4238" />
    <sodipodi:guide
       position="43,48"
       orientation="22,0"
       id="guide4240" />
    <sodipodi:guide
       position="55.665696,26.826841"
       orientation="0,-22"
       id="guide4242" />
    <sodipodi:guide
       position="21,26"
       orientation="-22,0"
       id="guide4244" />
  </sodipodi:namedview>
  <g
     id="g4186"
     transform="translate(56.391766,-0.17677665)">
    <rect
       ry="2.5"
       y="1.6457753"
       x="-46.391766"
       height="52.831711"
       width="44"
       id="rect4174"
       style="opacity:1;fill:url(#linearGradient4182);fill-opacity:1.0;stroke:none;stroke-width:0.30000001;stroke-linecap:round;stroke-linejoin:round;stroke-miterlimit:4;stroke-dasharray:none;stroke-dashoffset:0;stroke-opacity:1" />
    <g
       id="g4390">
      <rect
         style="opacity:1;fill:#19524b;fill-opacity:1;stroke:none;stroke-width:0.185;stroke-linecap:round;stroke-linejoin:round;stroke-miterlimit:4;stroke-dasharray:none;stroke-dashoffset:0;stroke-opacity:1"
         id="rect4162"
         width="44"
         height="7.6992903"
         x="-46.391766"
         y="54.477486"
         ry="2.5" />
      <rect
         style="fill:#19524b;fill-opacity:1;stroke:none"
         id="rect4184"
         width="44"
         height="15"
         x="-46.391766"
         y="44.176304"
         ry="0" />
    </g>
    <g
       transform="matrix(0.47344028,-9.3207561e-4,9.3207561e-4,0.47344028,-238.62236,-223.45735)"
       inkscape:label="Capa 1"
       id="layer1-7-7">
      <g
         transform="translate(-112.5209,-0.17284439)"
         id="layer1-8-9"
         inkscape:label="Capa 1"
         style="stroke:none">
        <path
           inkscape:connector-curvature="0"
           d=""
           cx="408.57144"
           cy="519.79797"
           r="9.9999886"
           style="fill:url(#linearGradient3673);fill-opacity:1;stroke:none"
           id="circle4309-6-02" />
        <path
           inkscape:connector-curvature="0"
           d=""
           cx="408.57144"
           cy="519.79797"
           r="9.9999886"
           style="fill:url(#linearGradient3675);fill-opacity:1;stroke:none"
           id="circle4309-6-0-7" />
        <path
           inkscape:connector-curvature="0"
           d=""
           cx="408.57144"
           cy="519.79797"
           r="9.9999886"
           style="fill:url(#linearGradient3677);fill-opacity:1;stroke:none"
           id="circle4309-6-7-2" />
        <path
           inkscape:connector-curvature="0"
           d=""
           cx="408.57144"
           cy="519.79797"
           r="9.9999886"
           style="fill:url(#linearGradient3679);fill-opacity:1;stroke:none"
           id="circle4309-6-4-9" />
        <g
           id="g4823-6"
           transform="matrix(0.87053099,0,0,0.87053099,103.47199,117.2361)">
          <g
             transform="matrix(0.58271538,-0.10323419,0.10323419,0.58271538,163.82668,269.75821)"
             id="g4528-6" />
        </g>
      </g>
    </g>
    <g
       id="g4370"
       transform="translate(0.44928004,-2.2965921)">
      <g
         style="fill:#ffffff"
         transform="matrix(0.2859453,0,0,0.2859453,-234.52483,-110.24912)"
         id="g5015-3">
        <g
           style="fill:#ffffff"
           id="g4727-1"
           transform="matrix(1.7367633,0.29645235,-0.29645235,1.7367633,-258.39264,-529.24618)">
          <g
             style="fill:#ffffff"
             transform="translate(202.30596,-70.898882)"
             inkscape:label="Capa 1"
             id="layer1-7-9">
            <g
               transform="translate(-112.5209,-0.17284439)"
               id="layer1-8-0"
               inkscape:label="Capa 1"
               style="fill:#ffffff;stroke:none">
              <path
                 inkscape:connector-curvature="0"
                 d=""
                 cx="408.57144"
                 cy="519.79797"
                 r="9.9999886"
                 style="fill:#ffffff;fill-opacity:1;stroke:none"
                 id="circle4309-6-1" />
              <path
                 inkscape:connector-curvature="0"
                 d=""
                 cx="408.57144"
                 cy="519.79797"
                 r="9.9999886"
                 style="fill:#ffffff;fill-opacity:1;stroke:none"
                 id="circle4309-6-0-2" />
              <path
                 inkscape:connector-curvature="0"
                 d=""
                 cx="408.57144"
                 cy="519.79797"
                 r="9.9999886"
                 style="fill:#ffffff;fill-opacity:1;stroke:none"
                 id="circle4309-6-7-8" />
              <path
                 inkscape:connector-curvature="0"
                 d=""
                 cx="408.57144"
                 cy="519.79797"
                 r="9.9999886"
                 style="fill:#ffffff;fill-opacity:1;stroke:none"
                 id="circle4309-6-4-3" />
              <g
                 style="fill:#ffffff"
                 id="g4823-9"
                 transform="matrix(0.87053099,0,0,0.87053099,103.47199,117.2361)">
                <g
                   style="fill:#ffffff"
                   transform="matrix(0.58271538,-0.10323419,0.10323419,0.58271538,163.82668,269.75821)"
                   id="g4528-2">
                  <rect
                     style="fill:#ffffff;fill-opacity:1;stroke:none"
                     id="rect4473-3"
                     width="76.809471"
                     height="58.986568"
                     x="504.25668"
                     y="426.46411"
                     ry="2.3" />
                </g>
              </g>
            </g>
          </g>
        </g>
      </g>
      <rect
         transform="matrix(0.98432173,-0.17638235,0.17638235,0.98432173,0,0)"
         style="fill:#ffffff;fill-opacity:1;stroke:#19524b;stroke-width:0.49395168;stroke-linecap:round;stroke-linejoin:round;stroke-miterlimit:4;stroke-dasharray:none;stroke-opacity:1"
         id="rect4473-6"
         width="19.93545"
         height="15.30962"
         x="-40.047531"
         y="16.299055"
         ry="0.59695154" />
      <path
         style="fill:#19524b;fill-opacity:1;fill-rule:evenodd;stroke:none"
         d="m -34.127609,36.635214 3.504334,-1.855981 1.31534,0.58037 2.560907,-1.436784 2.846855,0.411641 2.010456,0.06478 1.396845,-0.783729 1.751022,-0.794066 3.155182,0.585153 0.250006,1.461555 -17.707919,3.323017 c 0,0 -0.767067,0.289966 -0.88319,-0.388445 z"
         id="path4486-0"
         inkscape:connector-curvature="0"
         sodipodi:nodetypes="ccccccccccccc" />
      <circle
         transform="matrix(0.25547496,-0.04577901,0.04577901,0.25547496,-184.89285,-62.759338)"
         style="fill:#19524b;fill-opacity:1;stroke:none"
         id="path4488-2"
         cx="521.2431"
         cy="443.27579"
         r="7.5944858" />
      <circle
         transform="matrix(0.28177327,-0.04866765,0.04866765,0.28177327,-214.25058,-71.478955)"
         style="fill:#ffffff;fill-opacity:1;stroke:#19524b;stroke-width:2;stroke-linecap:round;stroke-linejoin:round;stroke-miterlimit:4;stroke-dasharray:none;stroke-opacity:1"
         id="path4740-3"
         cx="610.99548"
         cy="479.66388"
         r="19.134081" />
      <path
         style="fill:#19524b;fill-opacity:1;fill-rule:evenodd;stroke:none"
         d="m -21.533632,38.483849 2.096646,-7.090976 c 1.864919,1.384587 5.865373,2.065303 5.865373,2.065303 l 0.502006,0.561371 c -1.099716,5.917463 -4.627611,5.750136 -8.464025,4.464302 z"
         id="path4756-4"
         inkscape:connector-curvature="0"
         sodipodi:nodetypes="ccccc" />
      <path
         style="fill:#ffffff;fill-opacity:1;fill-rule:evenodd;stroke:none"
         d="m -20.884071,38.941566 0.825443,-1.468172 1.146944,0.320886 0.687806,-1.525864 3.785081,0.728706 c -0.90988,2.200677 -2.903618,3.106156 -6.445274,1.944444 z"
         id="path4793-2"
         inkscape:connector-curvature="0"
         sodipodi:nodetypes="cccccc" />
      <circle
         transform="matrix(0.28177327,-0.04866765,0.04866765,0.28177327,-214.25058,-71.478955)"
         style="fill:none;stroke:#19524b;stroke-width:2;stroke-linecap:round;stroke-linejoin:round;stroke-miterlimit:4;stroke-dasharray:none;stroke-opacity:1"
         id="path4740-5-4"
         cx="610.91852"
         cy="479.44278"
         r="19.134081" />
    </g>
    <path
       inkscape:connector-curvature="0"
       d=""
       cx="408.57144"
       cy="519.79797"
       r="9.9999886"
       style="fill:url(#linearGradient3644);fill-opacity:1;stroke:none"
       id="circle4309-6" />
    <path
       inkscape:connector-curvature="0"
       d=""
       cx="408.57144"
       cy="519.79797"
       r="9.9999886"
       style="fill:url(#linearGradient3641);fill-opacity:1;stroke:none"
       id="circle4309-6-0" />
    <path
       inkscape:connector-curvature="0"
       d=""
       cx="408.57144"
       cy="519.79797"
       r="9.9999886"
       style="fill:url(#linearGradient3638);fill-opacity:1;stroke:none"
       id="circle4309-6-7" />
    <path
       inkscape:connector-curvature="0"
       d=""
       cx="408.57144"
       cy="519.79797"
       r="9.9999886"
       style="fill:url(#linearGradient3635);fill-opacity:1;stroke:none"
       id="circle4309-6-4" />
    <g
       style="stroke:none"
       id="g4528"
       transform="matrix(0.23424021,-0.04197392,0.04197392,0.23424021,-170.90964,-55.766025)" />
    <text
       xml:space="preserve"
       style="font-style:normal;font-weight:normal;font-size:13px;line-height:125%;font-family:Sans;letter-spacing:0px;word-spacing:0px;fill:#ffffff;fill-opacity:1;stroke:none"
       x="-33.091228"
       y="56.762966"
       id="text4457"
       sodipodi:linespacing="125%"><tspan
         sodipodi:role="line"
         id="tspan4459"
         x="-33.091228"
         y="56.762966">gif</tspan></text>
  </g>
</svg>
