<?xml version="1.0" encoding="UTF-8" standalone="no"?>
<svg
   xmlns:osb="http://www.openswatchbook.org/uri/2009/osb"
   xmlns:dc="http://purl.org/dc/elements/1.1/"
   xmlns:cc="http://creativecommons.org/ns#"
   xmlns:rdf="http://www.w3.org/1999/02/22-rdf-syntax-ns#"
   xmlns:svg="http://www.w3.org/2000/svg"
   xmlns="http://www.w3.org/2000/svg"
   xmlns:xlink="http://www.w3.org/1999/xlink"
   xmlns:sodipodi="http://sodipodi.sourceforge.net/DTD/sodipodi-0.dtd"
   xmlns:inkscape="http://www.inkscape.org/namespaces/inkscape"
   width="64"
   viewBox="0 0 64 64"
   height="64"
   id="svg2"
   version="1.1"
   inkscape:version="0.91 r13725"
   sodipodi:docname="application-x-trash.svg"
   inkscape:export-filename="E:\Usuarios\David\Desktop\android.png"
   inkscape:export-xdpi="90"
   inkscape:export-ydpi="90">
  <metadata
     id="metadata14">
    <rdf:RDF>
      <cc:Work
         rdf:about="">
        <dc:format>image/svg+xml</dc:format>
        <dc:type
           rdf:resource="http://purl.org/dc/dcmitype/StillImage" />
        <dc:title />
      </cc:Work>
    </rdf:RDF>
  </metadata>
  <defs
     id="defs12">
    <linearGradient
       id="linearGradient4373"
       inkscape:collect="always">
      <stop
         id="stop4375"
         offset="0"
         style="stop-color:#2aaa76;stop-opacity:1" />
      <stop
         id="stop4377"
         offset="1"
         style="stop-color:#44d48b;stop-opacity:1" />
    </linearGradient>
    <linearGradient
       osb:paint="gradient"
       id="linearGradient4207">
      <stop
         id="stop3371"
         offset="0"
         style="stop-color:#3498db;stop-opacity:1;" />
      <stop
         id="stop3373"
         offset="1"
         style="stop-color:#3498db;stop-opacity:0;" />
    </linearGradient>
    <linearGradient
       inkscape:collect="always"
       xlink:href="#linearGradient4373"
       id="linearGradient4182"
       x1="-74.929466"
       y1="52.199436"
       x2="-75.259552"
       y2="2.3564887"
       gradientUnits="userSpaceOnUse"
       gradientTransform="matrix(1.0749904,0,0,1.0292896,56.688954,-0.01528455)" />
    <linearGradient
       id="linearGradient4422-9">
      <stop
         style="stop-color:#ffa400;stop-opacity:1"
         offset="0"
         id="stop4424-7" />
      <stop
         style="stop-color:#ffdd00;stop-opacity:1"
         offset="1"
         id="stop4426-7" />
    </linearGradient>
    <linearGradient
       id="linearGradient4422-1">
      <stop
         style="stop-color:#8798a9;stop-opacity:1"
         offset="0"
         id="stop4424-78" />
      <stop
         style="stop-color:#aeb6be;stop-opacity:1"
         offset="1"
         id="stop4426-8" />
    </linearGradient>
    <linearGradient
       id="linearGradient4422">
      <stop
         style="stop-color:#059e7a;stop-opacity:1"
         offset="0"
         id="stop4424" />
      <stop
         style="stop-color:#3ec380;stop-opacity:1"
         offset="1"
         id="stop4426" />
    </linearGradient>
  </defs>
  <sodipodi:namedview
     pagecolor="#747474"
     bordercolor="#666666"
     borderopacity="1"
     objecttolerance="10"
     gridtolerance="10"
     guidetolerance="10"
     inkscape:pageopacity="1"
     inkscape:pageshadow="2"
     inkscape:window-width="1366"
     inkscape:window-height="712"
     id="namedview10"
     showgrid="false"
     inkscape:zoom="7.4552197"
     inkscape:cx="28.934686"
     inkscape:cy="34.207288"
     inkscape:window-x="0"
     inkscape:window-y="0"
     inkscape:window-maximized="1"
     inkscape:current-layer="g4186"
     inkscape:snap-bbox="true"
     inkscape:bbox-nodes="true"
     inkscape:object-nodes="true"
     borderlayer="false"
     showguides="true"
     inkscape:snap-nodes="true"
     inkscape:object-paths="false"
     inkscape:showpageshadow="false"
     showborder="true">
    <inkscape:grid
       type="xygrid"
       id="grid4160"
       visible="true" />
    <sodipodi:guide
       position="28.888657,63.404975"
       orientation="0,35.2"
       id="guide6108" />
    <sodipodi:guide
       position="54,55.679691"
       orientation="51.200004,0"
       id="guide6112" />
    <sodipodi:guide
       position="58.527669,62"
       orientation="0,1"
       id="guide6114"
       inkscape:label=""
       inkscape:color="rgb(0,0,255)" />
    <sodipodi:guide
       position="10,4"
       orientation="-56,0"
       id="guide6116" />
    <sodipodi:guide
       position="11,4"
       orientation="-2.8421709e-014,0"
       id="guide6118" />
    <sodipodi:guide
       position="12,62"
       orientation="0,35.2"
       id="guide6120" />
    <sodipodi:guide
       position="52,2"
       orientation="0,-40"
       id="guide6126" />
    <sodipodi:guide
       position="12,62"
       orientation="0,35.2"
       id="guide6138" />
    <sodipodi:guide
       position="55,3"
       orientation="0,-40"
       id="guide6156" />
    <sodipodi:guide
       position="53,4.3973202"
       orientation="-56,0"
       id="guide6158" />
    <sodipodi:guide
       position="69.079118,50.836865"
       orientation="0,22"
       id="guide4238" />
    <sodipodi:guide
       position="43,48"
       orientation="22,0"
       id="guide4240" />
    <sodipodi:guide
       position="59.689723,28.838855"
       orientation="0,-22"
       id="guide4242" />
    <sodipodi:guide
       position="21,26"
       orientation="-22,0"
       id="guide4244" />
  </sodipodi:namedview>
  <g
     id="g4186"
     transform="translate(56.391766,-0.17677665)">
    <rect
       ry="2.5"
       y="1.6457753"
       x="-46.391766"
       height="52.831711"
       width="44"
       id="rect4174"
       style="opacity:1;fill:url(#linearGradient4182);fill-opacity:1.0;stroke:none;stroke-width:0.30000001;stroke-linecap:round;stroke-linejoin:round;stroke-miterlimit:4;stroke-dasharray:none;stroke-dashoffset:0;stroke-opacity:1" />
    <g
       id="g4184">
      <rect
         style="opacity:1;fill:#144e36;fill-opacity:1;stroke:none;stroke-width:0.185;stroke-linecap:round;stroke-linejoin:round;stroke-miterlimit:4;stroke-dasharray:none;stroke-dashoffset:0;stroke-opacity:1"
         id="rect4162"
         width="44"
         height="7.6992903"
         x="-46.391766"
         y="54.477486"
         ry="2.5" />
      <rect
         style="fill:#144e36;fill-opacity:1;stroke:none"
         id="rect4184"
         width="44"
         height="15"
         x="-46.391766"
         y="44.176304"
         ry="0" />
    </g>
    <g
       inkscape:transform-center-y="-9.4924686"
       inkscape:transform-center-x="5.4653607"
       inkscape:label="Capa 1"
       id="layer1"
       transform="translate(-497.6354,-508.64155)"
       style="fill:#ffffff">
      <g
         id="layer1-3"
         inkscape:label="Capa 1"
         transform="translate(0.41988239,0.03484499)"
         style="fill:#ffffff">
        <g
           inkscape:label="Capa 1"
           id="layer1-22"
           transform="matrix(0.84198763,0,0,0.84198763,442.50417,-337.35437)"
           style="fill:#ffffff;fill-opacity:1">
          <g
             transform="matrix(0.90537551,0,0,0.90537551,-365.91682,562.06022)"
             id="layer1-0"
             inkscape:label="Capa 1"
             style="fill:#ffffff;fill-opacity:1;stroke:#4f96d1;stroke-opacity:1" />
          <g
             transform="translate(-401.01229,510.63371)"
             id="layer1-00"
             inkscape:label="Capa 1"
             style="fill:#ffffff;fill-opacity:1">
            <g
               transform="translate(5.05585,-5.251147)"
               id="layer1-4"
               inkscape:label="Capa 1"
               style="fill:#ffffff;fill-opacity:1">
              <g
                 transform="translate(-11.317,5.8824915)"
                 id="layer1-9"
                 inkscape:label="Capa 1"
                 style="fill:#ffffff;fill-opacity:1;stroke:#000000;stroke-opacity:0.8">
                <g
                   transform="translate(1.8733025,-0.28410538)"
                   id="layer1-79"
                   inkscape:label="Capa 1"
                   style="fill:#ffffff;fill-opacity:1">
                  <g
                     transform="translate(-2.0518724,-0.97858527)"
                     id="layer1-2"
                     inkscape:label="Capa 1"
                     style="fill:#ffffff;fill-opacity:1">
                    <path
                       style="display:inline;fill:#ffffff;fill-opacity:1;stroke:none;stroke-opacity:0.8"
                       inkscape:connector-curvature="0"
                       d="m 430.40543,518.99026 1.6586,1.32991 -1.56105,3.06886 c -0.7805,1.41512 0.56036,2.79363 1.41467,3.2735 0.84103,0.4724 2.1464,0.52855 3.36595,0.51153 l 2.19517,-3.6827 1.65859,0.92067 -2.87814,-5.47284 -5.85379,0.051 z m 0.24389,7.51238 3.56107,6.75156 c 0.71546,0.93769 2.06511,1.15936 3.46352,1.12526 l 3.75619,0 0,-6.39351 -7.12214,-0.0512 c -1.10568,0.0682 -2.55292,-0.17048 -3.65864,-1.43217 z m 22.40447,-12.44234 -1.93748,0.84395 -1.85874,-2.88889 c -0.82761,-1.3866 -2.65262,-0.85145 -3.47574,-0.31726 -0.81029,0.52585 -1.49105,1.67027 -2.06777,2.77313 l 2.07441,3.75569 -1.58877,1.04232 6.05969,0.0701 2.7944,-5.27897 z m -6.5208,-3.42308 -7.48062,-0.0771 c -1.14603,0.18748 -1.98926,1.29143 -2.63816,2.56317 l -1.82102,3.37139 5.44902,3.09965 3.49648,-6.36774 c 0.47793,-1.02556 1.38297,-2.20877 2.9943,-2.58951 z m 0.3254,26.05155 0.2199,-2.14819 3.3633,-0.26769 c 1.58297,-0.0707 2.01165,-1.96808 1.95546,-2.96589 -0.0553,-0.98224 -0.70066,-2.14806 -1.36103,-3.20037 l -4.20653,0.041 -0.11811,-1.93134 -2.99748,5.40495 3.14443,5.06744 z m 6.07879,-4.19319 3.69224,-6.67689 c 0.39579,-1.11957 -0.13625,-2.41161 -0.90551,-3.61058 l -1.99048,-3.26897 -5.28348,3.38803 3.73191,6.22544 c 0.64235,0.92613 1.21198,2.31205 0.75532,3.94297 z"
                       id="path4171" />
                  </g>
                </g>
              </g>
            </g>
          </g>
        </g>
      </g>
    </g>
    <text
       xml:space="preserve"
       style="font-style:normal;font-weight:normal;font-size:16.25px;line-height:125%;font-family:Sans;letter-spacing:0px;word-spacing:0px;fill:#ffffff;fill-opacity:1;stroke:none;stroke-width:1px;stroke-linecap:butt;stroke-linejoin:miter;stroke-opacity:1"
       x="-43.255291"
       y="58.768581"
       id="text4188"
       sodipodi:linespacing="125%"><tspan
         sodipodi:role="line"
         id="tspan4190"
         x="-43.255291"
         y="58.768581"
         style="font-size:15px">trash</tspan></text>
  </g>
</svg>
