<?xml version="1.0" encoding="UTF-8" standalone="no"?>
<svg
   xmlns:osb="http://www.openswatchbook.org/uri/2009/osb"
   xmlns:dc="http://purl.org/dc/elements/1.1/"
   xmlns:cc="http://creativecommons.org/ns#"
   xmlns:rdf="http://www.w3.org/1999/02/22-rdf-syntax-ns#"
   xmlns:svg="http://www.w3.org/2000/svg"
   xmlns="http://www.w3.org/2000/svg"
   xmlns:xlink="http://www.w3.org/1999/xlink"
   xmlns:sodipodi="http://sodipodi.sourceforge.net/DTD/sodipodi-0.dtd"
   xmlns:inkscape="http://www.inkscape.org/namespaces/inkscape"
   width="64"
   viewBox="0 0 64 64"
   height="64"
   id="svg2"
   version="1.1"
   inkscape:version="0.91 r13725"
   sodipodi:docname="extension.svg"
   inkscape:export-filename="E:\Usuarios\David\Desktop\android.png"
   inkscape:export-xdpi="90"
   inkscape:export-ydpi="90">
  <metadata
     id="metadata14">
    <rdf:RDF>
      <cc:Work
         rdf:about="">
        <dc:format>image/svg+xml</dc:format>
        <dc:type
           rdf:resource="http://purl.org/dc/dcmitype/StillImage" />
        <dc:title />
      </cc:Work>
    </rdf:RDF>
  </metadata>
  <defs
     id="defs12">
    <linearGradient
       osb:paint="gradient"
       id="linearGradient4207">
      <stop
         id="stop3371"
         offset="0"
         style="stop-color:#3498db;stop-opacity:1;" />
      <stop
         id="stop3373"
         offset="1"
         style="stop-color:#3498db;stop-opacity:0;" />
    </linearGradient>
    <linearGradient
       inkscape:collect="always"
       xlink:href="#linearGradient4422-07"
       id="linearGradient4182"
       x1="-74.929466"
       y1="52.199436"
       x2="-75.259552"
       y2="2.3564887"
       gradientUnits="userSpaceOnUse"
       gradientTransform="matrix(1.0749904,0,0,1.0292896,56.688954,-0.01528455)" />
    <linearGradient
       id="linearGradient4422-07">
      <stop
         id="stop4424-83"
         offset="0"
         style="stop-color:#269de0;stop-opacity:1" />
      <stop
         id="stop4426-35"
         offset="1"
         style="stop-color:#1ab4fd;stop-opacity:1" />
    </linearGradient>
    <linearGradient
       id="linearGradient4422">
      <stop
         style="stop-color:#1981f2;stop-opacity:1"
         offset="0"
         id="stop4424" />
      <stop
         style="stop-color:#21c6fb;stop-opacity:1"
         offset="1"
         id="stop4426" />
    </linearGradient>
    <linearGradient
       id="linearGradient4232">
      <stop
         style="stop-color:#3889e9;stop-opacity:1"
         offset="0"
         id="stop4234-0" />
      <stop
         style="stop-color:#5ea5fb;stop-opacity:1"
         offset="1"
         id="stop4236" />
    </linearGradient>
    <linearGradient
       inkscape:collect="always"
       xlink:href="#linearGradient4232"
       id="linearGradient4356"
       x1="-0.5"
       y1="267.75"
       x2="536"
       y2="267.75"
       gradientUnits="userSpaceOnUse" />
    <linearGradient
       inkscape:collect="always"
       xlink:href="#linearGradient4232"
       id="linearGradient4314"
       gradientUnits="userSpaceOnUse"
       x1="-0.5"
       y1="267.75"
       x2="536"
       y2="267.75" />
    <linearGradient
       inkscape:collect="always"
       xlink:href="#linearGradient4232"
       id="linearGradient4316"
       gradientUnits="userSpaceOnUse"
       x1="-0.5"
       y1="267.75"
       x2="536"
       y2="267.75" />
    <linearGradient
       inkscape:collect="always"
       xlink:href="#linearGradient4232"
       id="linearGradient4318"
       gradientUnits="userSpaceOnUse"
       x1="-0.5"
       y1="267.75"
       x2="536"
       y2="267.75" />
    <linearGradient
       inkscape:collect="always"
       xlink:href="#linearGradient4232"
       id="linearGradient4320"
       gradientUnits="userSpaceOnUse"
       x1="-0.5"
       y1="267.75"
       x2="536"
       y2="267.75" />
    <linearGradient
       inkscape:collect="always"
       xlink:href="#linearGradient4232"
       id="linearGradient4322"
       gradientUnits="userSpaceOnUse"
       x1="-0.5"
       y1="267.75"
       x2="536"
       y2="267.75" />
    <linearGradient
       inkscape:collect="always"
       xlink:href="#linearGradient4232"
       id="linearGradient4324"
       gradientUnits="userSpaceOnUse"
       x1="-0.5"
       y1="267.75"
       x2="536"
       y2="267.75" />
    <linearGradient
       inkscape:collect="always"
       xlink:href="#linearGradient4232"
       id="linearGradient4326"
       gradientUnits="userSpaceOnUse"
       x1="-0.5"
       y1="267.75"
       x2="536"
       y2="267.75" />
    <linearGradient
       inkscape:collect="always"
       xlink:href="#linearGradient4232"
       id="linearGradient4328"
       gradientUnits="userSpaceOnUse"
       x1="-0.5"
       y1="267.75"
       x2="536"
       y2="267.75" />
    <linearGradient
       inkscape:collect="always"
       xlink:href="#linearGradient4232"
       id="linearGradient4330"
       gradientUnits="userSpaceOnUse"
       x1="-0.5"
       y1="267.75"
       x2="536"
       y2="267.75" />
    <linearGradient
       inkscape:collect="always"
       xlink:href="#linearGradient4232"
       id="linearGradient4332"
       gradientUnits="userSpaceOnUse"
       x1="-0.5"
       y1="267.75"
       x2="536"
       y2="267.75" />
    <linearGradient
       inkscape:collect="always"
       xlink:href="#linearGradient4232"
       id="linearGradient4334"
       gradientUnits="userSpaceOnUse"
       x1="-0.5"
       y1="267.75"
       x2="536"
       y2="267.75" />
    <linearGradient
       inkscape:collect="always"
       xlink:href="#linearGradient4232"
       id="linearGradient4336"
       gradientUnits="userSpaceOnUse"
       x1="-0.5"
       y1="267.75"
       x2="536"
       y2="267.75" />
    <linearGradient
       inkscape:collect="always"
       xlink:href="#linearGradient4232"
       id="linearGradient4338"
       gradientUnits="userSpaceOnUse"
       x1="-0.5"
       y1="267.75"
       x2="536"
       y2="267.75" />
    <linearGradient
       inkscape:collect="always"
       xlink:href="#linearGradient4232"
       id="linearGradient4340"
       gradientUnits="userSpaceOnUse"
       x1="-0.5"
       y1="267.75"
       x2="536"
       y2="267.75" />
    <linearGradient
       inkscape:collect="always"
       xlink:href="#linearGradient4232"
       id="linearGradient4342"
       gradientUnits="userSpaceOnUse"
       x1="-0.5"
       y1="267.75"
       x2="536"
       y2="267.75" />
  </defs>
  <sodipodi:namedview
     pagecolor="#747474"
     bordercolor="#666666"
     borderopacity="1"
     objecttolerance="10"
     gridtolerance="10"
     guidetolerance="10"
     inkscape:pageopacity="1"
     inkscape:pageshadow="2"
     inkscape:window-width="1366"
     inkscape:window-height="712"
     id="namedview10"
     showgrid="false"
     inkscape:zoom="11.763496"
     inkscape:cx="32.496488"
     inkscape:cy="20.353147"
     inkscape:window-x="0"
     inkscape:window-y="0"
     inkscape:window-maximized="1"
     inkscape:current-layer="g4186"
     inkscape:snap-bbox="true"
     inkscape:bbox-nodes="true"
     inkscape:object-nodes="true"
     borderlayer="false"
     showguides="true"
     inkscape:snap-nodes="true"
     inkscape:object-paths="false"
     inkscape:showpageshadow="false"
     showborder="true"
     inkscape:snap-global="false">
    <inkscape:grid
       type="xygrid"
       id="grid4160"
       visible="true" />
    <sodipodi:guide
       position="28.888657,63.404975"
       orientation="0,35.2"
       id="guide6108" />
    <sodipodi:guide
       position="54,55.679691"
       orientation="51.200004,0"
       id="guide6112" />
    <sodipodi:guide
       position="58.527669,62"
       orientation="0,1"
       id="guide6114"
       inkscape:label=""
       inkscape:color="rgb(0,0,255)" />
    <sodipodi:guide
       position="10,4"
       orientation="-56,0"
       id="guide6116" />
    <sodipodi:guide
       position="12,62"
       orientation="0,35.2"
       id="guide6120" />
    <sodipodi:guide
       position="52,2"
       orientation="0,-40"
       id="guide6126" />
    <sodipodi:guide
       position="12,62"
       orientation="0,35.2"
       id="guide6138" />
    <sodipodi:guide
       position="55,3"
       orientation="0,-40"
       id="guide6156" />
    <sodipodi:guide
       position="53,4.3973202"
       orientation="-56,0"
       id="guide6158" />
    <sodipodi:guide
       position="61.75,50.25"
       orientation="0,22"
       id="guide4238" />
    <sodipodi:guide
       position="43,48"
       orientation="22,0"
       id="guide4240" />
    <sodipodi:guide
       position="59.125,28.125"
       orientation="0,-22"
       id="guide4242" />
    <sodipodi:guide
       position="21,26"
       orientation="-22,0"
       id="guide4244" />
  </sodipodi:namedview>
  <g
     id="g4186"
     transform="translate(56.391766,-0.17677665)">
    <rect
       ry="2.5"
       y="1.6457753"
       x="-46.391766"
       height="52.831711"
       width="44"
       id="rect4174"
       style="opacity:1;fill:url(#linearGradient4182);fill-opacity:1.0;stroke:none;stroke-width:0.30000001;stroke-linecap:round;stroke-linejoin:round;stroke-miterlimit:4;stroke-dasharray:none;stroke-dashoffset:0;stroke-opacity:1" />
    <g
       id="g4207"
       transform="matrix(1,0,0,1.6495126,-0.03571129,-40.384599)">
      <rect
         style="opacity:1;fill:#0b3a6a;fill-opacity:1;stroke:none;stroke-width:0.185;stroke-linecap:round;stroke-linejoin:round;stroke-miterlimit:4;stroke-dasharray:none;stroke-dashoffset:0;stroke-opacity:1"
         id="rect4162"
         width="44"
         height="7.6992903"
         x="-46.391766"
         y="54.477486"
         ry="2.5" />
      <rect
         style="opacity:1;fill:#0b3a6a;fill-opacity:1;stroke:none;stroke-width:0.185;stroke-linecap:round;stroke-linejoin:round;stroke-miterlimit:4;stroke-dasharray:none;stroke-dashoffset:0;stroke-opacity:1"
         id="rect4184"
         width="44"
         height="7.9118414"
         x="-46.391766"
         y="51.264462"
         ry="0" />
    </g>
    <g
       id="g4186-3"
       transform="translate(-46.754763,0.40346316)">
      <g
         transform="translate(-400.92463,-509.18113)"
         id="layer1-38"
         inkscape:label="Capa 1"
         inkscape:transform-center-x="5.4653607"
         inkscape:transform-center-y="-9.4924686">
        <g
           inkscape:transform-center-y="-9.4924686"
           inkscape:transform-center-x="5.4653607"
           inkscape:label="Capa 1"
           id="layer1"
           transform="translate(-47.017055,-3.1738266)">
          <g
             id="layer1-3"
             inkscape:label="Capa 1"
             transform="translate(0.41988239,0.03484499)">
            <g
               inkscape:label="Capa 1"
               id="layer1-7"
               transform="translate(-37.074403,0.97032551)">
              <g
                 id="g4231-5"
                 transform="matrix(1.5263052,0,0,1.5263052,376.31698,-1040.1258)" />
            </g>
          </g>
        </g>
      </g>
    </g>
    <g
       inkscape:transform-center-y="-9.4924686"
       inkscape:transform-center-x="5.4653607"
       inkscape:label="Capa 1"
       id="layer1-4"
       transform="translate(-506.29843,-513.17021)">
      <g
         id="layer1-3-3"
         inkscape:label="Capa 1"
         transform="translate(0.41988239,0.03484499)" />
    </g>
    <g
       style="fill:#ffffff;fill-opacity:1"
       inkscape:label="Capa 1"
       id="layer1-46"
       transform="matrix(0.69166833,0,0,0.69166833,-301.4981,-342.85573)">
      <g
         id="g4242"
         transform="matrix(0.05939711,0,0,0.05939711,387.63048,521.12336)"
         style="fill:#ffffff;fill-opacity:1;stroke:url(#linearGradient4356);stroke-opacity:1">
        <g
           id="g4201"
           style="fill:#ffffff;fill-opacity:1;stroke:none;stroke-opacity:1"
           transform="translate(-48.813019,-89.13681)">
          <g
             id="extension"
             style="fill:#ffffff;fill-opacity:1;stroke:none;stroke-opacity:1">
            <path
               id="path4204"
               d="m 471.75,255 -38.25,0 0,-102 c 0,-28.05 -22.95,-51 -51,-51 l -102,0 0,-38.25 C 280.5,28.05 252.45,0 216.75,0 181.05,0 153,28.05 153,63.75 L 153,102 51,102 C 22.95,102 0,124.95 0,153 l 0,96.9 38.25,0 c 38.25,0 68.85,30.6 68.85,68.85 0,38.25 -30.6,68.85 -68.85,68.85 l -38.25,0 0,96.9 c 0,28.05 22.95,51 51,51 l 96.9,0 0,-38.25 c 0,-38.25 30.6,-68.85 68.85,-68.85 38.25,0 68.85,30.6 68.85,68.85 l 0,38.25 96.9,0 c 28.05,0 51,-22.95 51,-51 l 0,-102 38.25,0 c 35.7,0 63.75,-28.05 63.75,-63.75 0,-35.7 -28.05,-63.75 -63.75,-63.75 z"
               inkscape:connector-curvature="0"
               style="fill:#ffffff;fill-opacity:1;stroke:none;stroke-opacity:1" />
          </g>
        </g>
        <g
           id="g4206"
           style="fill:#ffffff;fill-opacity:1;stroke:url(#linearGradient4314);stroke-opacity:1" />
        <g
           id="g4208"
           style="fill:#ffffff;fill-opacity:1;stroke:url(#linearGradient4316);stroke-opacity:1" />
        <g
           id="g4210"
           style="fill:#ffffff;fill-opacity:1;stroke:url(#linearGradient4318);stroke-opacity:1" />
        <g
           id="g4212"
           style="fill:#ffffff;fill-opacity:1;stroke:url(#linearGradient4320);stroke-opacity:1" />
        <g
           id="g4214"
           style="fill:#ffffff;fill-opacity:1;stroke:url(#linearGradient4322);stroke-opacity:1" />
        <g
           id="g4216"
           style="fill:#ffffff;fill-opacity:1;stroke:url(#linearGradient4324);stroke-opacity:1" />
        <g
           id="g4218"
           style="fill:#ffffff;fill-opacity:1;stroke:url(#linearGradient4326);stroke-opacity:1" />
        <g
           id="g4220"
           style="fill:#ffffff;fill-opacity:1;stroke:url(#linearGradient4328);stroke-opacity:1" />
        <g
           id="g4222"
           style="fill:#ffffff;fill-opacity:1;stroke:url(#linearGradient4330);stroke-opacity:1" />
        <g
           id="g4224"
           style="fill:#ffffff;fill-opacity:1;stroke:url(#linearGradient4332);stroke-opacity:1" />
        <g
           id="g4226"
           style="fill:#ffffff;fill-opacity:1;stroke:url(#linearGradient4334);stroke-opacity:1" />
        <g
           id="g4228"
           style="fill:#ffffff;fill-opacity:1;stroke:url(#linearGradient4336);stroke-opacity:1" />
        <g
           id="g4230"
           style="fill:#ffffff;fill-opacity:1;stroke:url(#linearGradient4338);stroke-opacity:1" />
        <g
           id="g4232"
           style="fill:#ffffff;fill-opacity:1;stroke:url(#linearGradient4340);stroke-opacity:1" />
        <g
           id="g4234"
           style="fill:#ffffff;fill-opacity:1;stroke:url(#linearGradient4342);stroke-opacity:1" />
      </g>
    </g>
    <text
       xml:space="preserve"
       style="font-style:normal;font-variant:normal;font-weight:normal;font-stretch:normal;font-size:8.125px;line-height:125%;font-family:Sans;-inkscape-font-specification:'Sans, Normal';text-align:start;letter-spacing:0px;word-spacing:0px;writing-mode:lr-tb;text-anchor:start;fill:#ffffff;fill-opacity:1;stroke:none;stroke-width:1px;stroke-linecap:butt;stroke-linejoin:miter;stroke-opacity:1"
       x="-44.115128"
       y="56.205799"
       id="text4211"
       sodipodi:linespacing="125%"><tspan
         sodipodi:role="line"
         id="tspan4213"
         x="-44.115128"
         y="56.205799"
         style="font-style:normal;font-variant:normal;font-weight:normal;font-stretch:normal;font-size:8.125px;line-height:125%;font-family:Sans;-inkscape-font-specification:'Sans, Normal';text-align:start;writing-mode:lr-tb;text-anchor:start">extension</tspan></text>
  </g>
</svg>
