<?xml version="1.0" encoding="UTF-8" standalone="no"?>
<svg
   xmlns:sketch="http://www.bohemiancoding.com/sketch/ns"
   xmlns:osb="http://www.openswatchbook.org/uri/2009/osb"
   xmlns:dc="http://purl.org/dc/elements/1.1/"
   xmlns:cc="http://creativecommons.org/ns#"
   xmlns:rdf="http://www.w3.org/1999/02/22-rdf-syntax-ns#"
   xmlns:svg="http://www.w3.org/2000/svg"
   xmlns="http://www.w3.org/2000/svg"
   xmlns:xlink="http://www.w3.org/1999/xlink"
   xmlns:sodipodi="http://sodipodi.sourceforge.net/DTD/sodipodi-0.dtd"
   xmlns:inkscape="http://www.inkscape.org/namespaces/inkscape"
   width="64"
   viewBox="0 0 64 64"
   height="64"
   id="svg2"
   version="1.1"
   inkscape:version="0.48.5 r10040"
   sodipodi:docname="gnome-mime-text-x-sh.svg"
   inkscape:export-filename="E:\Usuarios\David\Desktop\android.png"
   inkscape:export-xdpi="90"
   inkscape:export-ydpi="90">
  <metadata
     id="metadata14">
    <rdf:RDF>
      <cc:Work
         rdf:about="">
        <dc:format>image/svg+xml</dc:format>
        <dc:type
           rdf:resource="http://purl.org/dc/dcmitype/StillImage" />
        <dc:title />
      </cc:Work>
    </rdf:RDF>
  </metadata>
  <defs
     id="defs12">
    <linearGradient
       osb:paint="gradient"
       id="linearGradient4207">
      <stop
         id="stop3371"
         offset="0"
         style="stop-color:#3498db;stop-opacity:1;" />
      <stop
         id="stop3373"
         offset="1"
         style="stop-color:#3498db;stop-opacity:0;" />
    </linearGradient>
    <linearGradient
       inkscape:collect="always"
       xlink:href="#linearGradient4422-0"
       id="linearGradient4182"
       x1="-74.929466"
       y1="52.199436"
       x2="-75.259552"
       y2="2.3564887"
       gradientUnits="userSpaceOnUse"
       gradientTransform="matrix(1.0749904,0,0,1.0292896,56.688954,-0.01528455)" />
    <linearGradient
       id="linearGradient4422">
      <stop
         style="stop-color:#2cb57d;stop-opacity:1"
         offset="0"
         id="stop4424" />
      <stop
         style="stop-color:#3ec380;stop-opacity:1"
         offset="1"
         id="stop4426" />
    </linearGradient>
    <linearGradient
       id="linearGradient4422-0">
      <stop
         style="stop-color:#25292d;stop-opacity:1"
         offset="0"
         id="stop4424-4" />
      <stop
         style="stop-color:#525962;stop-opacity:1"
         offset="1"
         id="stop4426-0" />
    </linearGradient>
  </defs>
  <sodipodi:namedview
     pagecolor="#747474"
     bordercolor="#666666"
     borderopacity="1"
     objecttolerance="10"
     gridtolerance="10"
     guidetolerance="10"
     inkscape:pageopacity="1"
     inkscape:pageshadow="2"
     inkscape:window-width="1366"
     inkscape:window-height="712"
     id="namedview10"
     showgrid="false"
     inkscape:zoom="7.4552197"
     inkscape:cx="56.104064"
     inkscape:cy="34.022476"
     inkscape:window-x="0"
     inkscape:window-y="0"
     inkscape:window-maximized="1"
     inkscape:current-layer="g4186"
     inkscape:snap-bbox="true"
     inkscape:bbox-nodes="true"
     inkscape:object-nodes="true"
     borderlayer="false"
     showguides="true"
     inkscape:snap-nodes="true"
     inkscape:object-paths="false"
     inkscape:showpageshadow="false"
     showborder="true">
    <inkscape:grid
       type="xygrid"
       id="grid4160"
       visible="true" />
    <sodipodi:guide
       position="28.888657,63.404975"
       orientation="0,35.2"
       id="guide6108" />
    <sodipodi:guide
       position="54,55.679691"
       orientation="51.200004,0"
       id="guide6112" />
    <sodipodi:guide
       position="58.527669,62"
       orientation="0,1"
       id="guide6114"
       inkscape:label=""
       inkscape:color="rgb(0,0,255)" />
    <sodipodi:guide
       position="10,4"
       orientation="-56,0"
       id="guide6116" />
    <sodipodi:guide
       position="11,4"
       orientation="-2.8421709e-014,0"
       id="guide6118" />
    <sodipodi:guide
       position="12,62"
       orientation="0,35.2"
       id="guide6120" />
    <sodipodi:guide
       position="52,2"
       orientation="0,-40"
       id="guide6126" />
    <sodipodi:guide
       position="12,62"
       orientation="0,35.2"
       id="guide6138" />
    <sodipodi:guide
       position="55,3"
       orientation="0,-40"
       id="guide6156" />
    <sodipodi:guide
       position="53,4.3973202"
       orientation="-56,0"
       id="guide6158" />
    <sodipodi:guide
       position="21,48"
       orientation="0,22"
       id="guide4238" />
    <sodipodi:guide
       position="43,48"
       orientation="22,0"
       id="guide4240" />
    <sodipodi:guide
       position="43,26"
       orientation="0,-22"
       id="guide4242" />
    <sodipodi:guide
       position="21,26"
       orientation="-22,0"
       id="guide4244" />
  </sodipodi:namedview>
  <g
     id="g4186"
     transform="translate(56.391766,-0.17677665)">
    <rect
       ry="2.5"
       y="1.6457753"
       x="-46.391766"
       height="52.831711"
       width="44"
       id="rect4174"
       style="opacity:1;fill:url(#linearGradient4182);fill-opacity:1.0;stroke:none;stroke-width:0.30000001;stroke-linecap:round;stroke-linejoin:round;stroke-miterlimit:4;stroke-dasharray:none;stroke-dashoffset:0;stroke-opacity:1" />
    <g
       id="g3029"
       transform="matrix(1,0,0,1.6495126,0,-40.384599)">
      <rect
         style="fill:#111315;fill-opacity:1;stroke:none"
         id="rect4162"
         width="44"
         height="7.6992903"
         x="-46.391766"
         y="54.477486"
         ry="2.5" />
      <rect
         style="fill:#111315;fill-opacity:1;stroke:none"
         id="rect4184"
         width="44"
         height="7.9118414"
         x="-46.391766"
         y="51.264462"
         ry="0" />
    </g>
    <g
       inkscape:transform-center-y="-7.5454581"
       inkscape:transform-center-x="4.3443576"
       inkscape:label="Capa 1"
       id="layer1-2"
       transform="matrix(0.79488932,0,0,0.79488932,-371.93251,-405.73727)"
       style="fill:#ffffff;fill-opacity:1;stroke:#ffffff;stroke-width:1.12594292;stroke-miterlimit:4;stroke-dasharray:none">
      <g
         id="layer1-3-7"
         inkscape:label="Capa 1"
         transform="translate(0.41988239,0.03484499)"
         style="fill:#ffffff;fill-opacity:1;stroke:#ffffff;stroke-width:1.12594292;stroke-miterlimit:4;stroke-dasharray:none">
        <g
           style="fill:#ffffff;fill-opacity:1;stroke:#ffffff;stroke-width:0.62419573;stroke-miterlimit:4;stroke-dasharray:none"
           inkscape:label="Capa 1"
           id="layer1-34"
           transform="matrix(1.8038299,0,0,1.8038299,-589.54623,-575.79303)" />
        <g
           inkscape:label="Capa 1"
           id="layer1-6-7"
           transform="translate(-37.930796,37.016448)"
           style="fill:#ffffff;fill-opacity:1;stroke:#ffffff;stroke-width:1.12594292;stroke-miterlimit:4;stroke-dasharray:none">
          <g
             id="layer1-4-4"
             inkscape:label="Capa 1"
             transform="translate(-51.525445,5.4558218)"
             style="fill:#ffffff;fill-opacity:1;stroke:#ffffff;stroke-width:1.12594292;stroke-miterlimit:4;stroke-dasharray:none">
            <g
               transform="translate(-34.965532,2.4832225)"
               inkscape:label="Capa 1"
               id="layer1-3-0"
               style="fill:#ffffff;fill-opacity:1;stroke:#ffffff;stroke-width:1.12594292;stroke-miterlimit:4;stroke-dasharray:none" />
          </g>
          <g
             id="g4403-8"
             transform="translate(51.385479,-6.0099446)"
             style="fill:#ffffff;fill-opacity:1;stroke:#ffffff;stroke-width:1.12594292;stroke-miterlimit:4;stroke-dasharray:none" />
        </g>
        <g
           style="fill:#ffffff;fill-opacity:1;stroke:#ffffff;stroke-width:0.56954544;stroke-miterlimit:4;stroke-dasharray:none"
           transform="matrix(1.976915,0,0,1.976915,-479.23262,-470.12913)"
           id="layer1-1"
           inkscape:label="Capa 1">
          <g
             style="fill:#ffffff;fill-opacity:1;stroke:#ffffff;stroke-width:0.56954544;stroke-miterlimit:4;stroke-dasharray:none"
             transform="translate(-44.851169,1.8910219)"
             inkscape:label="Capa 1"
             id="layer1-2-6">
            <g
               style="fill:#ffffff;fill-opacity:1;stroke:#ffffff;stroke-width:0.62867113;stroke-miterlimit:4;stroke-dasharray:none"
               id="g4256"
               transform="matrix(0.90595131,0,0,0.90595131,131.92314,54.375376)">
              <g
                 style="fill:#ffffff;fill-opacity:1;stroke:#ffffff;stroke-width:5.6099091;stroke-miterlimit:4;stroke-dasharray:none"
                 transform="matrix(0.11488639,0,0,0.10931174,407.6586,498.26363)"
                 sketch:type="MSLayerGroup"
                 id="terminal7">
                <g
                   style="fill:#ffffff;fill-opacity:1;stroke:#ffffff;stroke-width:5.6099091;stroke-miterlimit:4;stroke-dasharray:none"
                   sketch:type="MSShapeGroup"
                   id="g1270">
                  <path
                     style="fill:#ffffff;fill-opacity:1;stroke:#ffffff;stroke-width:5.6099091;stroke-miterlimit:4;stroke-dasharray:none"
                     inkscape:connector-curvature="0"
                     id="path1272"
                     d="m 133.523,78.097 c -0.488,-0.489 -1.113,-0.733 -1.873,-0.733 l -78.215,0 c -0.76,0 -1.385,0.244 -1.874,0.733 -0.488,0.489 -0.732,1.113 -0.732,1.874 l 0,5.215 c 0,0.76 0.244,1.385 0.732,1.873 0.489,0.488 1.114,0.733 1.874,0.733 l 78.215,0 c 0.76,0 1.385,-0.245 1.873,-0.733 0.488,-0.488 0.732,-1.113 0.732,-1.873 l 0,-5.215 c 0.001,-0.761 -0.243,-1.385 -0.732,-1.874 l 0,0 z" />
                  <path
                     style="fill:#ffffff;fill-opacity:1;stroke:#ffffff;stroke-width:5.6099091;stroke-miterlimit:4;stroke-dasharray:none"
                     inkscape:connector-curvature="0"
                     id="path1274"
                     d="M 8.38,1.022 C 7.837,0.479 7.212,0.207 6.506,0.207 5.8,0.207 5.176,0.479 4.633,1.022 L 0.559,5.096 c -0.543,0.543 -0.814,1.167 -0.814,1.874 0,0.707 0.271,1.331 0.814,1.874 l 32.02,32.019 -32.02,32.02 c -0.543,0.543 -0.814,1.168 -0.814,1.873 0,0.707 0.271,1.331 0.814,1.874 l 4.074,4.073 c 0.543,0.544 1.167,0.814 1.873,0.814 0.706,0 1.331,-0.271 1.874,-0.814 L 46.347,42.737 c 0.543,-0.543 0.814,-1.169 0.814,-1.875 0,-0.706 -0.271,-1.331 -0.814,-1.874 L 8.38,1.022 l 0,0 z" />
                </g>
              </g>
            </g>
          </g>
        </g>
      </g>
    </g>
    <text
       xml:space="preserve"
       style="font-size:13px;font-style:normal;font-weight:normal;line-height:125%;letter-spacing:0px;word-spacing:0px;fill:#ffffff;fill-opacity:1;stroke:none;font-family:Sans"
       x="-31.701092"
       y="58.023212"
       id="text3801"
       sodipodi:linespacing="125%"><tspan
         sodipodi:role="line"
         id="tspan3803"
         x="-31.701092"
         y="58.023212">sh</tspan></text>
  </g>
</svg>
