<?xml version="1.0" encoding="UTF-8" standalone="no"?>
<svg
   xmlns:osb="http://www.openswatchbook.org/uri/2009/osb"
   xmlns:dc="http://purl.org/dc/elements/1.1/"
   xmlns:cc="http://creativecommons.org/ns#"
   xmlns:rdf="http://www.w3.org/1999/02/22-rdf-syntax-ns#"
   xmlns:svg="http://www.w3.org/2000/svg"
   xmlns="http://www.w3.org/2000/svg"
   xmlns:xlink="http://www.w3.org/1999/xlink"
   xmlns:sodipodi="http://sodipodi.sourceforge.net/DTD/sodipodi-0.dtd"
   xmlns:inkscape="http://www.inkscape.org/namespaces/inkscape"
   width="64"
   viewBox="0 0 64 64"
   height="64"
   id="svg2"
   version="1.1"
   inkscape:version="0.91 r13725"
   sodipodi:docname="gnome-mime-application-vnd.stardivision.impress.svg"
   inkscape:export-filename="E:\Usuarios\David\Desktop\android.png"
   inkscape:export-xdpi="90"
   inkscape:export-ydpi="90">
  <metadata
     id="metadata14">
    <rdf:RDF>
      <cc:Work
         rdf:about="">
        <dc:format>image/svg+xml</dc:format>
        <dc:type
           rdf:resource="http://purl.org/dc/dcmitype/StillImage" />
        <dc:title />
      </cc:Work>
    </rdf:RDF>
  </metadata>
  <defs
     id="defs12">
    <linearGradient
       osb:paint="gradient"
       id="linearGradient4207">
      <stop
         id="stop3371"
         offset="0"
         style="stop-color:#3498db;stop-opacity:1;" />
      <stop
         id="stop3373"
         offset="1"
         style="stop-color:#3498db;stop-opacity:0;" />
    </linearGradient>
    <linearGradient
       inkscape:collect="always"
       xlink:href="#linearGradient4531"
       id="linearGradient4182"
       x1="-74.929466"
       y1="52.199436"
       x2="-75.259552"
       y2="2.3564887"
       gradientUnits="userSpaceOnUse"
       gradientTransform="matrix(1.0749904,0,0,1.0292896,56.688954,-0.01528455)" />
    <linearGradient
       inkscape:collect="always"
       id="linearGradient4531">
      <stop
         style="stop-color:#de4921;stop-opacity:1"
         offset="0"
         id="stop4533" />
      <stop
         style="stop-color:#fe6943;stop-opacity:1"
         offset="1"
         id="stop4535" />
    </linearGradient>
  </defs>
  <sodipodi:namedview
     pagecolor="#747474"
     bordercolor="#666666"
     borderopacity="1"
     objecttolerance="10"
     gridtolerance="10"
     guidetolerance="10"
     inkscape:pageopacity="1"
     inkscape:pageshadow="2"
     inkscape:window-width="1366"
     inkscape:window-height="712"
     id="namedview10"
     showgrid="false"
     inkscape:zoom="23.877617"
     inkscape:cx="32.346678"
     inkscape:cy="10.759669"
     inkscape:window-x="0"
     inkscape:window-y="0"
     inkscape:window-maximized="1"
     inkscape:current-layer="g4186"
     inkscape:snap-bbox="true"
     inkscape:bbox-nodes="true"
     inkscape:object-nodes="true"
     borderlayer="false"
     showguides="true"
     inkscape:snap-nodes="true"
     inkscape:object-paths="false"
     inkscape:showpageshadow="false"
     showborder="true"
     inkscape:snap-global="false">
    <inkscape:grid
       type="xygrid"
       id="grid4160"
       visible="true" />
    <sodipodi:guide
       position="28.888657,63.404975"
       orientation="0,35.2"
       id="guide6108" />
    <sodipodi:guide
       position="54,55.679691"
       orientation="51.200004,0"
       id="guide6112" />
    <sodipodi:guide
       position="58.527669,62"
       orientation="0,1"
       id="guide6114"
       inkscape:label=""
       inkscape:color="rgb(0,0,255)" />
    <sodipodi:guide
       position="10,4"
       orientation="-56,0"
       id="guide6116" />
    <sodipodi:guide
       position="11,4"
       orientation="-2.8421709e-014,0"
       id="guide6118" />
    <sodipodi:guide
       position="12,62"
       orientation="0,35.2"
       id="guide6120" />
    <sodipodi:guide
       position="52,2"
       orientation="0,-40"
       id="guide6126" />
    <sodipodi:guide
       position="12,62"
       orientation="0,35.2"
       id="guide6138" />
    <sodipodi:guide
       position="55,3"
       orientation="0,-40"
       id="guide6156" />
    <sodipodi:guide
       position="53,4.3973202"
       orientation="-56,0"
       id="guide6158" />
    <sodipodi:guide
       position="75.385354,51.971231"
       orientation="0,22"
       id="guide4238" />
    <sodipodi:guide
       position="43,48"
       orientation="22,0"
       id="guide4240" />
    <sodipodi:guide
       position="55.896142,28.692451"
       orientation="0,-22"
       id="guide4242" />
    <sodipodi:guide
       position="21,26"
       orientation="-22,0"
       id="guide4244" />
  </sodipodi:namedview>
  <g
     id="g4186"
     transform="translate(56.391766,-0.17677665)">
    <rect
       ry="2.5"
       y="1.6457753"
       x="-46.391766"
       height="52.831711"
       width="44"
       id="rect4174"
       style="opacity:1;fill:url(#linearGradient4182);fill-opacity:1.0;stroke:none;stroke-width:0.30000001;stroke-linecap:round;stroke-linejoin:round;stroke-miterlimit:4;stroke-dasharray:none;stroke-dashoffset:0;stroke-opacity:1" />
    <g
       id="g4188"
       transform="matrix(1,0,0,1.6495126,0,-40.384599)">
      <rect
         style="opacity:1;fill:#62210f;fill-opacity:1;stroke:none;stroke-width:0.185;stroke-linecap:round;stroke-linejoin:round;stroke-miterlimit:4;stroke-dasharray:none;stroke-dashoffset:0;stroke-opacity:1"
         id="rect4162"
         width="44"
         height="7.6992903"
         x="-46.391766"
         y="54.477486"
         ry="2.5" />
      <rect
         style="opacity:1;fill:#622110;fill-opacity:1;stroke:none;stroke-width:0.185;stroke-linecap:round;stroke-linejoin:round;stroke-miterlimit:4;stroke-dasharray:none;stroke-dashoffset:0;stroke-opacity:1"
         id="rect4184"
         width="44"
         height="7.9118414"
         x="-46.391766"
         y="51.264462"
         ry="0" />
    </g>
    <g
       id="g4186-3"
       transform="translate(-46.754763,-3.2391994)">
      <g
         transform="translate(-400.92463,-509.18113)"
         id="layer1-38"
         inkscape:label="Capa 1"
         inkscape:transform-center-x="5.4653607"
         inkscape:transform-center-y="-9.4924686">
        <g
           transform="translate(0.41988239,0.03484499)"
           inkscape:label="Capa 1"
           id="layer1-3-6">
          <g
             inkscape:label="Capa 1"
             id="layer1-2"
             transform="matrix(1.0037077,0,0,1.0037077,11.267145,17.846026)">
            <g
               transform="matrix(1.5263052,0,0,1.5263052,376.49864,-1040.1735)"
               id="g4414-9">
              <g
                 id="g4180"
                 transform="matrix(1.1526351,0,0,1.1526351,-4.8344134,-156.43331)">
                <g
                   transform="matrix(0.56841663,0,0,0.56841663,10.426663,1005.5718)"
                   id="g4186-6" />
                <g
                   id="g4246"
                   transform="matrix(0.49019093,0,0,0.49019093,12.268743,518.1207)">
                  <path
                     sodipodi:nodetypes="ccccccc"
                     inkscape:connector-curvature="0"
                     id="path4248"
                     d="m 11.447345,1036.9442 11.636697,0 -3.21e-4,-24.4983 -11.533282,3e-4 c -1.268259,-0.094 -1.7825661,0.023 -1.7825661,1.1721 l 0,22.0916 c -0.07966,1.261 0.4462081,1.2343 1.6794721,1.2343 z"
                     style="opacity:1;fill:#ffffff;fill-opacity:1;fill-rule:evenodd;stroke:none;stroke-width:1px;stroke-linecap:butt;stroke-linejoin:miter;stroke-opacity:1" />
                  <path
                     sodipodi:nodetypes="ccccccccc"
                     inkscape:connector-curvature="0"
                     id="path4248-6"
                     d="m 33.843953,1036.9367 -5.282394,0 -2.708421,-2.2737 0,-19.9506 1.855796,-2.2737 6.135019,0 c 0.848365,-0.094 0.916631,0.023 0.916631,1.1721 l 0,22.0916 c 0.05328,1.261 -0.09168,1.2343 -0.916631,1.2343 z"
                     style="opacity:1;fill:none;fill-opacity:1;fill-rule:evenodd;stroke:#ffffff;stroke-width:0.8117075;stroke-linecap:butt;stroke-linejoin:miter;stroke-miterlimit:4;stroke-dasharray:none;stroke-opacity:1" />
                  <path
                     sodipodi:nodetypes="ccccccc"
                     inkscape:connector-curvature="0"
                     id="path4248-6-0"
                     d="m 31.841628,1038.1035 -10.029586,-1.1715 -2e-5,-24.4861 9.945926,-0.9324 c 1.230149,-0.094 1.296492,0.2446 1.296492,1.3937 l -0.08368,23.3688 c 0.07726,1.261 0.06707,1.8275 -1.129132,1.8275 z"
                     style="opacity:1;fill:#ffffff;fill-opacity:1;fill-rule:evenodd;stroke:none;stroke-width:1px;stroke-linecap:butt;stroke-linejoin:miter;stroke-opacity:1" />
                </g>
              </g>
            </g>
          </g>
        </g>
        <g
           inkscape:transform-center-y="-7.8077555"
           inkscape:transform-center-x="4.4953748"
           inkscape:label="Capa 1"
           id="layer1-6"
           transform="matrix(0.822521,0,0,0.822521,33.237139,92.831224)">
          <g
             id="layer1-3-1"
             inkscape:label="Capa 1"
             transform="translate(0.41988239,0.03484499)">
            <g
               inkscape:label="Capa 1"
               id="layer1-7-3"
               transform="translate(-37.074403,0.97032551)">
              <g
                 id="g4231-5-7"
                 transform="matrix(1.5263052,0,0,1.5263052,376.31698,-1040.1258)" />
            </g>
            <g
               style="fill:#ee5932;fill-opacity:1"
               inkscape:label="Capa 1"
               id="layer1-2-1"
               transform="matrix(0.55195686,0,0,0.55195686,213.80421,250.4843)">
              <g
                 style="fill:#ee5932;fill-opacity:1"
                 id="g4231"
                 transform="matrix(1.5263052,0,0,1.5263052,376.31698,-1040.1258)">
                <g
                   style="fill:#ee5932;fill-opacity:1"
                   transform="matrix(1.3252588,0,0,1.3252588,19.110416,-348.87075)"
                   id="g16462">
                  <path
                     d="m 27.811111,1031.7185 c 2.099214,0 3.801279,1.6989 3.801279,3.798 l -3.801279,0 c 7.86e-4,0 7.86e-4,-3.798 0,-3.798 z m -1.068518,1.0329 0,3.8014 3.801279,0 c 0,2.1016 -1.701278,3.8013 -3.801279,3.8013 -2.100003,0 -3.799704,-1.6997 -3.799704,-3.8013 0,-2.1 1.700489,-3.8014 3.799704,-3.8014 z"
                     id="path8"
                     inkscape:connector-curvature="0"
                     sodipodi:nodetypes="cccccccssc"
                     style="fill:#ee5932;fill-opacity:1" />
                  <g
                     style="fill:#ee5932;fill-opacity:1"
                     transform="matrix(0.65517696,0,0,0.65517696,-269.19476,689.44552)"
                     id="layer1-5"
                     inkscape:label="Capa 1">
                    <g
                       style="fill:#ee5932;fill-opacity:1"
                       id="g4414"
                       transform="matrix(1.5263052,0,0,1.5263052,376.49864,-1040.1735)">
                      <g
                         id="g4400"
                         transform="matrix(0.58108546,0,0,0.58108546,60.115518,434.2178)"
                         style="fill:#ee5932;fill-opacity:1">
                        <rect
                           ry="0.31200001"
                           rx="0"
                           y="1018.0945"
                           x="-8.0180883"
                           height="2.2304921"
                           width="11.898284"
                           id="rect4315"
                           style="opacity:1;fill:#ee5932;fill-opacity:1;stroke:none;stroke-width:1.02600002;stroke-linecap:round;stroke-linejoin:round;stroke-miterlimit:4;stroke-dasharray:none;stroke-opacity:1" />
                        <rect
                           ry="0.31200001"
                           rx="0"
                           y="1021.9661"
                           x="-8.0059242"
                           height="2.2304921"
                           width="11.898284"
                           id="rect4315-4"
                           style="opacity:1;fill:#ee5932;fill-opacity:1;stroke:none;stroke-width:1.02600002;stroke-linecap:round;stroke-linejoin:round;stroke-miterlimit:4;stroke-dasharray:none;stroke-opacity:1" />
                        <rect
                           ry="0.31200001"
                           rx="0"
                           y="1025.5597"
                           x="-7.9879999"
                           height="2.2304921"
                           width="11.898284"
                           id="rect4315-4-4"
                           style="opacity:1;fill:#ee5932;fill-opacity:1;stroke:none;stroke-width:1.02600002;stroke-linecap:round;stroke-linejoin:round;stroke-miterlimit:4;stroke-dasharray:none;stroke-opacity:1" />
                      </g>
                    </g>
                  </g>
                </g>
              </g>
            </g>
          </g>
        </g>
      </g>
    </g>
    <text
       xml:space="preserve"
       style="font-style:normal;font-weight:normal;font-size:16.25px;line-height:125%;font-family:Sans;letter-spacing:0px;word-spacing:0px;fill:#ffffff;fill-opacity:1;stroke:none;stroke-width:1px;stroke-linecap:butt;stroke-linejoin:miter;stroke-opacity:1"
       x="-37.68211"
       y="57.191669"
       id="text4192"
       sodipodi:linespacing="125%"><tspan
         sodipodi:role="line"
         id="tspan4194"
         x="-37.68211"
         y="57.191669">ppt</tspan></text>
  </g>
</svg>
