<?xml version="1.0" encoding="UTF-8" standalone="no"?>
<svg
   xmlns:osb="http://www.openswatchbook.org/uri/2009/osb"
   xmlns:dc="http://purl.org/dc/elements/1.1/"
   xmlns:cc="http://creativecommons.org/ns#"
   xmlns:rdf="http://www.w3.org/1999/02/22-rdf-syntax-ns#"
   xmlns:svg="http://www.w3.org/2000/svg"
   xmlns="http://www.w3.org/2000/svg"
   xmlns:xlink="http://www.w3.org/1999/xlink"
   xmlns:sodipodi="http://sodipodi.sourceforge.net/DTD/sodipodi-0.dtd"
   xmlns:inkscape="http://www.inkscape.org/namespaces/inkscape"
   width="64"
   viewBox="0 0 64 64"
   height="64"
   id="svg2"
   version="1.1"
   inkscape:version="0.48.5 r10040"
   sodipodi:docname="gnome-mime-application-x-python-bytecode.svg"
   inkscape:export-filename="E:\Usuarios\David\Desktop\android.png"
   inkscape:export-xdpi="90"
   inkscape:export-ydpi="90">
  <metadata
     id="metadata14">
    <rdf:RDF>
      <cc:Work
         rdf:about="">
        <dc:format>image/svg+xml</dc:format>
        <dc:type
           rdf:resource="http://purl.org/dc/dcmitype/StillImage" />
        <dc:title />
      </cc:Work>
    </rdf:RDF>
  </metadata>
  <defs
     id="defs12">
    <linearGradient
       osb:paint="gradient"
       id="linearGradient4207">
      <stop
         id="stop3371"
         offset="0"
         style="stop-color:#3498db;stop-opacity:1;" />
      <stop
         id="stop3373"
         offset="1"
         style="stop-color:#3498db;stop-opacity:0;" />
    </linearGradient>
    <linearGradient
       inkscape:collect="always"
       xlink:href="#linearGradient4422"
       id="linearGradient4182"
       x1="-74.929466"
       y1="52.199436"
       x2="-75.259552"
       y2="2.3564887"
       gradientUnits="userSpaceOnUse"
       gradientTransform="matrix(1.0749904,0,0,1.0292896,56.688954,-0.01528455)" />
    <linearGradient
       id="linearGradient4422-4">
      <stop
         style="stop-color:#1981f2;stop-opacity:1"
         offset="0"
         id="stop4424-5" />
      <stop
         style="stop-color:#21c6fb;stop-opacity:1"
         offset="1"
         id="stop4426-1" />
    </linearGradient>
    <linearGradient
       id="linearGradient4422">
      <stop
         style="stop-color:#f4a01c;stop-opacity:1"
         offset="0"
         id="stop4424" />
      <stop
         style="stop-color:#fac632;stop-opacity:1"
         offset="1"
         id="stop4426" />
    </linearGradient>
  </defs>
  <sodipodi:namedview
     pagecolor="#747474"
     bordercolor="#666666"
     borderopacity="1"
     objecttolerance="10"
     gridtolerance="10"
     guidetolerance="10"
     inkscape:pageopacity="1"
     inkscape:pageshadow="2"
     inkscape:window-width="1366"
     inkscape:window-height="712"
     id="namedview10"
     showgrid="false"
     inkscape:zoom="13.409908"
     inkscape:cx="32.479825"
     inkscape:cy="14.742463"
     inkscape:window-x="0"
     inkscape:window-y="0"
     inkscape:window-maximized="1"
     inkscape:current-layer="g4186"
     inkscape:snap-bbox="true"
     inkscape:bbox-nodes="true"
     inkscape:object-nodes="true"
     borderlayer="false"
     showguides="true"
     inkscape:snap-nodes="true"
     inkscape:object-paths="false"
     inkscape:showpageshadow="false"
     showborder="true"
     inkscape:snap-global="false">
    <inkscape:grid
       type="xygrid"
       id="grid4160"
       visible="true" />
    <sodipodi:guide
       position="28.888657,63.404975"
       orientation="0,35.2"
       id="guide6108" />
    <sodipodi:guide
       position="54,55.679691"
       orientation="51.200004,0"
       id="guide6112" />
    <sodipodi:guide
       position="58.527669,62"
       orientation="0,1"
       id="guide6114"
       inkscape:label=""
       inkscape:color="rgb(0,0,255)" />
    <sodipodi:guide
       position="10,4"
       orientation="-56,0"
       id="guide6116" />
    <sodipodi:guide
       position="11,4"
       orientation="-2.8421709e-014,0"
       id="guide6118" />
    <sodipodi:guide
       position="12,62"
       orientation="0,35.2"
       id="guide6120" />
    <sodipodi:guide
       position="52,2"
       orientation="0,-40"
       id="guide6126" />
    <sodipodi:guide
       position="12,62"
       orientation="0,35.2"
       id="guide6138" />
    <sodipodi:guide
       position="55,3"
       orientation="0,-40"
       id="guide6156" />
    <sodipodi:guide
       position="53,4.3973202"
       orientation="-56,0"
       id="guide6158" />
    <sodipodi:guide
       position="21,48"
       orientation="0,22"
       id="guide4238" />
    <sodipodi:guide
       position="43,48"
       orientation="22,0"
       id="guide4240" />
    <sodipodi:guide
       position="43,26"
       orientation="0,-22"
       id="guide4242" />
    <sodipodi:guide
       position="21,26"
       orientation="-22,0"
       id="guide4244" />
  </sodipodi:namedview>
  <g
     id="g4186"
     transform="translate(56.391766,-0.17677665)">
    <rect
       ry="2.5"
       y="1.6457753"
       x="-46.391766"
       height="52.831711"
       width="44"
       id="rect4174"
       style="opacity:1;fill:url(#linearGradient4182);fill-opacity:1.0;stroke:none;stroke-width:0.30000001;stroke-linecap:round;stroke-linejoin:round;stroke-miterlimit:4;stroke-dasharray:none;stroke-dashoffset:0;stroke-opacity:1" />
    <g
       id="g3024"
       transform="matrix(1,0,0,1.6495126,0,-40.384599)">
      <rect
         style="fill:#6b470d;fill-opacity:1;stroke:none"
         id="rect4162"
         width="44"
         height="7.6992903"
         x="-46.391766"
         y="54.477486"
         ry="2.5" />
      <rect
         style="fill:#6b470d;fill-opacity:1;stroke:none"
         id="rect4184"
         width="44"
         height="7.9118414"
         x="-46.391766"
         y="51.264462"
         ry="0" />
    </g>
    <g
       style="font-style:normal;font-weight:normal;font-size:9.36996746px;line-height:125%;font-family:sans-serif;letter-spacing:0px;word-spacing:0px;fill:#ffffff;fill-opacity:1;stroke:none;stroke-width:1px;stroke-linecap:butt;stroke-linejoin:miter;stroke-opacity:1"
       id="text4161"
       transform="matrix(0.81954967,0,0,0.81954967,-4.334287,10.321731)">
      <g
         style="font-size:13.75px;font-style:normal;font-weight:normal;line-height:125%;letter-spacing:0px;word-spacing:0px;fill:#ffffff;fill-opacity:1;stroke:none;font-family:sans-serif"
         id="text4269"
         transform="translate(52.789626,-13.41446)" />
      <g
         inkscape:transform-center-y="-9.4924686"
         inkscape:transform-center-x="5.4653607"
         inkscape:label="Capa 1"
         id="layer1-9"
         transform="matrix(1.2201823,0,0,1.2201823,-593.24288,-637.0788)">
        <g
           id="layer1-3-3"
           inkscape:label="Capa 1"
           transform="translate(-7.7623044,0.04167365)" />
      </g>
      <g
         inkscape:transform-center-y="-9.4924686"
         inkscape:transform-center-x="5.4653607"
         inkscape:label="Capa 1"
         id="layer1"
         transform="matrix(1.2201823,0,0,1.2201823,-601.75362,-635.15973)"
         style="fill:#ffffff">
        <g
           id="layer1-3"
           inkscape:label="Capa 1"
           transform="translate(0.41988239,0.03484499)"
           style="fill:#ffffff">
          <g
             style="font-style:normal;font-weight:normal;font-size:9.36996745999999980px;line-height:125%;font-family:sans-serif;letter-spacing:0px;word-spacing:0px;fill:#ffffff;fill-opacity:1;stroke:none;stroke-width:1px;stroke-linecap:butt;stroke-linejoin:miter;stroke-opacity:1"
             transform="matrix(0.88117665,0,0,0.88117665,404.05204,511.65407)"
             id="g138566">
            <path
               inkscape:connector-curvature="0"
               style="opacity:1;fill:#ffffff;fill-opacity:1;stroke:none"
               d="m 75.623397,16.694814 c -1.886114,0 -3.404538,1.518424 -3.404538,3.404538 l 0,2.269691 5.674229,0 0,1.134846 -5.674229,0 -2.269692,0 c -2.514818,0 -4.539383,2.024565 -4.539383,4.539384 l 0,2.269691 c 0,2.514819 2.024565,4.539384 4.539383,4.539384 l 0,-2.269692 c 0,-2.08943 1.405155,-3.822825 3.320311,-4.355415 0.166643,-0.04635 0.33748,-0.08205 0.509794,-0.113042 0.232462,-0.03642 0.466278,-0.07093 0.709279,-0.07093 l 4.539383,0 3.659434,0 c 0.541527,-0.602464 0.87995,-1.392119 0.87995,-2.269692 l 0,-5.674229 c 0,-1.886114 -1.518424,-3.404538 -3.404538,-3.404538 z m 10.213612,6.809075 0,2.269692 c 0,2.08943 -1.405154,3.822825 -3.32031,4.355415 -0.166643,0.04635 -0.337481,0.08205 -0.509794,0.113042 -0.232462,0.03642 -0.466278,0.07093 -0.709279,0.07093 l -4.539383,0 -3.659435,0 c -0.541527,0.602464 -0.879949,1.392119 -0.879949,2.269692 l 0,5.674229 c 0,1.886114 1.518424,3.404538 3.404538,3.404538 l 4.539383,0 c 1.886114,0 3.404538,-1.518424 3.404538,-3.404538 l 0,-2.269691 -5.67423,0 0,-1.134846 5.67423,0 2.269691,0 c 2.514819,0 4.539384,-2.024565 4.539384,-4.539384 l 0,-2.269691 c 0,-2.514819 -2.024565,-4.539384 -4.539384,-4.539388 z"
               id="rect4270"
               sodipodi:nodetypes="ssccccssscsccsccsssscsccsccsssssccccsssc" />
          </g>
        </g>
      </g>
    </g>
    <text
       xml:space="preserve"
       style="font-size:9.87965012px;font-style:normal;font-weight:normal;line-height:125%;letter-spacing:0px;word-spacing:0px;fill:#ffffff;fill-opacity:1;stroke:none;font-family:Sans"
       x="-43.373035"
       y="54.826588"
       id="text3028"
       sodipodi:linespacing="125%"
       transform="scale(0.987965,1.0121816)"><tspan
         sodipodi:role="line"
         id="tspan3030"
         x="-43.373035"
         y="54.826588"
         style="font-size:8.30000019px;fill:#ffffff">bytecode</tspan></text>
  </g>
</svg>
