<?xml version="1.0" encoding="UTF-8" standalone="no"?>
<svg
   xmlns:osb="http://www.openswatchbook.org/uri/2009/osb"
   xmlns:dc="http://purl.org/dc/elements/1.1/"
   xmlns:cc="http://creativecommons.org/ns#"
   xmlns:rdf="http://www.w3.org/1999/02/22-rdf-syntax-ns#"
   xmlns:svg="http://www.w3.org/2000/svg"
   xmlns="http://www.w3.org/2000/svg"
   xmlns:xlink="http://www.w3.org/1999/xlink"
   xmlns:sodipodi="http://sodipodi.sourceforge.net/DTD/sodipodi-0.dtd"
   xmlns:inkscape="http://www.inkscape.org/namespaces/inkscape"
   width="64"
   viewBox="0 0 64 64"
   height="64"
   id="svg2"
   version="1.1"
   inkscape:version="0.48.5 r10040"
   sodipodi:docname="image-x-xfig.svg"
   inkscape:export-filename="E:\Usuarios\David\Desktop\android.png"
   inkscape:export-xdpi="90"
   inkscape:export-ydpi="90">
  <metadata
     id="metadata14">
    <rdf:RDF>
      <cc:Work
         rdf:about="">
        <dc:format>image/svg+xml</dc:format>
        <dc:type
           rdf:resource="http://purl.org/dc/dcmitype/StillImage" />
        <dc:title />
      </cc:Work>
    </rdf:RDF>
  </metadata>
  <defs
     id="defs12">
    <linearGradient
       id="linearGradient4373"
       inkscape:collect="always">
      <stop
         id="stop4375"
         offset="0"
         style="stop-color:#2aaa76;stop-opacity:1" />
      <stop
         id="stop4377"
         offset="1"
         style="stop-color:#3ec380;stop-opacity:1" />
    </linearGradient>
    <linearGradient
       osb:paint="gradient"
       id="linearGradient4207">
      <stop
         id="stop3371"
         offset="0"
         style="stop-color:#3498db;stop-opacity:1;" />
      <stop
         id="stop3373"
         offset="1"
         style="stop-color:#3498db;stop-opacity:0;" />
    </linearGradient>
    <linearGradient
       inkscape:collect="always"
       xlink:href="#linearGradient4373"
       id="linearGradient4182"
       x1="-74.929466"
       y1="52.199436"
       x2="-75.259552"
       y2="2.3564887"
       gradientUnits="userSpaceOnUse"
       gradientTransform="matrix(1.0749904,0,0,1.0292896,56.688954,-0.01528455)" />
    <linearGradient
       id="linearGradient4422-9">
      <stop
         style="stop-color:#ffa400;stop-opacity:1"
         offset="0"
         id="stop4424-7" />
      <stop
         style="stop-color:#ffdd00;stop-opacity:1"
         offset="1"
         id="stop4426-7" />
    </linearGradient>
    <linearGradient
       id="linearGradient4422-1">
      <stop
         style="stop-color:#8798a9;stop-opacity:1"
         offset="0"
         id="stop4424-78" />
      <stop
         style="stop-color:#aeb6be;stop-opacity:1"
         offset="1"
         id="stop4426-8" />
    </linearGradient>
  </defs>
  <sodipodi:namedview
     pagecolor="#747474"
     bordercolor="#666666"
     borderopacity="1"
     objecttolerance="10"
     gridtolerance="10"
     guidetolerance="10"
     inkscape:pageopacity="1"
     inkscape:pageshadow="2"
     inkscape:window-width="1366"
     inkscape:window-height="712"
     id="namedview10"
     showgrid="false"
     inkscape:zoom="4.3100489"
     inkscape:cx="60.360538"
     inkscape:cy="24.359111"
     inkscape:window-x="0"
     inkscape:window-y="0"
     inkscape:window-maximized="1"
     inkscape:current-layer="g4186"
     inkscape:snap-bbox="true"
     inkscape:bbox-nodes="true"
     inkscape:object-nodes="true"
     borderlayer="false"
     showguides="true"
     inkscape:snap-nodes="true"
     inkscape:object-paths="false"
     inkscape:showpageshadow="false"
     showborder="true">
    <inkscape:grid
       type="xygrid"
       id="grid4160"
       visible="true" />
    <sodipodi:guide
       position="28.888657,63.404975"
       orientation="0,35.2"
       id="guide6108" />
    <sodipodi:guide
       position="54,55.679691"
       orientation="51.200004,0"
       id="guide6112" />
    <sodipodi:guide
       position="58.527669,62"
       orientation="0,1"
       id="guide6114"
       inkscape:label=""
       inkscape:color="rgb(0,0,255)" />
    <sodipodi:guide
       position="10,4"
       orientation="-56,0"
       id="guide6116" />
    <sodipodi:guide
       position="11,4"
       orientation="-2.8421709e-014,0"
       id="guide6118" />
    <sodipodi:guide
       position="12,62"
       orientation="0,35.2"
       id="guide6120" />
    <sodipodi:guide
       position="52,2"
       orientation="0,-40"
       id="guide6126" />
    <sodipodi:guide
       position="12,62"
       orientation="0,35.2"
       id="guide6138" />
    <sodipodi:guide
       position="55,3"
       orientation="0,-40"
       id="guide6156" />
    <sodipodi:guide
       position="53,4.3973202"
       orientation="-56,0"
       id="guide6158" />
    <sodipodi:guide
       position="50.971,50.702731"
       orientation="0,22"
       id="guide4238" />
    <sodipodi:guide
       position="43,48"
       orientation="22,0"
       id="guide4240" />
    <sodipodi:guide
       position="54,28.436452"
       orientation="0,-22"
       id="guide4242" />
    <sodipodi:guide
       position="21,26"
       orientation="-22,0"
       id="guide4244" />
  </sodipodi:namedview>
  <g
     id="g4186"
     transform="translate(56.391766,-0.17677665)">
    <rect
       ry="2.5"
       y="1.6457753"
       x="-46.391766"
       height="52.831711"
       width="44"
       id="rect4174"
       style="opacity:1;fill:url(#linearGradient4182);fill-opacity:1.0;stroke:none;stroke-width:0.30000001;stroke-linecap:round;stroke-linejoin:round;stroke-miterlimit:4;stroke-dasharray:none;stroke-dashoffset:0;stroke-opacity:1" />
    <g
       id="g3026"
       transform="matrix(1,0,0,1.6495126,0,-40.384599)">
      <rect
         style="fill:#144e36;fill-opacity:1;stroke:none"
         id="rect4162"
         width="44"
         height="7.6992903"
         x="-46.391766"
         y="54.477486"
         ry="2.5" />
      <rect
         style="fill:#144e36;fill-opacity:1;stroke:none"
         id="rect4184"
         width="44"
         height="7.9118414"
         x="-46.391766"
         y="51.264462"
         ry="0" />
    </g>
    <g
       style="font-size:9.36996746px;font-style:normal;font-weight:normal;line-height:125%;letter-spacing:0px;word-spacing:0px;fill:#ffffff;fill-opacity:1;stroke:none;font-family:sans-serif"
       id="text4161"
       transform="matrix(0.81954967,0,0,0.81954967,-4.7056822,8.0190414)">
      <g
         inkscape:transform-center-y="-9.4924686"
         inkscape:transform-center-x="5.4653607"
         inkscape:label="Capa 1"
         id="layer1"
         transform="matrix(1.2201823,0,0,1.2201823,-623.4766,-636.76059)"
         style="fill:#ffffff;fill-opacity:1">
        <g
           id="layer1-3"
           inkscape:label="Capa 1"
           transform="translate(0.41988239,0.03484499)"
           style="fill:#ffffff;fill-opacity:1">
          <g
             id="g3"
             transform="matrix(0.05921667,0,0,0.05921667,479.34779,527.27709)"
             style="fill:#ffffff;fill-opacity:1">
            <g
               id="g5"
               style="fill:#ffffff;fill-opacity:1">
              <path
                 d="m 46.275469,370.64195 125.172781,0 0,16.25706 45.51747,0 0,-16.25706 125.71298,0 0,18.37718 45.51642,0 0,-45.51642 -16.79412,0 0,-127.29499 16.25601,0 0,-45.51747 -16.25601,0 0,-118.175227 16.79517,0 0,-45.5174695 -45.51643,0 0,9.2584625 -125.71298,0 0,-16.256016 -45.51747,0 0,16.256016 -125.173821,0 0,-11.3796285 -45.517469,0 0,45.5174695 16.256016,0 0,120.296393 -16.256016,0 0,45.51747 16.256016,0 0,125.17278 -16.256016,0 0,45.51851 45.517469,0 0,-16.25706 z m -13.004395,0 0,3.25162 -19.507636,0 0,-19.50763 3.25162,0 13.005439,0 3.25162,0 0,3.25162 0,13.00439 z M 184.45369,16.256016 l 0,-3.251621 19.50763,0 0,3.251621 0,6.800454 0,6.203941 0,3.250577 -19.50763,0 0,-3.250577 0,-6.203941 0,-6.800454 z m 19.50763,354.385934 0,3.25162 -19.50763,0 0,-3.25162 0,-6.80045 0,-6.2029 0,-3.25162 19.50763,0 0,3.25162 0,6.2029 0,6.80045 z m 2.16601,-169.87682 c 1.26394,1.2702 1.26394,3.32671 0,4.5969 -0.64135,0.63406 -1.46625,0.95213 -2.30471,0.95213 -0.82594,0 -1.66126,-0.31807 -2.29949,-0.95213 l -7.31458,-7.31562 -7.31563,7.31562 c -0.63822,0.63406 -1.46938,0.95213 -2.30158,0.95213 -0.83219,0 -1.66335,-0.31807 -2.30262,-0.95213 -1.26602,-1.27019 -1.26602,-3.3267 0,-4.5969 l 7.31563,-7.31562 -7.31563,-7.31563 c -1.26602,-1.26602 -1.26602,-3.33088 0,-4.59794 1.26707,-1.26707 3.33088,-1.26707 4.59795,0 l 7.32188,7.31562 7.31458,-7.31562 c 1.2702,-1.26707 3.32775,-1.26707 4.59795,0 1.27019,1.26706 1.27019,3.33087 0,4.59794 l -7.31563,7.31563 7.32188,7.31562 z m 169.06444,175.24857 -19.50659,0 0,-5.37175 0,-13.00439 0,-1.13046 2.71142,0 13.00544,0 3.79077,0 0,19.5066 z m -32.51203,-32.51099 0,14.13589 -101.83683,0 C 297.60027,341.54631 342.30536,296.84227 358.3966,240.07866 l 0,103.42405 -15.71686,0 z m 31.97183,-140.29939 -3.25057,0 -6.80046,0 -6.20394,0 -3.25058,0 0,-19.50763 3.25058,0 6.20394,0 6.80046,0 3.25057,0 0,19.50763 z m -18.96639,-183.200328 15.71582,0 3.79077,0 0,19.507636 -3.79077,0 -13.00544,0 -2.71142,0 0,-10.249174 0,-9.258462 z m -13.00544,9.258462 0,23.253569 15.71582,0 0,94.305327 C 342.30431,90.053613 297.59923,45.354784 240.84187,29.260411 l 101.83787,0 z M 13.763438,17.880783 l 3.25162,0 16.256016,0 0,11.379628 0,8.128008 -3.25162,0 -13.005438,0 -3.251621,0 0,-19.507636 z m 32.512031,32.513074 0,-21.132403 101.296631,0 C 90.811613,45.354784 46.113827,90.053613 30.019454,146.8141 l 0,-96.420243 16.256015,0 z m -32.512031,133.300783 3.25162,0 6.800454,0 6.203942,0 3.25162,0 0,19.50764 -3.25162,0 -6.203942,0 -6.800454,0 -3.25162,0 0,-19.50764 z m 16.256016,56.38402 C 46.113827,296.84227 90.811613,341.54631 147.57314,357.6386 l -101.297671,0 0,-16.25706 -16.256015,0 0,-101.30288 z"
                 id="path7"
                 inkscape:connector-curvature="0"
                 style="fill:#ffffff;fill-opacity:1;stroke:#2eb078;stroke-opacity:1" />
            </g>
          </g>
        </g>
      </g>
    </g>
    <text
       xml:space="preserve"
       style="font-size:13px;font-style:normal;font-weight:normal;line-height:125%;letter-spacing:0px;word-spacing:0px;fill:#ffffff;fill-opacity:1;stroke:#ffffff;font-family:Sans;stroke-width:0.2;stroke-miterlimit:4;stroke-dasharray:none"
       x="-36.061932"
       y="56.763203"
       id="text3030"
       sodipodi:linespacing="125%"><tspan
         sodipodi:role="line"
         id="tspan3032"
         x="-36.061932"
         y="56.763203">xfig</tspan></text>
  </g>
</svg>
