<?xml version="1.0" encoding="UTF-8" standalone="no"?>
<svg
   xmlns:osb="http://www.openswatchbook.org/uri/2009/osb"
   xmlns:dc="http://purl.org/dc/elements/1.1/"
   xmlns:cc="http://creativecommons.org/ns#"
   xmlns:rdf="http://www.w3.org/1999/02/22-rdf-syntax-ns#"
   xmlns:svg="http://www.w3.org/2000/svg"
   xmlns="http://www.w3.org/2000/svg"
   xmlns:xlink="http://www.w3.org/1999/xlink"
   xmlns:sodipodi="http://sodipodi.sourceforge.net/DTD/sodipodi-0.dtd"
   xmlns:inkscape="http://www.inkscape.org/namespaces/inkscape"
   width="64"
   viewBox="0 0 64 64"
   height="64"
   id="svg2"
   version="1.1"
   inkscape:version="0.48.5 r10040"
   sodipodi:docname="text-htmlh.svg"
   inkscape:export-filename="E:\Usuarios\David\Desktop\android.png"
   inkscape:export-xdpi="90"
   inkscape:export-ydpi="90">
  <metadata
     id="metadata14">
    <rdf:RDF>
      <cc:Work
         rdf:about="">
        <dc:format>image/svg+xml</dc:format>
        <dc:type
           rdf:resource="http://purl.org/dc/dcmitype/StillImage" />
        <dc:title />
      </cc:Work>
    </rdf:RDF>
  </metadata>
  <defs
     id="defs12">
    <linearGradient
       id="linearGradient5911"
       inkscape:collect="always">
      <stop
         id="stop5913"
         offset="0"
         style="stop-color:#0cb096;stop-opacity:1" />
      <stop
         id="stop5915"
         offset="1"
         style="stop-color:#34d6b6;stop-opacity:1" />
    </linearGradient>
    <linearGradient
       osb:paint="gradient"
       id="linearGradient4207">
      <stop
         id="stop3371"
         offset="0"
         style="stop-color:#3498db;stop-opacity:1;" />
      <stop
         id="stop3373"
         offset="1"
         style="stop-color:#3498db;stop-opacity:0;" />
    </linearGradient>
    <linearGradient
       inkscape:collect="always"
       xlink:href="#linearGradient5911"
       id="linearGradient4182"
       x1="-74.929466"
       y1="52.199436"
       x2="-75.259552"
       y2="2.3564887"
       gradientUnits="userSpaceOnUse"
       gradientTransform="matrix(1.0749904,0,0,1.0292896,56.688954,-0.01528455)" />
    <linearGradient
       id="linearGradient4422-1">
      <stop
         style="stop-color:#8798a9;stop-opacity:1"
         offset="0"
         id="stop4424-78" />
      <stop
         style="stop-color:#aeb6be;stop-opacity:1"
         offset="1"
         id="stop4426-8" />
    </linearGradient>
  </defs>
  <sodipodi:namedview
     pagecolor="#747474"
     bordercolor="#666666"
     borderopacity="1"
     objecttolerance="10"
     gridtolerance="10"
     guidetolerance="10"
     inkscape:pageopacity="1"
     inkscape:pageshadow="2"
     inkscape:window-width="1366"
     inkscape:window-height="712"
     id="namedview10"
     showgrid="false"
     inkscape:zoom="7.4552197"
     inkscape:cx="50.979783"
     inkscape:cy="28.657108"
     inkscape:window-x="0"
     inkscape:window-y="0"
     inkscape:window-maximized="1"
     inkscape:current-layer="g4186"
     inkscape:snap-bbox="true"
     inkscape:bbox-nodes="true"
     inkscape:object-nodes="true"
     borderlayer="false"
     showguides="true"
     inkscape:snap-nodes="true"
     inkscape:object-paths="false"
     inkscape:showpageshadow="false"
     showborder="true">
    <inkscape:grid
       type="xygrid"
       id="grid4160"
       visible="true" />
    <sodipodi:guide
       position="28.888657,63.404975"
       orientation="0,35.2"
       id="guide6108" />
    <sodipodi:guide
       position="54,55.679691"
       orientation="51.200004,0"
       id="guide6112" />
    <sodipodi:guide
       position="58.527669,62"
       orientation="0,1"
       id="guide6114"
       inkscape:label=""
       inkscape:color="rgb(0,0,255)" />
    <sodipodi:guide
       position="10,4"
       orientation="-56,0"
       id="guide6116" />
    <sodipodi:guide
       position="11,4"
       orientation="-2.8421709e-014,0"
       id="guide6118" />
    <sodipodi:guide
       position="12,62"
       orientation="0,35.2"
       id="guide6120" />
    <sodipodi:guide
       position="52,2"
       orientation="0,-40"
       id="guide6126" />
    <sodipodi:guide
       position="12,62"
       orientation="0,35.2"
       id="guide6138" />
    <sodipodi:guide
       position="55,3"
       orientation="0,-40"
       id="guide6156" />
    <sodipodi:guide
       position="53,4.3973202"
       orientation="-56,0"
       id="guide6158" />
    <sodipodi:guide
       position="49.361389,50.568597"
       orientation="0,22"
       id="guide4238" />
    <sodipodi:guide
       position="43,48"
       orientation="22,0"
       id="guide4240" />
    <sodipodi:guide
       position="47.617644,28.704721"
       orientation="0,-22"
       id="guide4242" />
    <sodipodi:guide
       position="21,26"
       orientation="-22,0"
       id="guide4244" />
  </sodipodi:namedview>
  <g
     id="g4186"
     transform="translate(56.391766,-0.17677665)">
    <rect
       ry="2.5"
       y="1.6457753"
       x="-46.391766"
       height="52.831711"
       width="44"
       id="rect4174"
       style="opacity:1;fill:url(#linearGradient4182);fill-opacity:1.0;stroke:none;stroke-width:0.30000001;stroke-linecap:round;stroke-linejoin:round;stroke-miterlimit:4;stroke-dasharray:none;stroke-dashoffset:0;stroke-opacity:1" />
    <g
       id="g3025"
       transform="matrix(1,0,0,1.6495126,0,-40.384599)">
      <rect
         style="fill:#075447;fill-opacity:1;stroke:none"
         id="rect4162"
         width="44"
         height="7.6992903"
         x="-46.391766"
         y="54.477486"
         ry="2.5" />
      <rect
         style="fill:#075447;fill-opacity:1;stroke:none"
         id="rect4184"
         width="44"
         height="7.9118414"
         x="-46.391766"
         y="51.264462"
         ry="0" />
    </g>
    <g
       id="g4186-3"
       transform="translate(-46.754763,0.40346316)">
      <g
         transform="translate(-400.92463,-509.18113)"
         id="layer1-38"
         inkscape:label="Capa 1"
         inkscape:transform-center-x="5.4653607"
         inkscape:transform-center-y="-9.4924686">
        <g
           inkscape:transform-center-y="-9.4924686"
           inkscape:transform-center-x="5.4653607"
           inkscape:label="Capa 1"
           id="layer1"
           transform="translate(-47.017055,-3.1738266)">
          <g
             id="layer1-3"
             inkscape:label="Capa 1"
             transform="translate(0.41988239,0.03484499)">
            <g
               inkscape:label="Capa 1"
               id="layer1-7"
               transform="translate(-37.074403,0.97032551)">
              <g
                 id="g4231-5"
                 transform="matrix(1.5263052,0,0,1.5263052,376.31698,-1040.1258)" />
            </g>
          </g>
        </g>
      </g>
    </g>
    <g
       inkscape:transform-center-y="-9.4924686"
       inkscape:transform-center-x="5.4653607"
       inkscape:label="Capa 1"
       id="layer1-5"
       transform="translate(-498.27194,-515.0457)"
       style="fill:#ffffff">
      <g
         id="layer1-3-6"
         inkscape:label="Capa 1"
         transform="translate(0.41988239,0.03484499)"
         style="fill:#ffffff">
        <g
           transform="matrix(0.84553102,0,0,0.84553102,400.08021,513.31021)"
           id="g8884"
           style="fill:#ffffff">
          <path
             inkscape:connector-curvature="0"
             style="color:#000000;fill:#ffffff;fill-opacity:1;fill-rule:nonzero"
             d="m 86.785793,18.105574 c -7.207305,0 -13.009575,5.802271 -13.009575,13.009576 0,7.207305 5.80227,13.009575 13.009575,13.009575 7.207305,0 13.009577,-5.80227 13.009577,-13.009575 0,-7.207305 -5.802272,-13.009576 -13.009577,-13.009576 z m 0,1.182688 c 1.965182,0 3.810083,0.482423 5.437596,1.323596 0.0051,0.04699 0.0038,0.0816 0,0.133977 0.06859,0.03074 0.108164,0.15791 0.224064,0.221754 0.04258,0.02365 0.07067,0.03416 0.110877,0.05543 0.06859,0.03784 0.125072,0.100097 0.110877,0.166316 -0.01892,0.09694 -0.15553,0.09308 -0.221754,0.164006 0.0095,0.137144 -0.0754,0.131845 -0.110878,0.224063 0.0213,0.05912 0.101431,0.03994 0.110878,0.110878 -0.01187,0.07566 -0.139263,0.08598 -0.110878,0.164005 0.127718,0.09931 0.267446,0.01655 0.38807,0 0.2649,-0.0331 0.499754,0.01682 0.662953,-0.110877 -0.02129,-0.125318 0.180507,-0.163693 0.166316,-0.277193 -0.01187,-0.08513 -0.157895,-0.104891 -0.221755,-0.164005 -0.01432,-0.0133 -0.03267,-0.04661 -0.04851,-0.07162 0.195162,0.128224 0.381426,0.267291 0.568243,0.406549 -0.04603,0.03743 -0.08407,0.08474 -0.131666,0.106258 -0.04968,0.02127 -0.121375,0.02707 -0.166316,0.05543 -0.06623,0.04494 -0.09063,0.114343 -0.166316,0.164005 -0.05439,0.03784 -0.220428,0.166317 -0.277192,0.166317 -0.06859,0 -0.172086,-0.06969 -0.221754,-0.05313 -0.07095,0.02127 -0.03046,0.135631 -0.110877,0.164006 -0.156102,0.05675 -0.444548,-0.123217 -0.498947,0.110877 0.06623,0.134781 0.269811,0.09302 0.38807,0.166315 0.07333,0.04728 0.202833,0.252236 0.221754,0.332631 0.01892,0.06622 0.02838,0.317133 0,0.388071 -0.07333,0.189165 -0.28135,0.171043 -0.498946,0.166315 -0.05913,0 -0.111918,0.0047 -0.166316,0 -0.366604,-0.02365 -0.719145,-0.151593 -0.884707,0.110877 0.01187,0.200988 0.04495,0.323968 0,0.498947 -0.03312,0.127693 -0.173411,0.221497 -0.166317,0.33263 0.0023,0.05675 0.09668,0.143725 0.110878,0.221756 0.0095,0.04257 -0.01892,0.128486 0,0.166315 0.06149,0.115856 0.223833,-0.01891 0.332631,0 0.104065,0.01656 0.224065,0.161329 0.224065,0.277192 0,0.08275 -0.06116,0.252235 -0.113183,0.332631 -0.104065,0.156062 -0.294503,0.136631 -0.443508,0.221754 -0.122995,0.07094 -0.148435,0.211983 -0.221754,0.334942 -0.07804,0.132416 -0.141628,0.198904 -0.110878,0.388069 -0.106434,0.210446 -0.225855,0.341831 -0.445817,0.443509 -0.06386,0.02837 -0.162624,0.06831 -0.221755,0.110877 -0.04729,0.03311 -0.100086,0.09064 -0.166316,0.166316 -0.08277,0.09223 -0.176816,0.150818 -0.221753,0.221754 -0.03312,0.05438 -0.01998,0.148452 -0.05544,0.221754 -0.05205,0.09931 -0.155529,0.177881 -0.221755,0.277192 -0.03075,0.04728 -0.07776,0.104836 -0.110877,0.166316 -0.07569,0.137144 -0.180505,0.267476 -0.166315,0.388069 0.01187,0.115857 0.15922,0.12008 0.166315,0.221755 0.0071,0.05675 -0.0578,0.102521 -0.05544,0.164006 0.0023,0.08985 0.04835,0.153127 0.05544,0.224064 0.01655,0.174978 -0.07778,0.212037 -0.110877,0.33263 -0.01655,0.05675 0.0142,0.121391 0,0.166317 -0.02838,0.08748 -0.163951,0.170841 -0.166315,0.274882 -0.0023,0.07329 0.103778,0.120027 0.110877,0.224063 0.0047,0.07094 -0.06732,0.155547 -0.05313,0.221755 0.02601,0.127692 0.288731,0.288757 0.388069,0.38807 0.134816,0.134781 0.273501,0.246196 0.332632,0.38807 0.04968,0.120595 0.07409,0.298216 0.166316,0.38807 0.06859,0.06621 0.189682,0.09544 0.277192,0.164005 0.08277,0.06384 0.187372,0.09774 0.274883,0.166315 0.144277,0.113503 0.324963,0.349186 0.554385,0.332632 0.120621,-0.0095 0.253255,-0.08722 0.388069,-0.110877 0.139546,-0.02365 0.301597,-0.06732 0.443509,-0.05313 0.108805,0.01187 0.221412,0.06022 0.334942,0.05313 0.118257,-0.0071 0.253255,-0.05176 0.388069,-0.110877 0.234152,-0.101674 0.59956,-0.271411 0.940145,-0.221754 0.260169,0.03784 0.263699,0.327643 0.445819,0.443508 0.208136,0.01891 0.386513,-0.0402 0.552075,0 0.125357,0.03075 0.265368,0.235628 0.277192,0.334941 0.01187,0.101673 -0.09668,0.21104 -0.110876,0.274882 -0.03312,0.137146 -0.03179,0.300583 -0.05543,0.38807 -0.01892,0.06858 -0.05551,0.153181 -0.05312,0.221755 0,0.06148 0.102466,0.196797 0.166315,0.277192 0.07805,0.09931 0.180276,0.168423 0.274883,0.277193 0.17266,0.198625 0.267446,0.458233 0.388069,0.7207 0.03075,0.06621 -0.02838,0.08355 0,0.166317 -0.05203,0.397248 -0.183338,0.668959 -0.443507,1.10877 -0.122983,0.141873 -0.279558,0.321603 -0.277193,0.498947 -0.0095,0.425622 0.240676,0.639586 0.221754,1.051021 -0.04258,0.55331 -0.01069,0.646882 -0.05312,0.942456 0.186848,0.09458 0.107547,0.355817 0.05312,0.552074 -0.08042,0.234094 -0.176816,0.289758 -0.221754,0.44582 0.146498,0.06338 0.307386,0.04789 0.471228,0.007 -2.154778,2.296699 -5.212982,3.73514 -8.625327,3.73514 -1.452006,0 -2.835581,-0.27152 -4.118622,-0.74611 -0.04712,-0.01865 -0.09909,-0.02933 -0.145525,-0.05544 -0.07333,-0.04257 -0.120339,-0.1319 -0.110877,-0.221753 0.122996,-0.05202 0.355942,0.117168 0.445817,-0.05543 0.04495,-0.08276 -0.05913,-0.249873 0,-0.332631 0.04258,-0.05675 0.300558,-0.09668 0.388071,-0.110877 0.125355,-0.02127 0.261674,-0.01047 0.33263,-0.05543 0.07805,-0.04966 0.180507,-0.186028 0.166316,-0.332631 -0.0071,-0.06858 -0.05648,-0.104837 -0.110877,-0.166317 -0.04495,-0.05202 -0.02469,-0.116719 -0.05543,-0.164005 -0.05677,-0.08275 -0.142665,-0.101155 -0.166317,-0.221754 0.170293,-0.0331 0.419284,0.179447 0.665263,0.110877 0.115904,-0.0331 0.278233,-0.279299 0.332632,-0.38807 0.01656,-0.03311 -0.01892,-0.126113 0,-0.166315 0.02128,-0.04494 0.106082,-0.08722 0.113183,-0.110877 0.01656,-0.06384 -0.0142,-0.07068 0,-0.110878 0.04258,-0.120595 0.150797,-0.189704 0.221754,-0.277193 0.05439,-0.06622 0.116661,-0.153179 0.166314,-0.221752 0.05678,-0.07329 0.07304,-0.102468 0.110877,-0.166317 0.03548,-0.215177 -0.107481,-0.362909 -0.05544,-0.552075 0.05678,-0.212812 0.348614,-0.348871 0.554386,-0.445818 0.07095,-0.0331 0.162621,-0.08959 0.221754,-0.110878 0.14191,-0.04966 0.311056,-0.06358 0.443507,-0.110877 0.222327,-0.08039 0.279271,-0.295594 0.38807,-0.498946 0.05205,-0.09457 0.103734,-0.208622 0.113182,-0.277193 0.0095,-0.06148 -0.01187,-0.09308 0,-0.164006 0.01187,-0.07093 0.03421,-0.146032 0.05312,-0.224063 0.02602,-0.101684 0.05544,-0.272262 0.05544,-0.385761 0,-0.09458 -0.05308,-0.138939 -0.05544,-0.224064 -0.01655,-0.307394 0.108243,-0.331062 0.221754,-0.498947 0.05678,-0.08275 0.07067,-0.215767 0.110877,-0.274882 0.19158,-0.283748 0.522599,-0.403535 0.498946,-0.833888 -0.0095,-0.141875 -0.05992,-0.454019 -0.164005,-0.498947 -0.05913,-0.02601 -0.189682,-0.02003 -0.277193,-0.05313 -0.279091,-0.104043 -0.485223,-0.422172 -0.77614,-0.445818 -0.06149,-0.0023 -0.09773,0.0023 -0.166315,0 -0.113525,-0.0023 -0.25804,-0.09668 -0.385759,-0.110878 -0.08043,-0.0095 -0.229889,0.02365 -0.277193,0 -0.07333,-0.03547 -0.05176,-0.181556 -0.110877,-0.221754 -0.04729,-0.0331 -0.150743,-0.02942 -0.224064,-0.05543 -0.115904,-0.04491 -0.197814,-0.10142 -0.332632,-0.110877 -0.04258,-0.0023 -0.119011,0.0071 -0.166314,0 -0.07333,-0.01187 -0.153166,-0.06831 -0.221755,-0.110877 -0.08516,-0.05203 -0.130838,-0.09072 -0.166316,-0.164006 0.07805,-0.255374 -0.169719,-0.296849 -0.221754,-0.445818 -0.02365,-0.06858 0.02365,-0.160274 0,-0.221754 -0.03075,-0.08748 -0.124784,-0.148453 -0.221754,-0.221754 -0.170293,-0.132418 -0.310772,-0.246453 -0.554385,-0.277193 -0.108804,-0.01187 -0.257985,0.0095 -0.38807,0 -0.13718,-0.0095 -0.284001,-0.103524 -0.38807,-0.221754 -0.09934,-0.115856 -0.134244,-0.222808 -0.221754,-0.277192 -0.08277,-0.05202 -0.220426,-0.05649 -0.277193,-0.110878 -0.02601,-0.02365 -0.02948,-0.0565 -0.05313,-0.110877 -0.04258,-0.08513 -0.107481,-0.120028 -0.05544,-0.224064 -0.09462,-0.04728 -0.0623,0.07435 -0.164006,0.05543 -0.09225,-0.13005 -0.179934,-0.206514 -0.38807,-0.166315 -0.09462,0.01891 -0.16603,0.163951 -0.277193,0.166315 -0.09224,0.0023 -0.156568,-0.149765 -0.277193,-0.166315 -0.09224,-0.01187 -0.213333,0.06963 -0.277192,0.05544 -0.101706,-0.01891 -0.129512,-0.104835 -0.221754,-0.166315 -0.06859,-0.04494 -0.183912,-0.16637 -0.221754,-0.164006 -0.118257,0.0023 -0.224873,0.251494 -0.388069,0.164006 -0.08043,-0.101684 0.147742,-0.127177 0.05312,-0.221754 -0.07095,-0.07094 -0.10725,0.01761 -0.164005,0.05543 -0.06623,0.04494 -0.148435,0.08487 -0.221754,0.110877 -0.163198,0.06148 -0.26035,0.04467 -0.38807,0.110877 -0.118257,0.06148 -0.155475,0.1566 -0.224064,0.277193 -0.05439,0.09932 -0.138973,0.270154 -0.221754,0.274881 -0.09934,0.0071 -0.187315,-0.126176 -0.277193,-0.164003 -0.271996,-0.118235 -0.438261,0.05078 -0.662952,0.05312 -0.208136,0.0023 -0.508408,-0.302686 -0.498948,-0.498945 0.0071,-0.120595 0.09668,-0.294541 0.110877,-0.443509 0.01187,-0.118233 0.10853,-0.22617 0.110878,-0.334942 0.0023,-0.144239 -0.240334,-0.258326 -0.334941,-0.274882 -0.222325,-0.0402 -0.520754,0.09932 -0.773829,0 -0.04729,-0.08039 0.08249,-0.146033 0.110877,-0.224065 0.01655,-0.04492 -0.01656,-0.06121 0,-0.110877 0.02838,-0.07566 0.128529,-0.141358 0.164005,-0.221753 0.02601,-0.06148 0.02944,-0.146088 0.05543,-0.221755 0.03075,-0.08513 0.103779,-0.160275 0.110877,-0.221754 0.0095,-0.08039 -0.04701,-0.172044 -0.110877,-0.224064 -0.196309,0.01187 -0.332288,0.0034 -0.445818,0.05543 -0.255439,0.115856 -0.185704,0.473991 -0.443508,0.554384 -0.08752,0.02837 -0.233294,0.03658 -0.332631,0.05312 -0.04325,0.0084 -0.09242,0.01552 -0.140906,0.02772 0.165184,-0.858629 0.420882,-1.683981 0.759969,-2.464705 0.05688,-1.6e-5 0.115856,-0.0076 0.154766,0 0.08987,0.01656 0.146014,0.103778 0.224065,0.110876 0.217597,0.01656 0.263755,-0.182611 0.443508,-0.277193 0.184484,0.02601 0.277889,-0.01891 0.445817,0 0.113528,0.01187 0.242755,0.159222 0.332632,0.166317 0.07569,0.0023 0.09537,-0.06728 0.166316,-0.05543 0.07096,0.01187 0.209927,0.136627 0.221754,0.221753 0.01187,0.106412 -0.08619,0.216712 -0.05544,0.33494 0.111161,0.113504 0.34048,0.155547 0.498947,0.221755 0.104065,-0.08513 0.01656,-0.265113 0,-0.38807 -0.0023,-0.05438 0.0071,-0.116647 0,-0.166315 -0.01187,-0.08513 -0.05313,-0.148453 -0.05313,-0.221755 0,-0.338133 0.271889,-0.477407 0.498946,-0.609823 0.09697,-0.05676 0.192046,-0.179193 0.277193,-0.221754 0.120621,-0.05912 0.177855,-0.05411 0.277192,-0.110878 0.179754,-0.101673 0.359402,-0.219076 0.498947,-0.33494 0.06387,-0.153698 -0.0071,-0.347614 0,-0.498947 0.06387,-0.0402 0.09541,0.0071 0.164007,0 0.108804,-0.02365 0.162568,-0.160275 0.224063,-0.221754 0.03548,-0.03547 0.121437,-0.07541 0.164005,-0.110877 0.108804,-0.08513 0.127145,-0.18392 0.221755,-0.221755 0.03311,-0.01187 0.114283,-0.04125 0.166315,-0.05543 0.07097,-0.01891 0.163665,-0.07068 0.277193,-0.110877 0.07333,-0.02601 0.248811,-0.02476 0.277192,-0.05312 0.03548,-0.03547 -0.0095,-0.16968 0,-0.224065 0.05678,-0.267196 0.481819,-0.295906 0.720702,-0.38576 0.16556,-0.06384 0.314464,-0.201784 0.498947,-0.166315 -0.03548,0.127693 -0.197063,0.123493 -0.166316,0.277192 0.0402,0.215175 0.312383,-0.08014 0.388069,-0.110877 0.144277,-0.06148 0.420611,-0.09774 0.609825,-0.166315 0.165563,-0.05911 0.433294,-0.1411 0.277192,-0.332631 -0.130085,-0.0095 -0.163665,0.116719 -0.277192,0.164006 -0.07805,0.01187 -0.09777,-0.04841 -0.164006,-0.05313 -0.06387,-0.0023 -0.102467,0.06496 -0.166316,0.05313 -0.06387,-0.01187 -0.156855,-0.146088 -0.166315,-0.221755 -0.02602,-0.198624 0.196776,-0.241467 0.277192,-0.388068 -0.05439,-0.179709 -0.292138,-0.03994 -0.443508,-0.110878 0.01656,-0.106412 0.09641,-0.200473 0.221754,-0.221754 0.101706,-0.01656 0.326576,0.0034 0.38807,0.05312 0.03548,0.03074 -0.0013,0.116649 0.05312,0.166316 0.06149,0.05438 0.143649,0.01187 0.224064,0 0.02838,-0.134782 -0.189969,-0.07883 -0.166315,-0.166316 0.160831,-0.104042 0.468952,-0.02713 0.665262,-0.05312 0.113526,-0.01656 0.230928,-0.111931 0.332631,-0.166316 0.09462,-0.05438 0.177856,-0.142988 0.277193,-0.05312 0.02838,0.09695 -0.05649,0.1721 -0.110877,0.221754 -0.18212,0.160793 -0.357037,0.312147 -0.498947,0.498948 0.08752,0.08513 0.241428,0.03657 0.38807,0.05313 0.05677,0.0071 0.10487,0.04598 0.164006,0.05543 0.07096,0.01187 0.167298,-0.01187 0.224063,0 0.09934,0.02365 0.12241,0.166315 0.221754,0.166315 0.160833,0 0.145379,-0.168421 0.05313,-0.277192 0.02838,-0.111138 0.09567,-0.199159 0.05544,-0.277192 -0.07333,-0.146603 -0.373877,0.02048 -0.388069,-0.166316 -0.0095,-0.118233 0.123748,-0.1319 0.166315,-0.221755 -0.01892,-0.226997 0.187658,-0.237789 0.164006,-0.443508 -0.01187,-0.08513 -0.104868,-0.08592 -0.164006,-0.166315 -0.03075,-0.04257 -0.01996,-0.135576 -0.05544,-0.166315 -0.122984,-0.104043 -0.373879,-0.07626 -0.38807,-0.274884 -0.0071,-0.118232 0.01656,-0.207253 0,-0.33494 -0.01655,-0.120596 -0.11769,-0.475302 -0.221755,-0.498948 -0.132448,-0.02837 -0.229601,0.203891 -0.388068,0.277193 -0.08514,0.0402 -0.24512,0.07199 -0.332632,0.05543 -0.05678,-0.01187 -0.159222,-0.05754 -0.166315,-0.166316 -0.01187,-0.125318 0.08724,-0.144775 0.110877,-0.277193 1.018959,-0.284381 2.089468,-0.448131 3.201572,-0.448131 z m -4.770023,1.002514 c -0.03405,0.486443 -0.46797,0.738489 -0.979415,0.725321 -0.108804,0.104044 -0.05176,0.299268 -0.110877,0.443508 -0.04968,0.120595 -0.212008,0.233524 -0.332631,0.224065 -0.08752,-0.0071 -0.221754,-0.141305 -0.221754,-0.224065 0,-0.101684 0.140648,-0.159019 0.05313,-0.274881 0.0037,-0.02429 0.03549,-0.04876 0.06006,-0.07393 0.489072,-0.307912 0.997125,-0.5853 1.531489,-0.820029 z m 9.872678,0.563625 c -0.0435,0.008 -0.06772,0.03047 -0.106247,0.05312 -0.08987,0.05438 -0.09773,0.140307 -0.166317,0.166315 -0.09697,0.03547 -0.207562,0.0234 -0.221753,0.110877 -0.01187,0.0733 0.0578,0.09779 0.05543,0.164005 -0.03548,0.0875 -0.09195,0.115337 -0.110878,0.221755 0.120622,0.196259 0.403071,-0.01069 0.552075,-0.05313 0.06623,-0.01891 0.130839,-0.0034 0.166316,-0.05544 0.0402,-0.06384 0.02239,-0.185027 0.05313,-0.274882 0.03311,-0.09932 0.122712,-0.07882 0.110877,-0.166315 -0.0095,-0.0875 -0.185991,-0.180504 -0.332631,-0.166316 z m -12.947207,1.411372 c 0.115053,0.05893 0.309238,0.325207 0.08777,0.42041 -0.02365,0.01187 -0.331306,0.06496 -0.388069,0.05313 -0.04581,-0.0066 -0.08389,-0.04865 -0.122426,-0.09009 0.135961,-0.132774 0.280468,-0.257335 0.422718,-0.383451 z m 0.418099,0.528977 c 0.05678,0.0023 0.100086,0.106149 0.166316,0.110877 0.06387,0.0047 0.12847,-0.06727 0.166315,-0.05543 0.09934,0.02601 0.147743,0.203891 0.05313,0.277194 -0.07806,0.0095 -0.10725,-0.06495 -0.164006,-0.05312 -0.160832,0.02837 -0.214318,0.342091 -0.334942,0.332631 -0.113526,-0.01187 -0.169029,-0.24987 -0.05312,-0.332631 0.0023,-0.07094 -0.06019,-0.09537 -0.05543,-0.166316 0.03548,-0.04494 0.127145,-0.117973 0.221754,-0.110877 l 0,-0.0023 z m -0.552076,0.05543 c 0.03312,0 0.04131,-0.0142 0.05313,0 -0.01655,0.125317 -0.06702,0.164948 -0.164006,0.224063 -0.167928,0.101674 -0.280542,0.225969 -0.334941,0.443508 -0.01655,0.06385 -0.194467,0.238308 -0.274883,0.221755 -0.186849,-0.0402 0.0683,-0.389124 0.110876,-0.443508 0.04729,-0.05911 0.109598,-0.100108 0.164007,-0.166316 0.05439,-0.06622 0.05886,-0.18392 0.110877,-0.221754 0.05678,-0.0402 0.235603,-0.06017 0.334941,-0.05543 l 0,-0.0023 z m 16.733198,0.316461 c 0.07469,0.08226 0.151694,0.162803 0.224064,0.247163 -0.07457,-0.08726 -0.196284,-0.120726 -0.224064,-0.247163 z m -0.723011,0.0231 c 0.186849,-0.01187 0.302925,0.219133 0.38807,0.332632 0.07096,0.09223 0.272176,0.213347 0.38807,0.277193 0.06623,0.03547 0.148432,0.07777 0.221753,0.110877 0.15374,0.06858 0.436414,0.292175 0.443504,0.443507 0.0027,0.07566 -0.06491,0.153126 -0.05311,0.224064 0.115895,0.01891 0.219388,-0.161328 0.221758,-0.277193 0,-0.02749 -0.0094,-0.04459 -0.02083,-0.06236 0.334738,0.468342 0.636349,0.959805 0.900873,1.476051 -0.104263,0.0306 -0.193406,0.08093 -0.210206,0.182484 -0.02361,0.132419 0.0878,0.308986 -0.110879,0.332631 -0.125355,0.01656 -0.273161,-0.128488 -0.445814,-0.166315 -0.07099,-0.01656 -0.164991,0.01891 -0.221758,0 -0.130085,-0.04494 -0.110593,-0.196852 -0.221749,-0.274882 -0.06384,-0.04494 -0.233242,-0.09905 -0.334945,-0.110878 -0.06387,-0.0071 -0.09777,0.0095 -0.164005,0 -0.08042,-0.0095 -0.210968,-0.01525 -0.277193,-0.05544 -0.06387,-0.0402 -0.205198,-0.11193 -0.221754,-0.166316 -0.02601,-0.08749 0.159274,-0.201584 0.164006,-0.274883 0.0047,-0.05676 -0.04131,-0.0812 -0.05313,-0.166315 -0.0095,-0.05202 0.01187,-0.133211 0,-0.166316 -0.01655,-0.06148 -0.127093,-0.108495 -0.224063,-0.110877 -0.08516,0 -0.148436,0.05543 -0.221755,0.05543 -0.104065,0.0023 -0.313422,-0.06726 -0.443508,-0.05543 -0.07805,0.0071 -0.150744,0.05072 -0.224064,0.05543 -0.205772,0.01656 -0.338116,-0.01187 -0.498946,0 -0.115904,0.0071 -0.334711,0.06121 -0.443508,0.110877 -0.05439,0.02601 -0.09537,0.07541 -0.166317,0.110878 -0.0331,0.01655 -0.0683,0.03421 -0.110877,0.05312 -0.06623,0.03075 -0.157894,0.09663 -0.221754,0.113184 -0.09224,0.02365 -0.220141,-0.0071 -0.388069,0 -0.120622,0.0071 -0.330266,-0.02207 -0.332632,-0.166316 -0.0023,-0.219906 0.401688,-0.128487 0.609824,-0.166316 0.07805,-0.01655 0.127145,-0.109619 0.221754,-0.164006 0.04495,-0.02601 0.0683,-0.02705 0.110877,-0.05543 0.07097,-0.04966 0.209929,-0.165005 0.221754,-0.221754 0.0095,-0.05201 -0.06022,-0.128488 -0.05312,-0.166315 0.0095,-0.04966 0.100151,-0.100175 0.164004,-0.164006 0.09934,-0.09932 0.154205,-0.21335 0.277193,-0.277193 0.08279,-0.04494 0.239349,-0.04467 0.277193,-0.110878 0.0095,-0.07566 -0.0023,-0.09774 0,-0.166315 0.05205,-0.04728 0.0683,-0.10142 0.110877,-0.110877 0.127717,-0.02837 0.239063,0.06022 0.38807,0.05313 0.06387,-0.0023 0.153165,-0.0081 0.221755,-0.05313 0.05678,-0.03783 0.109564,-0.0825 0.166315,-0.110877 0.06149,-0.03311 0.09063,-0.106148 0.166315,-0.110876 z m -14.799779,0.113184 0.0023,0 c 0.05439,-0.0023 0.107184,0 0.166315,0 0.05913,0 0.140353,-0.02365 0.164005,0 -0.03785,0.156062 -0.375956,0.109884 -0.498945,0.05313 0.0071,-0.05911 0.09063,-0.04603 0.166314,-0.05313 z m 15.746854,0.113183 c 0.06756,0.07879 0.137771,0.155036 0.20327,0.235614 -0.011,-0.0062 -0.02736,-0.0089 -0.03693,-0.01617 -0.06579,-0.05168 -0.100954,-0.139467 -0.166312,-0.219444 z m -16.301239,0.164007 c 0.0402,0 0.0706,-0.01656 0.113184,0 -0.108804,0.09222 -0.256604,0.162641 -0.445818,0.221754 -0.08987,0.02837 -0.205199,0.04387 -0.221754,-0.05544 -0.01893,-0.122956 0.08591,-0.09905 0.166315,-0.110877 0.104065,-0.01187 0.265136,-0.05077 0.38576,-0.05313 l 0.0023,-0.0023 z m 15.409603,0.0023 c -0.07805,0.02601 -0.115903,0.200472 0,0.221754 0.05439,-0.03311 0.06963,-0.12244 0.05544,-0.221754 -0.03075,-0.03311 -0.0318,-0.0095 -0.05544,0 z m -0.05313,0.332631 c -0.03785,0.01187 -0.07068,0.01069 -0.110877,0.05312 0.0023,0.132414 0.02602,0.219076 0,0.334941 0.07569,0.146602 0.23704,0.04387 0.274882,-0.05543 0.04495,-0.245914 -0.05048,-0.363369 -0.164005,-0.332631 z m 1.051022,0.665263 c -0.104064,-0.0047 -0.213387,0.0034 -0.274884,0.05313 0.08752,0.141872 0.2472,0.186287 0.443511,0.221754 0.0709,-0.05202 0.07779,-0.185029 0.110879,-0.274882 -0.08512,0 -0.173127,0.0047 -0.277197,0 l -0.0023,0 z m -20.782522,4.87162 c 0.133332,0.121151 0.226192,0.32297 0.385759,0.401929 0.05913,0.03074 0.146068,0.03889 0.221755,0.05543 0.06149,0.01187 0.107184,0.03421 0.166315,0.05313 0.125357,0.04257 0.288733,0.06827 0.38807,0.113184 0.151373,0.06621 0.257984,0.310092 0.38807,0.38576 0.0071,0.07566 -0.02365,0.167313 0,0.224063 0.06149,0.08275 0.177854,0.10962 0.277193,0.164006 0.120621,0.06621 0.161354,0.225173 0.274882,0.277193 0.0402,0.01655 0.104825,-0.01891 0.166316,0 0.156102,0.04728 0.200126,0.261952 0.334941,0.221753 0.08752,-0.02601 0.09668,-0.136628 0.110878,-0.221753 0.05913,-0.06385 0.129512,-0.166316 0.221753,-0.166316 0.146642,-0.0023 0.167354,0.190703 0.221755,0.334941 0.03075,0.0804 0.08958,0.136629 0.110877,0.221754 0.03548,0.146603 0.03075,0.577773 0,0.665262 -0.03785,0.108771 -0.187316,0.156656 -0.277193,0.274883 -0.04258,0.05676 -0.07776,0.128488 -0.110877,0.166316 -0.05678,0.07094 -0.121426,0.102478 -0.164007,0.166315 -0.02365,0.03547 -0.03415,0.114343 -0.05544,0.164006 -0.07096,0.151331 -0.170008,0.263747 -0.110877,0.445819 0.02365,0.07329 0.110877,0.134265 0.110877,0.221753 0,0.104043 -0.205197,0.163695 -0.221753,0.277193 -0.01187,0.08276 0.08485,0.221495 0.110876,0.332631 0.01892,0.08275 0.172086,0.167369 0.221754,0.221755 0.08279,0.09223 0.148378,0.216713 0.224064,0.334941 0.149006,0.229363 0.239119,0.496067 0.38576,0.7207 0.07805,0.115857 0.22516,0.209673 0.277193,0.332632 0.02601,0.06148 -0.02365,0.165005 0,0.221753 0.08514,0.19153 0.473681,0.404366 0.665263,0.498947 0.08987,0.04492 0.19441,0.06589 0.277192,0.113183 0.125357,0.07094 0.379648,0.221496 0.443508,0.332632 0.05678,0.09931 0.08249,0.340521 0.110877,0.498947 0.03548,0.208081 -0.0095,0.385189 0,0.609823 0.0071,0.122957 0.05543,0.209674 0.05543,0.332631 0,0.04257 0.0023,0.123753 0,0.166317 -0.0023,0.146602 0.01187,0.29454 0,0.443507 -0.0071,0.0804 -0.0047,0.155491 0,0.224064 0.0071,0.07329 0.04841,0.100163 0.05313,0.164006 0.0047,0.06858 -0.06022,0.169677 -0.05313,0.224064 0.01656,0.148968 0.137933,0.248615 0.166315,0.385759 0.02365,0.108772 0.06732,0.368897 0.05312,0.498948 -0.0095,0.06858 -0.04368,0.148398 -0.05312,0.224064 -0.0071,0.05911 0.0095,0.10962 0,0.164005 -0.0076,0.05282 -0.02056,0.09736 -0.03466,0.143217 -3.290227,-2.095771 -5.472242,-5.765664 -5.472242,-9.971991 0,-0.566403 0.0531,-1.118425 0.129357,-1.663155 z m 4.601398,1.295876 c 0.113526,-0.05201 0.09224,0.152127 0,0.166315 -0.08752,0.01187 -0.08516,-0.126113 0,-0.166315 z"
             id="path26" />
        </g>
      </g>
    </g>
    <text
       xml:space="preserve"
       style="font-size:13px;font-style:normal;font-weight:normal;line-height:125%;letter-spacing:0px;word-spacing:0px;fill:#ffffff;fill-opacity:1;stroke:none;font-family:Sans"
       x="-43.36491"
       y="58.115253"
       id="text3029"
       sodipodi:linespacing="125%"><tspan
         sodipodi:role="line"
         id="tspan3031"
         x="-43.36491"
         y="58.115253">htmlh</tspan></text>
  </g>
</svg>
