<?xml version="1.0" encoding="UTF-8" standalone="no"?>
<svg
   xmlns:sketch="http://www.bohemiancoding.com/sketch/ns"
   xmlns:osb="http://www.openswatchbook.org/uri/2009/osb"
   xmlns:dc="http://purl.org/dc/elements/1.1/"
   xmlns:cc="http://creativecommons.org/ns#"
   xmlns:rdf="http://www.w3.org/1999/02/22-rdf-syntax-ns#"
   xmlns:svg="http://www.w3.org/2000/svg"
   xmlns="http://www.w3.org/2000/svg"
   xmlns:xlink="http://www.w3.org/1999/xlink"
   xmlns:sodipodi="http://sodipodi.sourceforge.net/DTD/sodipodi-0.dtd"
   xmlns:inkscape="http://www.inkscape.org/namespaces/inkscape"
   width="64"
   viewBox="0 0 64 64"
   height="64"
   id="svg2"
   version="1.1"
   inkscape:version="0.48.5 r10040"
   sodipodi:docname="text-x-install.svg"
   inkscape:export-filename="E:\Usuarios\David\Desktop\android.png"
   inkscape:export-xdpi="90"
   inkscape:export-ydpi="90">
  <metadata
     id="metadata14">
    <rdf:RDF>
      <cc:Work
         rdf:about="">
        <dc:format>image/svg+xml</dc:format>
        <dc:type
           rdf:resource="http://purl.org/dc/dcmitype/StillImage" />
        <dc:title />
      </cc:Work>
    </rdf:RDF>
  </metadata>
  <defs
     id="defs12">
    <linearGradient
       id="linearGradient4244"
       inkscape:collect="always">
      <stop
         id="stop4246"
         offset="0"
         style="stop-color:#2daf7b;stop-opacity:1" />
      <stop
         id="stop4248"
         offset="1"
         style="stop-color:#44d68c;stop-opacity:1" />
    </linearGradient>
    <linearGradient
       osb:paint="gradient"
       id="linearGradient4207">
      <stop
         id="stop3371"
         offset="0"
         style="stop-color:#3498db;stop-opacity:1;" />
      <stop
         id="stop3373"
         offset="1"
         style="stop-color:#3498db;stop-opacity:0;" />
    </linearGradient>
    <linearGradient
       inkscape:collect="always"
       xlink:href="#linearGradient4244"
       id="linearGradient4182"
       x1="-74.929466"
       y1="52.199436"
       x2="-75.259552"
       y2="2.3564887"
       gradientUnits="userSpaceOnUse"
       gradientTransform="matrix(1.0749904,0,0,1.0292896,56.688954,-0.01528455)" />
  </defs>
  <sodipodi:namedview
     pagecolor="#747474"
     bordercolor="#666666"
     borderopacity="1"
     objecttolerance="10"
     gridtolerance="10"
     guidetolerance="10"
     inkscape:pageopacity="1"
     inkscape:pageshadow="2"
     inkscape:window-width="1366"
     inkscape:window-height="701"
     id="namedview10"
     showgrid="false"
     inkscape:zoom="7.4552197"
     inkscape:cx="48.373092"
     inkscape:cy="17.926371"
     inkscape:window-x="0"
     inkscape:window-y="0"
     inkscape:window-maximized="1"
     inkscape:current-layer="g4186"
     inkscape:snap-bbox="true"
     inkscape:bbox-nodes="true"
     inkscape:object-nodes="true"
     borderlayer="false"
     showguides="true"
     inkscape:snap-nodes="true"
     inkscape:object-paths="false"
     inkscape:showpageshadow="false"
     showborder="true">
    <inkscape:grid
       type="xygrid"
       id="grid4160"
       visible="true" />
    <sodipodi:guide
       position="28.888657,63.404975"
       orientation="0,35.2"
       id="guide6108" />
    <sodipodi:guide
       position="54,55.679691"
       orientation="51.200004,0"
       id="guide6112" />
    <sodipodi:guide
       position="58.527669,62"
       orientation="0,1"
       id="guide6114"
       inkscape:label=""
       inkscape:color="rgb(0,0,255)" />
    <sodipodi:guide
       position="10,4"
       orientation="-56,0"
       id="guide6116" />
    <sodipodi:guide
       position="11,4"
       orientation="-2.8421709e-014,0"
       id="guide6118" />
    <sodipodi:guide
       position="12,62"
       orientation="0,35.2"
       id="guide6120" />
    <sodipodi:guide
       position="52,2"
       orientation="0,-40"
       id="guide6126" />
    <sodipodi:guide
       position="12,62"
       orientation="0,35.2"
       id="guide6138" />
    <sodipodi:guide
       position="55,3"
       orientation="0,-40"
       id="guide6156" />
    <sodipodi:guide
       position="53,4.3973202"
       orientation="-56,0"
       id="guide6158" />
    <sodipodi:guide
       position="21,48"
       orientation="0,22"
       id="guide4238" />
    <sodipodi:guide
       position="43,48"
       orientation="22,0"
       id="guide4240" />
    <sodipodi:guide
       position="43,26"
       orientation="0,-22"
       id="guide4242" />
    <sodipodi:guide
       position="21,26"
       orientation="-22,0"
       id="guide4244" />
  </sodipodi:namedview>
  <g
     id="g4186"
     transform="translate(56.391766,-0.17677665)">
    <rect
       ry="2.5"
       y="1.6457753"
       x="-46.391766"
       height="52.831711"
       width="44"
       id="rect4174"
       style="opacity:1;fill:url(#linearGradient4182);fill-opacity:1.0;stroke:none;stroke-width:0.30000001;stroke-linecap:round;stroke-linejoin:round;stroke-miterlimit:4;stroke-dasharray:none;stroke-dashoffset:0;stroke-opacity:1" />
    <g
       id="g3028"
       transform="matrix(1,0,0,1.6495126,0,-40.384599)">
      <rect
         style="fill:#144d36;fill-opacity:1;stroke:none"
         id="rect4162"
         width="44"
         height="7.6992903"
         x="-46.391766"
         y="54.477486"
         ry="2.5" />
      <rect
         style="fill:#144d36;fill-opacity:1;stroke:none"
         id="rect4184"
         width="44"
         height="7.9118414"
         x="-46.391766"
         y="51.264462"
         ry="0" />
    </g>
    <g
       id="g3043"
       inkscape:label="Capa 1"
       transform="translate(-406.16011,-513.51164)"
       style="stroke:none">
      <g
         inkscape:label="Capa 1"
         id="g3045"
         transform="matrix(0.72249841,0,0,0.72249841,120.78241,155.36674)"
         style="stroke:none">
        <g
           id="g3047"
           transform="matrix(0.65762761,0,0,0.65762761,124.45546,178.50762)"
           style="stroke:none">
          <g
             id="g3049"
             transform="translate(0,-0.21046656)"
             style="stroke:none">
            <g
               transform="translate(-48.123492,9.2849703)"
               id="g3051"
               inkscape:label="Capa 1"
               style="stroke:none">
              <g
                 transform="translate(-51.525445,5.4558218)"
                 inkscape:label="Capa 1"
                 id="g3053"
                 style="stroke:none">
                <g
                   id="g3055"
                   inkscape:label="Capa 1"
                   transform="translate(-34.965532,2.4832225)"
                   style="stroke:none" />
              </g>
              <g
                 transform="translate(50.777056,-5.4014337)"
                 id="g3057"
                 style="stroke:none">
                <rect
                   ry="1.6441816"
                   y="512.70703"
                   x="334.23404"
                   height="34.938858"
                   width="46.302639"
                   id="rect3059"
                   style="fill:#ffffff;fill-opacity:1;stroke:none;stroke-width:2.63083172000000021;stroke-miterlimit:4;stroke-opacity:1;stroke-dasharray:none" />
              </g>
            </g>
            <g
               id="g3061"
               sketch:type="MSLayerGroup"
               transform="matrix(0.14062974,0,0,0.14062974,354.0472,526.37749)"
               style="fill:#818a93;fill-opacity:1;stroke:none">
              <path
                 d="m 47.3325,99.9885 53.039,-53.119 c 2.064,-1.956 3.096,-4.399 3.096,-7.333 0,-2.934 -1.033,-5.377 -3.096,-7.333 l -6.111,-6.192 c -2.01,-2.01 -4.453,-3.015 -7.332,-3.015 -2.824,0 -5.296,1.005 -7.414,3.015 l -39.515,39.596 -39.596,-39.597 c -2.01,-2.01 -4.454,-3.015 -7.333,-3.015 -2.824,0 -5.296,1.005 -7.414,3.015 l -6.11,6.192 c -2.01,2.01 -3.015,4.455 -3.015,7.333 0,2.879 1.005,5.324 3.015,7.333 l 53.039,53.12 c 2.118,2.01 4.59,3.016 7.414,3.016 2.879,0 5.323,-1.006 7.333,-3.016 l 0,0 z"
                 id="path3063"
                 sketch:type="MSShapeGroup"
                 inkscape:connector-curvature="0"
                 style="fill:#144d36;fill-opacity:1;stroke:none" />
            </g>
          </g>
        </g>
      </g>
    </g>
    <text
       xml:space="preserve"
       style="font-size:13px;font-style:normal;font-weight:normal;line-height:125%;letter-spacing:0px;word-spacing:0px;fill:#ffffff;fill-opacity:1;stroke:none;font-family:Sans"
       x="-43.860027"
       y="58.023212"
       id="text3833"
       sodipodi:linespacing="125%"><tspan
         sodipodi:role="line"
         id="tspan3835"
         x="-43.860027"
         y="58.023212">install</tspan></text>
  </g>
</svg>
