<?xml version="1.0" encoding="UTF-8" standalone="no"?>
<svg
   xmlns:osb="http://www.openswatchbook.org/uri/2009/osb"
   xmlns:dc="http://purl.org/dc/elements/1.1/"
   xmlns:cc="http://creativecommons.org/ns#"
   xmlns:rdf="http://www.w3.org/1999/02/22-rdf-syntax-ns#"
   xmlns:svg="http://www.w3.org/2000/svg"
   xmlns="http://www.w3.org/2000/svg"
   xmlns:xlink="http://www.w3.org/1999/xlink"
   xmlns:sodipodi="http://sodipodi.sourceforge.net/DTD/sodipodi-0.dtd"
   xmlns:inkscape="http://www.inkscape.org/namespaces/inkscape"
   width="64"
   viewBox="0 0 64 64"
   height="64"
   id="svg2"
   version="1.1"
   inkscape:version="0.48.5 r10040"
   sodipodi:docname="text-calendar.svg"
   inkscape:export-filename="E:\Usuarios\David\Desktop\android.png"
   inkscape:export-xdpi="90"
   inkscape:export-ydpi="90">
  <metadata
     id="metadata14">
    <rdf:RDF>
      <cc:Work
         rdf:about="">
        <dc:format>image/svg+xml</dc:format>
        <dc:type
           rdf:resource="http://purl.org/dc/dcmitype/StillImage" />
        <dc:title />
      </cc:Work>
    </rdf:RDF>
  </metadata>
  <defs
     id="defs12">
    <linearGradient
       id="linearGradient4373"
       inkscape:collect="always">
      <stop
         id="stop4375"
         offset="0"
         style="stop-color:#2aaa76;stop-opacity:1" />
      <stop
         id="stop4377"
         offset="1"
         style="stop-color:#3ec380;stop-opacity:1" />
    </linearGradient>
    <linearGradient
       osb:paint="gradient"
       id="linearGradient4207">
      <stop
         id="stop3371"
         offset="0"
         style="stop-color:#3498db;stop-opacity:1;" />
      <stop
         id="stop3373"
         offset="1"
         style="stop-color:#3498db;stop-opacity:0;" />
    </linearGradient>
    <linearGradient
       inkscape:collect="always"
       xlink:href="#linearGradient4373"
       id="linearGradient4182"
       x1="-74.929466"
       y1="52.199436"
       x2="-75.259552"
       y2="2.3564887"
       gradientUnits="userSpaceOnUse"
       gradientTransform="matrix(1.0749904,0,0,1.0292896,56.688954,-0.01528455)" />
    <linearGradient
       id="linearGradient4422-9">
      <stop
         style="stop-color:#ffa400;stop-opacity:1"
         offset="0"
         id="stop4424-7" />
      <stop
         style="stop-color:#ffdd00;stop-opacity:1"
         offset="1"
         id="stop4426-7" />
    </linearGradient>
    <linearGradient
       id="linearGradient4422-1">
      <stop
         style="stop-color:#8798a9;stop-opacity:1"
         offset="0"
         id="stop4424-78" />
      <stop
         style="stop-color:#aeb6be;stop-opacity:1"
         offset="1"
         id="stop4426-8" />
    </linearGradient>
  </defs>
  <sodipodi:namedview
     pagecolor="#747474"
     bordercolor="#666666"
     borderopacity="1"
     objecttolerance="10"
     gridtolerance="10"
     guidetolerance="10"
     inkscape:pageopacity="1"
     inkscape:pageshadow="2"
     inkscape:window-width="1366"
     inkscape:window-height="712"
     id="namedview10"
     showgrid="false"
     inkscape:zoom="7.4552197"
     inkscape:cx="38.465415"
     inkscape:cy="34.204499"
     inkscape:window-x="0"
     inkscape:window-y="0"
     inkscape:window-maximized="1"
     inkscape:current-layer="g4186"
     inkscape:snap-bbox="true"
     inkscape:bbox-nodes="true"
     inkscape:object-nodes="true"
     borderlayer="false"
     showguides="true"
     inkscape:snap-nodes="true"
     inkscape:object-paths="false"
     inkscape:showpageshadow="false"
     showborder="true">
    <inkscape:grid
       type="xygrid"
       id="grid4160"
       visible="true" />
    <sodipodi:guide
       position="28.888657,63.404975"
       orientation="0,35.2"
       id="guide6108" />
    <sodipodi:guide
       position="54,55.679691"
       orientation="51.200004,0"
       id="guide6112" />
    <sodipodi:guide
       position="58.527669,62"
       orientation="0,1"
       id="guide6114"
       inkscape:label=""
       inkscape:color="rgb(0,0,255)" />
    <sodipodi:guide
       position="10,4"
       orientation="-56,0"
       id="guide6116" />
    <sodipodi:guide
       position="11,4"
       orientation="-2.8421709e-014,0"
       id="guide6118" />
    <sodipodi:guide
       position="12,62"
       orientation="0,35.2"
       id="guide6120" />
    <sodipodi:guide
       position="52,2"
       orientation="0,-40"
       id="guide6126" />
    <sodipodi:guide
       position="12,62"
       orientation="0,35.2"
       id="guide6138" />
    <sodipodi:guide
       position="55,3"
       orientation="0,-40"
       id="guide6156" />
    <sodipodi:guide
       position="53,4.3973202"
       orientation="-56,0"
       id="guide6158" />
    <sodipodi:guide
       position="71.359399,50.836865"
       orientation="0,22"
       id="guide4238" />
    <sodipodi:guide
       position="43,48"
       orientation="22,0"
       id="guide4240" />
    <sodipodi:guide
       position="33.801821,26.156171"
       orientation="0,-22"
       id="guide4242" />
    <sodipodi:guide
       position="21,26"
       orientation="-22,0"
       id="guide4244" />
  </sodipodi:namedview>
  <g
     id="g4186"
     transform="translate(56.391766,-0.17677665)">
    <rect
       ry="2.5"
       y="1.6457753"
       x="-46.391766"
       height="52.831711"
       width="44"
       id="rect4174"
       style="opacity:1;fill:url(#linearGradient4182);fill-opacity:1.0;stroke:none;stroke-width:0.30000001;stroke-linecap:round;stroke-linejoin:round;stroke-miterlimit:4;stroke-dasharray:none;stroke-dashoffset:0;stroke-opacity:1" />
    <g
       id="g3090"
       transform="matrix(1,0,0,1.6495126,0,-40.384599)">
      <rect
         style="fill:#144e36;fill-opacity:1;stroke:none"
         id="rect4162"
         width="44"
         height="7.6992903"
         x="-46.391766"
         y="54.477486"
         ry="2.5" />
      <rect
         style="fill:#144e36;fill-opacity:1;stroke:none"
         id="rect4184"
         width="44"
         height="7.9118414"
         x="-46.391766"
         y="51.264462"
         ry="0" />
    </g>
    <g
       style="font-size:9.36996746px;font-style:normal;font-weight:normal;line-height:125%;letter-spacing:0px;word-spacing:0px;fill:#ffffff;fill-opacity:1;stroke:none;font-family:sans-serif"
       id="text4161"
       transform="matrix(0.81954967,0,0,0.81954967,-3.812665,10.721775)">
      <g
         transform="matrix(1.2201823,0,0,1.2201823,4.015678,-13.409856)"
         id="g3132">
        <g
           style="font-size:9.36996746px;font-style:normal;font-weight:normal;line-height:125%;letter-spacing:0px;word-spacing:0px;fill:#ffffff;fill-opacity:1;stroke:none;font-family:sans-serif"
           transform="matrix(0,1,-1,0,1.9040227,26.23139)"
           id="g3884">
          <path
             inkscape:connector-curvature="0"
             id="path4248-3"
             d="m -11.143997,36.270175 c 3.3574861,0 6.7149723,0 10.0724584,0 -9.27e-5,-7.06839 -1.853e-4,-14.136779 -2.78e-4,-21.205169 -3.659686,0.0214 -7.3279662,-0.0419 -10.9822774,0.03096 -0.933496,0.505974 -0.40286,1.764891 -0.5437,2.625543 0.0059,5.994052 -0.01127,11.988949 0.0085,17.982473 0.110763,0.677202 0.948825,0.549933 1.445295,0.566191 z"
             style="fill:#ffffff;fill-opacity:1;fill-rule:evenodd;stroke:none" />
          <path
             inkscape:connector-curvature="0"
             id="path4248-6-6"
             d="m 8.2419934,36.263683 c -1.5241063,0 -3.0482127,0 -4.572319,0 -0.781449,-0.656021 -1.562898,-1.312041 -2.344347,-1.968062 0,-5.756262 0,-11.512523 0,-17.268785 0.5354447,-0.656021 1.0708893,-1.312041 1.606334,-1.968062 1.9613265,0.01419 3.923073,-0.02907 5.8840753,0.023 0.4659108,1.061314 0.1121509,2.304538 0.2191897,3.445635 -0.010363,5.815796 0.023994,11.633378 -0.017927,17.448057 -0.095592,0.325966 -0.5082232,0.298997 -0.7750064,0.288217 z"
             style="fill:none;stroke:#efffff;stroke-width:0.70259541;stroke-linecap:butt;stroke-linejoin:miter;stroke-miterlimit:4;stroke-opacity:1;stroke-dasharray:none" />
          <path
             inkscape:connector-curvature="0"
             id="path4248-6-0-7"
             d="m 6.5088274,37.273639 c -2.8937933,-0.338008 -5.78758667,-0.676016 -8.68138,-1.014024 -5.7e-6,-7.06487 -1.13e-5,-14.129739 -1.7e-5,-21.194609 3.04538099,-0.258434 6.0848406,-0.62596 9.134224,-0.812453 1.0451031,0.430567 0.4319651,1.833279 0.592501,2.715553 -0.00485,6.350389 -0.087286,12.704528 -0.037142,19.052589 0.1012382,0.624251 -0.2497674,1.41826 -1.0081856,1.252944 z"
             style="fill:#ffffff;fill-opacity:1;fill-rule:evenodd;stroke:none" />
        </g>
        <g
           style="font-size:9.36996746px;font-style:normal;font-weight:normal;line-height:125%;letter-spacing:0px;word-spacing:0px;fill:#2fb078;fill-opacity:1;stroke:#34b67b;stroke-width:0.19897243;stroke-miterlimit:4;stroke-opacity:1;stroke-dasharray:none;font-family:sans-serif"
           inkscape:transform-center-y="-7.1561161"
           inkscape:transform-center-x="4.1201906"
           inkscape:label="Capa 1"
           id="layer1-36"
           transform="matrix(0.75387328,0,0,0.75387328,-350.05276,-394.61352)">
          <g
             id="layer1-3-7"
             inkscape:label="Capa 1"
             transform="translate(0.41988239,0.03484499)"
             style="fill:#2fb078;fill-opacity:1;stroke:#34b67b;stroke-width:0.19897243;stroke-miterlimit:4;stroke-opacity:1;stroke-dasharray:none">
            <g
               inkscape:label="Capa 1"
               id="layer1-7-5"
               transform="translate(-37.074403,0.97032551)"
               style="fill:#2fb078;fill-opacity:1;stroke:#34b67b;stroke-width:0.19897243;stroke-miterlimit:4;stroke-opacity:1;stroke-dasharray:none">
              <g
                 id="g4231-5-3"
                 transform="matrix(1.5263052,0,0,1.5263052,376.31698,-1040.1258)"
                 style="fill:#2fb078;fill-opacity:1;stroke:#34b67b;stroke-width:0.13036215;stroke-miterlimit:4;stroke-opacity:1;stroke-dasharray:none" />
            </g>
            <g
               transform="matrix(0.61752139,0,0,0.61752139,362.64611,526.6901)"
               id="layer1-1-5"
               inkscape:label="Layer 1"
               style="fill:#2fb078;fill-opacity:1;stroke:#34b67b;stroke-width:0.32221141;stroke-miterlimit:4;stroke-opacity:1;stroke-dasharray:none">
              <g
                 id="g4154-6"
                 transform="matrix(1.073476,-0.00305812,0.00305812,1.073476,-1.8214625,-1.6074449)"
                 style="fill:#2fb078;fill-opacity:1;stroke:#34b67b;stroke-width:0.30015585;stroke-miterlimit:4;stroke-opacity:1;stroke-dasharray:none">
                <g
                   transform="matrix(0.86413263,-0.00128877,0.00128877,0.86413263,8.0000845,-12.604254)"
                   id="g4397-2"
                   style="fill:#2fb078;fill-opacity:1;stroke:#34b67b;stroke-width:0.3473489;stroke-miterlimit:4;stroke-opacity:1;stroke-dasharray:none">
                  <g
                     transform="matrix(1.1790917,0.00511752,-0.00511752,1.1790917,72.285408,10.897082)"
                     id="layer1-5-9"
                     inkscape:label="Layer 1"
                     style="fill:#2fb078;fill-opacity:1;stroke:#34b67b;stroke-width:0.29458746;stroke-miterlimit:4;stroke-opacity:1;stroke-dasharray:none">
                    <g
                       id="g4154-7-1"
                       transform="matrix(1.073476,-0.00305812,0.00305812,1.073476,-1.8214625,-1.6074449)"
                       style="fill:#2fb078;fill-opacity:1;stroke:#34b67b;stroke-width:0.27442276;stroke-miterlimit:4;stroke-opacity:1;stroke-dasharray:none">
                      <g
                         transform="matrix(0.86413263,-0.00128877,0.00128877,0.86413263,8.0000845,-12.604254)"
                         id="g4397-8-2"
                         style="fill:#2fb078;fill-opacity:1;stroke:#34b67b;stroke-width:0.31756985;stroke-miterlimit:4;stroke-opacity:1;stroke-dasharray:none">
                        <g
                           id="g4627-7"
                           transform="matrix(0.23482089,-2.2167066e-5,-2.2167066e-5,0.23992815,-91.1405,34.435715)"
                           style="fill:#2fb078;fill-opacity:1;stroke:#34b67b;stroke-width:1.33792043;stroke-miterlimit:4;stroke-opacity:1;stroke-dasharray:none">
                          <g
                             id="text4367-9-0-0"
                             style="font-size:111.29611206px;font-style:normal;font-weight:normal;line-height:125%;letter-spacing:0px;word-spacing:0px;fill:#2fb078;fill-opacity:1;stroke:#34b67b;stroke-width:1.33792043;stroke-linecap:butt;stroke-linejoin:miter;stroke-miterlimit:4;stroke-opacity:1;stroke-dasharray:none;font-family:sans-serif" />
                        </g>
                      </g>
                    </g>
                  </g>
                </g>
              </g>
            </g>
            <g
               id="g4348-9"
               style="fill:#2fb078;fill-opacity:1;stroke:#34b67b;stroke-width:0.19897243;stroke-miterlimit:4;stroke-opacity:1;stroke-dasharray:none">
              <path
                 inkscape:connector-curvature="0"
                 d="m 431.47567,560.28823 -7.13925,0.0317 -0.007,-1.53922 q 3.19539,-3.31015 4.09172,-4.31798 0.79844,-0.92374 1.07481,-1.39343 0.27631,-0.48642 0.27332,-1.18911 -0.003,-0.71941 -0.56213,-1.26905 -0.55908,-0.54964 -1.49242,-0.5455 -0.85147,0.004 -1.37325,0.52474 -0.52185,0.50424 -0.66673,1.09047 l -1.37787,-0.56274 q 0.27453,-0.90469 1.15534,-1.71168 0.8808,-0.80699 2.28901,-0.81323 1.55557,-0.007 2.55853,0.95905 1.00296,0.96594 1.00872,2.32112 0.007,1.67305 -1.76961,3.58826 l -3.2606,3.37736 5.1907,-0.023 0.006,1.4723 z"
                 style="font-size:111.29611206px;font-style:normal;font-variant:normal;font-weight:normal;font-stretch:normal;line-height:125%;letter-spacing:0px;word-spacing:0px;fill:#2fb078;fill-opacity:1;stroke:#34b67b;stroke-width:0.19897243;stroke-miterlimit:4;stroke-opacity:1;stroke-dasharray:none;font-family:Product Sans;-inkscape-font-specification:Product Sans"
                 id="path4173-3" />
              <path
                 inkscape:connector-curvature="0"
                 d="m 436.44696,560.53387 q -1.12984,0.005 -2.19723,-0.70968 -1.0674,-0.71469 -1.4828,-2.13498 l 1.37297,-0.59167 q 0.26597,0.93575 0.87402,1.45171 0.60806,0.51596 1.42678,0.51233 0.91697,-0.004 1.56946,-0.59254 0.66886,-0.58854 0.66517,-1.45853 -0.004,-0.85326 -0.69384,-1.43578 -0.67384,-0.5826 -1.62355,-0.57839 l -0.9661,0.004 -0.006,-1.43883 0.85148,-0.004 q 0.88421,-0.004 1.45519,-0.50838 0.58734,-0.50453 0.58379,-1.34106 -0.003,-0.78633 -0.57836,-1.23552 -0.55865,-0.44925 -1.39375,-0.44555 -1.44095,0.006 -1.94223,1.49766 l -1.3944,-0.59612 q 0.32358,-0.92163 1.15562,-1.64475 0.83204,-0.72312 2.17475,-0.72907 1.50644,-0.007 2.50912,0.89234 1.00261,0.88229 1.00843,2.2542 0.007,1.65632 -1.496,2.46607 l 2.9e-4,0.0669 q 0.82021,0.34772 1.34725,1.06481 0.54341,0.71702 0.5476,1.70412 0.007,1.52248 -1.08635,2.53118 -1.09289,0.99197 -2.68121,0.99901 z"
                 style="font-size:111.29611206px;font-style:normal;font-variant:normal;font-weight:normal;font-stretch:normal;line-height:125%;letter-spacing:0px;word-spacing:0px;fill:#2fb078;fill-opacity:1;stroke:#34b67b;stroke-width:0.19897243;stroke-miterlimit:4;stroke-opacity:1;stroke-dasharray:none;font-family:Product Sans;-inkscape-font-specification:Product Sans"
                 id="path4175-6" />
            </g>
          </g>
        </g>
      </g>
    </g>
    <text
       xml:space="preserve"
       style="font-size:10.52694321px;font-style:normal;font-weight:normal;line-height:125%;letter-spacing:0px;word-spacing:0px;fill:#ffffff;fill-opacity:1;stroke:none;font-family:Sans"
       x="-42.988708"
       y="56.217857"
       id="text3094"
       sodipodi:linespacing="125%"
       transform="scale(0.99814773,1.0018557)"><tspan
         sodipodi:role="line"
         id="tspan3096"
         x="-42.988708"
         y="56.217857"
         style="font-size:8.42155361px">calendar</tspan></text>
  </g>
</svg>
