<?xml version="1.0" encoding="UTF-8" standalone="no"?>
<svg
   xmlns:osb="http://www.openswatchbook.org/uri/2009/osb"
   xmlns:dc="http://purl.org/dc/elements/1.1/"
   xmlns:cc="http://creativecommons.org/ns#"
   xmlns:rdf="http://www.w3.org/1999/02/22-rdf-syntax-ns#"
   xmlns:svg="http://www.w3.org/2000/svg"
   xmlns="http://www.w3.org/2000/svg"
   xmlns:xlink="http://www.w3.org/1999/xlink"
   xmlns:sodipodi="http://sodipodi.sourceforge.net/DTD/sodipodi-0.dtd"
   xmlns:inkscape="http://www.inkscape.org/namespaces/inkscape"
   width="64"
   viewBox="0 0 64 64"
   height="64"
   id="svg2"
   version="1.1"
   inkscape:version="0.48.5 r10040"
   sodipodi:docname="video-mp4.svg"
   inkscape:export-filename="E:\Usuarios\David\Desktop\android.png"
   inkscape:export-xdpi="90"
   inkscape:export-ydpi="90">
  <metadata
     id="metadata14">
    <rdf:RDF>
      <cc:Work
         rdf:about="">
        <dc:format>image/svg+xml</dc:format>
        <dc:type
           rdf:resource="http://purl.org/dc/dcmitype/StillImage" />
        <dc:title />
      </cc:Work>
    </rdf:RDF>
  </metadata>
  <defs
     id="defs12">
    <linearGradient
       osb:paint="gradient"
       id="linearGradient4207">
      <stop
         id="stop3371"
         offset="0"
         style="stop-color:#3498db;stop-opacity:1;" />
      <stop
         id="stop3373"
         offset="1"
         style="stop-color:#3498db;stop-opacity:0;" />
    </linearGradient>
    <linearGradient
       inkscape:collect="always"
       xlink:href="#linearGradient4531-8"
       id="linearGradient4182"
       x1="-74.929466"
       y1="52.199436"
       x2="-75.259552"
       y2="2.3564887"
       gradientUnits="userSpaceOnUse"
       gradientTransform="matrix(1.0749904,0,0,1.0292896,56.688954,-0.01528455)" />
    <linearGradient
       id="linearGradient4422-1">
      <stop
         id="stop4424-78"
         offset="0"
         style="stop-color:#8798a9;stop-opacity:1" />
      <stop
         id="stop4426-8"
         offset="1"
         style="stop-color:#aeb6be;stop-opacity:1" />
    </linearGradient>
    <linearGradient
       id="linearGradient4351">
      <stop
         style="stop-color:#ffd6af;stop-opacity:1"
         offset="0"
         id="stop4353" />
      <stop
         style="stop-color:#fffcf9;stop-opacity:1"
         offset="1"
         id="stop4355" />
    </linearGradient>
    <linearGradient
       id="linearGradient4300">
      <stop
         style="stop-color:#f62459;stop-opacity:1"
         offset="0"
         id="stop4302" />
      <stop
         style="stop-color:#f73768;stop-opacity:1"
         offset="1"
         id="stop4304" />
    </linearGradient>
    <linearGradient
       id="linearGradient4422">
      <stop
         id="stop4424"
         offset="0"
         style="stop-color:#1a85f2;stop-opacity:1" />
      <stop
         id="stop4426"
         offset="1"
         style="stop-color:#1fb0f9;stop-opacity:1" />
    </linearGradient>
    <linearGradient
       id="linearGradient4256">
      <stop
         style="stop-color:#8cbdf8;stop-opacity:1;"
         offset="0"
         id="stop4258" />
      <stop
         style="stop-color:#d5e8ff;stop-opacity:1;"
         offset="1"
         id="stop4260" />
    </linearGradient>
    <linearGradient
       id="linearGradient4300-2">
      <stop
         style="stop-color:#3a539b;stop-opacity:1"
         offset="0"
         id="stop4302-4" />
      <stop
         style="stop-color:#3f5aa9;stop-opacity:1"
         offset="1"
         id="stop4304-1" />
    </linearGradient>
    <linearGradient
       id="linearGradient4422-4">
      <stop
         style="stop-color:#d1d7df;stop-opacity:1"
         offset="0"
         id="stop4424-3" />
      <stop
         style="stop-color:#e0e5e7;stop-opacity:1"
         offset="1"
         id="stop4426-4" />
    </linearGradient>
    <linearGradient
       id="linearGradient4422-41">
      <stop
         id="stop4424-2"
         offset="0"
         style="stop-color:#13b89f;stop-opacity:1" />
      <stop
         id="stop4426-43"
         offset="1"
         style="stop-color:#3aedca;stop-opacity:1" />
    </linearGradient>
    <linearGradient
       id="linearGradient4351-9">
      <stop
         style="stop-color:#fddda3;stop-opacity:1"
         offset="0"
         id="stop4353-1" />
      <stop
         style="stop-color:#fde3a7;stop-opacity:1"
         offset="1"
         id="stop4355-7" />
    </linearGradient>
    <linearGradient
       id="linearGradient4300-0">
      <stop
         style="stop-color:#f39c12;stop-opacity:1;"
         offset="0"
         id="stop4302-9" />
      <stop
         style="stop-color:#f89406;stop-opacity:1"
         offset="1"
         id="stop4304-7" />
    </linearGradient>
    <clipPath
       clipPathUnits="userSpaceOnUse"
       id="clipPath4157">
      <path
         d="m 27.642964,3.2951379 13.085584,13.0855841 -11.072418,0 c -0.977824,0 -2.013166,-1.035372 -2.013166,-2.013167 l 0,-11.0724171 z"
         id="path4159"
         inkscape:connector-curvature="0"
         style="fill:#f9f8f2;fill-opacity:1;stroke-width:1.00658333" />
    </clipPath>
    <linearGradient
       id="linearGradient4422-3">
      <stop
         style="stop-color:#ff721a;stop-opacity:1"
         offset="0"
         id="stop4424-7" />
      <stop
         style="stop-color:#fbb521;stop-opacity:1"
         offset="1"
         id="stop4426-91" />
    </linearGradient>
    <linearGradient
       id="linearGradient8467">
      <stop
         id="stop8469"
         style="stop-color:#d3d3d3;stop-opacity:1"
         offset="0" />
      <stop
         id="stop8471"
         style="stop-color:#fcf9f9;stop-opacity:1"
         offset="1" />
    </linearGradient>
    <linearGradient
       id="linearGradient4300-3">
      <stop
         style="stop-color:#f39c12;stop-opacity:1;"
         offset="0"
         id="stop4302-0" />
      <stop
         style="stop-color:#f9a11f;stop-opacity:1"
         offset="1"
         id="stop4304-0" />
    </linearGradient>
    <linearGradient
       id="linearGradient4422-0">
      <stop
         style="stop-color:#ffa400;stop-opacity:1"
         offset="0"
         id="stop4424-8" />
      <stop
         style="stop-color:#ffdd00;stop-opacity:1"
         offset="1"
         id="stop4426-6" />
    </linearGradient>
    <linearGradient
       id="linearGradient4422-04">
      <stop
         style="stop-color:#db733d;stop-opacity:1"
         offset="0"
         id="stop4424-0" />
      <stop
         style="stop-color:#ff8f65;stop-opacity:1"
         offset="1"
         id="stop4426-9" />
    </linearGradient>
    <linearGradient
       id="linearGradient4422-4-7">
      <stop
         style="stop-color:#14b59e;stop-opacity:1"
         offset="0"
         id="stop4424-5" />
      <stop
         style="stop-color:#33d6b6;stop-opacity:1"
         offset="1"
         id="stop4426-7" />
    </linearGradient>
    <linearGradient
       id="linearGradient4351-3">
      <stop
         style="stop-color:#c8e3fe;stop-opacity:1"
         offset="0"
         id="stop4353-5" />
      <stop
         style="stop-color:#ffffff;stop-opacity:1"
         offset="1"
         id="stop4355-4" />
    </linearGradient>
    <linearGradient
       id="linearGradient4300-2-8">
      <stop
         id="stop4302-4-2"
         offset="0"
         style="stop-color:#7fcc74;stop-opacity:1" />
      <stop
         id="stop4304-1-2"
         offset="1"
         style="stop-color:#87d37c;stop-opacity:1" />
    </linearGradient>
    <linearGradient
       id="linearGradient4351-2">
      <stop
         style="stop-color:#036b53;stop-opacity:1"
         offset="0"
         id="stop4353-0" />
      <stop
         style="stop-color:#036b53;stop-opacity:1"
         offset="1"
         id="stop4355-48" />
    </linearGradient>
    <clipPath
       clipPathUnits="userSpaceOnUse"
       id="clipPath4157-0">
      <path
         d="m 27.642964,3.2951379 13.085584,13.0855841 -11.072418,0 c -0.977824,0 -2.013166,-1.035372 -2.013166,-2.013167 l 0,-11.0724171 z"
         id="path4159-9"
         inkscape:connector-curvature="0"
         style="fill:#f9f8f2;fill-opacity:1;stroke-width:1.00658333" />
    </clipPath>
    <linearGradient
       id="linearGradient4531-8"
       inkscape:collect="always">
      <stop
         id="stop4533-5"
         offset="0"
         style="stop-color:#1b92f4;stop-opacity:1" />
      <stop
         id="stop4535-9"
         offset="1"
         style="stop-color:#20b9fa;stop-opacity:1" />
    </linearGradient>
    <linearGradient
       inkscape:collect="always"
       xlink:href="#linearGradient4531-8-6"
       id="linearGradient3106"
       gradientUnits="userSpaceOnUse"
       gradientTransform="matrix(1.0749904,0,0,1.0292896,56.703549,0.18876933)"
       x1="-74.929466"
       y1="52.199436"
       x2="-75.259552"
       y2="2.3564887" />
    <linearGradient
       id="linearGradient4531-8-6"
       inkscape:collect="always">
      <stop
         id="stop4533-5-7"
         offset="0"
         style="stop-color:#1b92f4;stop-opacity:1" />
      <stop
         id="stop4535-9-5"
         offset="1"
         style="stop-color:#20b9fa;stop-opacity:1" />
    </linearGradient>
    <linearGradient
       inkscape:collect="always"
       xlink:href="#linearGradient4531-8"
       id="linearGradient3164"
       gradientUnits="userSpaceOnUse"
       gradientTransform="matrix(1.0749904,0,0,1.0292896,56.688954,-0.01528455)"
       x1="-74.929466"
       y1="52.199436"
       x2="-75.259552"
       y2="2.3564887" />
    <linearGradient
       inkscape:collect="always"
       xlink:href="#linearGradient4531-8-6"
       id="linearGradient3184"
       gradientUnits="userSpaceOnUse"
       gradientTransform="matrix(1.0749904,0,0,1.0292896,56.69624,0.08674378)"
       x1="-74.929466"
       y1="52.199436"
       x2="-75.259552"
       y2="2.3564887" />
  </defs>
  <sodipodi:namedview
     pagecolor="#747474"
     bordercolor="#666666"
     borderopacity="1"
     objecttolerance="10"
     gridtolerance="10"
     guidetolerance="10"
     inkscape:pageopacity="1"
     inkscape:pageshadow="2"
     inkscape:window-width="1360"
     inkscape:window-height="712"
     id="namedview10"
     showgrid="false"
     inkscape:zoom="7.4552197"
     inkscape:cx="34.878856"
     inkscape:cy="34.022476"
     inkscape:window-x="0"
     inkscape:window-y="0"
     inkscape:window-maximized="1"
     inkscape:current-layer="g4186"
     inkscape:snap-bbox="true"
     inkscape:bbox-nodes="true"
     inkscape:object-nodes="true"
     borderlayer="false"
     showguides="true"
     inkscape:snap-nodes="true"
     inkscape:object-paths="false"
     inkscape:showpageshadow="false"
     showborder="true">
    <inkscape:grid
       type="xygrid"
       id="grid4160"
       visible="true" />
    <sodipodi:guide
       position="28.888657,63.404975"
       orientation="0,35.2"
       id="guide6108" />
    <sodipodi:guide
       position="54,55.679691"
       orientation="51.200004,0"
       id="guide6112" />
    <sodipodi:guide
       position="58.527669,62"
       orientation="0,1"
       id="guide6114"
       inkscape:label=""
       inkscape:color="rgb(0,0,255)" />
    <sodipodi:guide
       position="10,4"
       orientation="-56,0"
       id="guide6116" />
    <sodipodi:guide
       position="11,4"
       orientation="-2.8421709e-014,0"
       id="guide6118" />
    <sodipodi:guide
       position="12,62"
       orientation="0,35.2"
       id="guide6120" />
    <sodipodi:guide
       position="52,2"
       orientation="0,-40"
       id="guide6126" />
    <sodipodi:guide
       position="12,62"
       orientation="0,35.2"
       id="guide6138" />
    <sodipodi:guide
       position="55,3"
       orientation="0,-40"
       id="guide6156" />
    <sodipodi:guide
       position="53,4.3973202"
       orientation="-56,0"
       id="guide6158" />
    <sodipodi:guide
       position="21,48"
       orientation="0,22"
       id="guide4238" />
    <sodipodi:guide
       position="43,48"
       orientation="22,0"
       id="guide4240" />
    <sodipodi:guide
       position="43,26"
       orientation="0,-22"
       id="guide4242" />
    <sodipodi:guide
       position="21,26"
       orientation="-22,0"
       id="guide4244" />
  </sodipodi:namedview>
  <g
     id="g4186"
     transform="translate(56.391766,-0.17677665)">
    <rect
       ry="2.5"
       y="1.747803"
       x="-46.38448"
       height="52.831711"
       width="44"
       id="rect4174-3"
       style="fill:url(#linearGradient3184);fill-opacity:1;stroke:none" />
    <g
       inkscape:transform-center-y="-9.4924686"
       inkscape:transform-center-x="5.4653607"
       inkscape:label="Capa 1"
       id="layer1-1-5"
       transform="translate(-513.06812,-514.07213)"
       style="fill:#ffffff;fill-opacity:1">
      <g
         id="layer1-3-2-6"
         inkscape:label="Capa 1"
         transform="translate(0.41988239,0.03484499)"
         style="fill:#ffffff;fill-opacity:1">
        <g
           style="fill:#ffffff;fill-opacity:1"
           transform="matrix(0.99296619,0,0,0.99296619,401.92095,506.77574)"
           id="g8884-2">
          <g
             style="fill:#ffffff;fill-opacity:1"
             inkscape:label="Capa 1"
             id="layer1-34-9"
             transform="translate(32.081072,-981.7279)">
            <g
               transform="matrix(0.90537551,0,0,0.90537551,-365.91682,562.06022)"
               id="layer1-0-1"
               inkscape:label="Capa 1"
               style="fill:#ffffff;fill-opacity:1;stroke:#4f96d1;stroke-opacity:1" />
            <g
               style="fill:#ffffff;fill-opacity:1"
               transform="translate(-401.01229,510.63371)"
               id="layer1-00-2"
               inkscape:label="Capa 1">
              <g
                 style="fill:#ffffff;fill-opacity:1"
                 transform="translate(5.05585,-5.251147)"
                 id="layer1-4-7"
                 inkscape:label="Capa 1">
                <g
                   transform="translate(-11.317,5.8824915)"
                   id="layer1-9-0"
                   inkscape:label="Capa 1"
                   style="fill:#ffffff;fill-opacity:1;stroke:#000000;stroke-opacity:0.8">
                  <g
                     style="fill:#ffffff;fill-opacity:1"
                     transform="translate(1.8733025,-0.28410538)"
                     id="layer1-79-9"
                     inkscape:label="Capa 1">
                    <g
                       style="fill:#ffffff;fill-opacity:1"
                       transform="translate(-2.0518724,-0.97858527)"
                       id="layer1-2-8-3"
                       inkscape:label="Capa 1">
                      <path
                         style="fill:#ffffff;fill-opacity:1;stroke:none;display:inline"
                         inkscape:connector-curvature="0"
                         d="m 472.46517,492.17042 -1.09633,0 c -0.26036,0 -0.4714,0.21106 -0.4714,0.4714 l 0,0.58667 c 0,0.26032 -0.21105,0.47139 -0.47141,0.47139 l -1.02223,0 c -0.26034,0 -0.4714,-0.21107 -0.4714,-0.47139 l 0,-0.58667 c 0,-0.26034 -0.21101,-0.4714 -0.4714,-0.4714 l -12.30814,0 c -0.26036,0 -0.4714,0.21106 -0.4714,0.4714 l 0,0.58667 c 0,0.26032 -0.21105,0.47139 -0.47139,0.47139 l -1.02225,0 c -0.26034,0 -0.4714,-0.21107 -0.4714,-0.47139 l 0,-0.58667 c 0,-0.26034 -0.21103,-0.4714 -0.47139,-0.4714 l -1.05947,0 c -0.26037,0 -0.4714,0.21106 -0.4714,0.4714 l 0,21.21304 c 0,0.26037 0.21103,0.4714 0.4714,0.4714 l 1.05947,0 c 0.26036,0 0.47139,-0.21103 0.47139,-0.4714 l 0,-0.43098 c 0,-0.26034 0.21106,-0.47139 0.4714,-0.47139 l 1.02225,0 c 0.26034,0 0.47139,0.21105 0.47139,0.47139 l 0,0.43098 c 0,0.26037 0.21104,0.4714 0.4714,0.4714 l 12.30814,0 c 0.26039,0 0.4714,-0.21103 0.4714,-0.4714 l 0,-0.43098 c 0,-0.26034 0.21106,-0.47139 0.4714,-0.47139 l 1.02223,0 c 0.26036,0 0.47141,0.21105 0.47141,0.47139 l 0,0.43098 c 0,0.26037 0.21104,0.4714 0.4714,0.4714 l 1.09633,0 c 0.26036,0 0.47141,-0.21103 0.47141,-0.4714 l 0,-21.21304 c 0,-0.26032 -0.21105,-0.4714 -0.47141,-0.4714 z m -16.78371,18.0398 c 0,0.26034 -0.21105,0.47139 -0.47139,0.47139 l -1.02225,0 c -0.26034,0 -0.4714,-0.21105 -0.4714,-0.47139 l 0,-1.02226 c 0,-0.26032 0.21106,-0.47139 0.4714,-0.47139 l 1.02225,0 c 0.26034,0 0.47139,0.21107 0.47139,0.47139 l 0,1.02226 z m 0,-4.23592 c 0,0.26032 -0.21105,0.47139 -0.47139,0.47139 l -1.02225,0 c -0.26034,0 -0.4714,-0.21107 -0.4714,-0.47139 l 0,-1.02227 c 0,-0.26032 0.21106,-0.4714 0.4714,-0.4714 l 1.02225,0 c 0.26034,0 0.47139,0.21108 0.47139,0.4714 l 0,1.02227 z m 0,-4.23594 c 0,0.26036 -0.21105,0.4714 -0.47139,0.4714 l -1.02225,0 c -0.26034,0 -0.4714,-0.21104 -0.4714,-0.4714 l 0,-1.02225 c 0,-0.26034 0.21106,-0.47139 0.4714,-0.47139 l 1.02225,0 c 0.26034,0 0.47139,0.21105 0.47139,0.47139 l 0,1.02225 z m 0,-4.23591 c 0,0.26034 -0.21105,0.47139 -0.47139,0.47139 l -1.02225,0 c -0.26034,0 -0.4714,-0.21105 -0.4714,-0.47139 l 0,-1.02223 c 0,-0.26035 0.21106,-0.47142 0.4714,-0.47142 l 1.02225,0 c 0.26034,0 0.47139,0.21107 0.47139,0.47142 l 0,1.02223 z m 11.21262,14.33168 c 0,0.26038 -0.21103,0.4714 -0.47139,0.4714 l -8.19465,0 c -0.26036,0 -0.4714,-0.21102 -0.4714,-0.4714 l 0,-3.78823 c 0,-0.26034 0.21104,-0.47139 0.4714,-0.47139 l 8.19465,0 c 0.26036,0 0.47139,0.21105 0.47139,0.47139 l 0,3.78823 0,0 z m 0,-6.69166 c 0,0.26034 -0.21103,0.47139 -0.47139,0.47139 l -8.19465,0 c -0.26036,0 -0.4714,-0.21105 -0.4714,-0.47139 l 0,-3.78823 c 0,-0.26035 0.21104,-0.4714 0.4714,-0.4714 l 8.19465,0 c 0.26036,0 0.47139,0.21105 0.47139,0.4714 l 0,3.78823 0,0 z m 0,-6.69171 c 0,0.26036 -0.21103,0.47139 -0.47139,0.47139 l -8.19465,0 c -0.26036,0 -0.4714,-0.21103 -0.4714,-0.47139 l 0,-3.78823 c 0,-0.26032 0.21104,-0.4714 0.4714,-0.4714 l 8.19465,0 c 0.26036,0 0.47139,0.21108 0.47139,0.4714 l 0,3.78823 0,0 z m 4.00338,11.75946 c 0,0.26034 -0.21105,0.47139 -0.47139,0.47139 l -1.02225,0 c -0.26034,0 -0.4714,-0.21105 -0.4714,-0.47139 l 0,-1.02226 c 0,-0.26032 0.21106,-0.47139 0.4714,-0.47139 l 1.02225,0 c 0.26034,0 0.47139,0.21107 0.47139,0.47139 l 0,1.02226 z m 0,-4.23592 c 0,0.26032 -0.21105,0.47139 -0.47139,0.47139 l -1.02225,0 c -0.26034,0 -0.4714,-0.21107 -0.4714,-0.47139 l 0,-1.02227 c 0,-0.26032 0.21106,-0.4714 0.4714,-0.4714 l 1.02225,0 c 0.26034,0 0.47139,0.21108 0.47139,0.4714 l 0,1.02227 z m 0,-4.23594 c 0,0.26036 -0.21105,0.4714 -0.47139,0.4714 l -1.02225,0 c -0.26034,0 -0.4714,-0.21104 -0.4714,-0.4714 l 0,-1.02225 c 0,-0.26034 0.21106,-0.47139 0.4714,-0.47139 l 1.02225,0 c 0.26034,0 0.47139,0.21105 0.47139,0.47139 l 0,1.02225 z m 0,-4.23591 c 0,0.26034 -0.21105,0.47139 -0.47139,0.47139 l -1.02225,0 c -0.26034,0 -0.4714,-0.21105 -0.4714,-0.47139 l 0,-1.02223 c 0,-0.26035 0.21106,-0.47142 0.4714,-0.47142 l 1.02225,0 c 0.26034,0 0.47139,0.21107 0.47139,0.47142 l 0,1.02223 z"
                         id="path14795-6" />
                    </g>
                  </g>
                </g>
              </g>
            </g>
          </g>
        </g>
      </g>
    </g>
    <g
       id="g3110"
       transform="translate(-0.00730937,-0.10202555)">
      <rect
         style="fill:#0c426b;fill-opacity:1;stroke:none"
         id="rect4162-0"
         width="44"
         height="12.700076"
         x="-46.377171"
         y="49.680756"
         ry="4.1237817" />
      <rect
         style="fill:#0c426b;fill-opacity:1;stroke:none"
         id="rect4184-6"
         width="44"
         height="13.050682"
         x="-46.377171"
         y="44.380829"
         ry="0" />
    </g>
    <text
       xml:space="preserve"
       style="font-size:13px;font-style:normal;font-weight:normal;line-height:125%;letter-spacing:0px;word-spacing:0px;fill:#ffffff;fill-opacity:1;stroke:none;font-family:Sans"
       x="-39.206257"
       y="56.665279"
       id="text3115"
       sodipodi:linespacing="125%"><tspan
         sodipodi:role="line"
         id="tspan3117"
         x="-39.206257"
         y="56.665279">mp4</tspan></text>
  </g>
</svg>
