<?xml version="1.0" encoding="UTF-8" standalone="no"?>
<svg
   xmlns:osb="http://www.openswatchbook.org/uri/2009/osb"
   xmlns:dc="http://purl.org/dc/elements/1.1/"
   xmlns:cc="http://creativecommons.org/ns#"
   xmlns:rdf="http://www.w3.org/1999/02/22-rdf-syntax-ns#"
   xmlns:svg="http://www.w3.org/2000/svg"
   xmlns="http://www.w3.org/2000/svg"
   xmlns:xlink="http://www.w3.org/1999/xlink"
   xmlns:sodipodi="http://sodipodi.sourceforge.net/DTD/sodipodi-0.dtd"
   xmlns:inkscape="http://www.inkscape.org/namespaces/inkscape"
   width="64"
   viewBox="0 0 64 64"
   height="64"
   id="svg2"
   version="1.1"
   inkscape:version="0.48.5 r10040"
   sodipodi:docname="wps-office-et.svg"
   inkscape:export-filename="E:\Usuarios\David\Desktop\android.png"
   inkscape:export-xdpi="90"
   inkscape:export-ydpi="90">
  <metadata
     id="metadata14">
    <rdf:RDF>
      <cc:Work
         rdf:about="">
        <dc:format>image/svg+xml</dc:format>
        <dc:type
           rdf:resource="http://purl.org/dc/dcmitype/StillImage" />
        <dc:title />
      </cc:Work>
    </rdf:RDF>
  </metadata>
  <defs
     id="defs12">
    <linearGradient
       osb:paint="gradient"
       id="linearGradient4207">
      <stop
         id="stop3371"
         offset="0"
         style="stop-color:#3498db;stop-opacity:1;" />
      <stop
         id="stop3373"
         offset="1"
         style="stop-color:#3498db;stop-opacity:0;" />
    </linearGradient>
    <linearGradient
       inkscape:collect="always"
       xlink:href="#linearGradient4531"
       id="linearGradient4182"
       x1="-74.929466"
       y1="52.199436"
       x2="-75.259552"
       y2="2.3564887"
       gradientUnits="userSpaceOnUse"
       gradientTransform="matrix(1.0749904,0,0,1.0292896,56.688954,-0.01528455)" />
    <linearGradient
       id="linearGradient4422-1">
      <stop
         id="stop4424-78"
         offset="0"
         style="stop-color:#8798a9;stop-opacity:1" />
      <stop
         id="stop4426-8"
         offset="1"
         style="stop-color:#aeb6be;stop-opacity:1" />
    </linearGradient>
    <linearGradient
       inkscape:collect="always"
       id="linearGradient4531">
      <stop
         style="stop-color:#32d746;stop-opacity:1"
         offset="0"
         id="stop4533" />
      <stop
         style="stop-color:#4ee27d;stop-opacity:1"
         offset="1"
         id="stop4535" />
    </linearGradient>
  </defs>
  <sodipodi:namedview
     pagecolor="#747474"
     bordercolor="#666666"
     borderopacity="1"
     objecttolerance="10"
     gridtolerance="10"
     guidetolerance="10"
     inkscape:pageopacity="1"
     inkscape:pageshadow="2"
     inkscape:window-width="1360"
     inkscape:window-height="712"
     id="namedview10"
     showgrid="false"
     inkscape:zoom="5.2716364"
     inkscape:cx="5.8130992"
     inkscape:cy="31.804318"
     inkscape:window-x="0"
     inkscape:window-y="0"
     inkscape:window-maximized="1"
     inkscape:current-layer="g4186"
     inkscape:snap-bbox="true"
     inkscape:bbox-nodes="true"
     inkscape:object-nodes="true"
     borderlayer="false"
     showguides="true"
     inkscape:snap-nodes="true"
     inkscape:object-paths="false"
     inkscape:showpageshadow="false"
     showborder="true">
    <inkscape:grid
       type="xygrid"
       id="grid4160"
       visible="true" />
    <sodipodi:guide
       position="28.888657,63.404975"
       orientation="0,35.2"
       id="guide6108" />
    <sodipodi:guide
       position="54,55.679691"
       orientation="51.200004,0"
       id="guide6112" />
    <sodipodi:guide
       position="58.527669,62"
       orientation="0,1"
       id="guide6114"
       inkscape:label=""
       inkscape:color="rgb(0,0,255)" />
    <sodipodi:guide
       position="10,4"
       orientation="-56,0"
       id="guide6116" />
    <sodipodi:guide
       position="11,4"
       orientation="-2.8421709e-014,0"
       id="guide6118" />
    <sodipodi:guide
       position="12,62"
       orientation="0,35.2"
       id="guide6120" />
    <sodipodi:guide
       position="52,2"
       orientation="0,-40"
       id="guide6126" />
    <sodipodi:guide
       position="12,62"
       orientation="0,35.2"
       id="guide6138" />
    <sodipodi:guide
       position="55,3"
       orientation="0,-40"
       id="guide6156" />
    <sodipodi:guide
       position="53,4.3973202"
       orientation="-56,0"
       id="guide6158" />
    <sodipodi:guide
       position="58.750784,51.105134"
       orientation="0,22"
       id="guide4238" />
    <sodipodi:guide
       position="43,48"
       orientation="22,0"
       id="guide4240" />
    <sodipodi:guide
       position="48.42245,28.03405"
       orientation="0,-22"
       id="guide4242" />
    <sodipodi:guide
       position="21,26"
       orientation="-22,0"
       id="guide4244" />
  </sodipodi:namedview>
  <g
     id="g4186"
     transform="translate(56.391766,-0.17677665)">
    <rect
       ry="2.5"
       y="1.6457753"
       x="-46.391766"
       height="52.831711"
       width="44"
       id="rect4174"
       style="opacity:1;fill:url(#linearGradient4182);fill-opacity:1.0;stroke:none;stroke-width:0.30000001;stroke-linecap:round;stroke-linejoin:round;stroke-miterlimit:4;stroke-dasharray:none;stroke-dashoffset:0;stroke-opacity:1" />
    <g
       id="g3093"
       transform="translate(45.011021,-2.292681)">
      <g
         transform="translate(-67.798786,1.1117706)"
         id="g3884">
        <path
           inkscape:connector-curvature="0"
           id="path4248-3"
           d="m -11.143997,36.270175 c 3.3574861,0 6.7149723,0 10.0724584,0 -9.27e-5,-7.06839 -1.853e-4,-14.136779 -2.78e-4,-21.205169 -3.659686,0.0214 -7.3279662,-0.0419 -10.9822774,0.03096 -0.933496,0.505974 -0.40286,1.764891 -0.5437,2.625543 0.0059,5.994052 -0.01127,11.988949 0.0085,17.982473 0.110763,0.677202 0.948825,0.549933 1.445295,0.566191 z"
           style="fill:#ffffff;fill-opacity:1;fill-rule:evenodd;stroke:none" />
        <path
           inkscape:connector-curvature="0"
           id="path4248-6-6"
           d="m 8.2419934,36.263683 c -1.5241063,0 -3.0482127,0 -4.572319,0 -0.781449,-0.656021 -1.562898,-1.312041 -2.344347,-1.968062 0,-5.756262 0,-11.512523 0,-17.268785 0.5354447,-0.656021 1.0708893,-1.312041 1.606334,-1.968062 1.9613265,0.01419 3.923073,-0.02907 5.8840753,0.023 0.4659108,1.061314 0.1121509,2.304538 0.2191897,3.445635 -0.010363,5.815796 0.023994,11.633378 -0.017927,17.448057 -0.095592,0.325966 -0.5082232,0.298997 -0.7750064,0.288217 z"
           style="fill:none;stroke:#efffff;stroke-width:0.70259541;stroke-linecap:butt;stroke-linejoin:miter;stroke-miterlimit:4;stroke-opacity:1;stroke-dasharray:none" />
        <path
           inkscape:connector-curvature="0"
           id="path4248-6-0-7"
           d="m 6.5088274,37.273639 c -2.8937933,-0.338008 -5.78758667,-0.676016 -8.68138,-1.014024 -5.7e-6,-7.06487 -1.13e-5,-14.129739 -1.7e-5,-21.194609 3.04538099,-0.258434 6.0848406,-0.62596 9.134224,-0.812453 1.0451031,0.430567 0.4319651,1.833279 0.592501,2.715553 -0.00485,6.350389 -0.087286,12.704528 -0.037142,19.052589 0.1012382,0.624251 -0.2497674,1.41826 -1.0081856,1.252944 z"
           style="fill:#ffffff;fill-opacity:1;fill-rule:evenodd;stroke:none" />
      </g>
      <g
         style="fill:#40dc61;fill-opacity:1"
         transform="translate(-546.14916,-513.54421)"
         id="layer1"
         inkscape:label="Capa 1"
         inkscape:transform-center-x="5.4653607"
         inkscape:transform-center-y="-9.4924686">
        <g
           style="fill:#40dc61;fill-opacity:1"
           transform="translate(0.41988239,0.03484499)"
           inkscape:label="Capa 1"
           id="layer1-3">
          <g
             style="fill:#40dc61;fill-opacity:1"
             transform="translate(-37.074403,0.97032551)"
             id="layer1-7"
             inkscape:label="Capa 1">
            <g
               style="fill:#40dc61;fill-opacity:1"
               transform="matrix(1.5263052,0,0,1.5263052,376.31698,-1040.1258)"
               id="g4231-5" />
          </g>
          <g
             id="g4400-5"
             transform="matrix(-7.3528065e-4,-0.8933959,1.2269177,-5.3540491e-4,-783.91318,538.6311)"
             style="fill:#40dc61;fill-opacity:1">
            <rect
               transform="matrix(0.9999997,-7.6878319e-4,-3.3676924e-4,0.99999994,0,0)"
               ry="0.31199998"
               rx="0"
               y="1021.9603"
               x="-7.6616564"
               height="2.2304919"
               width="5.2121005"
               id="rect4315-4-5"
               style="fill:#40dc61;fill-opacity:1;stroke:none" />
            <rect
               transform="matrix(0.99999996,-2.8909269e-4,-1.9501793e-4,0.99999998,0,0)"
               ry="0.31199998"
               rx="0"
               y="1025.1064"
               x="-7.7880254"
               height="2.2304919"
               width="8.0264168"
               id="rect4315-4-4-2-3"
               style="fill:#40dc61;fill-opacity:1;stroke:none" />
            <rect
               transform="matrix(1,-5.8462971e-5,-5.3266634e-5,1,0,0)"
               ry="0.31200001"
               rx="0"
               y="1028.3694"
               x="-7.9572124"
               height="2.2304921"
               width="10.840734"
               id="rect4315-4-4-1-5"
               style="fill:#40dc61;fill-opacity:1;stroke:none" />
          </g>
        </g>
      </g>
    </g>
    <g
       id="g3115">
      <g
         transform="matrix(1,0,0,1.6495126,0,-40.384599)"
         id="g3111">
        <rect
           ry="2.5"
           y="54.477486"
           x="-46.391766"
           height="7.6992903"
           width="44"
           id="rect4162"
           style="fill:#175e22;fill-opacity:1;stroke:none" />
        <rect
           ry="0"
           y="51.264462"
           x="-46.391766"
           height="7.9118414"
           width="44"
           id="rect4184"
           style="fill:#175e21;fill-opacity:1;stroke:none" />
      </g>
      <text
         sodipodi:linespacing="125%"
         id="text3107"
         y="57.648701"
         x="-31.142498"
         style="font-size:13px;font-style:normal;font-weight:normal;line-height:125%;letter-spacing:0px;word-spacing:0px;fill:#ffffff;fill-opacity:1;stroke:none;font-family:Sans"
         xml:space="preserve"><tspan
           y="57.648701"
           x="-31.142498"
           id="tspan3109"
           sodipodi:role="line">et</tspan></text>
    </g>
  </g>
</svg>
