<?xml version="1.0" encoding="UTF-8" standalone="no"?>
<svg
   xmlns:osb="http://www.openswatchbook.org/uri/2009/osb"
   xmlns:dc="http://purl.org/dc/elements/1.1/"
   xmlns:cc="http://creativecommons.org/ns#"
   xmlns:rdf="http://www.w3.org/1999/02/22-rdf-syntax-ns#"
   xmlns:svg="http://www.w3.org/2000/svg"
   xmlns="http://www.w3.org/2000/svg"
   xmlns:xlink="http://www.w3.org/1999/xlink"
   xmlns:sodipodi="http://sodipodi.sourceforge.net/DTD/sodipodi-0.dtd"
   xmlns:inkscape="http://www.inkscape.org/namespaces/inkscape"
   width="64"
   viewBox="0 0 64 64"
   height="64"
   id="svg2"
   version="1.1"
   inkscape:version="0.48.5 r10040"
   sodipodi:docname="wps-office-wpt.svg"
   inkscape:export-filename="E:\Usuarios\David\Desktop\android.png"
   inkscape:export-xdpi="90"
   inkscape:export-ydpi="90">
  <metadata
     id="metadata14">
    <rdf:RDF>
      <cc:Work
         rdf:about="">
        <dc:format>image/svg+xml</dc:format>
        <dc:type
           rdf:resource="http://purl.org/dc/dcmitype/StillImage" />
        <dc:title />
      </cc:Work>
    </rdf:RDF>
  </metadata>
  <defs
     id="defs12">
    <linearGradient
       osb:paint="gradient"
       id="linearGradient4207">
      <stop
         id="stop3371"
         offset="0"
         style="stop-color:#3498db;stop-opacity:1;" />
      <stop
         id="stop3373"
         offset="1"
         style="stop-color:#3498db;stop-opacity:0;" />
    </linearGradient>
    <linearGradient
       inkscape:collect="always"
       xlink:href="#linearGradient4143"
       id="linearGradient4182"
       x1="-74.929466"
       y1="52.199436"
       x2="-75.259552"
       y2="2.3564887"
       gradientUnits="userSpaceOnUse"
       gradientTransform="matrix(1.0749904,0,0,1.0292896,56.688954,-0.01528455)" />
    <linearGradient
       id="linearGradient4143"
       inkscape:collect="always">
      <stop
         id="stop4145"
         offset="0"
         style="stop-color:#197cf1;stop-opacity:1" />
      <stop
         id="stop4147"
         offset="1"
         style="stop-color:#20bcfa;stop-opacity:1" />
    </linearGradient>
    <linearGradient
       id="linearGradient4422-1">
      <stop
         id="stop4424-78"
         offset="0"
         style="stop-color:#8798a9;stop-opacity:1" />
      <stop
         id="stop4426-8"
         offset="1"
         style="stop-color:#aeb6be;stop-opacity:1" />
    </linearGradient>
    <linearGradient
       inkscape:collect="always"
       xlink:href="#linearGradient4143"
       id="linearGradient3083"
       gradientUnits="userSpaceOnUse"
       gradientTransform="matrix(1.0749904,0,0,1.0292896,113.08072,-0.1920612)"
       x1="-74.929466"
       y1="52.199436"
       x2="-75.259552"
       y2="2.3564887" />
  </defs>
  <sodipodi:namedview
     pagecolor="#747474"
     bordercolor="#666666"
     borderopacity="1"
     objecttolerance="10"
     gridtolerance="10"
     guidetolerance="10"
     inkscape:pageopacity="1"
     inkscape:pageshadow="2"
     inkscape:window-width="1360"
     inkscape:window-height="712"
     id="namedview10"
     showgrid="false"
     inkscape:zoom="4.729373"
     inkscape:cx="33.33881"
     inkscape:cy="26.014273"
     inkscape:window-x="0"
     inkscape:window-y="0"
     inkscape:window-maximized="1"
     inkscape:current-layer="svg2"
     inkscape:snap-bbox="true"
     inkscape:bbox-nodes="true"
     inkscape:object-nodes="true"
     borderlayer="false"
     showguides="true"
     inkscape:snap-nodes="true"
     inkscape:object-paths="false"
     inkscape:showpageshadow="false"
     showborder="true">
    <inkscape:grid
       type="xygrid"
       id="grid4160"
       visible="true" />
    <sodipodi:guide
       position="28.888657,63.404975"
       orientation="0,35.2"
       id="guide6108" />
    <sodipodi:guide
       position="54,55.679691"
       orientation="51.200004,0"
       id="guide6112" />
    <sodipodi:guide
       position="58.527669,62"
       orientation="0,1"
       id="guide6114"
       inkscape:label=""
       inkscape:color="rgb(0,0,255)" />
    <sodipodi:guide
       position="10,4"
       orientation="-56,0"
       id="guide6116" />
    <sodipodi:guide
       position="11,4"
       orientation="-2.8421709e-014,0"
       id="guide6118" />
    <sodipodi:guide
       position="12,62"
       orientation="0,35.2"
       id="guide6120" />
    <sodipodi:guide
       position="52,2"
       orientation="0,-40"
       id="guide6126" />
    <sodipodi:guide
       position="12,62"
       orientation="0,35.2"
       id="guide6138" />
    <sodipodi:guide
       position="55,3"
       orientation="0,-40"
       id="guide6156" />
    <sodipodi:guide
       position="53,4.3973202"
       orientation="-56,0"
       id="guide6158" />
    <sodipodi:guide
       position="61.599707,51.582279"
       orientation="0,22"
       id="guide4238" />
    <sodipodi:guide
       position="44.106586,23.772702"
       orientation="22,0"
       id="guide4240" />
    <sodipodi:guide
       position="54,28.557146"
       orientation="0,-22"
       id="guide4242" />
    <sodipodi:guide
       position="21.978536,23.772702"
       orientation="-22,0"
       id="guide4244" />
  </sodipodi:namedview>
  <rect
     style="fill:url(#linearGradient3083);fill-opacity:1;stroke:none"
     id="rect4174"
     width="44"
     height="52.831711"
     x="10"
     y="1.4689987"
     ry="2.5" />
  <g
     id="g3211"
     transform="translate(42.328334,-5.5573136)">
    <g
       transform="translate(-8.724333,3.704379)"
       id="g3884">
      <path
         inkscape:connector-curvature="0"
         id="path4248-3"
         d="m -11.143997,36.270175 c 3.3574861,0 6.7149723,0 10.0724584,0 -9.27e-5,-7.06839 -1.853e-4,-14.136779 -2.78e-4,-21.205169 -3.659686,0.0214 -7.3279662,-0.0419 -10.9822774,0.03096 -0.933496,0.505974 -0.40286,1.764891 -0.5437,2.625543 0.0059,5.994052 -0.01127,11.988949 0.0085,17.982473 0.110763,0.677202 0.948825,0.549933 1.445295,0.566191 z"
         style="fill:#ffffff;fill-opacity:1;fill-rule:evenodd;stroke:none" />
      <path
         inkscape:connector-curvature="0"
         id="path4248-6-6"
         d="m 8.2419934,36.263683 c -1.5241063,0 -3.0482127,0 -4.572319,0 -0.781449,-0.656021 -1.562898,-1.312041 -2.344347,-1.968062 0,-5.756262 0,-11.512523 0,-17.268785 0.5354447,-0.656021 1.0708893,-1.312041 1.606334,-1.968062 1.9613265,0.01419 3.923073,-0.02907 5.8840753,0.023 0.4659108,1.061314 0.1121509,2.304538 0.2191897,3.445635 -0.010363,5.815796 0.023994,11.633378 -0.017927,17.448057 -0.095592,0.325966 -0.5082232,0.298997 -0.7750064,0.288217 z"
         style="fill:none;stroke:#efffff;stroke-width:0.70259541;stroke-linecap:butt;stroke-linejoin:miter;stroke-miterlimit:4;stroke-opacity:1;stroke-dasharray:none" />
      <path
         inkscape:connector-curvature="0"
         id="path4248-6-0-7"
         d="m 6.5088274,37.273639 c -2.8937933,-0.338008 -5.78758667,-0.676016 -8.68138,-1.014024 -5.7e-6,-7.06487 -1.13e-5,-14.129739 -1.7e-5,-21.194609 3.04538099,-0.258434 6.0848406,-0.62596 9.134224,-0.812453 1.0451031,0.430567 0.4319651,1.833279 0.592501,2.715553 -0.00485,6.350389 -0.087286,12.704528 -0.037142,19.052589 0.1012382,0.624251 -0.2497674,1.41826 -1.0081856,1.252944 z"
         style="fill:#ffffff;fill-opacity:1;fill-rule:evenodd;stroke:none" />
    </g>
    <g
       style="fill:#1d9df6;fill-opacity:1"
       transform="matrix(1.1292733,0,0,1.1292733,-102.70981,-1.9829053)"
       id="g3205">
      <rect
         style="fill:#1d9df6;fill-opacity:1;fill-rule:nonzero;stroke:#ffffff;stroke-width:0;stroke-miterlimit:4;stroke-opacity:1;stroke-dasharray:none"
         id="rect3197"
         width="10.298882"
         height="1.9306954"
         x="75.93956"
         y="23.389399"
         ry="0" />
      <rect
         ry="0"
         y="25.764801"
         x="75.975075"
         height="1.9306954"
         width="10.298882"
         id="rect3199"
         style="fill:#1d9df6;fill-opacity:1;fill-rule:nonzero;stroke:#ffffff;stroke-width:0;stroke-miterlimit:4;stroke-opacity:1;stroke-dasharray:none" />
      <rect
         style="fill:#1d9df6;fill-opacity:1;fill-rule:nonzero;stroke:#ffffff;stroke-width:0;stroke-miterlimit:4;stroke-opacity:1;stroke-dasharray:none"
         id="rect3201"
         width="10.298882"
         height="1.9306954"
         x="76.012451"
         y="28.082266"
         ry="0" />
      <rect
         ry="0"
         y="30.399731"
         x="76.049828"
         height="1.9306954"
         width="10.298882"
         id="rect3203"
         style="fill:#1d9df6;fill-opacity:1;fill-rule:nonzero;stroke:#ffffff;stroke-width:0;stroke-miterlimit:4;stroke-opacity:1;stroke-dasharray:none" />
    </g>
  </g>
  <g
     id="g3230">
    <g
       transform="matrix(1,0,0,1.6495126,0,-40.26978)"
       id="g3222">
      <rect
         style="fill:#0b3969;fill-opacity:1;stroke:none"
         id="rect4162"
         width="44"
         height="7.6992903"
         x="10"
         y="54.300709"
         ry="2.5" />
      <rect
         style="fill:#0b3969;fill-opacity:1;stroke:none"
         id="rect4184"
         width="44"
         height="7.9118414"
         x="10"
         y="51.087685"
         ry="0" />
    </g>
    <text
       sodipodi:linespacing="125%"
       id="text3226"
       y="56.211914"
       x="19.888672"
       style="font-size:13px;font-style:normal;font-weight:normal;line-height:125%;letter-spacing:0px;word-spacing:0px;fill:#ffffff;fill-opacity:1;stroke:none;font-family:Sans"
       xml:space="preserve"><tspan
         y="56.211914"
         x="19.888672"
         id="tspan3228"
         sodipodi:role="line">wpt</tspan></text>
  </g>
</svg>
